MA6813400180,h_OCHCTP,13-L1-1,2019-02-06 18:15:00.0,Qmin,9.09,CHCGILDTO6Y
MA6813400180,h_OCHCTP,13-L1-1,2019-02-06 18:15:00.0,PhaseCorrectionAve,2.92e-07,CHCGILDTO6Y
MA6813400180,h_OCHCTP,13-L1-1,2019-02-06 18:15:00.0,BerPreFecMax,0.0022,CHCGILDTO6Y
MA6813400180,h_OCHCTP,13-L1-1,2019-02-06 18:15:00.0,PmdMin,1.11,CHCGILDTO6Y
MA6813400180,h_OCHCTP,13-L1-1,2019-02-06 18:15:00.0,SoPmdAve,3586.83,CHCGILDTO6Y
MA6813400180,h_OCHCTP,13-L1-1,2019-02-06 18:30:00.0,Qmin,9.18,CHCGILDTO6Y
MA6813400180,h_OCHCTP,13-L1-1,2019-02-06 18:30:00.0,PhaseCorrectionAve,2.63e-07,CHCGILDTO6Y
MA6813400180,h_OCHCTP,13-L1-1,2019-02-06 18:30:00.0,BerPreFecMax,0.002,CHCGILDTO6Y
MA6813400180,h_OCHCTP,13-L1-1,2019-02-06 18:30:00.0,PmdMin,1.22,CHCGILDTO6Y
MA6813400180,h_OCHCTP,13-L1-1,2019-02-06 18:30:00.0,SoPmdAve,3564.63,CHCGILDTO6Y
MA6813400180,h_OCHCTP,13-L1-1,2019-02-06 18:45:00.0,Qmin,9.14,CHCGILDTO6Y
MA6813400180,h_OCHCTP,13-L1-1,2019-02-06 18:45:00.0,PhaseCorrectionAve,2.68e-07,CHCGILDTO6Y
MA6813400180,h_OCHCTP,13-L1-1,2019-02-06 18:45:00.0,BerPreFecMax,0.00208,CHCGILDTO6Y
MA6813400180,h_OCHCTP,13-L1-1,2019-02-06 18:45:00.0,PmdMin,0.888,CHCGILDTO6Y
MA6813400180,h_OCHCTP,13-L1-1,2019-02-06 18:45:00.0,SoPmdAve,3494.5,CHCGILDTO6Y
MA6813400180,h_OCHCTP,13-L1-2,2019-02-06 18:15:00.0,Qmin,9.12,CHCGILDTO6Y
MA6813400180,h_OCHCTP,13-L1-2,2019-02-06 18:15:00.0,PhaseCorrectionAve,-0.061,CHCGILDTO6Y
MA6813400180,h_OCHCTP,13-L1-2,2019-02-06 18:15:00.0,BerPreFecMax,0.00213,CHCGILDTO6Y
MA6813400180,h_OCHCTP,13-L1-2,2019-02-06 18:15:00.0,PmdMin,1.36,CHCGILDTO6Y
MA6813400180,h_OCHCTP,13-L1-2,2019-02-06 18:15:00.0,SoPmdAve,3467.63,CHCGILDTO6Y
MA6813400180,h_OCHCTP,13-L1-2,2019-02-06 18:30:00.0,Qmin,9.1,CHCGILDTO6Y
MA6813400180,h_OCHCTP,13-L1-2,2019-02-06 18:30:00.0,PhaseCorrectionAve,3.82e-07,CHCGILDTO6Y
MA6813400180,h_OCHCTP,13-L1-2,2019-02-06 18:30:00.0,BerPreFecMax,0.00219,CHCGILDTO6Y
MA6813400180,h_OCHCTP,13-L1-2,2019-02-06 18:30:00.0,PmdMin,0.611,CHCGILDTO6Y
MA6813400180,h_OCHCTP,13-L1-2,2019-02-06 18:30:00.0,SoPmdAve,3571.84,CHCGILDTO6Y
MA6813400180,h_OCHCTP,13-L1-2,2019-02-06 18:45:00.0,Qmin,9.12,CHCGILDTO6Y
MA6813400180,h_OCHCTP,13-L1-2,2019-02-06 18:45:00.0,PhaseCorrectionAve,-0.061,CHCGILDTO6Y
MA6813400180,h_OCHCTP,13-L1-2,2019-02-06 18:45:00.0,BerPreFecMax,0.00212,CHCGILDTO6Y
MA6813400180,h_OCHCTP,13-L1-2,2019-02-06 18:45:00.0,PmdMin,0.578,CHCGILDTO6Y
MA6813400180,h_OCHCTP,13-L1-2,2019-02-06 18:45:00.0,SoPmdAve,3477.93,CHCGILDTO6Y
MA6813400180,h_OCHCTP,13-L1-3,2019-02-06 18:15:00.0,Qmin,8.91,CHCGILDTO6Y
MA6813400180,h_OCHCTP,13-L1-3,2019-02-06 18:15:00.0,PhaseCorrectionAve,-0.061,CHCGILDTO6Y
MA6813400180,h_OCHCTP,13-L1-3,2019-02-06 18:15:00.0,BerPreFecMax,0.00265,CHCGILDTO6Y
MA6813400180,h_OCHCTP,13-L1-3,2019-02-06 18:15:00.0,PmdMin,0.613,CHCGILDTO6Y
MA6813400180,h_OCHCTP,13-L1-3,2019-02-06 18:15:00.0,SoPmdAve,2912.09,CHCGILDTO6Y
MA6813400180,h_OCHCTP,13-L1-3,2019-02-06 18:30:00.0,Qmin,8.88,CHCGILDTO6Y
MA6813400180,h_OCHCTP,13-L1-3,2019-02-06 18:30:00.0,PhaseCorrectionAve,5.46e-07,CHCGILDTO6Y
MA6813400180,h_OCHCTP,13-L1-3,2019-02-06 18:30:00.0,BerPreFecMax,0.00273,CHCGILDTO6Y
MA6813400180,h_OCHCTP,13-L1-3,2019-02-06 18:30:00.0,PmdMin,0.799,CHCGILDTO6Y
MA6813400180,h_OCHCTP,13-L1-3,2019-02-06 18:30:00.0,SoPmdAve,2865.9,CHCGILDTO6Y
MA6813400180,h_OCHCTP,13-L1-3,2019-02-06 18:45:00.0,Qmin,8.96,CHCGILDTO6Y
MA6813400180,h_OCHCTP,13-L1-3,2019-02-06 18:45:00.0,PhaseCorrectionAve,-0.122,CHCGILDTO6Y
MA6813400180,h_OCHCTP,13-L1-3,2019-02-06 18:45:00.0,BerPreFecMax,0.00251,CHCGILDTO6Y
MA6813400180,h_OCHCTP,13-L1-3,2019-02-06 18:45:00.0,PmdMin,0.845,CHCGILDTO6Y
MA6813400180,h_OCHCTP,13-L1-3,2019-02-06 18:45:00.0,SoPmdAve,2879.05,CHCGILDTO6Y
MA6813400180,h_OCHCTP,13-L1-4,2019-02-06 18:15:00.0,Qmin,8.71,CHCGILDTO6Y
MA6813400180,h_OCHCTP,13-L1-4,2019-02-06 18:15:00.0,PhaseCorrectionAve,-0.061,CHCGILDTO6Y
MA6813400180,h_OCHCTP,13-L1-4,2019-02-06 18:15:00.0,BerPreFecMax,0.0032,CHCGILDTO6Y
MA6813400180,h_OCHCTP,13-L1-4,2019-02-06 18:15:00.0,PmdMin,1.05,CHCGILDTO6Y
MA6813400180,h_OCHCTP,13-L1-4,2019-02-06 18:15:00.0,SoPmdAve,3354.11,CHCGILDTO6Y
MA6813400180,h_OCHCTP,13-L1-4,2019-02-06 18:30:00.0,Qmin,8.67,CHCGILDTO6Y
MA6813400180,h_OCHCTP,13-L1-4,2019-02-06 18:30:00.0,PhaseCorrectionAve,-0.061,CHCGILDTO6Y
MA6813400180,h_OCHCTP,13-L1-4,2019-02-06 18:30:00.0,BerPreFecMax,0.00333,CHCGILDTO6Y
MA6813400180,h_OCHCTP,13-L1-4,2019-02-06 18:30:00.0,PmdMin,1.03,CHCGILDTO6Y
MA6813400180,h_OCHCTP,13-L1-4,2019-02-06 18:30:00.0,SoPmdAve,3399.35,CHCGILDTO6Y
MA6813400180,h_OCHCTP,13-L1-4,2019-02-06 18:45:00.0,Qmin,8.74,CHCGILDTO6Y
MA6813400180,h_OCHCTP,13-L1-4,2019-02-06 18:45:00.0,PhaseCorrectionAve,-0.122,CHCGILDTO6Y
MA6813400180,h_OCHCTP,13-L1-4,2019-02-06 18:45:00.0,BerPreFecMax,0.00311,CHCGILDTO6Y
MA6813400180,h_OCHCTP,13-L1-4,2019-02-06 18:45:00.0,PmdMin,1.47,CHCGILDTO6Y
MA6813400180,h_OCHCTP,13-L1-4,2019-02-06 18:45:00.0,SoPmdAve,3254.17,CHCGILDTO6Y
MA6813400180,h_OCHCTP,13-L1-5,2019-02-06 18:15:00.0,Qmin,8.68,CHCGILDTO6Y
MA6813400180,h_OCHCTP,13-L1-5,2019-02-06 18:15:00.0,PhaseCorrectionAve,-0.061,CHCGILDTO6Y
MA6813400180,h_OCHCTP,13-L1-5,2019-02-06 18:15:00.0,BerPreFecMax,0.00332,CHCGILDTO6Y
MA6813400180,h_OCHCTP,13-L1-5,2019-02-06 18:15:00.0,PmdMin,0.79,CHCGILDTO6Y
MA6813400180,h_OCHCTP,13-L1-5,2019-02-06 18:15:00.0,SoPmdAve,2855.69,CHCGILDTO6Y
MA6813400180,h_OCHCTP,13-L1-5,2019-02-06 18:30:00.0,Qmin,8.73,CHCGILDTO6Y
MA6813400180,h_OCHCTP,13-L1-5,2019-02-06 18:30:00.0,PhaseCorrectionAve,-0.061,CHCGILDTO6Y
MA6813400180,h_OCHCTP,13-L1-5,2019-02-06 18:30:00.0,BerPreFecMax,0.00313,CHCGILDTO6Y
MA6813400180,h_OCHCTP,13-L1-5,2019-02-06 18:30:00.0,PmdMin,0.298,CHCGILDTO6Y
MA6813400180,h_OCHCTP,13-L1-5,2019-02-06 18:30:00.0,SoPmdAve,2885.27,CHCGILDTO6Y
MA6813400180,h_OCHCTP,13-L1-5,2019-02-06 18:45:00.0,Qmin,8.7,CHCGILDTO6Y
MA6813400180,h_OCHCTP,13-L1-5,2019-02-06 18:45:00.0,PhaseCorrectionAve,-0.122,CHCGILDTO6Y
MA6813400180,h_OCHCTP,13-L1-5,2019-02-06 18:45:00.0,BerPreFecMax,0.00323,CHCGILDTO6Y
MA6813400180,h_OCHCTP,13-L1-5,2019-02-06 18:45:00.0,PmdMin,0.568,CHCGILDTO6Y
MA6813400180,h_OCHCTP,13-L1-5,2019-02-06 18:45:00.0,SoPmdAve,2892.22,CHCGILDTO6Y
MA6813400180,h_OCHCTP,13-L1-6,2019-02-06 18:15:00.0,Qmin,8.77,CHCGILDTO6Y
MA6813400180,h_OCHCTP,13-L1-6,2019-02-06 18:15:00.0,PhaseCorrectionAve,-0.061,CHCGILDTO6Y
MA6813400180,h_OCHCTP,13-L1-6,2019-02-06 18:15:00.0,BerPreFecMax,0.00303,CHCGILDTO6Y
MA6813400180,h_OCHCTP,13-L1-6,2019-02-06 18:15:00.0,PmdMin,1.05,CHCGILDTO6Y
MA6813400180,h_OCHCTP,13-L1-6,2019-02-06 18:15:00.0,SoPmdAve,3069.01,CHCGILDTO6Y
MA6813400180,h_OCHCTP,13-L1-6,2019-02-06 18:30:00.0,Qmin,8.69,CHCGILDTO6Y
MA6813400180,h_OCHCTP,13-L1-6,2019-02-06 18:30:00.0,PhaseCorrectionAve,-0.183,CHCGILDTO6Y
MA6813400180,h_OCHCTP,13-L1-6,2019-02-06 18:30:00.0,BerPreFecMax,0.00327,CHCGILDTO6Y
MA6813400180,h_OCHCTP,13-L1-6,2019-02-06 18:30:00.0,PmdMin,1.1,CHCGILDTO6Y
MA6813400180,h_OCHCTP,13-L1-6,2019-02-06 18:30:00.0,SoPmdAve,3039.27,CHCGILDTO6Y
MA6813400180,h_OCHCTP,13-L1-6,2019-02-06 18:45:00.0,Qmin,8.7,CHCGILDTO6Y
MA6813400180,h_OCHCTP,13-L1-6,2019-02-06 18:45:00.0,PhaseCorrectionAve,-0.122,CHCGILDTO6Y
MA6813400180,h_OCHCTP,13-L1-6,2019-02-06 18:45:00.0,BerPreFecMax,0.00322,CHCGILDTO6Y
MA6813400180,h_OCHCTP,13-L1-6,2019-02-06 18:45:00.0,PmdMin,1.51,CHCGILDTO6Y
MA6813400180,h_OCHCTP,13-L1-6,2019-02-06 18:45:00.0,SoPmdAve,3051.66,CHCGILDTO6Y
MA6813400180,h_OCHCTP,13-L1-7,2019-02-06 18:15:00.0,Qmin,8.73,CHCGILDTO6Y
MA6813400180,h_OCHCTP,13-L1-7,2019-02-06 18:15:00.0,PhaseCorrectionAve,-0.061,CHCGILDTO6Y
MA6813400180,h_OCHCTP,13-L1-7,2019-02-06 18:15:00.0,BerPreFecMax,0.00314,CHCGILDTO6Y
MA6813400180,h_OCHCTP,13-L1-7,2019-02-06 18:15:00.0,PmdMin,0.383,CHCGILDTO6Y
MA6813400180,h_OCHCTP,13-L1-7,2019-02-06 18:15:00.0,SoPmdAve,3621.93,CHCGILDTO6Y
MA6813400180,h_OCHCTP,13-L1-7,2019-02-06 18:30:00.0,Qmin,8.75,CHCGILDTO6Y
MA6813400180,h_OCHCTP,13-L1-7,2019-02-06 18:30:00.0,PhaseCorrectionAve,-0.183,CHCGILDTO6Y
MA6813400180,h_OCHCTP,13-L1-7,2019-02-06 18:30:00.0,BerPreFecMax,0.00307,CHCGILDTO6Y
MA6813400180,h_OCHCTP,13-L1-7,2019-02-06 18:30:00.0,PmdMin,0.384,CHCGILDTO6Y
MA6813400180,h_OCHCTP,13-L1-7,2019-02-06 18:30:00.0,SoPmdAve,3736.48,CHCGILDTO6Y
MA6813400180,h_OCHCTP,13-L1-7,2019-02-06 18:45:00.0,Qmin,8.73,CHCGILDTO6Y
MA6813400180,h_OCHCTP,13-L1-7,2019-02-06 18:45:00.0,PhaseCorrectionAve,-0.122,CHCGILDTO6Y
MA6813400180,h_OCHCTP,13-L1-7,2019-02-06 18:45:00.0,BerPreFecMax,0.00316,CHCGILDTO6Y
MA6813400180,h_OCHCTP,13-L1-7,2019-02-06 18:45:00.0,PmdMin,0.824,CHCGILDTO6Y
MA6813400180,h_OCHCTP,13-L1-7,2019-02-06 18:45:00.0,SoPmdAve,3722.05,CHCGILDTO6Y
MA6813400180,h_OCHCTP,13-L1-8,2019-02-06 18:15:00.0,Qmin,8.8,CHCGILDTO6Y
MA6813400180,h_OCHCTP,13-L1-8,2019-02-06 18:15:00.0,PhaseCorrectionAve,-0.122,CHCGILDTO6Y
MA6813400180,h_OCHCTP,13-L1-8,2019-02-06 18:15:00.0,BerPreFecMax,0.00294,CHCGILDTO6Y
MA6813400180,h_OCHCTP,13-L1-8,2019-02-06 18:15:00.0,PmdMin,1.14,CHCGILDTO6Y
MA6813400180,h_OCHCTP,13-L1-8,2019-02-06 18:15:00.0,SoPmdAve,3746.76,CHCGILDTO6Y
MA6813400180,h_OCHCTP,13-L1-8,2019-02-06 18:30:00.0,Qmin,8.84,CHCGILDTO6Y
MA6813400180,h_OCHCTP,13-L1-8,2019-02-06 18:30:00.0,PhaseCorrectionAve,-0.244,CHCGILDTO6Y
MA6813400180,h_OCHCTP,13-L1-8,2019-02-06 18:30:00.0,BerPreFecMax,0.00284,CHCGILDTO6Y
MA6813400180,h_OCHCTP,13-L1-8,2019-02-06 18:30:00.0,PmdMin,1.04,CHCGILDTO6Y
MA6813400180,h_OCHCTP,13-L1-8,2019-02-06 18:30:00.0,SoPmdAve,3899.7,CHCGILDTO6Y
MA6813400180,h_OCHCTP,13-L1-8,2019-02-06 18:45:00.0,Qmin,8.79,CHCGILDTO6Y
MA6813400180,h_OCHCTP,13-L1-8,2019-02-06 18:45:00.0,PhaseCorrectionAve,-0.122,CHCGILDTO6Y
MA6813400180,h_OCHCTP,13-L1-8,2019-02-06 18:45:00.0,BerPreFecMax,0.00297,CHCGILDTO6Y
MA6813400180,h_OCHCTP,13-L1-8,2019-02-06 18:45:00.0,PmdMin,0.67,CHCGILDTO6Y
MA6813400180,h_OCHCTP,13-L1-8,2019-02-06 18:45:00.0,SoPmdAve,3737.03,CHCGILDTO6Y
MA6813400180,h_OCHCTP,13-L1-9,2019-02-06 18:15:00.0,Qmin,8.7,CHCGILDTO6Y
MA6813400180,h_OCHCTP,13-L1-9,2019-02-06 18:15:00.0,PhaseCorrectionAve,-0.122,CHCGILDTO6Y
MA6813400180,h_OCHCTP,13-L1-9,2019-02-06 18:15:00.0,BerPreFecMax,0.00324,CHCGILDTO6Y
MA6813400180,h_OCHCTP,13-L1-9,2019-02-06 18:15:00.0,PmdMin,0.681,CHCGILDTO6Y
MA6813400180,h_OCHCTP,13-L1-9,2019-02-06 18:15:00.0,SoPmdAve,3457.87,CHCGILDTO6Y
MA6813400180,h_OCHCTP,13-L1-9,2019-02-06 18:30:00.0,Qmin,8.72,CHCGILDTO6Y
MA6813400180,h_OCHCTP,13-L1-9,2019-02-06 18:30:00.0,PhaseCorrectionAve,-0.244,CHCGILDTO6Y
MA6813400180,h_OCHCTP,13-L1-9,2019-02-06 18:30:00.0,BerPreFecMax,0.00316,CHCGILDTO6Y
MA6813400180,h_OCHCTP,13-L1-9,2019-02-06 18:30:00.0,PmdMin,1.14,CHCGILDTO6Y
MA6813400180,h_OCHCTP,13-L1-9,2019-02-06 18:30:00.0,SoPmdAve,3497.6,CHCGILDTO6Y
MA6813400180,h_OCHCTP,13-L1-9,2019-02-06 18:45:00.0,Qmin,8.74,CHCGILDTO6Y
MA6813400180,h_OCHCTP,13-L1-9,2019-02-06 18:45:00.0,PhaseCorrectionAve,-0.183,CHCGILDTO6Y
MA6813400180,h_OCHCTP,13-L1-9,2019-02-06 18:45:00.0,BerPreFecMax,0.00312,CHCGILDTO6Y
MA6813400180,h_OCHCTP,13-L1-9,2019-02-06 18:45:00.0,PmdMin,1.68,CHCGILDTO6Y
MA6813400180,h_OCHCTP,13-L1-9,2019-02-06 18:45:00.0,SoPmdAve,3552.54,CHCGILDTO6Y
MA6813400180,h_OCHCTP,13-L1-10,2019-02-06 18:15:00.0,Qmin,8.55,CHCGILDTO6Y
MA6813400180,h_OCHCTP,13-L1-10,2019-02-06 18:15:00.0,PhaseCorrectionAve,-0.122,CHCGILDTO6Y
MA6813400180,h_OCHCTP,13-L1-10,2019-02-06 18:15:00.0,BerPreFecMax,0.00374,CHCGILDTO6Y
MA6813400180,h_OCHCTP,13-L1-10,2019-02-06 18:15:00.0,PmdMin,1.1,CHCGILDTO6Y
MA6813400180,h_OCHCTP,13-L1-10,2019-02-06 18:15:00.0,SoPmdAve,3813.27,CHCGILDTO6Y
MA6813400180,h_OCHCTP,13-L1-10,2019-02-06 18:30:00.0,Qmin,8.7,CHCGILDTO6Y
MA6813400180,h_OCHCTP,13-L1-10,2019-02-06 18:30:00.0,PhaseCorrectionAve,-0.427,CHCGILDTO6Y
MA6813400180,h_OCHCTP,13-L1-10,2019-02-06 18:30:00.0,BerPreFecMax,0.00324,CHCGILDTO6Y
MA6813400180,h_OCHCTP,13-L1-10,2019-02-06 18:30:00.0,PmdMin,0.809,CHCGILDTO6Y
MA6813400180,h_OCHCTP,13-L1-10,2019-02-06 18:30:00.0,SoPmdAve,3871.65,CHCGILDTO6Y
MA6813400180,h_OCHCTP,13-L1-10,2019-02-06 18:45:00.0,Qmin,8.59,CHCGILDTO6Y
MA6813400180,h_OCHCTP,13-L1-10,2019-02-06 18:45:00.0,PhaseCorrectionAve,-0.244,CHCGILDTO6Y
MA6813400180,h_OCHCTP,13-L1-10,2019-02-06 18:45:00.0,BerPreFecMax,0.0036,CHCGILDTO6Y
MA6813400180,h_OCHCTP,13-L1-10,2019-02-06 18:45:00.0,PmdMin,0.696,CHCGILDTO6Y
MA6813400180,h_OCHCTP,13-L1-10,2019-02-06 18:45:00.0,SoPmdAve,3934.17,CHCGILDTO6Y
MA6813400180,h_OCHCTP,11-L1-1,2019-02-06 18:15:00.0,Qmin,9.06,CHCGILDTO6Y
MA6813400180,h_OCHCTP,11-L1-1,2019-02-06 18:15:00.0,PhaseCorrectionAve,1.82e-07,CHCGILDTO6Y
MA6813400180,h_OCHCTP,11-L1-1,2019-02-06 18:15:00.0,BerPreFecMax,0.00228,CHCGILDTO6Y
MA6813400180,h_OCHCTP,11-L1-1,2019-02-06 18:15:00.0,PmdMin,0.497,CHCGILDTO6Y
MA6813400180,h_OCHCTP,11-L1-1,2019-02-06 18:15:00.0,SoPmdAve,3419.13,CHCGILDTO6Y
MA6813400180,h_OCHCTP,11-L1-1,2019-02-06 18:30:00.0,Qmin,9.15,CHCGILDTO6Y
MA6813400180,h_OCHCTP,11-L1-1,2019-02-06 18:30:00.0,PhaseCorrectionAve,1.41e-07,CHCGILDTO6Y
MA6813400180,h_OCHCTP,11-L1-1,2019-02-06 18:30:00.0,BerPreFecMax,0.00206,CHCGILDTO6Y
MA6813400180,h_OCHCTP,11-L1-1,2019-02-06 18:30:00.0,PmdMin,1.24,CHCGILDTO6Y
MA6813400180,h_OCHCTP,11-L1-1,2019-02-06 18:30:00.0,SoPmdAve,3394.93,CHCGILDTO6Y
MA6813400180,h_OCHCTP,11-L1-1,2019-02-06 18:45:00.0,Qmin,9.14,CHCGILDTO6Y
MA6813400180,h_OCHCTP,11-L1-1,2019-02-06 18:45:00.0,PhaseCorrectionAve,1.41e-07,CHCGILDTO6Y
MA6813400180,h_OCHCTP,11-L1-1,2019-02-06 18:45:00.0,BerPreFecMax,0.00208,CHCGILDTO6Y
MA6813400180,h_OCHCTP,11-L1-1,2019-02-06 18:45:00.0,PmdMin,0.994,CHCGILDTO6Y
MA6813400180,h_OCHCTP,11-L1-1,2019-02-06 18:45:00.0,SoPmdAve,3340.49,CHCGILDTO6Y
MA6813400180,h_OCHCTP,11-L1-2,2019-02-06 18:15:00.0,Qmin,9.01,CHCGILDTO6Y
MA6813400180,h_OCHCTP,11-L1-2,2019-02-06 18:15:00.0,PhaseCorrectionAve,5e-07,CHCGILDTO6Y
MA6813400180,h_OCHCTP,11-L1-2,2019-02-06 18:15:00.0,BerPreFecMax,0.0024,CHCGILDTO6Y
MA6813400180,h_OCHCTP,11-L1-2,2019-02-06 18:15:00.0,PmdMin,0.77,CHCGILDTO6Y
MA6813400180,h_OCHCTP,11-L1-2,2019-02-06 18:15:00.0,SoPmdAve,3153.26,CHCGILDTO6Y
MA6813400180,h_OCHCTP,11-L1-2,2019-02-06 18:30:00.0,Qmin,9.03,CHCGILDTO6Y
MA6813400180,h_OCHCTP,11-L1-2,2019-02-06 18:30:00.0,PhaseCorrectionAve,-0.183,CHCGILDTO6Y
MA6813400180,h_OCHCTP,11-L1-2,2019-02-06 18:30:00.0,BerPreFecMax,0.00233,CHCGILDTO6Y
MA6813400180,h_OCHCTP,11-L1-2,2019-02-06 18:30:00.0,PmdMin,0.848,CHCGILDTO6Y
MA6813400180,h_OCHCTP,11-L1-2,2019-02-06 18:30:00.0,SoPmdAve,3175.54,CHCGILDTO6Y
MA6813400180,h_OCHCTP,11-L1-2,2019-02-06 18:45:00.0,Qmin,9.05,CHCGILDTO6Y
MA6813400180,h_OCHCTP,11-L1-2,2019-02-06 18:45:00.0,PhaseCorrectionAve,4.65e-07,CHCGILDTO6Y
MA6813400180,h_OCHCTP,11-L1-2,2019-02-06 18:45:00.0,BerPreFecMax,0.0023,CHCGILDTO6Y
MA6813400180,h_OCHCTP,11-L1-2,2019-02-06 18:45:00.0,PmdMin,0.858,CHCGILDTO6Y
MA6813400180,h_OCHCTP,11-L1-2,2019-02-06 18:45:00.0,SoPmdAve,3158.12,CHCGILDTO6Y
MA6813400180,h_OCHCTP,11-L1-3,2019-02-06 18:15:00.0,Qmin,8.94,CHCGILDTO6Y
MA6813400180,h_OCHCTP,11-L1-3,2019-02-06 18:15:00.0,PhaseCorrectionAve,-0.061,CHCGILDTO6Y
MA6813400180,h_OCHCTP,11-L1-3,2019-02-06 18:15:00.0,BerPreFecMax,0.00255,CHCGILDTO6Y
MA6813400180,h_OCHCTP,11-L1-3,2019-02-06 18:15:00.0,PmdMin,1.04,CHCGILDTO6Y
MA6813400180,h_OCHCTP,11-L1-3,2019-02-06 18:15:00.0,SoPmdAve,2707.07,CHCGILDTO6Y
MA6813400180,h_OCHCTP,11-L1-3,2019-02-06 18:30:00.0,Qmin,8.87,CHCGILDTO6Y
MA6813400180,h_OCHCTP,11-L1-3,2019-02-06 18:30:00.0,PhaseCorrectionAve,-0.183,CHCGILDTO6Y
MA6813400180,h_OCHCTP,11-L1-3,2019-02-06 18:30:00.0,BerPreFecMax,0.00275,CHCGILDTO6Y
MA6813400180,h_OCHCTP,11-L1-3,2019-02-06 18:30:00.0,PmdMin,1.03,CHCGILDTO6Y
MA6813400180,h_OCHCTP,11-L1-3,2019-02-06 18:30:00.0,SoPmdAve,2708.06,CHCGILDTO6Y
MA6813400180,h_OCHCTP,11-L1-3,2019-02-06 18:45:00.0,Qmin,8.96,CHCGILDTO6Y
MA6813400180,h_OCHCTP,11-L1-3,2019-02-06 18:45:00.0,PhaseCorrectionAve,3.46e-07,CHCGILDTO6Y
MA6813400180,h_OCHCTP,11-L1-3,2019-02-06 18:45:00.0,BerPreFecMax,0.00251,CHCGILDTO6Y
MA6813400180,h_OCHCTP,11-L1-3,2019-02-06 18:45:00.0,PmdMin,0.956,CHCGILDTO6Y
MA6813400180,h_OCHCTP,11-L1-3,2019-02-06 18:45:00.0,SoPmdAve,2688.15,CHCGILDTO6Y
MA6813400180,h_OCHCTP,11-L1-4,2019-02-06 18:15:00.0,Qmin,8.76,CHCGILDTO6Y
MA6813400180,h_OCHCTP,11-L1-4,2019-02-06 18:15:00.0,PhaseCorrectionAve,-0.061,CHCGILDTO6Y
MA6813400180,h_OCHCTP,11-L1-4,2019-02-06 18:15:00.0,BerPreFecMax,0.00306,CHCGILDTO6Y
MA6813400180,h_OCHCTP,11-L1-4,2019-02-06 18:15:00.0,PmdMin,0.987,CHCGILDTO6Y
MA6813400180,h_OCHCTP,11-L1-4,2019-02-06 18:15:00.0,SoPmdAve,2989.96,CHCGILDTO6Y
MA6813400180,h_OCHCTP,11-L1-4,2019-02-06 18:30:00.0,Qmin,8.73,CHCGILDTO6Y
MA6813400180,h_OCHCTP,11-L1-4,2019-02-06 18:30:00.0,PhaseCorrectionAve,-0.183,CHCGILDTO6Y
MA6813400180,h_OCHCTP,11-L1-4,2019-02-06 18:30:00.0,BerPreFecMax,0.00315,CHCGILDTO6Y
MA6813400180,h_OCHCTP,11-L1-4,2019-02-06 18:30:00.0,PmdMin,0.8,CHCGILDTO6Y
MA6813400180,h_OCHCTP,11-L1-4,2019-02-06 18:30:00.0,SoPmdAve,3016.38,CHCGILDTO6Y
MA6813400180,h_OCHCTP,11-L1-4,2019-02-06 18:45:00.0,Qmin,8.79,CHCGILDTO6Y
MA6813400180,h_OCHCTP,11-L1-4,2019-02-06 18:45:00.0,PhaseCorrectionAve,4.46e-07,CHCGILDTO6Y
MA6813400180,h_OCHCTP,11-L1-4,2019-02-06 18:45:00.0,BerPreFecMax,0.00298,CHCGILDTO6Y
MA6813400180,h_OCHCTP,11-L1-4,2019-02-06 18:45:00.0,PmdMin,0.625,CHCGILDTO6Y
MA6813400180,h_OCHCTP,11-L1-4,2019-02-06 18:45:00.0,SoPmdAve,2919.79,CHCGILDTO6Y
MA6813400180,h_OCHCTP,11-L1-5,2019-02-06 18:15:00.0,Qmin,8.73,CHCGILDTO6Y
MA6813400180,h_OCHCTP,11-L1-5,2019-02-06 18:15:00.0,PhaseCorrectionAve,-0.061,CHCGILDTO6Y
MA6813400180,h_OCHCTP,11-L1-5,2019-02-06 18:15:00.0,BerPreFecMax,0.00314,CHCGILDTO6Y
MA6813400180,h_OCHCTP,11-L1-5,2019-02-06 18:15:00.0,PmdMin,1.22,CHCGILDTO6Y
MA6813400180,h_OCHCTP,11-L1-5,2019-02-06 18:15:00.0,SoPmdAve,2478.67,CHCGILDTO6Y
MA6813400180,h_OCHCTP,11-L1-5,2019-02-06 18:30:00.0,Qmin,8.83,CHCGILDTO6Y
MA6813400180,h_OCHCTP,11-L1-5,2019-02-06 18:30:00.0,PhaseCorrectionAve,-0.183,CHCGILDTO6Y
MA6813400180,h_OCHCTP,11-L1-5,2019-02-06 18:30:00.0,BerPreFecMax,0.00285,CHCGILDTO6Y
MA6813400180,h_OCHCTP,11-L1-5,2019-02-06 18:30:00.0,PmdMin,0.63,CHCGILDTO6Y
MA6813400180,h_OCHCTP,11-L1-5,2019-02-06 18:30:00.0,SoPmdAve,2549.69,CHCGILDTO6Y
MA6813400180,h_OCHCTP,11-L1-5,2019-02-06 18:45:00.0,Qmin,8.8,CHCGILDTO6Y
MA6813400180,h_OCHCTP,11-L1-5,2019-02-06 18:45:00.0,PhaseCorrectionAve,-0.183,CHCGILDTO6Y
MA6813400180,h_OCHCTP,11-L1-5,2019-02-06 18:45:00.0,BerPreFecMax,0.00294,CHCGILDTO6Y
MA6813400180,h_OCHCTP,11-L1-5,2019-02-06 18:45:00.0,PmdMin,0.759,CHCGILDTO6Y
MA6813400180,h_OCHCTP,11-L1-5,2019-02-06 18:45:00.0,SoPmdAve,2572.55,CHCGILDTO6Y
MA6813400180,h_OCHCTP,11-L1-6,2019-02-06 18:15:00.0,Qmin,8.73,CHCGILDTO6Y
MA6813400180,h_OCHCTP,11-L1-6,2019-02-06 18:15:00.0,PhaseCorrectionAve,-0.061,CHCGILDTO6Y
MA6813400180,h_OCHCTP,11-L1-6,2019-02-06 18:15:00.0,BerPreFecMax,0.00314,CHCGILDTO6Y
MA6813400180,h_OCHCTP,11-L1-6,2019-02-06 18:15:00.0,PmdMin,1.46,CHCGILDTO6Y
MA6813400180,h_OCHCTP,11-L1-6,2019-02-06 18:15:00.0,SoPmdAve,2507.23,CHCGILDTO6Y
MA6813400180,h_OCHCTP,11-L1-6,2019-02-06 18:30:00.0,Qmin,8.67,CHCGILDTO6Y
MA6813400180,h_OCHCTP,11-L1-6,2019-02-06 18:30:00.0,PhaseCorrectionAve,-0.183,CHCGILDTO6Y
MA6813400180,h_OCHCTP,11-L1-6,2019-02-06 18:30:00.0,BerPreFecMax,0.00334,CHCGILDTO6Y
MA6813400180,h_OCHCTP,11-L1-6,2019-02-06 18:30:00.0,PmdMin,0.206,CHCGILDTO6Y
MA6813400180,h_OCHCTP,11-L1-6,2019-02-06 18:30:00.0,SoPmdAve,2531.94,CHCGILDTO6Y
MA6813400180,h_OCHCTP,11-L1-6,2019-02-06 18:45:00.0,Qmin,8.67,CHCGILDTO6Y
MA6813400180,h_OCHCTP,11-L1-6,2019-02-06 18:45:00.0,PhaseCorrectionAve,-0.183,CHCGILDTO6Y
MA6813400180,h_OCHCTP,11-L1-6,2019-02-06 18:45:00.0,BerPreFecMax,0.00333,CHCGILDTO6Y
MA6813400180,h_OCHCTP,11-L1-6,2019-02-06 18:45:00.0,PmdMin,0.759,CHCGILDTO6Y
MA6813400180,h_OCHCTP,11-L1-6,2019-02-06 18:45:00.0,SoPmdAve,2447.46,CHCGILDTO6Y
MA6813400180,h_OCHCTP,11-L1-7,2019-02-06 18:15:00.0,Qmin,8.75,CHCGILDTO6Y
MA6813400180,h_OCHCTP,11-L1-7,2019-02-06 18:15:00.0,PhaseCorrectionAve,-0.122,CHCGILDTO6Y
MA6813400180,h_OCHCTP,11-L1-7,2019-02-06 18:15:00.0,BerPreFecMax,0.00309,CHCGILDTO6Y
MA6813400180,h_OCHCTP,11-L1-7,2019-02-06 18:15:00.0,PmdMin,0.974,CHCGILDTO6Y
MA6813400180,h_OCHCTP,11-L1-7,2019-02-06 18:15:00.0,SoPmdAve,2972.13,CHCGILDTO6Y
MA6813400180,h_OCHCTP,11-L1-7,2019-02-06 18:30:00.0,Qmin,8.8,CHCGILDTO6Y
MA6813400180,h_OCHCTP,11-L1-7,2019-02-06 18:30:00.0,PhaseCorrectionAve,-0.244,CHCGILDTO6Y
MA6813400180,h_OCHCTP,11-L1-7,2019-02-06 18:30:00.0,BerPreFecMax,0.00294,CHCGILDTO6Y
MA6813400180,h_OCHCTP,11-L1-7,2019-02-06 18:30:00.0,PmdMin,0.282,CHCGILDTO6Y
MA6813400180,h_OCHCTP,11-L1-7,2019-02-06 18:30:00.0,SoPmdAve,3036.57,CHCGILDTO6Y
MA6813400180,h_OCHCTP,11-L1-7,2019-02-06 18:45:00.0,Qmin,8.77,CHCGILDTO6Y
MA6813400180,h_OCHCTP,11-L1-7,2019-02-06 18:45:00.0,PhaseCorrectionAve,-0.305,CHCGILDTO6Y
MA6813400180,h_OCHCTP,11-L1-7,2019-02-06 18:45:00.0,BerPreFecMax,0.00302,CHCGILDTO6Y
MA6813400180,h_OCHCTP,11-L1-7,2019-02-06 18:45:00.0,PmdMin,1.4,CHCGILDTO6Y
MA6813400180,h_OCHCTP,11-L1-7,2019-02-06 18:45:00.0,SoPmdAve,2986.23,CHCGILDTO6Y
MA6813400180,h_OCHCTP,11-L1-8,2019-02-06 18:15:00.0,Qmin,8.85,CHCGILDTO6Y
MA6813400180,h_OCHCTP,11-L1-8,2019-02-06 18:15:00.0,PhaseCorrectionAve,-0.122,CHCGILDTO6Y
MA6813400180,h_OCHCTP,11-L1-8,2019-02-06 18:15:00.0,BerPreFecMax,0.00281,CHCGILDTO6Y
MA6813400180,h_OCHCTP,11-L1-8,2019-02-06 18:15:00.0,PmdMin,0.718,CHCGILDTO6Y
MA6813400180,h_OCHCTP,11-L1-8,2019-02-06 18:15:00.0,SoPmdAve,3129.81,CHCGILDTO6Y
MA6813400180,h_OCHCTP,11-L1-8,2019-02-06 18:30:00.0,Qmin,8.91,CHCGILDTO6Y
MA6813400180,h_OCHCTP,11-L1-8,2019-02-06 18:30:00.0,PhaseCorrectionAve,-0.244,CHCGILDTO6Y
MA6813400180,h_OCHCTP,11-L1-8,2019-02-06 18:30:00.0,BerPreFecMax,0.00265,CHCGILDTO6Y
MA6813400180,h_OCHCTP,11-L1-8,2019-02-06 18:30:00.0,PmdMin,0.305,CHCGILDTO6Y
MA6813400180,h_OCHCTP,11-L1-8,2019-02-06 18:30:00.0,SoPmdAve,3071.8,CHCGILDTO6Y
MA6813400180,h_OCHCTP,11-L1-8,2019-02-06 18:45:00.0,Qmin,8.84,CHCGILDTO6Y
MA6813400180,h_OCHCTP,11-L1-8,2019-02-06 18:45:00.0,PhaseCorrectionAve,-0.305,CHCGILDTO6Y
MA6813400180,h_OCHCTP,11-L1-8,2019-02-06 18:45:00.0,BerPreFecMax,0.00283,CHCGILDTO6Y
MA6813400180,h_OCHCTP,11-L1-8,2019-02-06 18:45:00.0,PmdMin,1.23,CHCGILDTO6Y
MA6813400180,h_OCHCTP,11-L1-8,2019-02-06 18:45:00.0,SoPmdAve,3037.32,CHCGILDTO6Y
MA6813400180,h_OCHCTP,11-L1-9,2019-02-06 18:15:00.0,Qmin,8.79,CHCGILDTO6Y
MA6813400180,h_OCHCTP,11-L1-9,2019-02-06 18:15:00.0,PhaseCorrectionAve,-0.183,CHCGILDTO6Y
MA6813400180,h_OCHCTP,11-L1-9,2019-02-06 18:15:00.0,BerPreFecMax,0.00298,CHCGILDTO6Y
MA6813400180,h_OCHCTP,11-L1-9,2019-02-06 18:15:00.0,PmdMin,0.791,CHCGILDTO6Y
MA6813400180,h_OCHCTP,11-L1-9,2019-02-06 18:15:00.0,SoPmdAve,3044.85,CHCGILDTO6Y
MA6813400180,h_OCHCTP,11-L1-9,2019-02-06 18:30:00.0,Qmin,8.81,CHCGILDTO6Y
MA6813400180,h_OCHCTP,11-L1-9,2019-02-06 18:30:00.0,PhaseCorrectionAve,-0.244,CHCGILDTO6Y
MA6813400180,h_OCHCTP,11-L1-9,2019-02-06 18:30:00.0,BerPreFecMax,0.0029,CHCGILDTO6Y
MA6813400180,h_OCHCTP,11-L1-9,2019-02-06 18:30:00.0,PmdMin,0.738,CHCGILDTO6Y
MA6813400180,h_OCHCTP,11-L1-9,2019-02-06 18:30:00.0,SoPmdAve,2916.29,CHCGILDTO6Y
MA6813400180,h_OCHCTP,11-L1-9,2019-02-06 18:45:00.0,Qmin,8.76,CHCGILDTO6Y
MA6813400180,h_OCHCTP,11-L1-9,2019-02-06 18:45:00.0,PhaseCorrectionAve,-0.366,CHCGILDTO6Y
MA6813400180,h_OCHCTP,11-L1-9,2019-02-06 18:45:00.0,BerPreFecMax,0.00306,CHCGILDTO6Y
MA6813400180,h_OCHCTP,11-L1-9,2019-02-06 18:45:00.0,PmdMin,0.609,CHCGILDTO6Y
MA6813400180,h_OCHCTP,11-L1-9,2019-02-06 18:45:00.0,SoPmdAve,2950.45,CHCGILDTO6Y
MA6813400180,h_OCHCTP,11-L1-10,2019-02-06 18:15:00.0,Qmin,8.89,CHCGILDTO6Y
MA6813400180,h_OCHCTP,11-L1-10,2019-02-06 18:15:00.0,PhaseCorrectionAve,-0.183,CHCGILDTO6Y
MA6813400180,h_OCHCTP,11-L1-10,2019-02-06 18:15:00.0,BerPreFecMax,0.0027,CHCGILDTO6Y
MA6813400180,h_OCHCTP,11-L1-10,2019-02-06 18:15:00.0,PmdMin,1.39,CHCGILDTO6Y
MA6813400180,h_OCHCTP,11-L1-10,2019-02-06 18:15:00.0,SoPmdAve,3102.02,CHCGILDTO6Y
MA6813400180,h_OCHCTP,11-L1-10,2019-02-06 18:30:00.0,Qmin,8.97,CHCGILDTO6Y
MA6813400180,h_OCHCTP,11-L1-10,2019-02-06 18:30:00.0,PhaseCorrectionAve,-0.244,CHCGILDTO6Y
MA6813400180,h_OCHCTP,11-L1-10,2019-02-06 18:30:00.0,BerPreFecMax,0.00248,CHCGILDTO6Y
MA6813400180,h_OCHCTP,11-L1-10,2019-02-06 18:30:00.0,PmdMin,0.232,CHCGILDTO6Y
MA6813400180,h_OCHCTP,11-L1-10,2019-02-06 18:30:00.0,SoPmdAve,3177.79,CHCGILDTO6Y
MA6813400180,h_OCHCTP,11-L1-10,2019-02-06 18:45:00.0,Qmin,8.85,CHCGILDTO6Y
MA6813400180,h_OCHCTP,11-L1-10,2019-02-06 18:45:00.0,PhaseCorrectionAve,-0.366,CHCGILDTO6Y
MA6813400180,h_OCHCTP,11-L1-10,2019-02-06 18:45:00.0,BerPreFecMax,0.0028,CHCGILDTO6Y
MA6813400180,h_OCHCTP,11-L1-10,2019-02-06 18:45:00.0,PmdMin,1.05,CHCGILDTO6Y
MA6813400180,h_OCHCTP,11-L1-10,2019-02-06 18:45:00.0,SoPmdAve,3123.05,CHCGILDTO6Y
MA6813400180,h_OCHCTP,10-L1-1,2019-02-06 18:15:00.0,Qmin,9.45,CHCGILDTO6Y
MA6813400180,h_OCHCTP,10-L1-1,2019-02-06 18:15:00.0,PhaseCorrectionAve,3.81e-07,CHCGILDTO6Y
MA6813400180,h_OCHCTP,10-L1-1,2019-02-06 18:15:00.0,BerPreFecMax,0.0015,CHCGILDTO6Y
MA6813400180,h_OCHCTP,10-L1-1,2019-02-06 18:15:00.0,PmdMin,1.04,CHCGILDTO6Y
MA6813400180,h_OCHCTP,10-L1-1,2019-02-06 18:15:00.0,SoPmdAve,3552.1,CHCGILDTO6Y
MA6813400180,h_OCHCTP,10-L1-1,2019-02-06 18:30:00.0,Qmin,9.47,CHCGILDTO6Y
MA6813400180,h_OCHCTP,10-L1-1,2019-02-06 18:30:00.0,PhaseCorrectionAve,3.79e-07,CHCGILDTO6Y
MA6813400180,h_OCHCTP,10-L1-1,2019-02-06 18:30:00.0,BerPreFecMax,0.00146,CHCGILDTO6Y
MA6813400180,h_OCHCTP,10-L1-1,2019-02-06 18:30:00.0,PmdMin,2.72,CHCGILDTO6Y
MA6813400180,h_OCHCTP,10-L1-1,2019-02-06 18:30:00.0,SoPmdAve,3404.9,CHCGILDTO6Y
MA6813400180,h_OCHCTP,10-L1-1,2019-02-06 18:45:00.0,Qmin,9.47,CHCGILDTO6Y
MA6813400180,h_OCHCTP,10-L1-1,2019-02-06 18:45:00.0,PhaseCorrectionAve,3.83e-07,CHCGILDTO6Y
MA6813400180,h_OCHCTP,10-L1-1,2019-02-06 18:45:00.0,BerPreFecMax,0.00146,CHCGILDTO6Y
MA6813400180,h_OCHCTP,10-L1-1,2019-02-06 18:45:00.0,PmdMin,1.95,CHCGILDTO6Y
MA6813400180,h_OCHCTP,10-L1-1,2019-02-06 18:45:00.0,SoPmdAve,3490.08,CHCGILDTO6Y
MA6813400180,h_OCHCTP,10-L1-2,2019-02-06 18:15:00.0,Qmin,9.14,CHCGILDTO6Y
MA6813400180,h_OCHCTP,10-L1-2,2019-02-06 18:15:00.0,PhaseCorrectionAve,2.96e-07,CHCGILDTO6Y
MA6813400180,h_OCHCTP,10-L1-2,2019-02-06 18:15:00.0,BerPreFecMax,0.0021,CHCGILDTO6Y
MA6813400180,h_OCHCTP,10-L1-2,2019-02-06 18:15:00.0,PmdMin,4.32,CHCGILDTO6Y
MA6813400180,h_OCHCTP,10-L1-2,2019-02-06 18:15:00.0,SoPmdAve,3269.39,CHCGILDTO6Y
MA6813400180,h_OCHCTP,10-L1-2,2019-02-06 18:30:00.0,Qmin,9.13,CHCGILDTO6Y
MA6813400180,h_OCHCTP,10-L1-2,2019-02-06 18:30:00.0,PhaseCorrectionAve,-0.061,CHCGILDTO6Y
MA6813400180,h_OCHCTP,10-L1-2,2019-02-06 18:30:00.0,BerPreFecMax,0.0021,CHCGILDTO6Y
MA6813400180,h_OCHCTP,10-L1-2,2019-02-06 18:30:00.0,PmdMin,3.0,CHCGILDTO6Y
MA6813400180,h_OCHCTP,10-L1-2,2019-02-06 18:30:00.0,SoPmdAve,3258.8,CHCGILDTO6Y
MA6813400180,h_OCHCTP,10-L1-2,2019-02-06 18:45:00.0,Qmin,9.14,CHCGILDTO6Y
MA6813400180,h_OCHCTP,10-L1-2,2019-02-06 18:45:00.0,PhaseCorrectionAve,-0.183,CHCGILDTO6Y
MA6813400180,h_OCHCTP,10-L1-2,2019-02-06 18:45:00.0,BerPreFecMax,0.00209,CHCGILDTO6Y
MA6813400180,h_OCHCTP,10-L1-2,2019-02-06 18:45:00.0,PmdMin,4.69,CHCGILDTO6Y
MA6813400180,h_OCHCTP,10-L1-2,2019-02-06 18:45:00.0,SoPmdAve,3248.45,CHCGILDTO6Y
MA6813400180,h_OCHCTP,10-L1-3,2019-02-06 18:15:00.0,Qmin,8.83,CHCGILDTO6Y
MA6813400180,h_OCHCTP,10-L1-3,2019-02-06 18:15:00.0,PhaseCorrectionAve,-0.122,CHCGILDTO6Y
MA6813400180,h_OCHCTP,10-L1-3,2019-02-06 18:15:00.0,BerPreFecMax,0.00284,CHCGILDTO6Y
MA6813400180,h_OCHCTP,10-L1-3,2019-02-06 18:15:00.0,PmdMin,2.5,CHCGILDTO6Y
MA6813400180,h_OCHCTP,10-L1-3,2019-02-06 18:15:00.0,SoPmdAve,2848.28,CHCGILDTO6Y
MA6813400180,h_OCHCTP,10-L1-3,2019-02-06 18:30:00.0,Qmin,8.84,CHCGILDTO6Y
MA6813400180,h_OCHCTP,10-L1-3,2019-02-06 18:30:00.0,PhaseCorrectionAve,-0.061,CHCGILDTO6Y
MA6813400180,h_OCHCTP,10-L1-3,2019-02-06 18:30:00.0,BerPreFecMax,0.00282,CHCGILDTO6Y
MA6813400180,h_OCHCTP,10-L1-3,2019-02-06 18:30:00.0,PmdMin,1.65,CHCGILDTO6Y
MA6813400180,h_OCHCTP,10-L1-3,2019-02-06 18:30:00.0,SoPmdAve,2907.03,CHCGILDTO6Y
MA6813400180,h_OCHCTP,10-L1-3,2019-02-06 18:45:00.0,Qmin,8.83,CHCGILDTO6Y
MA6813400180,h_OCHCTP,10-L1-3,2019-02-06 18:45:00.0,PhaseCorrectionAve,-0.244,CHCGILDTO6Y
MA6813400180,h_OCHCTP,10-L1-3,2019-02-06 18:45:00.0,BerPreFecMax,0.00287,CHCGILDTO6Y
MA6813400180,h_OCHCTP,10-L1-3,2019-02-06 18:45:00.0,PmdMin,2.21,CHCGILDTO6Y
MA6813400180,h_OCHCTP,10-L1-3,2019-02-06 18:45:00.0,SoPmdAve,2816.77,CHCGILDTO6Y
MA6813400180,h_OCHCTP,10-L1-4,2019-02-06 18:15:00.0,Qmin,8.23,CHCGILDTO6Y
MA6813400180,h_OCHCTP,10-L1-4,2019-02-06 18:15:00.0,PhaseCorrectionAve,-0.183,CHCGILDTO6Y
MA6813400180,h_OCHCTP,10-L1-4,2019-02-06 18:15:00.0,BerPreFecMax,0.00497,CHCGILDTO6Y
MA6813400180,h_OCHCTP,10-L1-4,2019-02-06 18:15:00.0,PmdMin,0.912,CHCGILDTO6Y
MA6813400180,h_OCHCTP,10-L1-4,2019-02-06 18:15:00.0,SoPmdAve,3018.95,CHCGILDTO6Y
MA6813400180,h_OCHCTP,10-L1-4,2019-02-06 18:30:00.0,Qmin,8.25,CHCGILDTO6Y
MA6813400180,h_OCHCTP,10-L1-4,2019-02-06 18:30:00.0,PhaseCorrectionAve,-0.061,CHCGILDTO6Y
MA6813400180,h_OCHCTP,10-L1-4,2019-02-06 18:30:00.0,BerPreFecMax,0.00486,CHCGILDTO6Y
MA6813400180,h_OCHCTP,10-L1-4,2019-02-06 18:30:00.0,PmdMin,1.13,CHCGILDTO6Y
MA6813400180,h_OCHCTP,10-L1-4,2019-02-06 18:30:00.0,SoPmdAve,3206.33,CHCGILDTO6Y
MA6813400180,h_OCHCTP,10-L1-4,2019-02-06 18:45:00.0,Qmin,8.25,CHCGILDTO6Y
MA6813400180,h_OCHCTP,10-L1-4,2019-02-06 18:45:00.0,PhaseCorrectionAve,-0.244,CHCGILDTO6Y
MA6813400180,h_OCHCTP,10-L1-4,2019-02-06 18:45:00.0,BerPreFecMax,0.00485,CHCGILDTO6Y
MA6813400180,h_OCHCTP,10-L1-4,2019-02-06 18:45:00.0,PmdMin,0.551,CHCGILDTO6Y
MA6813400180,h_OCHCTP,10-L1-4,2019-02-06 18:45:00.0,SoPmdAve,3107.51,CHCGILDTO6Y
MA6813400180,h_OCHCTP,10-L1-5,2019-02-06 18:15:00.0,Qmin,8.46,CHCGILDTO6Y
MA6813400180,h_OCHCTP,10-L1-5,2019-02-06 18:15:00.0,PhaseCorrectionAve,-0.183,CHCGILDTO6Y
MA6813400180,h_OCHCTP,10-L1-5,2019-02-06 18:15:00.0,BerPreFecMax,0.00405,CHCGILDTO6Y
MA6813400180,h_OCHCTP,10-L1-5,2019-02-06 18:15:00.0,PmdMin,1.8,CHCGILDTO6Y
MA6813400180,h_OCHCTP,10-L1-5,2019-02-06 18:15:00.0,SoPmdAve,2831.13,CHCGILDTO6Y
MA6813400180,h_OCHCTP,10-L1-5,2019-02-06 18:30:00.0,Qmin,8.47,CHCGILDTO6Y
MA6813400180,h_OCHCTP,10-L1-5,2019-02-06 18:30:00.0,PhaseCorrectionAve,-0.061,CHCGILDTO6Y
MA6813400180,h_OCHCTP,10-L1-5,2019-02-06 18:30:00.0,BerPreFecMax,0.00399,CHCGILDTO6Y
MA6813400180,h_OCHCTP,10-L1-5,2019-02-06 18:30:00.0,PmdMin,3.56,CHCGILDTO6Y
MA6813400180,h_OCHCTP,10-L1-5,2019-02-06 18:30:00.0,SoPmdAve,2913.45,CHCGILDTO6Y
MA6813400180,h_OCHCTP,10-L1-5,2019-02-06 18:45:00.0,Qmin,8.46,CHCGILDTO6Y
MA6813400180,h_OCHCTP,10-L1-5,2019-02-06 18:45:00.0,PhaseCorrectionAve,-0.244,CHCGILDTO6Y
MA6813400180,h_OCHCTP,10-L1-5,2019-02-06 18:45:00.0,BerPreFecMax,0.00403,CHCGILDTO6Y
MA6813400180,h_OCHCTP,10-L1-5,2019-02-06 18:45:00.0,PmdMin,2.21,CHCGILDTO6Y
MA6813400180,h_OCHCTP,10-L1-5,2019-02-06 18:45:00.0,SoPmdAve,2726.92,CHCGILDTO6Y
MA6813400180,h_OCHCTP,10-L1-6,2019-02-06 18:15:00.0,Qmin,8.69,CHCGILDTO6Y
MA6813400180,h_OCHCTP,10-L1-6,2019-02-06 18:15:00.0,PhaseCorrectionAve,-0.183,CHCGILDTO6Y
MA6813400180,h_OCHCTP,10-L1-6,2019-02-06 18:15:00.0,BerPreFecMax,0.00326,CHCGILDTO6Y
MA6813400180,h_OCHCTP,10-L1-6,2019-02-06 18:15:00.0,PmdMin,1.54,CHCGILDTO6Y
MA6813400180,h_OCHCTP,10-L1-6,2019-02-06 18:15:00.0,SoPmdAve,2788.86,CHCGILDTO6Y
MA6813400180,h_OCHCTP,10-L1-6,2019-02-06 18:30:00.0,Qmin,8.72,CHCGILDTO6Y
MA6813400180,h_OCHCTP,10-L1-6,2019-02-06 18:30:00.0,PhaseCorrectionAve,-0.122,CHCGILDTO6Y
MA6813400180,h_OCHCTP,10-L1-6,2019-02-06 18:30:00.0,BerPreFecMax,0.00319,CHCGILDTO6Y
MA6813400180,h_OCHCTP,10-L1-6,2019-02-06 18:30:00.0,PmdMin,0.942,CHCGILDTO6Y
MA6813400180,h_OCHCTP,10-L1-6,2019-02-06 18:30:00.0,SoPmdAve,2841.75,CHCGILDTO6Y
MA6813400180,h_OCHCTP,10-L1-6,2019-02-06 18:45:00.0,Qmin,8.7,CHCGILDTO6Y
MA6813400180,h_OCHCTP,10-L1-6,2019-02-06 18:45:00.0,PhaseCorrectionAve,-0.244,CHCGILDTO6Y
MA6813400180,h_OCHCTP,10-L1-6,2019-02-06 18:45:00.0,BerPreFecMax,0.00324,CHCGILDTO6Y
MA6813400180,h_OCHCTP,10-L1-6,2019-02-06 18:45:00.0,PmdMin,0.685,CHCGILDTO6Y
MA6813400180,h_OCHCTP,10-L1-6,2019-02-06 18:45:00.0,SoPmdAve,2795.03,CHCGILDTO6Y
MA6813400180,h_OCHCTP,10-L1-7,2019-02-06 18:15:00.0,Qmin,8.81,CHCGILDTO6Y
MA6813400180,h_OCHCTP,10-L1-7,2019-02-06 18:15:00.0,PhaseCorrectionAve,-0.183,CHCGILDTO6Y
MA6813400180,h_OCHCTP,10-L1-7,2019-02-06 18:15:00.0,BerPreFecMax,0.0029,CHCGILDTO6Y
MA6813400180,h_OCHCTP,10-L1-7,2019-02-06 18:15:00.0,PmdMin,0.987,CHCGILDTO6Y
MA6813400180,h_OCHCTP,10-L1-7,2019-02-06 18:15:00.0,SoPmdAve,3351.29,CHCGILDTO6Y
MA6813400180,h_OCHCTP,10-L1-7,2019-02-06 18:30:00.0,Qmin,8.81,CHCGILDTO6Y
MA6813400180,h_OCHCTP,10-L1-7,2019-02-06 18:30:00.0,PhaseCorrectionAve,-0.183,CHCGILDTO6Y
MA6813400180,h_OCHCTP,10-L1-7,2019-02-06 18:30:00.0,BerPreFecMax,0.0029,CHCGILDTO6Y
MA6813400180,h_OCHCTP,10-L1-7,2019-02-06 18:30:00.0,PmdMin,1.22,CHCGILDTO6Y
MA6813400180,h_OCHCTP,10-L1-7,2019-02-06 18:30:00.0,SoPmdAve,3442.93,CHCGILDTO6Y
MA6813400180,h_OCHCTP,10-L1-7,2019-02-06 18:45:00.0,Qmin,8.81,CHCGILDTO6Y
MA6813400180,h_OCHCTP,10-L1-7,2019-02-06 18:45:00.0,PhaseCorrectionAve,-0.244,CHCGILDTO6Y
MA6813400180,h_OCHCTP,10-L1-7,2019-02-06 18:45:00.0,BerPreFecMax,0.00293,CHCGILDTO6Y
MA6813400180,h_OCHCTP,10-L1-7,2019-02-06 18:45:00.0,PmdMin,0.672,CHCGILDTO6Y
MA6813400180,h_OCHCTP,10-L1-7,2019-02-06 18:45:00.0,SoPmdAve,3473.38,CHCGILDTO6Y
MA6813400180,h_OCHCTP,10-L1-8,2019-02-06 18:15:00.0,Qmin,9.32,CHCGILDTO6Y
MA6813400180,h_OCHCTP,10-L1-8,2019-02-06 18:15:00.0,PhaseCorrectionAve,-0.183,CHCGILDTO6Y
MA6813400180,h_OCHCTP,10-L1-8,2019-02-06 18:15:00.0,BerPreFecMax,0.00173,CHCGILDTO6Y
MA6813400180,h_OCHCTP,10-L1-8,2019-02-06 18:15:00.0,PmdMin,2.37,CHCGILDTO6Y
MA6813400180,h_OCHCTP,10-L1-8,2019-02-06 18:15:00.0,SoPmdAve,3339.76,CHCGILDTO6Y
MA6813400180,h_OCHCTP,10-L1-8,2019-02-06 18:30:00.0,Qmin,9.33,CHCGILDTO6Y
MA6813400180,h_OCHCTP,10-L1-8,2019-02-06 18:30:00.0,PhaseCorrectionAve,-0.183,CHCGILDTO6Y
MA6813400180,h_OCHCTP,10-L1-8,2019-02-06 18:30:00.0,BerPreFecMax,0.00171,CHCGILDTO6Y
MA6813400180,h_OCHCTP,10-L1-8,2019-02-06 18:30:00.0,PmdMin,1.86,CHCGILDTO6Y
MA6813400180,h_OCHCTP,10-L1-8,2019-02-06 18:30:00.0,SoPmdAve,3284.54,CHCGILDTO6Y
MA6813400180,h_OCHCTP,10-L1-8,2019-02-06 18:45:00.0,Qmin,9.32,CHCGILDTO6Y
MA6813400180,h_OCHCTP,10-L1-8,2019-02-06 18:45:00.0,PhaseCorrectionAve,-0.244,CHCGILDTO6Y
MA6813400180,h_OCHCTP,10-L1-8,2019-02-06 18:45:00.0,BerPreFecMax,0.00172,CHCGILDTO6Y
MA6813400180,h_OCHCTP,10-L1-8,2019-02-06 18:45:00.0,PmdMin,1.98,CHCGILDTO6Y
MA6813400180,h_OCHCTP,10-L1-8,2019-02-06 18:45:00.0,SoPmdAve,3247.09,CHCGILDTO6Y
MA6813400180,h_OCHCTP,10-L1-9,2019-02-06 18:15:00.0,Qmin,9.36,CHCGILDTO6Y
MA6813400180,h_OCHCTP,10-L1-9,2019-02-06 18:15:00.0,PhaseCorrectionAve,-0.183,CHCGILDTO6Y
MA6813400180,h_OCHCTP,10-L1-9,2019-02-06 18:15:00.0,BerPreFecMax,0.00165,CHCGILDTO6Y
MA6813400180,h_OCHCTP,10-L1-9,2019-02-06 18:15:00.0,PmdMin,2.71,CHCGILDTO6Y
MA6813400180,h_OCHCTP,10-L1-9,2019-02-06 18:15:00.0,SoPmdAve,3485.64,CHCGILDTO6Y
MA6813400180,h_OCHCTP,10-L1-9,2019-02-06 18:30:00.0,Qmin,9.36,CHCGILDTO6Y
MA6813400180,h_OCHCTP,10-L1-9,2019-02-06 18:30:00.0,PhaseCorrectionAve,-0.244,CHCGILDTO6Y
MA6813400180,h_OCHCTP,10-L1-9,2019-02-06 18:30:00.0,BerPreFecMax,0.00164,CHCGILDTO6Y
MA6813400180,h_OCHCTP,10-L1-9,2019-02-06 18:30:00.0,PmdMin,1.22,CHCGILDTO6Y
MA6813400180,h_OCHCTP,10-L1-9,2019-02-06 18:30:00.0,SoPmdAve,3463.28,CHCGILDTO6Y
MA6813400180,h_OCHCTP,10-L1-9,2019-02-06 18:45:00.0,Qmin,9.35,CHCGILDTO6Y
MA6813400180,h_OCHCTP,10-L1-9,2019-02-06 18:45:00.0,PhaseCorrectionAve,-0.244,CHCGILDTO6Y
MA6813400180,h_OCHCTP,10-L1-9,2019-02-06 18:45:00.0,BerPreFecMax,0.00167,CHCGILDTO6Y
MA6813400180,h_OCHCTP,10-L1-9,2019-02-06 18:45:00.0,PmdMin,2.18,CHCGILDTO6Y
MA6813400180,h_OCHCTP,10-L1-9,2019-02-06 18:45:00.0,SoPmdAve,3487.57,CHCGILDTO6Y
MA6813400180,h_OCHCTP,10-L1-10,2019-02-06 18:15:00.0,Qmin,9.38,CHCGILDTO6Y
MA6813400180,h_OCHCTP,10-L1-10,2019-02-06 18:15:00.0,PhaseCorrectionAve,-0.183,CHCGILDTO6Y
MA6813400180,h_OCHCTP,10-L1-10,2019-02-06 18:15:00.0,BerPreFecMax,0.00162,CHCGILDTO6Y
MA6813400180,h_OCHCTP,10-L1-10,2019-02-06 18:15:00.0,PmdMin,9.08,CHCGILDTO6Y
MA6813400180,h_OCHCTP,10-L1-10,2019-02-06 18:15:00.0,SoPmdAve,3369.31,CHCGILDTO6Y
MA6813400180,h_OCHCTP,10-L1-10,2019-02-06 18:30:00.0,Qmin,9.41,CHCGILDTO6Y
MA6813400180,h_OCHCTP,10-L1-10,2019-02-06 18:30:00.0,PhaseCorrectionAve,-0.244,CHCGILDTO6Y
MA6813400180,h_OCHCTP,10-L1-10,2019-02-06 18:30:00.0,BerPreFecMax,0.00156,CHCGILDTO6Y
MA6813400180,h_OCHCTP,10-L1-10,2019-02-06 18:30:00.0,PmdMin,9.85,CHCGILDTO6Y
MA6813400180,h_OCHCTP,10-L1-10,2019-02-06 18:30:00.0,SoPmdAve,3296.28,CHCGILDTO6Y
MA6813400180,h_OCHCTP,10-L1-10,2019-02-06 18:45:00.0,Qmin,9.41,CHCGILDTO6Y
MA6813400180,h_OCHCTP,10-L1-10,2019-02-06 18:45:00.0,PhaseCorrectionAve,-0.244,CHCGILDTO6Y
MA6813400180,h_OCHCTP,10-L1-10,2019-02-06 18:45:00.0,BerPreFecMax,0.00156,CHCGILDTO6Y
MA6813400180,h_OCHCTP,10-L1-10,2019-02-06 18:45:00.0,PmdMin,10.72,CHCGILDTO6Y
MA6813400180,h_OCHCTP,10-L1-10,2019-02-06 18:45:00.0,SoPmdAve,3324.11,CHCGILDTO6Y
