MA6813400180,h_OCHCTP,11-L1-1,2019-02-05 08:15:00.0,Qmin,9.21,CHCGILDTO6Y
MA6813400180,h_OCHCTP,11-L1-1,2019-02-05 08:15:00.0,PhaseCorrectionAve,1.73e-07,CHCGILDTO6Y
MA6813400180,h_OCHCTP,11-L1-1,2019-02-05 08:15:00.0,BerPreFecMax,0.00194,CHCGILDTO6Y
MA6813400180,h_OCHCTP,11-L1-1,2019-02-05 08:15:00.0,PmdMin,1.26,CHCGILDTO6Y
MA6813400180,h_OCHCTP,11-L1-1,2019-02-05 08:15:00.0,SoPmdAve,3410.5,CHCGILDTO6Y
MA6813400180,h_OCHCTP,11-L1-1,2019-02-05 08:30:00.0,Qmin,9.13,CHCGILDTO6Y
MA6813400180,h_OCHCTP,11-L1-1,2019-02-05 08:30:00.0,PhaseCorrectionAve,1.99e-07,CHCGILDTO6Y
MA6813400180,h_OCHCTP,11-L1-1,2019-02-05 08:30:00.0,BerPreFecMax,0.0021,CHCGILDTO6Y
MA6813400180,h_OCHCTP,11-L1-1,2019-02-05 08:30:00.0,PmdMin,0.932,CHCGILDTO6Y
MA6813400180,h_OCHCTP,11-L1-1,2019-02-05 08:30:00.0,SoPmdAve,3326.15,CHCGILDTO6Y
MA6813400180,h_OCHCTP,11-L1-1,2019-02-05 08:45:00.0,Qmin,9.12,CHCGILDTO6Y
MA6813400180,h_OCHCTP,11-L1-1,2019-02-05 08:45:00.0,PhaseCorrectionAve,2.77e-07,CHCGILDTO6Y
MA6813400180,h_OCHCTP,11-L1-1,2019-02-05 08:45:00.0,BerPreFecMax,0.00214,CHCGILDTO6Y
MA6813400180,h_OCHCTP,11-L1-1,2019-02-05 08:45:00.0,PmdMin,0.919,CHCGILDTO6Y
MA6813400180,h_OCHCTP,11-L1-1,2019-02-05 08:45:00.0,SoPmdAve,3385.28,CHCGILDTO6Y
MA6813400180,h_OCHCTP,11-L1-2,2019-02-05 08:15:00.0,Qmin,9.0,CHCGILDTO6Y
MA6813400180,h_OCHCTP,11-L1-2,2019-02-05 08:15:00.0,PhaseCorrectionAve,6.57e-07,CHCGILDTO6Y
MA6813400180,h_OCHCTP,11-L1-2,2019-02-05 08:15:00.0,BerPreFecMax,0.0024,CHCGILDTO6Y
MA6813400180,h_OCHCTP,11-L1-2,2019-02-05 08:15:00.0,PmdMin,0.721,CHCGILDTO6Y
MA6813400180,h_OCHCTP,11-L1-2,2019-02-05 08:15:00.0,SoPmdAve,3108.18,CHCGILDTO6Y
MA6813400180,h_OCHCTP,11-L1-2,2019-02-05 08:30:00.0,Qmin,9.03,CHCGILDTO6Y
MA6813400180,h_OCHCTP,11-L1-2,2019-02-05 08:30:00.0,PhaseCorrectionAve,-0.061,CHCGILDTO6Y
MA6813400180,h_OCHCTP,11-L1-2,2019-02-05 08:30:00.0,BerPreFecMax,0.00234,CHCGILDTO6Y
MA6813400180,h_OCHCTP,11-L1-2,2019-02-05 08:30:00.0,PmdMin,0.621,CHCGILDTO6Y
MA6813400180,h_OCHCTP,11-L1-2,2019-02-05 08:30:00.0,SoPmdAve,3151.11,CHCGILDTO6Y
MA6813400180,h_OCHCTP,11-L1-2,2019-02-05 08:45:00.0,Qmin,9.0,CHCGILDTO6Y
MA6813400180,h_OCHCTP,11-L1-2,2019-02-05 08:45:00.0,PhaseCorrectionAve,-0.061,CHCGILDTO6Y
MA6813400180,h_OCHCTP,11-L1-2,2019-02-05 08:45:00.0,BerPreFecMax,0.00242,CHCGILDTO6Y
MA6813400180,h_OCHCTP,11-L1-2,2019-02-05 08:45:00.0,PmdMin,0.435,CHCGILDTO6Y
MA6813400180,h_OCHCTP,11-L1-2,2019-02-05 08:45:00.0,SoPmdAve,3111.4,CHCGILDTO6Y
MA6813400180,h_OCHCTP,11-L1-3,2019-02-05 08:15:00.0,Qmin,8.91,CHCGILDTO6Y
MA6813400180,h_OCHCTP,11-L1-3,2019-02-05 08:15:00.0,PhaseCorrectionAve,6.2e-07,CHCGILDTO6Y
MA6813400180,h_OCHCTP,11-L1-3,2019-02-05 08:15:00.0,BerPreFecMax,0.00263,CHCGILDTO6Y
MA6813400180,h_OCHCTP,11-L1-3,2019-02-05 08:15:00.0,PmdMin,0.122,CHCGILDTO6Y
MA6813400180,h_OCHCTP,11-L1-3,2019-02-05 08:15:00.0,SoPmdAve,2739.87,CHCGILDTO6Y
MA6813400180,h_OCHCTP,11-L1-3,2019-02-05 08:30:00.0,Qmin,8.95,CHCGILDTO6Y
MA6813400180,h_OCHCTP,11-L1-3,2019-02-05 08:30:00.0,PhaseCorrectionAve,-0.061,CHCGILDTO6Y
MA6813400180,h_OCHCTP,11-L1-3,2019-02-05 08:30:00.0,BerPreFecMax,0.00253,CHCGILDTO6Y
MA6813400180,h_OCHCTP,11-L1-3,2019-02-05 08:30:00.0,PmdMin,0.921,CHCGILDTO6Y
MA6813400180,h_OCHCTP,11-L1-3,2019-02-05 08:30:00.0,SoPmdAve,2781.33,CHCGILDTO6Y
MA6813400180,h_OCHCTP,11-L1-3,2019-02-05 08:45:00.0,Qmin,9.05,CHCGILDTO6Y
MA6813400180,h_OCHCTP,11-L1-3,2019-02-05 08:45:00.0,PhaseCorrectionAve,-0.122,CHCGILDTO6Y
MA6813400180,h_OCHCTP,11-L1-3,2019-02-05 08:45:00.0,BerPreFecMax,0.00228,CHCGILDTO6Y
MA6813400180,h_OCHCTP,11-L1-3,2019-02-05 08:45:00.0,PmdMin,1.1,CHCGILDTO6Y
MA6813400180,h_OCHCTP,11-L1-3,2019-02-05 08:45:00.0,SoPmdAve,2710.07,CHCGILDTO6Y
MA6813400180,h_OCHCTP,11-L1-4,2019-02-05 08:15:00.0,Qmin,8.86,CHCGILDTO6Y
MA6813400180,h_OCHCTP,11-L1-4,2019-02-05 08:15:00.0,PhaseCorrectionAve,-0.0611,CHCGILDTO6Y
MA6813400180,h_OCHCTP,11-L1-4,2019-02-05 08:15:00.0,BerPreFecMax,0.00278,CHCGILDTO6Y
MA6813400180,h_OCHCTP,11-L1-4,2019-02-05 08:15:00.0,PmdMin,1.49,CHCGILDTO6Y
MA6813400180,h_OCHCTP,11-L1-4,2019-02-05 08:15:00.0,SoPmdAve,2898.9,CHCGILDTO6Y
MA6813400180,h_OCHCTP,11-L1-4,2019-02-05 08:30:00.0,Qmin,8.82,CHCGILDTO6Y
MA6813400180,h_OCHCTP,11-L1-4,2019-02-05 08:30:00.0,PhaseCorrectionAve,-0.122,CHCGILDTO6Y
MA6813400180,h_OCHCTP,11-L1-4,2019-02-05 08:30:00.0,BerPreFecMax,0.00287,CHCGILDTO6Y
MA6813400180,h_OCHCTP,11-L1-4,2019-02-05 08:30:00.0,PmdMin,0.837,CHCGILDTO6Y
MA6813400180,h_OCHCTP,11-L1-4,2019-02-05 08:30:00.0,SoPmdAve,2918.39,CHCGILDTO6Y
MA6813400180,h_OCHCTP,11-L1-4,2019-02-05 08:45:00.0,Qmin,8.82,CHCGILDTO6Y
MA6813400180,h_OCHCTP,11-L1-4,2019-02-05 08:45:00.0,PhaseCorrectionAve,-0.183,CHCGILDTO6Y
MA6813400180,h_OCHCTP,11-L1-4,2019-02-05 08:45:00.0,BerPreFecMax,0.00289,CHCGILDTO6Y
MA6813400180,h_OCHCTP,11-L1-4,2019-02-05 08:45:00.0,PmdMin,0.671,CHCGILDTO6Y
MA6813400180,h_OCHCTP,11-L1-4,2019-02-05 08:45:00.0,SoPmdAve,2922.88,CHCGILDTO6Y
MA6813400180,h_OCHCTP,11-L1-5,2019-02-05 08:15:00.0,Qmin,8.94,CHCGILDTO6Y
MA6813400180,h_OCHCTP,11-L1-5,2019-02-05 08:15:00.0,PhaseCorrectionAve,-0.0611,CHCGILDTO6Y
MA6813400180,h_OCHCTP,11-L1-5,2019-02-05 08:15:00.0,BerPreFecMax,0.00257,CHCGILDTO6Y
MA6813400180,h_OCHCTP,11-L1-5,2019-02-05 08:15:00.0,PmdMin,1.2,CHCGILDTO6Y
MA6813400180,h_OCHCTP,11-L1-5,2019-02-05 08:15:00.0,SoPmdAve,2542.71,CHCGILDTO6Y
MA6813400180,h_OCHCTP,11-L1-5,2019-02-05 08:30:00.0,Qmin,8.93,CHCGILDTO6Y
MA6813400180,h_OCHCTP,11-L1-5,2019-02-05 08:30:00.0,PhaseCorrectionAve,-0.122,CHCGILDTO6Y
MA6813400180,h_OCHCTP,11-L1-5,2019-02-05 08:30:00.0,BerPreFecMax,0.00258,CHCGILDTO6Y
MA6813400180,h_OCHCTP,11-L1-5,2019-02-05 08:30:00.0,PmdMin,1.1,CHCGILDTO6Y
MA6813400180,h_OCHCTP,11-L1-5,2019-02-05 08:30:00.0,SoPmdAve,2515.68,CHCGILDTO6Y
MA6813400180,h_OCHCTP,11-L1-5,2019-02-05 08:45:00.0,Qmin,8.9,CHCGILDTO6Y
MA6813400180,h_OCHCTP,11-L1-5,2019-02-05 08:45:00.0,PhaseCorrectionAve,-0.183,CHCGILDTO6Y
MA6813400180,h_OCHCTP,11-L1-5,2019-02-05 08:45:00.0,BerPreFecMax,0.00268,CHCGILDTO6Y
MA6813400180,h_OCHCTP,11-L1-5,2019-02-05 08:45:00.0,PmdMin,0.793,CHCGILDTO6Y
MA6813400180,h_OCHCTP,11-L1-5,2019-02-05 08:45:00.0,SoPmdAve,2564.78,CHCGILDTO6Y
MA6813400180,h_OCHCTP,11-L1-6,2019-02-05 08:15:00.0,Qmin,8.88,CHCGILDTO6Y
MA6813400180,h_OCHCTP,11-L1-6,2019-02-05 08:15:00.0,PhaseCorrectionAve,-0.0611,CHCGILDTO6Y
MA6813400180,h_OCHCTP,11-L1-6,2019-02-05 08:15:00.0,BerPreFecMax,0.00273,CHCGILDTO6Y
MA6813400180,h_OCHCTP,11-L1-6,2019-02-05 08:15:00.0,PmdMin,0.563,CHCGILDTO6Y
MA6813400180,h_OCHCTP,11-L1-6,2019-02-05 08:15:00.0,SoPmdAve,2496.65,CHCGILDTO6Y
MA6813400180,h_OCHCTP,11-L1-6,2019-02-05 08:30:00.0,Qmin,8.86,CHCGILDTO6Y
MA6813400180,h_OCHCTP,11-L1-6,2019-02-05 08:30:00.0,PhaseCorrectionAve,-0.122,CHCGILDTO6Y
MA6813400180,h_OCHCTP,11-L1-6,2019-02-05 08:30:00.0,BerPreFecMax,0.00277,CHCGILDTO6Y
MA6813400180,h_OCHCTP,11-L1-6,2019-02-05 08:30:00.0,PmdMin,0.576,CHCGILDTO6Y
MA6813400180,h_OCHCTP,11-L1-6,2019-02-05 08:30:00.0,SoPmdAve,2431.07,CHCGILDTO6Y
MA6813400180,h_OCHCTP,11-L1-6,2019-02-05 08:45:00.0,Qmin,8.84,CHCGILDTO6Y
MA6813400180,h_OCHCTP,11-L1-6,2019-02-05 08:45:00.0,PhaseCorrectionAve,-0.183,CHCGILDTO6Y
MA6813400180,h_OCHCTP,11-L1-6,2019-02-05 08:45:00.0,BerPreFecMax,0.00282,CHCGILDTO6Y
MA6813400180,h_OCHCTP,11-L1-6,2019-02-05 08:45:00.0,PmdMin,0.818,CHCGILDTO6Y
MA6813400180,h_OCHCTP,11-L1-6,2019-02-05 08:45:00.0,SoPmdAve,2467.39,CHCGILDTO6Y
MA6813400180,h_OCHCTP,11-L1-7,2019-02-05 08:15:00.0,Qmin,8.94,CHCGILDTO6Y
MA6813400180,h_OCHCTP,11-L1-7,2019-02-05 08:15:00.0,PhaseCorrectionAve,-0.0611,CHCGILDTO6Y
MA6813400180,h_OCHCTP,11-L1-7,2019-02-05 08:15:00.0,BerPreFecMax,0.00255,CHCGILDTO6Y
MA6813400180,h_OCHCTP,11-L1-7,2019-02-05 08:15:00.0,PmdMin,1.22,CHCGILDTO6Y
MA6813400180,h_OCHCTP,11-L1-7,2019-02-05 08:15:00.0,SoPmdAve,3015.84,CHCGILDTO6Y
MA6813400180,h_OCHCTP,11-L1-7,2019-02-05 08:30:00.0,Qmin,8.91,CHCGILDTO6Y
MA6813400180,h_OCHCTP,11-L1-7,2019-02-05 08:30:00.0,PhaseCorrectionAve,-0.122,CHCGILDTO6Y
MA6813400180,h_OCHCTP,11-L1-7,2019-02-05 08:30:00.0,BerPreFecMax,0.00263,CHCGILDTO6Y
MA6813400180,h_OCHCTP,11-L1-7,2019-02-05 08:30:00.0,PmdMin,1.19,CHCGILDTO6Y
MA6813400180,h_OCHCTP,11-L1-7,2019-02-05 08:30:00.0,SoPmdAve,2944.71,CHCGILDTO6Y
MA6813400180,h_OCHCTP,11-L1-7,2019-02-05 08:45:00.0,Qmin,8.8,CHCGILDTO6Y
MA6813400180,h_OCHCTP,11-L1-7,2019-02-05 08:45:00.0,PhaseCorrectionAve,-0.183,CHCGILDTO6Y
MA6813400180,h_OCHCTP,11-L1-7,2019-02-05 08:45:00.0,BerPreFecMax,0.00295,CHCGILDTO6Y
MA6813400180,h_OCHCTP,11-L1-7,2019-02-05 08:45:00.0,PmdMin,1.62,CHCGILDTO6Y
MA6813400180,h_OCHCTP,11-L1-7,2019-02-05 08:45:00.0,SoPmdAve,3105.95,CHCGILDTO6Y
MA6813400180,h_OCHCTP,11-L1-8,2019-02-05 08:15:00.0,Qmin,8.85,CHCGILDTO6Y
MA6813400180,h_OCHCTP,11-L1-8,2019-02-05 08:15:00.0,PhaseCorrectionAve,-0.122,CHCGILDTO6Y
MA6813400180,h_OCHCTP,11-L1-8,2019-02-05 08:15:00.0,BerPreFecMax,0.00281,CHCGILDTO6Y
MA6813400180,h_OCHCTP,11-L1-8,2019-02-05 08:15:00.0,PmdMin,1.43,CHCGILDTO6Y
MA6813400180,h_OCHCTP,11-L1-8,2019-02-05 08:15:00.0,SoPmdAve,3133.72,CHCGILDTO6Y
MA6813400180,h_OCHCTP,11-L1-8,2019-02-05 08:30:00.0,Qmin,8.83,CHCGILDTO6Y
MA6813400180,h_OCHCTP,11-L1-8,2019-02-05 08:30:00.0,PhaseCorrectionAve,-0.122,CHCGILDTO6Y
MA6813400180,h_OCHCTP,11-L1-8,2019-02-05 08:30:00.0,BerPreFecMax,0.00284,CHCGILDTO6Y
MA6813400180,h_OCHCTP,11-L1-8,2019-02-05 08:30:00.0,PmdMin,0.777,CHCGILDTO6Y
MA6813400180,h_OCHCTP,11-L1-8,2019-02-05 08:30:00.0,SoPmdAve,3176.48,CHCGILDTO6Y
MA6813400180,h_OCHCTP,11-L1-8,2019-02-05 08:45:00.0,Qmin,8.81,CHCGILDTO6Y
MA6813400180,h_OCHCTP,11-L1-8,2019-02-05 08:45:00.0,PhaseCorrectionAve,-0.244,CHCGILDTO6Y
MA6813400180,h_OCHCTP,11-L1-8,2019-02-05 08:45:00.0,BerPreFecMax,0.00292,CHCGILDTO6Y
MA6813400180,h_OCHCTP,11-L1-8,2019-02-05 08:45:00.0,PmdMin,1.02,CHCGILDTO6Y
MA6813400180,h_OCHCTP,11-L1-8,2019-02-05 08:45:00.0,SoPmdAve,3167.83,CHCGILDTO6Y
MA6813400180,h_OCHCTP,11-L1-9,2019-02-05 08:15:00.0,Qmin,8.78,CHCGILDTO6Y
MA6813400180,h_OCHCTP,11-L1-9,2019-02-05 08:15:00.0,PhaseCorrectionAve,-0.122,CHCGILDTO6Y
MA6813400180,h_OCHCTP,11-L1-9,2019-02-05 08:15:00.0,BerPreFecMax,0.00301,CHCGILDTO6Y
MA6813400180,h_OCHCTP,11-L1-9,2019-02-05 08:15:00.0,PmdMin,0.856,CHCGILDTO6Y
MA6813400180,h_OCHCTP,11-L1-9,2019-02-05 08:15:00.0,SoPmdAve,2997.75,CHCGILDTO6Y
MA6813400180,h_OCHCTP,11-L1-9,2019-02-05 08:30:00.0,Qmin,8.73,CHCGILDTO6Y
MA6813400180,h_OCHCTP,11-L1-9,2019-02-05 08:30:00.0,PhaseCorrectionAve,-0.122,CHCGILDTO6Y
MA6813400180,h_OCHCTP,11-L1-9,2019-02-05 08:30:00.0,BerPreFecMax,0.00314,CHCGILDTO6Y
MA6813400180,h_OCHCTP,11-L1-9,2019-02-05 08:30:00.0,PmdMin,0.787,CHCGILDTO6Y
MA6813400180,h_OCHCTP,11-L1-9,2019-02-05 08:30:00.0,SoPmdAve,2988.41,CHCGILDTO6Y
MA6813400180,h_OCHCTP,11-L1-9,2019-02-05 08:45:00.0,Qmin,8.8,CHCGILDTO6Y
MA6813400180,h_OCHCTP,11-L1-9,2019-02-05 08:45:00.0,PhaseCorrectionAve,-0.244,CHCGILDTO6Y
MA6813400180,h_OCHCTP,11-L1-9,2019-02-05 08:45:00.0,BerPreFecMax,0.00294,CHCGILDTO6Y
MA6813400180,h_OCHCTP,11-L1-9,2019-02-05 08:45:00.0,PmdMin,1.11,CHCGILDTO6Y
MA6813400180,h_OCHCTP,11-L1-9,2019-02-05 08:45:00.0,SoPmdAve,2939.89,CHCGILDTO6Y
MA6813400180,h_OCHCTP,11-L1-10,2019-02-05 08:15:00.0,Qmin,8.84,CHCGILDTO6Y
MA6813400180,h_OCHCTP,11-L1-10,2019-02-05 08:15:00.0,PhaseCorrectionAve,-0.122,CHCGILDTO6Y
MA6813400180,h_OCHCTP,11-L1-10,2019-02-05 08:15:00.0,BerPreFecMax,0.00283,CHCGILDTO6Y
MA6813400180,h_OCHCTP,11-L1-10,2019-02-05 08:15:00.0,PmdMin,0.621,CHCGILDTO6Y
MA6813400180,h_OCHCTP,11-L1-10,2019-02-05 08:15:00.0,SoPmdAve,3084.06,CHCGILDTO6Y
MA6813400180,h_OCHCTP,11-L1-10,2019-02-05 08:30:00.0,Qmin,8.83,CHCGILDTO6Y
MA6813400180,h_OCHCTP,11-L1-10,2019-02-05 08:30:00.0,PhaseCorrectionAve,-0.122,CHCGILDTO6Y
MA6813400180,h_OCHCTP,11-L1-10,2019-02-05 08:30:00.0,BerPreFecMax,0.00286,CHCGILDTO6Y
MA6813400180,h_OCHCTP,11-L1-10,2019-02-05 08:30:00.0,PmdMin,0.909,CHCGILDTO6Y
MA6813400180,h_OCHCTP,11-L1-10,2019-02-05 08:30:00.0,SoPmdAve,3080.49,CHCGILDTO6Y
MA6813400180,h_OCHCTP,11-L1-10,2019-02-05 08:45:00.0,Qmin,8.85,CHCGILDTO6Y
MA6813400180,h_OCHCTP,11-L1-10,2019-02-05 08:45:00.0,PhaseCorrectionAve,-0.244,CHCGILDTO6Y
MA6813400180,h_OCHCTP,11-L1-10,2019-02-05 08:45:00.0,BerPreFecMax,0.00279,CHCGILDTO6Y
MA6813400180,h_OCHCTP,11-L1-10,2019-02-05 08:45:00.0,PmdMin,1.49,CHCGILDTO6Y
MA6813400180,h_OCHCTP,11-L1-10,2019-02-05 08:45:00.0,SoPmdAve,3020.92,CHCGILDTO6Y
MA6813400180,h_OCHCTP,10-L1-1,2019-02-05 08:15:00.0,Qmin,9.45,CHCGILDTO6Y
MA6813400180,h_OCHCTP,10-L1-1,2019-02-05 08:15:00.0,PhaseCorrectionAve,4.5e-07,CHCGILDTO6Y
MA6813400180,h_OCHCTP,10-L1-1,2019-02-05 08:15:00.0,BerPreFecMax,0.00149,CHCGILDTO6Y
MA6813400180,h_OCHCTP,10-L1-1,2019-02-05 08:15:00.0,PmdMin,2.28,CHCGILDTO6Y
MA6813400180,h_OCHCTP,10-L1-1,2019-02-05 08:15:00.0,SoPmdAve,3441.05,CHCGILDTO6Y
MA6813400180,h_OCHCTP,10-L1-1,2019-02-05 08:30:00.0,Qmin,9.46,CHCGILDTO6Y
MA6813400180,h_OCHCTP,10-L1-1,2019-02-05 08:30:00.0,PhaseCorrectionAve,4.57e-07,CHCGILDTO6Y
MA6813400180,h_OCHCTP,10-L1-1,2019-02-05 08:30:00.0,BerPreFecMax,0.00148,CHCGILDTO6Y
MA6813400180,h_OCHCTP,10-L1-1,2019-02-05 08:30:00.0,PmdMin,0.817,CHCGILDTO6Y
MA6813400180,h_OCHCTP,10-L1-1,2019-02-05 08:30:00.0,SoPmdAve,3592.87,CHCGILDTO6Y
MA6813400180,h_OCHCTP,10-L1-1,2019-02-05 08:45:00.0,Qmin,9.45,CHCGILDTO6Y
MA6813400180,h_OCHCTP,10-L1-1,2019-02-05 08:45:00.0,PhaseCorrectionAve,4.59e-07,CHCGILDTO6Y
MA6813400180,h_OCHCTP,10-L1-1,2019-02-05 08:45:00.0,BerPreFecMax,0.0015,CHCGILDTO6Y
MA6813400180,h_OCHCTP,10-L1-1,2019-02-05 08:45:00.0,PmdMin,1.45,CHCGILDTO6Y
MA6813400180,h_OCHCTP,10-L1-1,2019-02-05 08:45:00.0,SoPmdAve,3565.29,CHCGILDTO6Y
MA6813400180,h_OCHCTP,10-L1-2,2019-02-05 08:15:00.0,Qmin,9.16,CHCGILDTO6Y
MA6813400180,h_OCHCTP,10-L1-2,2019-02-05 08:15:00.0,PhaseCorrectionAve,-0.061,CHCGILDTO6Y
MA6813400180,h_OCHCTP,10-L1-2,2019-02-05 08:15:00.0,BerPreFecMax,0.00206,CHCGILDTO6Y
MA6813400180,h_OCHCTP,10-L1-2,2019-02-05 08:15:00.0,PmdMin,4.43,CHCGILDTO6Y
MA6813400180,h_OCHCTP,10-L1-2,2019-02-05 08:15:00.0,SoPmdAve,3328.31,CHCGILDTO6Y
MA6813400180,h_OCHCTP,10-L1-2,2019-02-05 08:30:00.0,Qmin,9.16,CHCGILDTO6Y
MA6813400180,h_OCHCTP,10-L1-2,2019-02-05 08:30:00.0,PhaseCorrectionAve,3.75e-07,CHCGILDTO6Y
MA6813400180,h_OCHCTP,10-L1-2,2019-02-05 08:30:00.0,BerPreFecMax,0.00204,CHCGILDTO6Y
MA6813400180,h_OCHCTP,10-L1-2,2019-02-05 08:30:00.0,PmdMin,3.67,CHCGILDTO6Y
MA6813400180,h_OCHCTP,10-L1-2,2019-02-05 08:30:00.0,SoPmdAve,3259.45,CHCGILDTO6Y
MA6813400180,h_OCHCTP,10-L1-2,2019-02-05 08:45:00.0,Qmin,9.14,CHCGILDTO6Y
MA6813400180,h_OCHCTP,10-L1-2,2019-02-05 08:45:00.0,PhaseCorrectionAve,-0.061,CHCGILDTO6Y
MA6813400180,h_OCHCTP,10-L1-2,2019-02-05 08:45:00.0,BerPreFecMax,0.00209,CHCGILDTO6Y
MA6813400180,h_OCHCTP,10-L1-2,2019-02-05 08:45:00.0,PmdMin,2.12,CHCGILDTO6Y
MA6813400180,h_OCHCTP,10-L1-2,2019-02-05 08:45:00.0,SoPmdAve,3277.21,CHCGILDTO6Y
MA6813400180,h_OCHCTP,10-L1-3,2019-02-05 08:15:00.0,Qmin,8.9,CHCGILDTO6Y
MA6813400180,h_OCHCTP,10-L1-3,2019-02-05 08:15:00.0,PhaseCorrectionAve,-0.122,CHCGILDTO6Y
MA6813400180,h_OCHCTP,10-L1-3,2019-02-05 08:15:00.0,BerPreFecMax,0.00267,CHCGILDTO6Y
MA6813400180,h_OCHCTP,10-L1-3,2019-02-05 08:15:00.0,PmdMin,5.29,CHCGILDTO6Y
MA6813400180,h_OCHCTP,10-L1-3,2019-02-05 08:15:00.0,SoPmdAve,2907.05,CHCGILDTO6Y
MA6813400180,h_OCHCTP,10-L1-3,2019-02-05 08:30:00.0,Qmin,8.91,CHCGILDTO6Y
MA6813400180,h_OCHCTP,10-L1-3,2019-02-05 08:30:00.0,PhaseCorrectionAve,6.33e-07,CHCGILDTO6Y
MA6813400180,h_OCHCTP,10-L1-3,2019-02-05 08:30:00.0,BerPreFecMax,0.00264,CHCGILDTO6Y
MA6813400180,h_OCHCTP,10-L1-3,2019-02-05 08:30:00.0,PmdMin,5.52,CHCGILDTO6Y
MA6813400180,h_OCHCTP,10-L1-3,2019-02-05 08:30:00.0,SoPmdAve,2844.58,CHCGILDTO6Y
MA6813400180,h_OCHCTP,10-L1-3,2019-02-05 08:45:00.0,Qmin,8.89,CHCGILDTO6Y
MA6813400180,h_OCHCTP,10-L1-3,2019-02-05 08:45:00.0,PhaseCorrectionAve,-0.122,CHCGILDTO6Y
MA6813400180,h_OCHCTP,10-L1-3,2019-02-05 08:45:00.0,BerPreFecMax,0.00269,CHCGILDTO6Y
MA6813400180,h_OCHCTP,10-L1-3,2019-02-05 08:45:00.0,PmdMin,4.4,CHCGILDTO6Y
MA6813400180,h_OCHCTP,10-L1-3,2019-02-05 08:45:00.0,SoPmdAve,2867.51,CHCGILDTO6Y
MA6813400180,h_OCHCTP,10-L1-4,2019-02-05 08:15:00.0,Qmin,8.34,CHCGILDTO6Y
MA6813400180,h_OCHCTP,10-L1-4,2019-02-05 08:15:00.0,PhaseCorrectionAve,-0.183,CHCGILDTO6Y
MA6813400180,h_OCHCTP,10-L1-4,2019-02-05 08:15:00.0,BerPreFecMax,0.00449,CHCGILDTO6Y
MA6813400180,h_OCHCTP,10-L1-4,2019-02-05 08:15:00.0,PmdMin,1.24,CHCGILDTO6Y
MA6813400180,h_OCHCTP,10-L1-4,2019-02-05 08:15:00.0,SoPmdAve,3100.92,CHCGILDTO6Y
MA6813400180,h_OCHCTP,10-L1-4,2019-02-05 08:30:00.0,Qmin,8.35,CHCGILDTO6Y
MA6813400180,h_OCHCTP,10-L1-4,2019-02-05 08:30:00.0,PhaseCorrectionAve,2.56e-06,CHCGILDTO6Y
MA6813400180,h_OCHCTP,10-L1-4,2019-02-05 08:30:00.0,BerPreFecMax,0.00446,CHCGILDTO6Y
MA6813400180,h_OCHCTP,10-L1-4,2019-02-05 08:30:00.0,PmdMin,1.16,CHCGILDTO6Y
MA6813400180,h_OCHCTP,10-L1-4,2019-02-05 08:30:00.0,SoPmdAve,3170.6,CHCGILDTO6Y
MA6813400180,h_OCHCTP,10-L1-4,2019-02-05 08:45:00.0,Qmin,8.33,CHCGILDTO6Y
MA6813400180,h_OCHCTP,10-L1-4,2019-02-05 08:45:00.0,PhaseCorrectionAve,-0.122,CHCGILDTO6Y
MA6813400180,h_OCHCTP,10-L1-4,2019-02-05 08:45:00.0,BerPreFecMax,0.00454,CHCGILDTO6Y
MA6813400180,h_OCHCTP,10-L1-4,2019-02-05 08:45:00.0,PmdMin,0.724,CHCGILDTO6Y
MA6813400180,h_OCHCTP,10-L1-4,2019-02-05 08:45:00.0,SoPmdAve,3158.5,CHCGILDTO6Y
MA6813400180,h_OCHCTP,10-L1-5,2019-02-05 08:15:00.0,Qmin,8.54,CHCGILDTO6Y
MA6813400180,h_OCHCTP,10-L1-5,2019-02-05 08:15:00.0,PhaseCorrectionAve,-0.183,CHCGILDTO6Y
MA6813400180,h_OCHCTP,10-L1-5,2019-02-05 08:15:00.0,BerPreFecMax,0.00377,CHCGILDTO6Y
MA6813400180,h_OCHCTP,10-L1-5,2019-02-05 08:15:00.0,PmdMin,0.606,CHCGILDTO6Y
MA6813400180,h_OCHCTP,10-L1-5,2019-02-05 08:15:00.0,SoPmdAve,2910.63,CHCGILDTO6Y
MA6813400180,h_OCHCTP,10-L1-5,2019-02-05 08:30:00.0,Qmin,8.55,CHCGILDTO6Y
MA6813400180,h_OCHCTP,10-L1-5,2019-02-05 08:30:00.0,PhaseCorrectionAve,-0.061,CHCGILDTO6Y
MA6813400180,h_OCHCTP,10-L1-5,2019-02-05 08:30:00.0,BerPreFecMax,0.00373,CHCGILDTO6Y
MA6813400180,h_OCHCTP,10-L1-5,2019-02-05 08:30:00.0,PmdMin,1.42,CHCGILDTO6Y
MA6813400180,h_OCHCTP,10-L1-5,2019-02-05 08:30:00.0,SoPmdAve,2913.88,CHCGILDTO6Y
MA6813400180,h_OCHCTP,10-L1-5,2019-02-05 08:45:00.0,Qmin,8.54,CHCGILDTO6Y
MA6813400180,h_OCHCTP,10-L1-5,2019-02-05 08:45:00.0,PhaseCorrectionAve,-0.183,CHCGILDTO6Y
MA6813400180,h_OCHCTP,10-L1-5,2019-02-05 08:45:00.0,BerPreFecMax,0.00375,CHCGILDTO6Y
MA6813400180,h_OCHCTP,10-L1-5,2019-02-05 08:45:00.0,PmdMin,1.09,CHCGILDTO6Y
MA6813400180,h_OCHCTP,10-L1-5,2019-02-05 08:45:00.0,SoPmdAve,2907.29,CHCGILDTO6Y
MA6813400180,h_OCHCTP,10-L1-6,2019-02-05 08:15:00.0,Qmin,8.76,CHCGILDTO6Y
MA6813400180,h_OCHCTP,10-L1-6,2019-02-05 08:15:00.0,PhaseCorrectionAve,-0.183,CHCGILDTO6Y
MA6813400180,h_OCHCTP,10-L1-6,2019-02-05 08:15:00.0,BerPreFecMax,0.00305,CHCGILDTO6Y
MA6813400180,h_OCHCTP,10-L1-6,2019-02-05 08:15:00.0,PmdMin,1.32,CHCGILDTO6Y
MA6813400180,h_OCHCTP,10-L1-6,2019-02-05 08:15:00.0,SoPmdAve,2715.93,CHCGILDTO6Y
MA6813400180,h_OCHCTP,10-L1-6,2019-02-05 08:30:00.0,Qmin,8.77,CHCGILDTO6Y
MA6813400180,h_OCHCTP,10-L1-6,2019-02-05 08:30:00.0,PhaseCorrectionAve,-0.061,CHCGILDTO6Y
MA6813400180,h_OCHCTP,10-L1-6,2019-02-05 08:30:00.0,BerPreFecMax,0.00302,CHCGILDTO6Y
MA6813400180,h_OCHCTP,10-L1-6,2019-02-05 08:30:00.0,PmdMin,1.89,CHCGILDTO6Y
MA6813400180,h_OCHCTP,10-L1-6,2019-02-05 08:30:00.0,SoPmdAve,2760.73,CHCGILDTO6Y
MA6813400180,h_OCHCTP,10-L1-6,2019-02-05 08:45:00.0,Qmin,8.76,CHCGILDTO6Y
MA6813400180,h_OCHCTP,10-L1-6,2019-02-05 08:45:00.0,PhaseCorrectionAve,-0.244,CHCGILDTO6Y
MA6813400180,h_OCHCTP,10-L1-6,2019-02-05 08:45:00.0,BerPreFecMax,0.00305,CHCGILDTO6Y
MA6813400180,h_OCHCTP,10-L1-6,2019-02-05 08:45:00.0,PmdMin,2.46,CHCGILDTO6Y
MA6813400180,h_OCHCTP,10-L1-6,2019-02-05 08:45:00.0,SoPmdAve,2745.75,CHCGILDTO6Y
MA6813400180,h_OCHCTP,10-L1-7,2019-02-05 08:15:00.0,Qmin,8.86,CHCGILDTO6Y
MA6813400180,h_OCHCTP,10-L1-7,2019-02-05 08:15:00.0,PhaseCorrectionAve,-0.183,CHCGILDTO6Y
MA6813400180,h_OCHCTP,10-L1-7,2019-02-05 08:15:00.0,BerPreFecMax,0.00278,CHCGILDTO6Y
MA6813400180,h_OCHCTP,10-L1-7,2019-02-05 08:15:00.0,PmdMin,1.71,CHCGILDTO6Y
MA6813400180,h_OCHCTP,10-L1-7,2019-02-05 08:15:00.0,SoPmdAve,3444.81,CHCGILDTO6Y
MA6813400180,h_OCHCTP,10-L1-7,2019-02-05 08:30:00.0,Qmin,8.85,CHCGILDTO6Y
MA6813400180,h_OCHCTP,10-L1-7,2019-02-05 08:30:00.0,PhaseCorrectionAve,-0.122,CHCGILDTO6Y
MA6813400180,h_OCHCTP,10-L1-7,2019-02-05 08:30:00.0,BerPreFecMax,0.00279,CHCGILDTO6Y
MA6813400180,h_OCHCTP,10-L1-7,2019-02-05 08:30:00.0,PmdMin,2.3,CHCGILDTO6Y
MA6813400180,h_OCHCTP,10-L1-7,2019-02-05 08:30:00.0,SoPmdAve,3336.09,CHCGILDTO6Y
MA6813400180,h_OCHCTP,10-L1-7,2019-02-05 08:45:00.0,Qmin,8.85,CHCGILDTO6Y
MA6813400180,h_OCHCTP,10-L1-7,2019-02-05 08:45:00.0,PhaseCorrectionAve,-0.305,CHCGILDTO6Y
MA6813400180,h_OCHCTP,10-L1-7,2019-02-05 08:45:00.0,BerPreFecMax,0.00281,CHCGILDTO6Y
MA6813400180,h_OCHCTP,10-L1-7,2019-02-05 08:45:00.0,PmdMin,1.14,CHCGILDTO6Y
MA6813400180,h_OCHCTP,10-L1-7,2019-02-05 08:45:00.0,SoPmdAve,3468.08,CHCGILDTO6Y
MA6813400180,h_OCHCTP,10-L1-8,2019-02-05 08:15:00.0,Qmin,9.31,CHCGILDTO6Y
MA6813400180,h_OCHCTP,10-L1-8,2019-02-05 08:15:00.0,PhaseCorrectionAve,-0.183,CHCGILDTO6Y
MA6813400180,h_OCHCTP,10-L1-8,2019-02-05 08:15:00.0,BerPreFecMax,0.00174,CHCGILDTO6Y
MA6813400180,h_OCHCTP,10-L1-8,2019-02-05 08:15:00.0,PmdMin,2.78,CHCGILDTO6Y
MA6813400180,h_OCHCTP,10-L1-8,2019-02-05 08:15:00.0,SoPmdAve,3362.95,CHCGILDTO6Y
MA6813400180,h_OCHCTP,10-L1-8,2019-02-05 08:30:00.0,Qmin,9.3,CHCGILDTO6Y
MA6813400180,h_OCHCTP,10-L1-8,2019-02-05 08:30:00.0,PhaseCorrectionAve,-0.122,CHCGILDTO6Y
MA6813400180,h_OCHCTP,10-L1-8,2019-02-05 08:30:00.0,BerPreFecMax,0.00177,CHCGILDTO6Y
MA6813400180,h_OCHCTP,10-L1-8,2019-02-05 08:30:00.0,PmdMin,1.13,CHCGILDTO6Y
MA6813400180,h_OCHCTP,10-L1-8,2019-02-05 08:30:00.0,SoPmdAve,3434.32,CHCGILDTO6Y
MA6813400180,h_OCHCTP,10-L1-8,2019-02-05 08:45:00.0,Qmin,9.32,CHCGILDTO6Y
MA6813400180,h_OCHCTP,10-L1-8,2019-02-05 08:45:00.0,PhaseCorrectionAve,-0.305,CHCGILDTO6Y
MA6813400180,h_OCHCTP,10-L1-8,2019-02-05 08:45:00.0,BerPreFecMax,0.00173,CHCGILDTO6Y
MA6813400180,h_OCHCTP,10-L1-8,2019-02-05 08:45:00.0,PmdMin,1.59,CHCGILDTO6Y
MA6813400180,h_OCHCTP,10-L1-8,2019-02-05 08:45:00.0,SoPmdAve,3318.73,CHCGILDTO6Y
MA6813400180,h_OCHCTP,10-L1-9,2019-02-05 08:15:00.0,Qmin,9.32,CHCGILDTO6Y
MA6813400180,h_OCHCTP,10-L1-9,2019-02-05 08:15:00.0,PhaseCorrectionAve,-0.244,CHCGILDTO6Y
MA6813400180,h_OCHCTP,10-L1-9,2019-02-05 08:15:00.0,BerPreFecMax,0.00173,CHCGILDTO6Y
MA6813400180,h_OCHCTP,10-L1-9,2019-02-05 08:15:00.0,PmdMin,4.0,CHCGILDTO6Y
MA6813400180,h_OCHCTP,10-L1-9,2019-02-05 08:15:00.0,SoPmdAve,3269.7,CHCGILDTO6Y
MA6813400180,h_OCHCTP,10-L1-9,2019-02-05 08:30:00.0,Qmin,9.32,CHCGILDTO6Y
MA6813400180,h_OCHCTP,10-L1-9,2019-02-05 08:30:00.0,PhaseCorrectionAve,-0.122,CHCGILDTO6Y
MA6813400180,h_OCHCTP,10-L1-9,2019-02-05 08:30:00.0,BerPreFecMax,0.00173,CHCGILDTO6Y
MA6813400180,h_OCHCTP,10-L1-9,2019-02-05 08:30:00.0,PmdMin,2.8,CHCGILDTO6Y
MA6813400180,h_OCHCTP,10-L1-9,2019-02-05 08:30:00.0,SoPmdAve,3196.46,CHCGILDTO6Y
MA6813400180,h_OCHCTP,10-L1-9,2019-02-05 08:45:00.0,Qmin,9.33,CHCGILDTO6Y
MA6813400180,h_OCHCTP,10-L1-9,2019-02-05 08:45:00.0,PhaseCorrectionAve,-0.366,CHCGILDTO6Y
MA6813400180,h_OCHCTP,10-L1-9,2019-02-05 08:45:00.0,BerPreFecMax,0.00171,CHCGILDTO6Y
MA6813400180,h_OCHCTP,10-L1-9,2019-02-05 08:45:00.0,PmdMin,2.07,CHCGILDTO6Y
MA6813400180,h_OCHCTP,10-L1-9,2019-02-05 08:45:00.0,SoPmdAve,3200.7,CHCGILDTO6Y
MA6813400180,h_OCHCTP,10-L1-10,2019-02-05 08:15:00.0,Qmin,9.37,CHCGILDTO6Y
MA6813400180,h_OCHCTP,10-L1-10,2019-02-05 08:15:00.0,PhaseCorrectionAve,-0.244,CHCGILDTO6Y
MA6813400180,h_OCHCTP,10-L1-10,2019-02-05 08:15:00.0,BerPreFecMax,0.00164,CHCGILDTO6Y
MA6813400180,h_OCHCTP,10-L1-10,2019-02-05 08:15:00.0,PmdMin,13.02,CHCGILDTO6Y
MA6813400180,h_OCHCTP,10-L1-10,2019-02-05 08:15:00.0,SoPmdAve,3316.72,CHCGILDTO6Y
MA6813400180,h_OCHCTP,10-L1-10,2019-02-05 08:30:00.0,Qmin,9.35,CHCGILDTO6Y
MA6813400180,h_OCHCTP,10-L1-10,2019-02-05 08:30:00.0,PhaseCorrectionAve,-0.122,CHCGILDTO6Y
MA6813400180,h_OCHCTP,10-L1-10,2019-02-05 08:30:00.0,BerPreFecMax,0.00168,CHCGILDTO6Y
MA6813400180,h_OCHCTP,10-L1-10,2019-02-05 08:30:00.0,PmdMin,12.85,CHCGILDTO6Y
MA6813400180,h_OCHCTP,10-L1-10,2019-02-05 08:30:00.0,SoPmdAve,3323.12,CHCGILDTO6Y
MA6813400180,h_OCHCTP,10-L1-10,2019-02-05 08:45:00.0,Qmin,9.36,CHCGILDTO6Y
MA6813400180,h_OCHCTP,10-L1-10,2019-02-05 08:45:00.0,PhaseCorrectionAve,-0.366,CHCGILDTO6Y
MA6813400180,h_OCHCTP,10-L1-10,2019-02-05 08:45:00.0,BerPreFecMax,0.00164,CHCGILDTO6Y
MA6813400180,h_OCHCTP,10-L1-10,2019-02-05 08:45:00.0,PmdMin,13.69,CHCGILDTO6Y
MA6813400180,h_OCHCTP,10-L1-10,2019-02-05 08:45:00.0,SoPmdAve,3299.07,CHCGILDTO6Y
MA6813400180,h_OCHCTP,13-L1-1,2019-02-05 08:15:00.0,Qmin,9.25,CHCGILDTO6Y
MA6813400180,h_OCHCTP,13-L1-1,2019-02-05 08:15:00.0,PhaseCorrectionAve,3.38e-07,CHCGILDTO6Y
MA6813400180,h_OCHCTP,13-L1-1,2019-02-05 08:15:00.0,BerPreFecMax,0.00187,CHCGILDTO6Y
MA6813400180,h_OCHCTP,13-L1-1,2019-02-05 08:15:00.0,PmdMin,1.18,CHCGILDTO6Y
MA6813400180,h_OCHCTP,13-L1-1,2019-02-05 08:15:00.0,SoPmdAve,3544.4,CHCGILDTO6Y
MA6813400180,h_OCHCTP,13-L1-1,2019-02-05 08:30:00.0,Qmin,9.13,CHCGILDTO6Y
MA6813400180,h_OCHCTP,13-L1-1,2019-02-05 08:30:00.0,PhaseCorrectionAve,3.77e-07,CHCGILDTO6Y
MA6813400180,h_OCHCTP,13-L1-1,2019-02-05 08:30:00.0,BerPreFecMax,0.00211,CHCGILDTO6Y
MA6813400180,h_OCHCTP,13-L1-1,2019-02-05 08:30:00.0,PmdMin,1.45,CHCGILDTO6Y
MA6813400180,h_OCHCTP,13-L1-1,2019-02-05 08:30:00.0,SoPmdAve,3563.29,CHCGILDTO6Y
MA6813400180,h_OCHCTP,13-L1-1,2019-02-05 08:45:00.0,Qmin,9.14,CHCGILDTO6Y
MA6813400180,h_OCHCTP,13-L1-1,2019-02-05 08:45:00.0,PhaseCorrectionAve,5.74e-07,CHCGILDTO6Y
MA6813400180,h_OCHCTP,13-L1-1,2019-02-05 08:45:00.0,BerPreFecMax,0.00209,CHCGILDTO6Y
MA6813400180,h_OCHCTP,13-L1-1,2019-02-05 08:45:00.0,PmdMin,1.78,CHCGILDTO6Y
MA6813400180,h_OCHCTP,13-L1-1,2019-02-05 08:45:00.0,SoPmdAve,3512.56,CHCGILDTO6Y
MA6813400180,h_OCHCTP,13-L1-2,2019-02-05 08:15:00.0,Qmin,9.15,CHCGILDTO6Y
MA6813400180,h_OCHCTP,13-L1-2,2019-02-05 08:15:00.0,PhaseCorrectionAve,4.97e-07,CHCGILDTO6Y
MA6813400180,h_OCHCTP,13-L1-2,2019-02-05 08:15:00.0,BerPreFecMax,0.00207,CHCGILDTO6Y
MA6813400180,h_OCHCTP,13-L1-2,2019-02-05 08:15:00.0,PmdMin,0.867,CHCGILDTO6Y
MA6813400180,h_OCHCTP,13-L1-2,2019-02-05 08:15:00.0,SoPmdAve,3542.11,CHCGILDTO6Y
MA6813400180,h_OCHCTP,13-L1-2,2019-02-05 08:30:00.0,Qmin,9.15,CHCGILDTO6Y
MA6813400180,h_OCHCTP,13-L1-2,2019-02-05 08:30:00.0,PhaseCorrectionAve,-0.061,CHCGILDTO6Y
MA6813400180,h_OCHCTP,13-L1-2,2019-02-05 08:30:00.0,BerPreFecMax,0.00208,CHCGILDTO6Y
MA6813400180,h_OCHCTP,13-L1-2,2019-02-05 08:30:00.0,PmdMin,1.06,CHCGILDTO6Y
MA6813400180,h_OCHCTP,13-L1-2,2019-02-05 08:30:00.0,SoPmdAve,3556.62,CHCGILDTO6Y
MA6813400180,h_OCHCTP,13-L1-2,2019-02-05 08:45:00.0,Qmin,9.1,CHCGILDTO6Y
MA6813400180,h_OCHCTP,13-L1-2,2019-02-05 08:45:00.0,PhaseCorrectionAve,6.81e-07,CHCGILDTO6Y
MA6813400180,h_OCHCTP,13-L1-2,2019-02-05 08:45:00.0,BerPreFecMax,0.00217,CHCGILDTO6Y
MA6813400180,h_OCHCTP,13-L1-2,2019-02-05 08:45:00.0,PmdMin,1.5,CHCGILDTO6Y
MA6813400180,h_OCHCTP,13-L1-2,2019-02-05 08:45:00.0,SoPmdAve,3515.0,CHCGILDTO6Y
MA6813400180,h_OCHCTP,13-L1-3,2019-02-05 08:15:00.0,Qmin,8.95,CHCGILDTO6Y
MA6813400180,h_OCHCTP,13-L1-3,2019-02-05 08:15:00.0,PhaseCorrectionAve,-0.061,CHCGILDTO6Y
MA6813400180,h_OCHCTP,13-L1-3,2019-02-05 08:15:00.0,BerPreFecMax,0.00252,CHCGILDTO6Y
MA6813400180,h_OCHCTP,13-L1-3,2019-02-05 08:15:00.0,PmdMin,0.901,CHCGILDTO6Y
MA6813400180,h_OCHCTP,13-L1-3,2019-02-05 08:15:00.0,SoPmdAve,2891.78,CHCGILDTO6Y
MA6813400180,h_OCHCTP,13-L1-3,2019-02-05 08:30:00.0,Qmin,8.94,CHCGILDTO6Y
MA6813400180,h_OCHCTP,13-L1-3,2019-02-05 08:30:00.0,PhaseCorrectionAve,-0.061,CHCGILDTO6Y
MA6813400180,h_OCHCTP,13-L1-3,2019-02-05 08:30:00.0,BerPreFecMax,0.00256,CHCGILDTO6Y
MA6813400180,h_OCHCTP,13-L1-3,2019-02-05 08:30:00.0,PmdMin,1.1,CHCGILDTO6Y
MA6813400180,h_OCHCTP,13-L1-3,2019-02-05 08:30:00.0,SoPmdAve,2842.32,CHCGILDTO6Y
MA6813400180,h_OCHCTP,13-L1-3,2019-02-05 08:45:00.0,Qmin,9.03,CHCGILDTO6Y
MA6813400180,h_OCHCTP,13-L1-3,2019-02-05 08:45:00.0,PhaseCorrectionAve,5.75e-07,CHCGILDTO6Y
MA6813400180,h_OCHCTP,13-L1-3,2019-02-05 08:45:00.0,BerPreFecMax,0.00234,CHCGILDTO6Y
MA6813400180,h_OCHCTP,13-L1-3,2019-02-05 08:45:00.0,PmdMin,1.24,CHCGILDTO6Y
MA6813400180,h_OCHCTP,13-L1-3,2019-02-05 08:45:00.0,SoPmdAve,2895.45,CHCGILDTO6Y
MA6813400180,h_OCHCTP,13-L1-4,2019-02-05 08:15:00.0,Qmin,8.81,CHCGILDTO6Y
MA6813400180,h_OCHCTP,13-L1-4,2019-02-05 08:15:00.0,PhaseCorrectionAve,-0.061,CHCGILDTO6Y
MA6813400180,h_OCHCTP,13-L1-4,2019-02-05 08:15:00.0,BerPreFecMax,0.00292,CHCGILDTO6Y
MA6813400180,h_OCHCTP,13-L1-4,2019-02-05 08:15:00.0,PmdMin,0.719,CHCGILDTO6Y
MA6813400180,h_OCHCTP,13-L1-4,2019-02-05 08:15:00.0,SoPmdAve,3199.2,CHCGILDTO6Y
MA6813400180,h_OCHCTP,13-L1-4,2019-02-05 08:30:00.0,Qmin,8.81,CHCGILDTO6Y
MA6813400180,h_OCHCTP,13-L1-4,2019-02-05 08:30:00.0,PhaseCorrectionAve,-0.061,CHCGILDTO6Y
MA6813400180,h_OCHCTP,13-L1-4,2019-02-05 08:30:00.0,BerPreFecMax,0.00291,CHCGILDTO6Y
MA6813400180,h_OCHCTP,13-L1-4,2019-02-05 08:30:00.0,PmdMin,0.715,CHCGILDTO6Y
MA6813400180,h_OCHCTP,13-L1-4,2019-02-05 08:30:00.0,SoPmdAve,3283.49,CHCGILDTO6Y
MA6813400180,h_OCHCTP,13-L1-4,2019-02-05 08:45:00.0,Qmin,8.77,CHCGILDTO6Y
MA6813400180,h_OCHCTP,13-L1-4,2019-02-05 08:45:00.0,PhaseCorrectionAve,5.28e-07,CHCGILDTO6Y
MA6813400180,h_OCHCTP,13-L1-4,2019-02-05 08:45:00.0,BerPreFecMax,0.00303,CHCGILDTO6Y
MA6813400180,h_OCHCTP,13-L1-4,2019-02-05 08:45:00.0,PmdMin,0.319,CHCGILDTO6Y
MA6813400180,h_OCHCTP,13-L1-4,2019-02-05 08:45:00.0,SoPmdAve,3301.33,CHCGILDTO6Y
MA6813400180,h_OCHCTP,13-L1-5,2019-02-05 08:15:00.0,Qmin,8.77,CHCGILDTO6Y
MA6813400180,h_OCHCTP,13-L1-5,2019-02-05 08:15:00.0,PhaseCorrectionAve,-0.122,CHCGILDTO6Y
MA6813400180,h_OCHCTP,13-L1-5,2019-02-05 08:15:00.0,BerPreFecMax,0.00302,CHCGILDTO6Y
MA6813400180,h_OCHCTP,13-L1-5,2019-02-05 08:15:00.0,PmdMin,0.624,CHCGILDTO6Y
MA6813400180,h_OCHCTP,13-L1-5,2019-02-05 08:15:00.0,SoPmdAve,2765.1,CHCGILDTO6Y
MA6813400180,h_OCHCTP,13-L1-5,2019-02-05 08:30:00.0,Qmin,8.78,CHCGILDTO6Y
MA6813400180,h_OCHCTP,13-L1-5,2019-02-05 08:30:00.0,PhaseCorrectionAve,-0.061,CHCGILDTO6Y
MA6813400180,h_OCHCTP,13-L1-5,2019-02-05 08:30:00.0,BerPreFecMax,0.003,CHCGILDTO6Y
MA6813400180,h_OCHCTP,13-L1-5,2019-02-05 08:30:00.0,PmdMin,1.26,CHCGILDTO6Y
MA6813400180,h_OCHCTP,13-L1-5,2019-02-05 08:30:00.0,SoPmdAve,2805.12,CHCGILDTO6Y
MA6813400180,h_OCHCTP,13-L1-5,2019-02-05 08:45:00.0,Qmin,8.74,CHCGILDTO6Y
MA6813400180,h_OCHCTP,13-L1-5,2019-02-05 08:45:00.0,PhaseCorrectionAve,-0.061,CHCGILDTO6Y
MA6813400180,h_OCHCTP,13-L1-5,2019-02-05 08:45:00.0,BerPreFecMax,0.00311,CHCGILDTO6Y
MA6813400180,h_OCHCTP,13-L1-5,2019-02-05 08:45:00.0,PmdMin,0.687,CHCGILDTO6Y
MA6813400180,h_OCHCTP,13-L1-5,2019-02-05 08:45:00.0,SoPmdAve,2887.22,CHCGILDTO6Y
MA6813400180,h_OCHCTP,13-L1-6,2019-02-05 08:15:00.0,Qmin,8.88,CHCGILDTO6Y
MA6813400180,h_OCHCTP,13-L1-6,2019-02-05 08:15:00.0,PhaseCorrectionAve,-0.122,CHCGILDTO6Y
MA6813400180,h_OCHCTP,13-L1-6,2019-02-05 08:15:00.0,BerPreFecMax,0.00271,CHCGILDTO6Y
MA6813400180,h_OCHCTP,13-L1-6,2019-02-05 08:15:00.0,PmdMin,0.586,CHCGILDTO6Y
MA6813400180,h_OCHCTP,13-L1-6,2019-02-05 08:15:00.0,SoPmdAve,2965.39,CHCGILDTO6Y
MA6813400180,h_OCHCTP,13-L1-6,2019-02-05 08:30:00.0,Qmin,8.88,CHCGILDTO6Y
MA6813400180,h_OCHCTP,13-L1-6,2019-02-05 08:30:00.0,PhaseCorrectionAve,-0.061,CHCGILDTO6Y
MA6813400180,h_OCHCTP,13-L1-6,2019-02-05 08:30:00.0,BerPreFecMax,0.00271,CHCGILDTO6Y
MA6813400180,h_OCHCTP,13-L1-6,2019-02-05 08:30:00.0,PmdMin,0.683,CHCGILDTO6Y
MA6813400180,h_OCHCTP,13-L1-6,2019-02-05 08:30:00.0,SoPmdAve,3099.6,CHCGILDTO6Y
MA6813400180,h_OCHCTP,13-L1-6,2019-02-05 08:45:00.0,Qmin,8.85,CHCGILDTO6Y
MA6813400180,h_OCHCTP,13-L1-6,2019-02-05 08:45:00.0,PhaseCorrectionAve,-0.061,CHCGILDTO6Y
MA6813400180,h_OCHCTP,13-L1-6,2019-02-05 08:45:00.0,BerPreFecMax,0.00281,CHCGILDTO6Y
MA6813400180,h_OCHCTP,13-L1-6,2019-02-05 08:45:00.0,PmdMin,1.19,CHCGILDTO6Y
MA6813400180,h_OCHCTP,13-L1-6,2019-02-05 08:45:00.0,SoPmdAve,2995.98,CHCGILDTO6Y
MA6813400180,h_OCHCTP,13-L1-7,2019-02-05 08:15:00.0,Qmin,8.88,CHCGILDTO6Y
MA6813400180,h_OCHCTP,13-L1-7,2019-02-05 08:15:00.0,PhaseCorrectionAve,-0.122,CHCGILDTO6Y
MA6813400180,h_OCHCTP,13-L1-7,2019-02-05 08:15:00.0,BerPreFecMax,0.00271,CHCGILDTO6Y
MA6813400180,h_OCHCTP,13-L1-7,2019-02-05 08:15:00.0,PmdMin,0.883,CHCGILDTO6Y
MA6813400180,h_OCHCTP,13-L1-7,2019-02-05 08:15:00.0,SoPmdAve,3751.68,CHCGILDTO6Y
MA6813400180,h_OCHCTP,13-L1-7,2019-02-05 08:30:00.0,Qmin,8.87,CHCGILDTO6Y
MA6813400180,h_OCHCTP,13-L1-7,2019-02-05 08:30:00.0,PhaseCorrectionAve,-0.061,CHCGILDTO6Y
MA6813400180,h_OCHCTP,13-L1-7,2019-02-05 08:30:00.0,BerPreFecMax,0.00274,CHCGILDTO6Y
MA6813400180,h_OCHCTP,13-L1-7,2019-02-05 08:30:00.0,PmdMin,0.996,CHCGILDTO6Y
MA6813400180,h_OCHCTP,13-L1-7,2019-02-05 08:30:00.0,SoPmdAve,3747.85,CHCGILDTO6Y
MA6813400180,h_OCHCTP,13-L1-7,2019-02-05 08:45:00.0,Qmin,8.8,CHCGILDTO6Y
MA6813400180,h_OCHCTP,13-L1-7,2019-02-05 08:45:00.0,PhaseCorrectionAve,-0.061,CHCGILDTO6Y
MA6813400180,h_OCHCTP,13-L1-7,2019-02-05 08:45:00.0,BerPreFecMax,0.00295,CHCGILDTO6Y
MA6813400180,h_OCHCTP,13-L1-7,2019-02-05 08:45:00.0,PmdMin,0.701,CHCGILDTO6Y
MA6813400180,h_OCHCTP,13-L1-7,2019-02-05 08:45:00.0,SoPmdAve,3854.2,CHCGILDTO6Y
MA6813400180,h_OCHCTP,13-L1-8,2019-02-05 08:15:00.0,Qmin,8.88,CHCGILDTO6Y
MA6813400180,h_OCHCTP,13-L1-8,2019-02-05 08:15:00.0,PhaseCorrectionAve,-0.183,CHCGILDTO6Y
MA6813400180,h_OCHCTP,13-L1-8,2019-02-05 08:15:00.0,BerPreFecMax,0.00273,CHCGILDTO6Y
MA6813400180,h_OCHCTP,13-L1-8,2019-02-05 08:15:00.0,PmdMin,1.36,CHCGILDTO6Y
MA6813400180,h_OCHCTP,13-L1-8,2019-02-05 08:15:00.0,SoPmdAve,3888.15,CHCGILDTO6Y
MA6813400180,h_OCHCTP,13-L1-8,2019-02-05 08:30:00.0,Qmin,8.83,CHCGILDTO6Y
MA6813400180,h_OCHCTP,13-L1-8,2019-02-05 08:30:00.0,PhaseCorrectionAve,-0.061,CHCGILDTO6Y
MA6813400180,h_OCHCTP,13-L1-8,2019-02-05 08:30:00.0,BerPreFecMax,0.00286,CHCGILDTO6Y
MA6813400180,h_OCHCTP,13-L1-8,2019-02-05 08:30:00.0,PmdMin,1.2,CHCGILDTO6Y
MA6813400180,h_OCHCTP,13-L1-8,2019-02-05 08:30:00.0,SoPmdAve,3839.15,CHCGILDTO6Y
MA6813400180,h_OCHCTP,13-L1-8,2019-02-05 08:45:00.0,Qmin,8.8,CHCGILDTO6Y
MA6813400180,h_OCHCTP,13-L1-8,2019-02-05 08:45:00.0,PhaseCorrectionAve,-0.061,CHCGILDTO6Y
MA6813400180,h_OCHCTP,13-L1-8,2019-02-05 08:45:00.0,BerPreFecMax,0.00294,CHCGILDTO6Y
MA6813400180,h_OCHCTP,13-L1-8,2019-02-05 08:45:00.0,PmdMin,1.27,CHCGILDTO6Y
MA6813400180,h_OCHCTP,13-L1-8,2019-02-05 08:45:00.0,SoPmdAve,3825.36,CHCGILDTO6Y
MA6813400180,h_OCHCTP,13-L1-9,2019-02-05 08:15:00.0,Qmin,8.76,CHCGILDTO6Y
MA6813400180,h_OCHCTP,13-L1-9,2019-02-05 08:15:00.0,PhaseCorrectionAve,-0.183,CHCGILDTO6Y
MA6813400180,h_OCHCTP,13-L1-9,2019-02-05 08:15:00.0,BerPreFecMax,0.00305,CHCGILDTO6Y
MA6813400180,h_OCHCTP,13-L1-9,2019-02-05 08:15:00.0,PmdMin,1.33,CHCGILDTO6Y
MA6813400180,h_OCHCTP,13-L1-9,2019-02-05 08:15:00.0,SoPmdAve,3567.82,CHCGILDTO6Y
MA6813400180,h_OCHCTP,13-L1-9,2019-02-05 08:30:00.0,Qmin,8.7,CHCGILDTO6Y
MA6813400180,h_OCHCTP,13-L1-9,2019-02-05 08:30:00.0,PhaseCorrectionAve,-0.061,CHCGILDTO6Y
MA6813400180,h_OCHCTP,13-L1-9,2019-02-05 08:30:00.0,BerPreFecMax,0.00322,CHCGILDTO6Y
MA6813400180,h_OCHCTP,13-L1-9,2019-02-05 08:30:00.0,PmdMin,1.08,CHCGILDTO6Y
MA6813400180,h_OCHCTP,13-L1-9,2019-02-05 08:30:00.0,SoPmdAve,3457.24,CHCGILDTO6Y
MA6813400180,h_OCHCTP,13-L1-9,2019-02-05 08:45:00.0,Qmin,8.73,CHCGILDTO6Y
MA6813400180,h_OCHCTP,13-L1-9,2019-02-05 08:45:00.0,PhaseCorrectionAve,-0.061,CHCGILDTO6Y
MA6813400180,h_OCHCTP,13-L1-9,2019-02-05 08:45:00.0,BerPreFecMax,0.00315,CHCGILDTO6Y
MA6813400180,h_OCHCTP,13-L1-9,2019-02-05 08:45:00.0,PmdMin,1.83,CHCGILDTO6Y
MA6813400180,h_OCHCTP,13-L1-9,2019-02-05 08:45:00.0,SoPmdAve,3561.13,CHCGILDTO6Y
MA6813400180,h_OCHCTP,13-L1-10,2019-02-05 08:15:00.0,Qmin,8.58,CHCGILDTO6Y
MA6813400180,h_OCHCTP,13-L1-10,2019-02-05 08:15:00.0,PhaseCorrectionAve,-0.183,CHCGILDTO6Y
MA6813400180,h_OCHCTP,13-L1-10,2019-02-05 08:15:00.0,BerPreFecMax,0.00362,CHCGILDTO6Y
MA6813400180,h_OCHCTP,13-L1-10,2019-02-05 08:15:00.0,PmdMin,0.686,CHCGILDTO6Y
MA6813400180,h_OCHCTP,13-L1-10,2019-02-05 08:15:00.0,SoPmdAve,3798.23,CHCGILDTO6Y
MA6813400180,h_OCHCTP,13-L1-10,2019-02-05 08:30:00.0,Qmin,8.57,CHCGILDTO6Y
MA6813400180,h_OCHCTP,13-L1-10,2019-02-05 08:30:00.0,PhaseCorrectionAve,-0.061,CHCGILDTO6Y
MA6813400180,h_OCHCTP,13-L1-10,2019-02-05 08:30:00.0,BerPreFecMax,0.00366,CHCGILDTO6Y
MA6813400180,h_OCHCTP,13-L1-10,2019-02-05 08:30:00.0,PmdMin,1.05,CHCGILDTO6Y
MA6813400180,h_OCHCTP,13-L1-10,2019-02-05 08:30:00.0,SoPmdAve,3883.7,CHCGILDTO6Y
MA6813400180,h_OCHCTP,13-L1-10,2019-02-05 08:45:00.0,Qmin,8.59,CHCGILDTO6Y
MA6813400180,h_OCHCTP,13-L1-10,2019-02-05 08:45:00.0,PhaseCorrectionAve,-0.061,CHCGILDTO6Y
MA6813400180,h_OCHCTP,13-L1-10,2019-02-05 08:45:00.0,BerPreFecMax,0.00358,CHCGILDTO6Y
MA6813400180,h_OCHCTP,13-L1-10,2019-02-05 08:45:00.0,PmdMin,0.84,CHCGILDTO6Y
MA6813400180,h_OCHCTP,13-L1-10,2019-02-05 08:45:00.0,SoPmdAve,3891.82,CHCGILDTO6Y
