MA6813400180,h_OCHCTP,10-L1-1,2019-01-23 18:15:00.0,Qmin,9.52,CHCGILDTO6Y
MA6813400180,h_OCHCTP,10-L1-1,2019-01-23 18:15:00.0,PhaseCorrectionAve,6.27e-07,CHCGILDTO6Y
MA6813400180,h_OCHCTP,10-L1-1,2019-01-23 18:15:00.0,BerPreFecMax,0.00138,CHCGILDTO6Y
MA6813400180,h_OCHCTP,10-L1-1,2019-01-23 18:15:00.0,PmdMin,6.59,CHCGILDTO6Y
MA6813400180,h_OCHCTP,10-L1-1,2019-01-23 18:15:00.0,SoPmdAve,3380.11,CHCGILDTO6Y
MA6813400180,h_OCHCTP,10-L1-1,2019-01-23 18:30:00.0,Qmin,9.53,CHCGILDTO6Y
MA6813400180,h_OCHCTP,10-L1-1,2019-01-23 18:30:00.0,PhaseCorrectionAve,6.26e-07,CHCGILDTO6Y
MA6813400180,h_OCHCTP,10-L1-1,2019-01-23 18:30:00.0,BerPreFecMax,0.00137,CHCGILDTO6Y
MA6813400180,h_OCHCTP,10-L1-1,2019-01-23 18:30:00.0,PmdMin,5.86,CHCGILDTO6Y
MA6813400180,h_OCHCTP,10-L1-1,2019-01-23 18:30:00.0,SoPmdAve,3362.53,CHCGILDTO6Y
MA6813400180,h_OCHCTP,10-L1-1,2019-01-23 18:45:00.0,Qmin,9.53,CHCGILDTO6Y
MA6813400180,h_OCHCTP,10-L1-1,2019-01-23 18:45:00.0,PhaseCorrectionAve,6.51e-07,CHCGILDTO6Y
MA6813400180,h_OCHCTP,10-L1-1,2019-01-23 18:45:00.0,BerPreFecMax,0.00137,CHCGILDTO6Y
MA6813400180,h_OCHCTP,10-L1-1,2019-01-23 18:45:00.0,PmdMin,6.09,CHCGILDTO6Y
MA6813400180,h_OCHCTP,10-L1-1,2019-01-23 18:45:00.0,SoPmdAve,3277.76,CHCGILDTO6Y
MA6813400180,h_OCHCTP,10-L1-2,2019-01-23 18:15:00.0,Qmin,9.24,CHCGILDTO6Y
MA6813400180,h_OCHCTP,10-L1-2,2019-01-23 18:15:00.0,PhaseCorrectionAve,3.81e-07,CHCGILDTO6Y
MA6813400180,h_OCHCTP,10-L1-2,2019-01-23 18:15:00.0,BerPreFecMax,0.00188,CHCGILDTO6Y
MA6813400180,h_OCHCTP,10-L1-2,2019-01-23 18:15:00.0,PmdMin,0.516,CHCGILDTO6Y
MA6813400180,h_OCHCTP,10-L1-2,2019-01-23 18:15:00.0,SoPmdAve,3439.97,CHCGILDTO6Y
MA6813400180,h_OCHCTP,10-L1-2,2019-01-23 18:30:00.0,Qmin,9.24,CHCGILDTO6Y
MA6813400180,h_OCHCTP,10-L1-2,2019-01-23 18:30:00.0,PhaseCorrectionAve,3.91e-07,CHCGILDTO6Y
MA6813400180,h_OCHCTP,10-L1-2,2019-01-23 18:30:00.0,BerPreFecMax,0.00187,CHCGILDTO6Y
MA6813400180,h_OCHCTP,10-L1-2,2019-01-23 18:30:00.0,PmdMin,0.752,CHCGILDTO6Y
MA6813400180,h_OCHCTP,10-L1-2,2019-01-23 18:30:00.0,SoPmdAve,3382.86,CHCGILDTO6Y
MA6813400180,h_OCHCTP,10-L1-2,2019-01-23 18:45:00.0,Qmin,9.24,CHCGILDTO6Y
MA6813400180,h_OCHCTP,10-L1-2,2019-01-23 18:45:00.0,PhaseCorrectionAve,3.81e-07,CHCGILDTO6Y
MA6813400180,h_OCHCTP,10-L1-2,2019-01-23 18:45:00.0,BerPreFecMax,0.00188,CHCGILDTO6Y
MA6813400180,h_OCHCTP,10-L1-2,2019-01-23 18:45:00.0,PmdMin,0.86,CHCGILDTO6Y
MA6813400180,h_OCHCTP,10-L1-2,2019-01-23 18:45:00.0,SoPmdAve,3440.59,CHCGILDTO6Y
MA6813400180,h_OCHCTP,10-L1-3,2019-01-23 18:15:00.0,Qmin,9.05,CHCGILDTO6Y
MA6813400180,h_OCHCTP,10-L1-3,2019-01-23 18:15:00.0,PhaseCorrectionAve,5.16e-07,CHCGILDTO6Y
MA6813400180,h_OCHCTP,10-L1-3,2019-01-23 18:15:00.0,BerPreFecMax,0.00229,CHCGILDTO6Y
MA6813400180,h_OCHCTP,10-L1-3,2019-01-23 18:15:00.0,PmdMin,2.38,CHCGILDTO6Y
MA6813400180,h_OCHCTP,10-L1-3,2019-01-23 18:15:00.0,SoPmdAve,2831.23,CHCGILDTO6Y
MA6813400180,h_OCHCTP,10-L1-3,2019-01-23 18:30:00.0,Qmin,9.03,CHCGILDTO6Y
MA6813400180,h_OCHCTP,10-L1-3,2019-01-23 18:30:00.0,PhaseCorrectionAve,5.19e-07,CHCGILDTO6Y
MA6813400180,h_OCHCTP,10-L1-3,2019-01-23 18:30:00.0,BerPreFecMax,0.00233,CHCGILDTO6Y
MA6813400180,h_OCHCTP,10-L1-3,2019-01-23 18:30:00.0,PmdMin,0.836,CHCGILDTO6Y
MA6813400180,h_OCHCTP,10-L1-3,2019-01-23 18:30:00.0,SoPmdAve,2811.08,CHCGILDTO6Y
MA6813400180,h_OCHCTP,10-L1-3,2019-01-23 18:45:00.0,Qmin,9.04,CHCGILDTO6Y
MA6813400180,h_OCHCTP,10-L1-3,2019-01-23 18:45:00.0,PhaseCorrectionAve,-0.061,CHCGILDTO6Y
MA6813400180,h_OCHCTP,10-L1-3,2019-01-23 18:45:00.0,BerPreFecMax,0.00232,CHCGILDTO6Y
MA6813400180,h_OCHCTP,10-L1-3,2019-01-23 18:45:00.0,PmdMin,1.52,CHCGILDTO6Y
MA6813400180,h_OCHCTP,10-L1-3,2019-01-23 18:45:00.0,SoPmdAve,2973.48,CHCGILDTO6Y
MA6813400180,h_OCHCTP,10-L1-4,2019-01-23 18:15:00.0,Qmin,8.52,CHCGILDTO6Y
MA6813400180,h_OCHCTP,10-L1-4,2019-01-23 18:15:00.0,PhaseCorrectionAve,1.56e-06,CHCGILDTO6Y
MA6813400180,h_OCHCTP,10-L1-4,2019-01-23 18:15:00.0,BerPreFecMax,0.00384,CHCGILDTO6Y
MA6813400180,h_OCHCTP,10-L1-4,2019-01-23 18:15:00.0,PmdMin,4.93,CHCGILDTO6Y
MA6813400180,h_OCHCTP,10-L1-4,2019-01-23 18:15:00.0,SoPmdAve,2948.73,CHCGILDTO6Y
MA6813400180,h_OCHCTP,10-L1-4,2019-01-23 18:30:00.0,Qmin,8.54,CHCGILDTO6Y
MA6813400180,h_OCHCTP,10-L1-4,2019-01-23 18:30:00.0,PhaseCorrectionAve,-0.061,CHCGILDTO6Y
MA6813400180,h_OCHCTP,10-L1-4,2019-01-23 18:30:00.0,BerPreFecMax,0.00377,CHCGILDTO6Y
MA6813400180,h_OCHCTP,10-L1-4,2019-01-23 18:30:00.0,PmdMin,4.71,CHCGILDTO6Y
MA6813400180,h_OCHCTP,10-L1-4,2019-01-23 18:30:00.0,SoPmdAve,3023.48,CHCGILDTO6Y
MA6813400180,h_OCHCTP,10-L1-4,2019-01-23 18:45:00.0,Qmin,8.55,CHCGILDTO6Y
MA6813400180,h_OCHCTP,10-L1-4,2019-01-23 18:45:00.0,PhaseCorrectionAve,-0.061,CHCGILDTO6Y
MA6813400180,h_OCHCTP,10-L1-4,2019-01-23 18:45:00.0,BerPreFecMax,0.00374,CHCGILDTO6Y
MA6813400180,h_OCHCTP,10-L1-4,2019-01-23 18:45:00.0,PmdMin,4.4,CHCGILDTO6Y
MA6813400180,h_OCHCTP,10-L1-4,2019-01-23 18:45:00.0,SoPmdAve,2998.63,CHCGILDTO6Y
MA6813400180,h_OCHCTP,10-L1-5,2019-01-23 18:15:00.0,Qmin,8.71,CHCGILDTO6Y
MA6813400180,h_OCHCTP,10-L1-5,2019-01-23 18:15:00.0,PhaseCorrectionAve,9.83e-07,CHCGILDTO6Y
MA6813400180,h_OCHCTP,10-L1-5,2019-01-23 18:15:00.0,BerPreFecMax,0.0032,CHCGILDTO6Y
MA6813400180,h_OCHCTP,10-L1-5,2019-01-23 18:15:00.0,PmdMin,1.77,CHCGILDTO6Y
MA6813400180,h_OCHCTP,10-L1-5,2019-01-23 18:15:00.0,SoPmdAve,2867.98,CHCGILDTO6Y
MA6813400180,h_OCHCTP,10-L1-5,2019-01-23 18:30:00.0,Qmin,8.72,CHCGILDTO6Y
MA6813400180,h_OCHCTP,10-L1-5,2019-01-23 18:30:00.0,PhaseCorrectionAve,-0.061,CHCGILDTO6Y
MA6813400180,h_OCHCTP,10-L1-5,2019-01-23 18:30:00.0,BerPreFecMax,0.00318,CHCGILDTO6Y
MA6813400180,h_OCHCTP,10-L1-5,2019-01-23 18:30:00.0,PmdMin,3.39,CHCGILDTO6Y
MA6813400180,h_OCHCTP,10-L1-5,2019-01-23 18:30:00.0,SoPmdAve,2757.81,CHCGILDTO6Y
MA6813400180,h_OCHCTP,10-L1-5,2019-01-23 18:45:00.0,Qmin,8.7,CHCGILDTO6Y
MA6813400180,h_OCHCTP,10-L1-5,2019-01-23 18:45:00.0,PhaseCorrectionAve,-0.061,CHCGILDTO6Y
MA6813400180,h_OCHCTP,10-L1-5,2019-01-23 18:45:00.0,BerPreFecMax,0.00324,CHCGILDTO6Y
MA6813400180,h_OCHCTP,10-L1-5,2019-01-23 18:45:00.0,PmdMin,1.89,CHCGILDTO6Y
MA6813400180,h_OCHCTP,10-L1-5,2019-01-23 18:45:00.0,SoPmdAve,2803.92,CHCGILDTO6Y
MA6813400180,h_OCHCTP,10-L1-6,2019-01-23 18:15:00.0,Qmin,8.9,CHCGILDTO6Y
MA6813400180,h_OCHCTP,10-L1-6,2019-01-23 18:15:00.0,PhaseCorrectionAve,7.13e-07,CHCGILDTO6Y
MA6813400180,h_OCHCTP,10-L1-6,2019-01-23 18:15:00.0,BerPreFecMax,0.00267,CHCGILDTO6Y
MA6813400180,h_OCHCTP,10-L1-6,2019-01-23 18:15:00.0,PmdMin,1.93,CHCGILDTO6Y
MA6813400180,h_OCHCTP,10-L1-6,2019-01-23 18:15:00.0,SoPmdAve,2828.7,CHCGILDTO6Y
MA6813400180,h_OCHCTP,10-L1-6,2019-01-23 18:30:00.0,Qmin,8.9,CHCGILDTO6Y
MA6813400180,h_OCHCTP,10-L1-6,2019-01-23 18:30:00.0,PhaseCorrectionAve,-0.061,CHCGILDTO6Y
MA6813400180,h_OCHCTP,10-L1-6,2019-01-23 18:30:00.0,BerPreFecMax,0.00265,CHCGILDTO6Y
MA6813400180,h_OCHCTP,10-L1-6,2019-01-23 18:30:00.0,PmdMin,1.44,CHCGILDTO6Y
MA6813400180,h_OCHCTP,10-L1-6,2019-01-23 18:30:00.0,SoPmdAve,2769.84,CHCGILDTO6Y
MA6813400180,h_OCHCTP,10-L1-6,2019-01-23 18:45:00.0,Qmin,8.89,CHCGILDTO6Y
MA6813400180,h_OCHCTP,10-L1-6,2019-01-23 18:45:00.0,PhaseCorrectionAve,-0.061,CHCGILDTO6Y
MA6813400180,h_OCHCTP,10-L1-6,2019-01-23 18:45:00.0,BerPreFecMax,0.00269,CHCGILDTO6Y
MA6813400180,h_OCHCTP,10-L1-6,2019-01-23 18:45:00.0,PmdMin,1.09,CHCGILDTO6Y
MA6813400180,h_OCHCTP,10-L1-6,2019-01-23 18:45:00.0,SoPmdAve,2795.19,CHCGILDTO6Y
MA6813400180,h_OCHCTP,10-L1-7,2019-01-23 18:15:00.0,Qmin,8.95,CHCGILDTO6Y
MA6813400180,h_OCHCTP,10-L1-7,2019-01-23 18:15:00.0,PhaseCorrectionAve,4.2e-07,CHCGILDTO6Y
MA6813400180,h_OCHCTP,10-L1-7,2019-01-23 18:15:00.0,BerPreFecMax,0.00253,CHCGILDTO6Y
MA6813400180,h_OCHCTP,10-L1-7,2019-01-23 18:15:00.0,PmdMin,1.69,CHCGILDTO6Y
MA6813400180,h_OCHCTP,10-L1-7,2019-01-23 18:15:00.0,SoPmdAve,3444.73,CHCGILDTO6Y
MA6813400180,h_OCHCTP,10-L1-7,2019-01-23 18:30:00.0,Qmin,8.95,CHCGILDTO6Y
MA6813400180,h_OCHCTP,10-L1-7,2019-01-23 18:30:00.0,PhaseCorrectionAve,-0.061,CHCGILDTO6Y
MA6813400180,h_OCHCTP,10-L1-7,2019-01-23 18:30:00.0,BerPreFecMax,0.00252,CHCGILDTO6Y
MA6813400180,h_OCHCTP,10-L1-7,2019-01-23 18:30:00.0,PmdMin,1.52,CHCGILDTO6Y
MA6813400180,h_OCHCTP,10-L1-7,2019-01-23 18:30:00.0,SoPmdAve,3497.25,CHCGILDTO6Y
MA6813400180,h_OCHCTP,10-L1-7,2019-01-23 18:45:00.0,Qmin,8.95,CHCGILDTO6Y
MA6813400180,h_OCHCTP,10-L1-7,2019-01-23 18:45:00.0,PhaseCorrectionAve,-0.122,CHCGILDTO6Y
MA6813400180,h_OCHCTP,10-L1-7,2019-01-23 18:45:00.0,BerPreFecMax,0.00254,CHCGILDTO6Y
MA6813400180,h_OCHCTP,10-L1-7,2019-01-23 18:45:00.0,PmdMin,1.83,CHCGILDTO6Y
MA6813400180,h_OCHCTP,10-L1-7,2019-01-23 18:45:00.0,SoPmdAve,3505.31,CHCGILDTO6Y
MA6813400180,h_OCHCTP,10-L1-8,2019-01-23 18:15:00.0,Qmin,9.33,CHCGILDTO6Y
MA6813400180,h_OCHCTP,10-L1-8,2019-01-23 18:15:00.0,PhaseCorrectionAve,1.82e-06,CHCGILDTO6Y
MA6813400180,h_OCHCTP,10-L1-8,2019-01-23 18:15:00.0,BerPreFecMax,0.00171,CHCGILDTO6Y
MA6813400180,h_OCHCTP,10-L1-8,2019-01-23 18:15:00.0,PmdMin,0.688,CHCGILDTO6Y
MA6813400180,h_OCHCTP,10-L1-8,2019-01-23 18:15:00.0,SoPmdAve,3509.76,CHCGILDTO6Y
MA6813400180,h_OCHCTP,10-L1-8,2019-01-23 18:30:00.0,Qmin,9.32,CHCGILDTO6Y
MA6813400180,h_OCHCTP,10-L1-8,2019-01-23 18:30:00.0,PhaseCorrectionAve,-0.061,CHCGILDTO6Y
MA6813400180,h_OCHCTP,10-L1-8,2019-01-23 18:30:00.0,BerPreFecMax,0.00172,CHCGILDTO6Y
MA6813400180,h_OCHCTP,10-L1-8,2019-01-23 18:30:00.0,PmdMin,0.686,CHCGILDTO6Y
MA6813400180,h_OCHCTP,10-L1-8,2019-01-23 18:30:00.0,SoPmdAve,3500.48,CHCGILDTO6Y
MA6813400180,h_OCHCTP,10-L1-8,2019-01-23 18:45:00.0,Qmin,9.32,CHCGILDTO6Y
MA6813400180,h_OCHCTP,10-L1-8,2019-01-23 18:45:00.0,PhaseCorrectionAve,-0.122,CHCGILDTO6Y
MA6813400180,h_OCHCTP,10-L1-8,2019-01-23 18:45:00.0,BerPreFecMax,0.00172,CHCGILDTO6Y
MA6813400180,h_OCHCTP,10-L1-8,2019-01-23 18:45:00.0,PmdMin,1.25,CHCGILDTO6Y
MA6813400180,h_OCHCTP,10-L1-8,2019-01-23 18:45:00.0,SoPmdAve,3512.8,CHCGILDTO6Y
MA6813400180,h_OCHCTP,10-L1-9,2019-01-23 18:15:00.0,Qmin,9.3,CHCGILDTO6Y
MA6813400180,h_OCHCTP,10-L1-9,2019-01-23 18:15:00.0,PhaseCorrectionAve,3.12e-06,CHCGILDTO6Y
MA6813400180,h_OCHCTP,10-L1-9,2019-01-23 18:15:00.0,BerPreFecMax,0.00177,CHCGILDTO6Y
MA6813400180,h_OCHCTP,10-L1-9,2019-01-23 18:15:00.0,PmdMin,1.1,CHCGILDTO6Y
MA6813400180,h_OCHCTP,10-L1-9,2019-01-23 18:15:00.0,SoPmdAve,3360.02,CHCGILDTO6Y
MA6813400180,h_OCHCTP,10-L1-9,2019-01-23 18:30:00.0,Qmin,9.3,CHCGILDTO6Y
MA6813400180,h_OCHCTP,10-L1-9,2019-01-23 18:30:00.0,PhaseCorrectionAve,-0.183,CHCGILDTO6Y
MA6813400180,h_OCHCTP,10-L1-9,2019-01-23 18:30:00.0,BerPreFecMax,0.00176,CHCGILDTO6Y
MA6813400180,h_OCHCTP,10-L1-9,2019-01-23 18:30:00.0,PmdMin,0.976,CHCGILDTO6Y
MA6813400180,h_OCHCTP,10-L1-9,2019-01-23 18:30:00.0,SoPmdAve,3340.53,CHCGILDTO6Y
MA6813400180,h_OCHCTP,10-L1-9,2019-01-23 18:45:00.0,Qmin,9.3,CHCGILDTO6Y
MA6813400180,h_OCHCTP,10-L1-9,2019-01-23 18:45:00.0,PhaseCorrectionAve,-0.122,CHCGILDTO6Y
MA6813400180,h_OCHCTP,10-L1-9,2019-01-23 18:45:00.0,BerPreFecMax,0.00177,CHCGILDTO6Y
MA6813400180,h_OCHCTP,10-L1-9,2019-01-23 18:45:00.0,PmdMin,1.05,CHCGILDTO6Y
MA6813400180,h_OCHCTP,10-L1-9,2019-01-23 18:45:00.0,SoPmdAve,3404.11,CHCGILDTO6Y
MA6813400180,h_OCHCTP,10-L1-10,2019-01-23 18:15:00.0,Qmin,9.33,CHCGILDTO6Y
MA6813400180,h_OCHCTP,10-L1-10,2019-01-23 18:15:00.0,PhaseCorrectionAve,-0.122,CHCGILDTO6Y
MA6813400180,h_OCHCTP,10-L1-10,2019-01-23 18:15:00.0,BerPreFecMax,0.00171,CHCGILDTO6Y
MA6813400180,h_OCHCTP,10-L1-10,2019-01-23 18:15:00.0,PmdMin,7.35,CHCGILDTO6Y
MA6813400180,h_OCHCTP,10-L1-10,2019-01-23 18:15:00.0,SoPmdAve,3432.56,CHCGILDTO6Y
MA6813400180,h_OCHCTP,10-L1-10,2019-01-23 18:30:00.0,Qmin,9.33,CHCGILDTO6Y
MA6813400180,h_OCHCTP,10-L1-10,2019-01-23 18:30:00.0,PhaseCorrectionAve,-0.183,CHCGILDTO6Y
MA6813400180,h_OCHCTP,10-L1-10,2019-01-23 18:30:00.0,BerPreFecMax,0.0017,CHCGILDTO6Y
MA6813400180,h_OCHCTP,10-L1-10,2019-01-23 18:30:00.0,PmdMin,6.48,CHCGILDTO6Y
MA6813400180,h_OCHCTP,10-L1-10,2019-01-23 18:30:00.0,SoPmdAve,3307.42,CHCGILDTO6Y
MA6813400180,h_OCHCTP,10-L1-10,2019-01-23 18:45:00.0,Qmin,9.35,CHCGILDTO6Y
MA6813400180,h_OCHCTP,10-L1-10,2019-01-23 18:45:00.0,PhaseCorrectionAve,-0.122,CHCGILDTO6Y
MA6813400180,h_OCHCTP,10-L1-10,2019-01-23 18:45:00.0,BerPreFecMax,0.00168,CHCGILDTO6Y
MA6813400180,h_OCHCTP,10-L1-10,2019-01-23 18:45:00.0,PmdMin,8.56,CHCGILDTO6Y
MA6813400180,h_OCHCTP,10-L1-10,2019-01-23 18:45:00.0,SoPmdAve,3279.02,CHCGILDTO6Y
MA6813400180,h_OCHCTP,11-L1-1,2019-01-23 18:15:00.0,Qmin,9.15,CHCGILDTO6Y
MA6813400180,h_OCHCTP,11-L1-1,2019-01-23 18:15:00.0,PhaseCorrectionAve,1.49e-07,CHCGILDTO6Y
MA6813400180,h_OCHCTP,11-L1-1,2019-01-23 18:15:00.0,BerPreFecMax,0.00206,CHCGILDTO6Y
MA6813400180,h_OCHCTP,11-L1-1,2019-01-23 18:15:00.0,PmdMin,0.727,CHCGILDTO6Y
MA6813400180,h_OCHCTP,11-L1-1,2019-01-23 18:15:00.0,SoPmdAve,3339.15,CHCGILDTO6Y
MA6813400180,h_OCHCTP,11-L1-1,2019-01-23 18:30:00.0,Qmin,9.17,CHCGILDTO6Y
MA6813400180,h_OCHCTP,11-L1-1,2019-01-23 18:30:00.0,PhaseCorrectionAve,1.48e-07,CHCGILDTO6Y
MA6813400180,h_OCHCTP,11-L1-1,2019-01-23 18:30:00.0,BerPreFecMax,0.00203,CHCGILDTO6Y
MA6813400180,h_OCHCTP,11-L1-1,2019-01-23 18:30:00.0,PmdMin,0.953,CHCGILDTO6Y
MA6813400180,h_OCHCTP,11-L1-1,2019-01-23 18:30:00.0,SoPmdAve,3223.14,CHCGILDTO6Y
MA6813400180,h_OCHCTP,11-L1-1,2019-01-23 18:45:00.0,Qmin,9.15,CHCGILDTO6Y
MA6813400180,h_OCHCTP,11-L1-1,2019-01-23 18:45:00.0,PhaseCorrectionAve,1.53e-07,CHCGILDTO6Y
MA6813400180,h_OCHCTP,11-L1-1,2019-01-23 18:45:00.0,BerPreFecMax,0.00206,CHCGILDTO6Y
MA6813400180,h_OCHCTP,11-L1-1,2019-01-23 18:45:00.0,PmdMin,0.791,CHCGILDTO6Y
MA6813400180,h_OCHCTP,11-L1-1,2019-01-23 18:45:00.0,SoPmdAve,3254.09,CHCGILDTO6Y
MA6813400180,h_OCHCTP,11-L1-2,2019-01-23 18:15:00.0,Qmin,9.09,CHCGILDTO6Y
MA6813400180,h_OCHCTP,11-L1-2,2019-01-23 18:15:00.0,PhaseCorrectionAve,4.55e-07,CHCGILDTO6Y
MA6813400180,h_OCHCTP,11-L1-2,2019-01-23 18:15:00.0,BerPreFecMax,0.0022,CHCGILDTO6Y
MA6813400180,h_OCHCTP,11-L1-2,2019-01-23 18:15:00.0,PmdMin,0.817,CHCGILDTO6Y
MA6813400180,h_OCHCTP,11-L1-2,2019-01-23 18:15:00.0,SoPmdAve,3085.63,CHCGILDTO6Y
MA6813400180,h_OCHCTP,11-L1-2,2019-01-23 18:30:00.0,Qmin,9.1,CHCGILDTO6Y
MA6813400180,h_OCHCTP,11-L1-2,2019-01-23 18:30:00.0,PhaseCorrectionAve,4.5e-07,CHCGILDTO6Y
MA6813400180,h_OCHCTP,11-L1-2,2019-01-23 18:30:00.0,BerPreFecMax,0.00219,CHCGILDTO6Y
MA6813400180,h_OCHCTP,11-L1-2,2019-01-23 18:30:00.0,PmdMin,0.556,CHCGILDTO6Y
MA6813400180,h_OCHCTP,11-L1-2,2019-01-23 18:30:00.0,SoPmdAve,3084.34,CHCGILDTO6Y
MA6813400180,h_OCHCTP,11-L1-2,2019-01-23 18:45:00.0,Qmin,9.1,CHCGILDTO6Y
MA6813400180,h_OCHCTP,11-L1-2,2019-01-23 18:45:00.0,PhaseCorrectionAve,-0.061,CHCGILDTO6Y
MA6813400180,h_OCHCTP,11-L1-2,2019-01-23 18:45:00.0,BerPreFecMax,0.00219,CHCGILDTO6Y
MA6813400180,h_OCHCTP,11-L1-2,2019-01-23 18:45:00.0,PmdMin,0.859,CHCGILDTO6Y
MA6813400180,h_OCHCTP,11-L1-2,2019-01-23 18:45:00.0,SoPmdAve,3112.62,CHCGILDTO6Y
MA6813400180,h_OCHCTP,11-L1-3,2019-01-23 18:15:00.0,Qmin,8.99,CHCGILDTO6Y
MA6813400180,h_OCHCTP,11-L1-3,2019-01-23 18:15:00.0,PhaseCorrectionAve,3.91e-07,CHCGILDTO6Y
MA6813400180,h_OCHCTP,11-L1-3,2019-01-23 18:15:00.0,BerPreFecMax,0.00245,CHCGILDTO6Y
MA6813400180,h_OCHCTP,11-L1-3,2019-01-23 18:15:00.0,PmdMin,0.875,CHCGILDTO6Y
MA6813400180,h_OCHCTP,11-L1-3,2019-01-23 18:15:00.0,SoPmdAve,2770.35,CHCGILDTO6Y
MA6813400180,h_OCHCTP,11-L1-3,2019-01-23 18:30:00.0,Qmin,9.01,CHCGILDTO6Y
MA6813400180,h_OCHCTP,11-L1-3,2019-01-23 18:30:00.0,PhaseCorrectionAve,-0.061,CHCGILDTO6Y
MA6813400180,h_OCHCTP,11-L1-3,2019-01-23 18:30:00.0,BerPreFecMax,0.00239,CHCGILDTO6Y
MA6813400180,h_OCHCTP,11-L1-3,2019-01-23 18:30:00.0,PmdMin,0.487,CHCGILDTO6Y
MA6813400180,h_OCHCTP,11-L1-3,2019-01-23 18:30:00.0,SoPmdAve,2756.57,CHCGILDTO6Y
MA6813400180,h_OCHCTP,11-L1-3,2019-01-23 18:45:00.0,Qmin,9.01,CHCGILDTO6Y
MA6813400180,h_OCHCTP,11-L1-3,2019-01-23 18:45:00.0,PhaseCorrectionAve,-0.061,CHCGILDTO6Y
MA6813400180,h_OCHCTP,11-L1-3,2019-01-23 18:45:00.0,BerPreFecMax,0.00239,CHCGILDTO6Y
MA6813400180,h_OCHCTP,11-L1-3,2019-01-23 18:45:00.0,PmdMin,0.726,CHCGILDTO6Y
MA6813400180,h_OCHCTP,11-L1-3,2019-01-23 18:45:00.0,SoPmdAve,2691.84,CHCGILDTO6Y
MA6813400180,h_OCHCTP,11-L1-4,2019-01-23 18:15:00.0,Qmin,8.81,CHCGILDTO6Y
MA6813400180,h_OCHCTP,11-L1-4,2019-01-23 18:15:00.0,PhaseCorrectionAve,-0.061,CHCGILDTO6Y
MA6813400180,h_OCHCTP,11-L1-4,2019-01-23 18:15:00.0,BerPreFecMax,0.00291,CHCGILDTO6Y
MA6813400180,h_OCHCTP,11-L1-4,2019-01-23 18:15:00.0,PmdMin,0.988,CHCGILDTO6Y
MA6813400180,h_OCHCTP,11-L1-4,2019-01-23 18:15:00.0,SoPmdAve,2969.19,CHCGILDTO6Y
MA6813400180,h_OCHCTP,11-L1-4,2019-01-23 18:30:00.0,Qmin,8.83,CHCGILDTO6Y
MA6813400180,h_OCHCTP,11-L1-4,2019-01-23 18:30:00.0,PhaseCorrectionAve,-0.061,CHCGILDTO6Y
MA6813400180,h_OCHCTP,11-L1-4,2019-01-23 18:30:00.0,BerPreFecMax,0.00286,CHCGILDTO6Y
MA6813400180,h_OCHCTP,11-L1-4,2019-01-23 18:30:00.0,PmdMin,0.768,CHCGILDTO6Y
MA6813400180,h_OCHCTP,11-L1-4,2019-01-23 18:30:00.0,SoPmdAve,2920.98,CHCGILDTO6Y
MA6813400180,h_OCHCTP,11-L1-4,2019-01-23 18:45:00.0,Qmin,8.86,CHCGILDTO6Y
MA6813400180,h_OCHCTP,11-L1-4,2019-01-23 18:45:00.0,PhaseCorrectionAve,-0.122,CHCGILDTO6Y
MA6813400180,h_OCHCTP,11-L1-4,2019-01-23 18:45:00.0,BerPreFecMax,0.00277,CHCGILDTO6Y
MA6813400180,h_OCHCTP,11-L1-4,2019-01-23 18:45:00.0,PmdMin,0.983,CHCGILDTO6Y
MA6813400180,h_OCHCTP,11-L1-4,2019-01-23 18:45:00.0,SoPmdAve,2979.59,CHCGILDTO6Y
MA6813400180,h_OCHCTP,11-L1-5,2019-01-23 18:15:00.0,Qmin,8.87,CHCGILDTO6Y
MA6813400180,h_OCHCTP,11-L1-5,2019-01-23 18:15:00.0,PhaseCorrectionAve,-0.061,CHCGILDTO6Y
MA6813400180,h_OCHCTP,11-L1-5,2019-01-23 18:15:00.0,BerPreFecMax,0.00274,CHCGILDTO6Y
MA6813400180,h_OCHCTP,11-L1-5,2019-01-23 18:15:00.0,PmdMin,0.631,CHCGILDTO6Y
MA6813400180,h_OCHCTP,11-L1-5,2019-01-23 18:15:00.0,SoPmdAve,2553.72,CHCGILDTO6Y
MA6813400180,h_OCHCTP,11-L1-5,2019-01-23 18:30:00.0,Qmin,8.9,CHCGILDTO6Y
MA6813400180,h_OCHCTP,11-L1-5,2019-01-23 18:30:00.0,PhaseCorrectionAve,-0.061,CHCGILDTO6Y
MA6813400180,h_OCHCTP,11-L1-5,2019-01-23 18:30:00.0,BerPreFecMax,0.00266,CHCGILDTO6Y
MA6813400180,h_OCHCTP,11-L1-5,2019-01-23 18:30:00.0,PmdMin,0.636,CHCGILDTO6Y
MA6813400180,h_OCHCTP,11-L1-5,2019-01-23 18:30:00.0,SoPmdAve,2576.04,CHCGILDTO6Y
MA6813400180,h_OCHCTP,11-L1-5,2019-01-23 18:45:00.0,Qmin,8.91,CHCGILDTO6Y
MA6813400180,h_OCHCTP,11-L1-5,2019-01-23 18:45:00.0,PhaseCorrectionAve,-0.122,CHCGILDTO6Y
MA6813400180,h_OCHCTP,11-L1-5,2019-01-23 18:45:00.0,BerPreFecMax,0.00263,CHCGILDTO6Y
MA6813400180,h_OCHCTP,11-L1-5,2019-01-23 18:45:00.0,PmdMin,0.272,CHCGILDTO6Y
MA6813400180,h_OCHCTP,11-L1-5,2019-01-23 18:45:00.0,SoPmdAve,2477.97,CHCGILDTO6Y
MA6813400180,h_OCHCTP,11-L1-6,2019-01-23 18:15:00.0,Qmin,8.82,CHCGILDTO6Y
MA6813400180,h_OCHCTP,11-L1-6,2019-01-23 18:15:00.0,PhaseCorrectionAve,-0.122,CHCGILDTO6Y
MA6813400180,h_OCHCTP,11-L1-6,2019-01-23 18:15:00.0,BerPreFecMax,0.00289,CHCGILDTO6Y
MA6813400180,h_OCHCTP,11-L1-6,2019-01-23 18:15:00.0,PmdMin,1.45,CHCGILDTO6Y
MA6813400180,h_OCHCTP,11-L1-6,2019-01-23 18:15:00.0,SoPmdAve,2529.1,CHCGILDTO6Y
MA6813400180,h_OCHCTP,11-L1-6,2019-01-23 18:30:00.0,Qmin,8.82,CHCGILDTO6Y
MA6813400180,h_OCHCTP,11-L1-6,2019-01-23 18:30:00.0,PhaseCorrectionAve,-0.061,CHCGILDTO6Y
MA6813400180,h_OCHCTP,11-L1-6,2019-01-23 18:30:00.0,BerPreFecMax,0.00289,CHCGILDTO6Y
MA6813400180,h_OCHCTP,11-L1-6,2019-01-23 18:30:00.0,PmdMin,0.977,CHCGILDTO6Y
MA6813400180,h_OCHCTP,11-L1-6,2019-01-23 18:30:00.0,SoPmdAve,2516.81,CHCGILDTO6Y
MA6813400180,h_OCHCTP,11-L1-6,2019-01-23 18:45:00.0,Qmin,8.84,CHCGILDTO6Y
MA6813400180,h_OCHCTP,11-L1-6,2019-01-23 18:45:00.0,PhaseCorrectionAve,-0.183,CHCGILDTO6Y
MA6813400180,h_OCHCTP,11-L1-6,2019-01-23 18:45:00.0,BerPreFecMax,0.00284,CHCGILDTO6Y
MA6813400180,h_OCHCTP,11-L1-6,2019-01-23 18:45:00.0,PmdMin,0.64,CHCGILDTO6Y
MA6813400180,h_OCHCTP,11-L1-6,2019-01-23 18:45:00.0,SoPmdAve,2471.62,CHCGILDTO6Y
MA6813400180,h_OCHCTP,11-L1-7,2019-01-23 18:15:00.0,Qmin,8.88,CHCGILDTO6Y
MA6813400180,h_OCHCTP,11-L1-7,2019-01-23 18:15:00.0,PhaseCorrectionAve,-0.183,CHCGILDTO6Y
MA6813400180,h_OCHCTP,11-L1-7,2019-01-23 18:15:00.0,BerPreFecMax,0.00271,CHCGILDTO6Y
MA6813400180,h_OCHCTP,11-L1-7,2019-01-23 18:15:00.0,PmdMin,1.1,CHCGILDTO6Y
MA6813400180,h_OCHCTP,11-L1-7,2019-01-23 18:15:00.0,SoPmdAve,2996.28,CHCGILDTO6Y
MA6813400180,h_OCHCTP,11-L1-7,2019-01-23 18:30:00.0,Qmin,8.88,CHCGILDTO6Y
MA6813400180,h_OCHCTP,11-L1-7,2019-01-23 18:30:00.0,PhaseCorrectionAve,-0.122,CHCGILDTO6Y
MA6813400180,h_OCHCTP,11-L1-7,2019-01-23 18:30:00.0,BerPreFecMax,0.00272,CHCGILDTO6Y
MA6813400180,h_OCHCTP,11-L1-7,2019-01-23 18:30:00.0,PmdMin,0.415,CHCGILDTO6Y
MA6813400180,h_OCHCTP,11-L1-7,2019-01-23 18:30:00.0,SoPmdAve,3013.0,CHCGILDTO6Y
MA6813400180,h_OCHCTP,11-L1-7,2019-01-23 18:45:00.0,Qmin,8.85,CHCGILDTO6Y
MA6813400180,h_OCHCTP,11-L1-7,2019-01-23 18:45:00.0,PhaseCorrectionAve,-0.244,CHCGILDTO6Y
MA6813400180,h_OCHCTP,11-L1-7,2019-01-23 18:45:00.0,BerPreFecMax,0.0028,CHCGILDTO6Y
MA6813400180,h_OCHCTP,11-L1-7,2019-01-23 18:45:00.0,PmdMin,0.779,CHCGILDTO6Y
MA6813400180,h_OCHCTP,11-L1-7,2019-01-23 18:45:00.0,SoPmdAve,2942.06,CHCGILDTO6Y
MA6813400180,h_OCHCTP,11-L1-8,2019-01-23 18:15:00.0,Qmin,8.95,CHCGILDTO6Y
MA6813400180,h_OCHCTP,11-L1-8,2019-01-23 18:15:00.0,PhaseCorrectionAve,-0.183,CHCGILDTO6Y
MA6813400180,h_OCHCTP,11-L1-8,2019-01-23 18:15:00.0,BerPreFecMax,0.00253,CHCGILDTO6Y
MA6813400180,h_OCHCTP,11-L1-8,2019-01-23 18:15:00.0,PmdMin,0.64,CHCGILDTO6Y
MA6813400180,h_OCHCTP,11-L1-8,2019-01-23 18:15:00.0,SoPmdAve,3157.94,CHCGILDTO6Y
MA6813400180,h_OCHCTP,11-L1-8,2019-01-23 18:30:00.0,Qmin,8.95,CHCGILDTO6Y
MA6813400180,h_OCHCTP,11-L1-8,2019-01-23 18:30:00.0,PhaseCorrectionAve,-0.183,CHCGILDTO6Y
MA6813400180,h_OCHCTP,11-L1-8,2019-01-23 18:30:00.0,BerPreFecMax,0.00253,CHCGILDTO6Y
MA6813400180,h_OCHCTP,11-L1-8,2019-01-23 18:30:00.0,PmdMin,1.42,CHCGILDTO6Y
MA6813400180,h_OCHCTP,11-L1-8,2019-01-23 18:30:00.0,SoPmdAve,3101.6,CHCGILDTO6Y
MA6813400180,h_OCHCTP,11-L1-8,2019-01-23 18:45:00.0,Qmin,8.93,CHCGILDTO6Y
MA6813400180,h_OCHCTP,11-L1-8,2019-01-23 18:45:00.0,PhaseCorrectionAve,-0.244,CHCGILDTO6Y
MA6813400180,h_OCHCTP,11-L1-8,2019-01-23 18:45:00.0,BerPreFecMax,0.00259,CHCGILDTO6Y
MA6813400180,h_OCHCTP,11-L1-8,2019-01-23 18:45:00.0,PmdMin,1.46,CHCGILDTO6Y
MA6813400180,h_OCHCTP,11-L1-8,2019-01-23 18:45:00.0,SoPmdAve,3084.0,CHCGILDTO6Y
MA6813400180,h_OCHCTP,11-L1-9,2019-01-23 18:15:00.0,Qmin,8.86,CHCGILDTO6Y
MA6813400180,h_OCHCTP,11-L1-9,2019-01-23 18:15:00.0,PhaseCorrectionAve,-0.183,CHCGILDTO6Y
MA6813400180,h_OCHCTP,11-L1-9,2019-01-23 18:15:00.0,BerPreFecMax,0.00276,CHCGILDTO6Y
MA6813400180,h_OCHCTP,11-L1-9,2019-01-23 18:15:00.0,PmdMin,1.08,CHCGILDTO6Y
MA6813400180,h_OCHCTP,11-L1-9,2019-01-23 18:15:00.0,SoPmdAve,3116.83,CHCGILDTO6Y
MA6813400180,h_OCHCTP,11-L1-9,2019-01-23 18:30:00.0,Qmin,8.89,CHCGILDTO6Y
MA6813400180,h_OCHCTP,11-L1-9,2019-01-23 18:30:00.0,PhaseCorrectionAve,-0.305,CHCGILDTO6Y
MA6813400180,h_OCHCTP,11-L1-9,2019-01-23 18:30:00.0,BerPreFecMax,0.0027,CHCGILDTO6Y
MA6813400180,h_OCHCTP,11-L1-9,2019-01-23 18:30:00.0,PmdMin,0.773,CHCGILDTO6Y
MA6813400180,h_OCHCTP,11-L1-9,2019-01-23 18:30:00.0,SoPmdAve,3151.81,CHCGILDTO6Y
MA6813400180,h_OCHCTP,11-L1-9,2019-01-23 18:45:00.0,Qmin,8.86,CHCGILDTO6Y
MA6813400180,h_OCHCTP,11-L1-9,2019-01-23 18:45:00.0,PhaseCorrectionAve,-0.244,CHCGILDTO6Y
MA6813400180,h_OCHCTP,11-L1-9,2019-01-23 18:45:00.0,BerPreFecMax,0.00276,CHCGILDTO6Y
MA6813400180,h_OCHCTP,11-L1-9,2019-01-23 18:45:00.0,PmdMin,0.934,CHCGILDTO6Y
MA6813400180,h_OCHCTP,11-L1-9,2019-01-23 18:45:00.0,SoPmdAve,3128.44,CHCGILDTO6Y
MA6813400180,h_OCHCTP,11-L1-10,2019-01-23 18:15:00.0,Qmin,8.96,CHCGILDTO6Y
MA6813400180,h_OCHCTP,11-L1-10,2019-01-23 18:15:00.0,PhaseCorrectionAve,-0.183,CHCGILDTO6Y
MA6813400180,h_OCHCTP,11-L1-10,2019-01-23 18:15:00.0,BerPreFecMax,0.00251,CHCGILDTO6Y
MA6813400180,h_OCHCTP,11-L1-10,2019-01-23 18:15:00.0,PmdMin,0.385,CHCGILDTO6Y
MA6813400180,h_OCHCTP,11-L1-10,2019-01-23 18:15:00.0,SoPmdAve,3048.39,CHCGILDTO6Y
MA6813400180,h_OCHCTP,11-L1-10,2019-01-23 18:30:00.0,Qmin,9.0,CHCGILDTO6Y
MA6813400180,h_OCHCTP,11-L1-10,2019-01-23 18:30:00.0,PhaseCorrectionAve,-0.305,CHCGILDTO6Y
MA6813400180,h_OCHCTP,11-L1-10,2019-01-23 18:30:00.0,BerPreFecMax,0.00242,CHCGILDTO6Y
MA6813400180,h_OCHCTP,11-L1-10,2019-01-23 18:30:00.0,PmdMin,0.86,CHCGILDTO6Y
MA6813400180,h_OCHCTP,11-L1-10,2019-01-23 18:30:00.0,SoPmdAve,3059.22,CHCGILDTO6Y
MA6813400180,h_OCHCTP,11-L1-10,2019-01-23 18:45:00.0,Qmin,8.97,CHCGILDTO6Y
MA6813400180,h_OCHCTP,11-L1-10,2019-01-23 18:45:00.0,PhaseCorrectionAve,-0.305,CHCGILDTO6Y
MA6813400180,h_OCHCTP,11-L1-10,2019-01-23 18:45:00.0,BerPreFecMax,0.0025,CHCGILDTO6Y
MA6813400180,h_OCHCTP,11-L1-10,2019-01-23 18:45:00.0,PmdMin,1.14,CHCGILDTO6Y
MA6813400180,h_OCHCTP,11-L1-10,2019-01-23 18:45:00.0,SoPmdAve,3106.46,CHCGILDTO6Y
MA6813400180,h_OCHCTP,13-L1-1,2019-01-23 18:15:00.0,Qmin,9.19,CHCGILDTO6Y
MA6813400180,h_OCHCTP,13-L1-1,2019-01-23 18:15:00.0,PhaseCorrectionAve,2.77e-07,CHCGILDTO6Y
MA6813400180,h_OCHCTP,13-L1-1,2019-01-23 18:15:00.0,BerPreFecMax,0.00199,CHCGILDTO6Y
MA6813400180,h_OCHCTP,13-L1-1,2019-01-23 18:15:00.0,PmdMin,0.197,CHCGILDTO6Y
MA6813400180,h_OCHCTP,13-L1-1,2019-01-23 18:15:00.0,SoPmdAve,3498.14,CHCGILDTO6Y
MA6813400180,h_OCHCTP,13-L1-1,2019-01-23 18:30:00.0,Qmin,9.19,CHCGILDTO6Y
MA6813400180,h_OCHCTP,13-L1-1,2019-01-23 18:30:00.0,PhaseCorrectionAve,2.74e-07,CHCGILDTO6Y
MA6813400180,h_OCHCTP,13-L1-1,2019-01-23 18:30:00.0,BerPreFecMax,0.00199,CHCGILDTO6Y
MA6813400180,h_OCHCTP,13-L1-1,2019-01-23 18:30:00.0,PmdMin,1.25,CHCGILDTO6Y
MA6813400180,h_OCHCTP,13-L1-1,2019-01-23 18:30:00.0,SoPmdAve,3624.89,CHCGILDTO6Y
MA6813400180,h_OCHCTP,13-L1-1,2019-01-23 18:45:00.0,Qmin,9.19,CHCGILDTO6Y
MA6813400180,h_OCHCTP,13-L1-1,2019-01-23 18:45:00.0,PhaseCorrectionAve,2.73e-07,CHCGILDTO6Y
MA6813400180,h_OCHCTP,13-L1-1,2019-01-23 18:45:00.0,BerPreFecMax,0.00198,CHCGILDTO6Y
MA6813400180,h_OCHCTP,13-L1-1,2019-01-23 18:45:00.0,PmdMin,0.794,CHCGILDTO6Y
MA6813400180,h_OCHCTP,13-L1-1,2019-01-23 18:45:00.0,SoPmdAve,3583.21,CHCGILDTO6Y
MA6813400180,h_OCHCTP,13-L1-2,2019-01-23 18:15:00.0,Qmin,9.19,CHCGILDTO6Y
MA6813400180,h_OCHCTP,13-L1-2,2019-01-23 18:15:00.0,PhaseCorrectionAve,3.43e-07,CHCGILDTO6Y
MA6813400180,h_OCHCTP,13-L1-2,2019-01-23 18:15:00.0,BerPreFecMax,0.00198,CHCGILDTO6Y
MA6813400180,h_OCHCTP,13-L1-2,2019-01-23 18:15:00.0,PmdMin,0.633,CHCGILDTO6Y
MA6813400180,h_OCHCTP,13-L1-2,2019-01-23 18:15:00.0,SoPmdAve,3399.42,CHCGILDTO6Y
MA6813400180,h_OCHCTP,13-L1-2,2019-01-23 18:30:00.0,Qmin,9.19,CHCGILDTO6Y
MA6813400180,h_OCHCTP,13-L1-2,2019-01-23 18:30:00.0,PhaseCorrectionAve,3.31e-07,CHCGILDTO6Y
MA6813400180,h_OCHCTP,13-L1-2,2019-01-23 18:30:00.0,BerPreFecMax,0.00198,CHCGILDTO6Y
MA6813400180,h_OCHCTP,13-L1-2,2019-01-23 18:30:00.0,PmdMin,1.47,CHCGILDTO6Y
MA6813400180,h_OCHCTP,13-L1-2,2019-01-23 18:30:00.0,SoPmdAve,3443.13,CHCGILDTO6Y
MA6813400180,h_OCHCTP,13-L1-2,2019-01-23 18:45:00.0,Qmin,9.17,CHCGILDTO6Y
MA6813400180,h_OCHCTP,13-L1-2,2019-01-23 18:45:00.0,PhaseCorrectionAve,-0.0611,CHCGILDTO6Y
MA6813400180,h_OCHCTP,13-L1-2,2019-01-23 18:45:00.0,BerPreFecMax,0.00202,CHCGILDTO6Y
MA6813400180,h_OCHCTP,13-L1-2,2019-01-23 18:45:00.0,PmdMin,1.31,CHCGILDTO6Y
MA6813400180,h_OCHCTP,13-L1-2,2019-01-23 18:45:00.0,SoPmdAve,3412.9,CHCGILDTO6Y
MA6813400180,h_OCHCTP,13-L1-3,2019-01-23 18:15:00.0,Qmin,9.01,CHCGILDTO6Y
MA6813400180,h_OCHCTP,13-L1-3,2019-01-23 18:15:00.0,PhaseCorrectionAve,5.18e-07,CHCGILDTO6Y
MA6813400180,h_OCHCTP,13-L1-3,2019-01-23 18:15:00.0,BerPreFecMax,0.0024,CHCGILDTO6Y
MA6813400180,h_OCHCTP,13-L1-3,2019-01-23 18:15:00.0,PmdMin,1.14,CHCGILDTO6Y
MA6813400180,h_OCHCTP,13-L1-3,2019-01-23 18:15:00.0,SoPmdAve,2877.48,CHCGILDTO6Y
MA6813400180,h_OCHCTP,13-L1-3,2019-01-23 18:30:00.0,Qmin,9.01,CHCGILDTO6Y
MA6813400180,h_OCHCTP,13-L1-3,2019-01-23 18:30:00.0,PhaseCorrectionAve,5.01e-07,CHCGILDTO6Y
MA6813400180,h_OCHCTP,13-L1-3,2019-01-23 18:30:00.0,BerPreFecMax,0.0024,CHCGILDTO6Y
MA6813400180,h_OCHCTP,13-L1-3,2019-01-23 18:30:00.0,PmdMin,1.2,CHCGILDTO6Y
MA6813400180,h_OCHCTP,13-L1-3,2019-01-23 18:30:00.0,SoPmdAve,2916.32,CHCGILDTO6Y
MA6813400180,h_OCHCTP,13-L1-3,2019-01-23 18:45:00.0,Qmin,9.0,CHCGILDTO6Y
MA6813400180,h_OCHCTP,13-L1-3,2019-01-23 18:45:00.0,PhaseCorrectionAve,-0.0611,CHCGILDTO6Y
MA6813400180,h_OCHCTP,13-L1-3,2019-01-23 18:45:00.0,BerPreFecMax,0.00241,CHCGILDTO6Y
MA6813400180,h_OCHCTP,13-L1-3,2019-01-23 18:45:00.0,PmdMin,0.589,CHCGILDTO6Y
MA6813400180,h_OCHCTP,13-L1-3,2019-01-23 18:45:00.0,SoPmdAve,2875.15,CHCGILDTO6Y
MA6813400180,h_OCHCTP,13-L1-4,2019-01-23 18:15:00.0,Qmin,8.8,CHCGILDTO6Y
MA6813400180,h_OCHCTP,13-L1-4,2019-01-23 18:15:00.0,PhaseCorrectionAve,5.07e-07,CHCGILDTO6Y
MA6813400180,h_OCHCTP,13-L1-4,2019-01-23 18:15:00.0,BerPreFecMax,0.00295,CHCGILDTO6Y
MA6813400180,h_OCHCTP,13-L1-4,2019-01-23 18:15:00.0,PmdMin,0.844,CHCGILDTO6Y
MA6813400180,h_OCHCTP,13-L1-4,2019-01-23 18:15:00.0,SoPmdAve,3448.85,CHCGILDTO6Y
MA6813400180,h_OCHCTP,13-L1-4,2019-01-23 18:30:00.0,Qmin,8.78,CHCGILDTO6Y
MA6813400180,h_OCHCTP,13-L1-4,2019-01-23 18:30:00.0,PhaseCorrectionAve,5.02e-07,CHCGILDTO6Y
MA6813400180,h_OCHCTP,13-L1-4,2019-01-23 18:30:00.0,BerPreFecMax,0.00299,CHCGILDTO6Y
MA6813400180,h_OCHCTP,13-L1-4,2019-01-23 18:30:00.0,PmdMin,0.786,CHCGILDTO6Y
MA6813400180,h_OCHCTP,13-L1-4,2019-01-23 18:30:00.0,SoPmdAve,3354.27,CHCGILDTO6Y
MA6813400180,h_OCHCTP,13-L1-4,2019-01-23 18:45:00.0,Qmin,8.81,CHCGILDTO6Y
MA6813400180,h_OCHCTP,13-L1-4,2019-01-23 18:45:00.0,PhaseCorrectionAve,-0.0611,CHCGILDTO6Y
MA6813400180,h_OCHCTP,13-L1-4,2019-01-23 18:45:00.0,BerPreFecMax,0.00291,CHCGILDTO6Y
MA6813400180,h_OCHCTP,13-L1-4,2019-01-23 18:45:00.0,PmdMin,0.657,CHCGILDTO6Y
MA6813400180,h_OCHCTP,13-L1-4,2019-01-23 18:45:00.0,SoPmdAve,3281.62,CHCGILDTO6Y
MA6813400180,h_OCHCTP,13-L1-5,2019-01-23 18:15:00.0,Qmin,8.77,CHCGILDTO6Y
MA6813400180,h_OCHCTP,13-L1-5,2019-01-23 18:15:00.0,PhaseCorrectionAve,3.21e-07,CHCGILDTO6Y
MA6813400180,h_OCHCTP,13-L1-5,2019-01-23 18:15:00.0,BerPreFecMax,0.00302,CHCGILDTO6Y
MA6813400180,h_OCHCTP,13-L1-5,2019-01-23 18:15:00.0,PmdMin,0.309,CHCGILDTO6Y
MA6813400180,h_OCHCTP,13-L1-5,2019-01-23 18:15:00.0,SoPmdAve,2817.46,CHCGILDTO6Y
MA6813400180,h_OCHCTP,13-L1-5,2019-01-23 18:30:00.0,Qmin,8.78,CHCGILDTO6Y
MA6813400180,h_OCHCTP,13-L1-5,2019-01-23 18:30:00.0,PhaseCorrectionAve,3.13e-07,CHCGILDTO6Y
MA6813400180,h_OCHCTP,13-L1-5,2019-01-23 18:30:00.0,BerPreFecMax,0.003,CHCGILDTO6Y
MA6813400180,h_OCHCTP,13-L1-5,2019-01-23 18:30:00.0,PmdMin,1.38,CHCGILDTO6Y
MA6813400180,h_OCHCTP,13-L1-5,2019-01-23 18:30:00.0,SoPmdAve,2854.89,CHCGILDTO6Y
MA6813400180,h_OCHCTP,13-L1-5,2019-01-23 18:45:00.0,Qmin,8.8,CHCGILDTO6Y
MA6813400180,h_OCHCTP,13-L1-5,2019-01-23 18:45:00.0,PhaseCorrectionAve,-0.0611,CHCGILDTO6Y
MA6813400180,h_OCHCTP,13-L1-5,2019-01-23 18:45:00.0,BerPreFecMax,0.00294,CHCGILDTO6Y
MA6813400180,h_OCHCTP,13-L1-5,2019-01-23 18:45:00.0,PmdMin,1.27,CHCGILDTO6Y
MA6813400180,h_OCHCTP,13-L1-5,2019-01-23 18:45:00.0,SoPmdAve,2726.5,CHCGILDTO6Y
MA6813400180,h_OCHCTP,13-L1-6,2019-01-23 18:15:00.0,Qmin,8.83,CHCGILDTO6Y
MA6813400180,h_OCHCTP,13-L1-6,2019-01-23 18:15:00.0,PhaseCorrectionAve,5.13e-07,CHCGILDTO6Y
MA6813400180,h_OCHCTP,13-L1-6,2019-01-23 18:15:00.0,BerPreFecMax,0.00285,CHCGILDTO6Y
MA6813400180,h_OCHCTP,13-L1-6,2019-01-23 18:15:00.0,PmdMin,0.679,CHCGILDTO6Y
MA6813400180,h_OCHCTP,13-L1-6,2019-01-23 18:15:00.0,SoPmdAve,3029.32,CHCGILDTO6Y
MA6813400180,h_OCHCTP,13-L1-6,2019-01-23 18:30:00.0,Qmin,8.83,CHCGILDTO6Y
MA6813400180,h_OCHCTP,13-L1-6,2019-01-23 18:30:00.0,PhaseCorrectionAve,5.1e-07,CHCGILDTO6Y
MA6813400180,h_OCHCTP,13-L1-6,2019-01-23 18:30:00.0,BerPreFecMax,0.00286,CHCGILDTO6Y
MA6813400180,h_OCHCTP,13-L1-6,2019-01-23 18:30:00.0,PmdMin,0.852,CHCGILDTO6Y
MA6813400180,h_OCHCTP,13-L1-6,2019-01-23 18:30:00.0,SoPmdAve,3036.15,CHCGILDTO6Y
MA6813400180,h_OCHCTP,13-L1-6,2019-01-23 18:45:00.0,Qmin,8.81,CHCGILDTO6Y
MA6813400180,h_OCHCTP,13-L1-6,2019-01-23 18:45:00.0,PhaseCorrectionAve,-0.122,CHCGILDTO6Y
MA6813400180,h_OCHCTP,13-L1-6,2019-01-23 18:45:00.0,BerPreFecMax,0.00292,CHCGILDTO6Y
MA6813400180,h_OCHCTP,13-L1-6,2019-01-23 18:45:00.0,PmdMin,0.67,CHCGILDTO6Y
MA6813400180,h_OCHCTP,13-L1-6,2019-01-23 18:45:00.0,SoPmdAve,3092.09,CHCGILDTO6Y
MA6813400180,h_OCHCTP,13-L1-7,2019-01-23 18:15:00.0,Qmin,8.81,CHCGILDTO6Y
MA6813400180,h_OCHCTP,13-L1-7,2019-01-23 18:15:00.0,PhaseCorrectionAve,4.19e-07,CHCGILDTO6Y
MA6813400180,h_OCHCTP,13-L1-7,2019-01-23 18:15:00.0,BerPreFecMax,0.00293,CHCGILDTO6Y
MA6813400180,h_OCHCTP,13-L1-7,2019-01-23 18:15:00.0,PmdMin,0.863,CHCGILDTO6Y
MA6813400180,h_OCHCTP,13-L1-7,2019-01-23 18:15:00.0,SoPmdAve,3764.59,CHCGILDTO6Y
MA6813400180,h_OCHCTP,13-L1-7,2019-01-23 18:30:00.0,Qmin,8.81,CHCGILDTO6Y
MA6813400180,h_OCHCTP,13-L1-7,2019-01-23 18:30:00.0,PhaseCorrectionAve,4.17e-07,CHCGILDTO6Y
MA6813400180,h_OCHCTP,13-L1-7,2019-01-23 18:30:00.0,BerPreFecMax,0.0029,CHCGILDTO6Y
MA6813400180,h_OCHCTP,13-L1-7,2019-01-23 18:30:00.0,PmdMin,0.607,CHCGILDTO6Y
MA6813400180,h_OCHCTP,13-L1-7,2019-01-23 18:30:00.0,SoPmdAve,3764.99,CHCGILDTO6Y
MA6813400180,h_OCHCTP,13-L1-7,2019-01-23 18:45:00.0,Qmin,8.82,CHCGILDTO6Y
MA6813400180,h_OCHCTP,13-L1-7,2019-01-23 18:45:00.0,PhaseCorrectionAve,-0.122,CHCGILDTO6Y
MA6813400180,h_OCHCTP,13-L1-7,2019-01-23 18:45:00.0,BerPreFecMax,0.00289,CHCGILDTO6Y
MA6813400180,h_OCHCTP,13-L1-7,2019-01-23 18:45:00.0,PmdMin,1.06,CHCGILDTO6Y
MA6813400180,h_OCHCTP,13-L1-7,2019-01-23 18:45:00.0,SoPmdAve,3625.45,CHCGILDTO6Y
MA6813400180,h_OCHCTP,13-L1-8,2019-01-23 18:15:00.0,Qmin,8.91,CHCGILDTO6Y
MA6813400180,h_OCHCTP,13-L1-8,2019-01-23 18:15:00.0,PhaseCorrectionAve,8.4e-07,CHCGILDTO6Y
MA6813400180,h_OCHCTP,13-L1-8,2019-01-23 18:15:00.0,BerPreFecMax,0.00264,CHCGILDTO6Y
MA6813400180,h_OCHCTP,13-L1-8,2019-01-23 18:15:00.0,PmdMin,1.43,CHCGILDTO6Y
MA6813400180,h_OCHCTP,13-L1-8,2019-01-23 18:15:00.0,SoPmdAve,3916.13,CHCGILDTO6Y
MA6813400180,h_OCHCTP,13-L1-8,2019-01-23 18:30:00.0,Qmin,8.89,CHCGILDTO6Y
MA6813400180,h_OCHCTP,13-L1-8,2019-01-23 18:30:00.0,PhaseCorrectionAve,-0.122,CHCGILDTO6Y
MA6813400180,h_OCHCTP,13-L1-8,2019-01-23 18:30:00.0,BerPreFecMax,0.00268,CHCGILDTO6Y
MA6813400180,h_OCHCTP,13-L1-8,2019-01-23 18:30:00.0,PmdMin,0.931,CHCGILDTO6Y
MA6813400180,h_OCHCTP,13-L1-8,2019-01-23 18:30:00.0,SoPmdAve,4028.16,CHCGILDTO6Y
MA6813400180,h_OCHCTP,13-L1-8,2019-01-23 18:45:00.0,Qmin,8.88,CHCGILDTO6Y
MA6813400180,h_OCHCTP,13-L1-8,2019-01-23 18:45:00.0,PhaseCorrectionAve,-0.122,CHCGILDTO6Y
MA6813400180,h_OCHCTP,13-L1-8,2019-01-23 18:45:00.0,BerPreFecMax,0.00273,CHCGILDTO6Y
MA6813400180,h_OCHCTP,13-L1-8,2019-01-23 18:45:00.0,PmdMin,1.74,CHCGILDTO6Y
MA6813400180,h_OCHCTP,13-L1-8,2019-01-23 18:45:00.0,SoPmdAve,3873.32,CHCGILDTO6Y
MA6813400180,h_OCHCTP,13-L1-9,2019-01-23 18:15:00.0,Qmin,8.86,CHCGILDTO6Y
MA6813400180,h_OCHCTP,13-L1-9,2019-01-23 18:15:00.0,PhaseCorrectionAve,3.14e-06,CHCGILDTO6Y
MA6813400180,h_OCHCTP,13-L1-9,2019-01-23 18:15:00.0,BerPreFecMax,0.00278,CHCGILDTO6Y
MA6813400180,h_OCHCTP,13-L1-9,2019-01-23 18:15:00.0,PmdMin,1.24,CHCGILDTO6Y
MA6813400180,h_OCHCTP,13-L1-9,2019-01-23 18:15:00.0,SoPmdAve,3506.81,CHCGILDTO6Y
MA6813400180,h_OCHCTP,13-L1-9,2019-01-23 18:30:00.0,Qmin,8.85,CHCGILDTO6Y
MA6813400180,h_OCHCTP,13-L1-9,2019-01-23 18:30:00.0,PhaseCorrectionAve,-0.122,CHCGILDTO6Y
MA6813400180,h_OCHCTP,13-L1-9,2019-01-23 18:30:00.0,BerPreFecMax,0.00279,CHCGILDTO6Y
MA6813400180,h_OCHCTP,13-L1-9,2019-01-23 18:30:00.0,PmdMin,0.665,CHCGILDTO6Y
MA6813400180,h_OCHCTP,13-L1-9,2019-01-23 18:30:00.0,SoPmdAve,3605.89,CHCGILDTO6Y
MA6813400180,h_OCHCTP,13-L1-9,2019-01-23 18:45:00.0,Qmin,8.83,CHCGILDTO6Y
MA6813400180,h_OCHCTP,13-L1-9,2019-01-23 18:45:00.0,PhaseCorrectionAve,-0.122,CHCGILDTO6Y
MA6813400180,h_OCHCTP,13-L1-9,2019-01-23 18:45:00.0,BerPreFecMax,0.00286,CHCGILDTO6Y
MA6813400180,h_OCHCTP,13-L1-9,2019-01-23 18:45:00.0,PmdMin,1.16,CHCGILDTO6Y
MA6813400180,h_OCHCTP,13-L1-9,2019-01-23 18:45:00.0,SoPmdAve,3511.44,CHCGILDTO6Y
MA6813400180,h_OCHCTP,13-L1-10,2019-01-23 18:15:00.0,Qmin,8.74,CHCGILDTO6Y
MA6813400180,h_OCHCTP,13-L1-10,2019-01-23 18:15:00.0,PhaseCorrectionAve,-0.061,CHCGILDTO6Y
MA6813400180,h_OCHCTP,13-L1-10,2019-01-23 18:15:00.0,BerPreFecMax,0.00313,CHCGILDTO6Y
MA6813400180,h_OCHCTP,13-L1-10,2019-01-23 18:15:00.0,PmdMin,0.691,CHCGILDTO6Y
MA6813400180,h_OCHCTP,13-L1-10,2019-01-23 18:15:00.0,SoPmdAve,3730.1,CHCGILDTO6Y
MA6813400180,h_OCHCTP,13-L1-10,2019-01-23 18:30:00.0,Qmin,8.76,CHCGILDTO6Y
MA6813400180,h_OCHCTP,13-L1-10,2019-01-23 18:30:00.0,PhaseCorrectionAve,-0.122,CHCGILDTO6Y
MA6813400180,h_OCHCTP,13-L1-10,2019-01-23 18:30:00.0,BerPreFecMax,0.00306,CHCGILDTO6Y
MA6813400180,h_OCHCTP,13-L1-10,2019-01-23 18:30:00.0,PmdMin,1.2,CHCGILDTO6Y
MA6813400180,h_OCHCTP,13-L1-10,2019-01-23 18:30:00.0,SoPmdAve,3775.26,CHCGILDTO6Y
MA6813400180,h_OCHCTP,13-L1-10,2019-01-23 18:45:00.0,Qmin,8.74,CHCGILDTO6Y
MA6813400180,h_OCHCTP,13-L1-10,2019-01-23 18:45:00.0,PhaseCorrectionAve,-0.183,CHCGILDTO6Y
MA6813400180,h_OCHCTP,13-L1-10,2019-01-23 18:45:00.0,BerPreFecMax,0.0031,CHCGILDTO6Y
MA6813400180,h_OCHCTP,13-L1-10,2019-01-23 18:45:00.0,PmdMin,0.795,CHCGILDTO6Y
MA6813400180,h_OCHCTP,13-L1-10,2019-01-23 18:45:00.0,SoPmdAve,3849.32,CHCGILDTO6Y
