MA6813400180,h_OCHCTP,10-L1-1,2019-02-05 20:15:00.0,Qmin,9.47,CHCGILDTO6Y
MA6813400180,h_OCHCTP,10-L1-1,2019-02-05 20:15:00.0,PhaseCorrectionAve,4.21e-07,CHCGILDTO6Y
MA6813400180,h_OCHCTP,10-L1-1,2019-02-05 20:15:00.0,BerPreFecMax,0.00147,CHCGILDTO6Y
MA6813400180,h_OCHCTP,10-L1-1,2019-02-05 20:15:00.0,PmdMin,1.41,CHCGILDTO6Y
MA6813400180,h_OCHCTP,10-L1-1,2019-02-05 20:15:00.0,SoPmdAve,3541.78,CHCGILDTO6Y
MA6813400180,h_OCHCTP,10-L1-1,2019-02-05 20:30:00.0,Qmin,9.47,CHCGILDTO6Y
MA6813400180,h_OCHCTP,10-L1-1,2019-02-05 20:30:00.0,PhaseCorrectionAve,4.28e-07,CHCGILDTO6Y
MA6813400180,h_OCHCTP,10-L1-1,2019-02-05 20:30:00.0,BerPreFecMax,0.00146,CHCGILDTO6Y
MA6813400180,h_OCHCTP,10-L1-1,2019-02-05 20:30:00.0,PmdMin,1.57,CHCGILDTO6Y
MA6813400180,h_OCHCTP,10-L1-1,2019-02-05 20:30:00.0,SoPmdAve,3522.73,CHCGILDTO6Y
MA6813400180,h_OCHCTP,10-L1-1,2019-02-05 20:45:00.0,Qmin,9.47,CHCGILDTO6Y
MA6813400180,h_OCHCTP,10-L1-1,2019-02-05 20:45:00.0,PhaseCorrectionAve,4.09e-07,CHCGILDTO6Y
MA6813400180,h_OCHCTP,10-L1-1,2019-02-05 20:45:00.0,BerPreFecMax,0.00146,CHCGILDTO6Y
MA6813400180,h_OCHCTP,10-L1-1,2019-02-05 20:45:00.0,PmdMin,2.54,CHCGILDTO6Y
MA6813400180,h_OCHCTP,10-L1-1,2019-02-05 20:45:00.0,SoPmdAve,3493.11,CHCGILDTO6Y
MA6813400180,h_OCHCTP,10-L1-2,2019-02-05 20:15:00.0,Qmin,9.16,CHCGILDTO6Y
MA6813400180,h_OCHCTP,10-L1-2,2019-02-05 20:15:00.0,PhaseCorrectionAve,3.47e-07,CHCGILDTO6Y
MA6813400180,h_OCHCTP,10-L1-2,2019-02-05 20:15:00.0,BerPreFecMax,0.00205,CHCGILDTO6Y
MA6813400180,h_OCHCTP,10-L1-2,2019-02-05 20:15:00.0,PmdMin,1.57,CHCGILDTO6Y
MA6813400180,h_OCHCTP,10-L1-2,2019-02-05 20:15:00.0,SoPmdAve,3259.1,CHCGILDTO6Y
MA6813400180,h_OCHCTP,10-L1-2,2019-02-05 20:30:00.0,Qmin,9.16,CHCGILDTO6Y
MA6813400180,h_OCHCTP,10-L1-2,2019-02-05 20:30:00.0,PhaseCorrectionAve,-0.061,CHCGILDTO6Y
MA6813400180,h_OCHCTP,10-L1-2,2019-02-05 20:30:00.0,BerPreFecMax,0.00204,CHCGILDTO6Y
MA6813400180,h_OCHCTP,10-L1-2,2019-02-05 20:30:00.0,PmdMin,4.18,CHCGILDTO6Y
MA6813400180,h_OCHCTP,10-L1-2,2019-02-05 20:30:00.0,SoPmdAve,3258.53,CHCGILDTO6Y
MA6813400180,h_OCHCTP,10-L1-2,2019-02-05 20:45:00.0,Qmin,9.17,CHCGILDTO6Y
MA6813400180,h_OCHCTP,10-L1-2,2019-02-05 20:45:00.0,PhaseCorrectionAve,-0.061,CHCGILDTO6Y
MA6813400180,h_OCHCTP,10-L1-2,2019-02-05 20:45:00.0,BerPreFecMax,0.00203,CHCGILDTO6Y
MA6813400180,h_OCHCTP,10-L1-2,2019-02-05 20:45:00.0,PmdMin,2.95,CHCGILDTO6Y
MA6813400180,h_OCHCTP,10-L1-2,2019-02-05 20:45:00.0,SoPmdAve,3380.69,CHCGILDTO6Y
MA6813400180,h_OCHCTP,10-L1-3,2019-02-05 20:15:00.0,Qmin,8.89,CHCGILDTO6Y
MA6813400180,h_OCHCTP,10-L1-3,2019-02-05 20:15:00.0,PhaseCorrectionAve,5.75e-07,CHCGILDTO6Y
MA6813400180,h_OCHCTP,10-L1-3,2019-02-05 20:15:00.0,BerPreFecMax,0.0027,CHCGILDTO6Y
MA6813400180,h_OCHCTP,10-L1-3,2019-02-05 20:15:00.0,PmdMin,4.79,CHCGILDTO6Y
MA6813400180,h_OCHCTP,10-L1-3,2019-02-05 20:15:00.0,SoPmdAve,2759.19,CHCGILDTO6Y
MA6813400180,h_OCHCTP,10-L1-3,2019-02-05 20:30:00.0,Qmin,8.9,CHCGILDTO6Y
MA6813400180,h_OCHCTP,10-L1-3,2019-02-05 20:30:00.0,PhaseCorrectionAve,-0.061,CHCGILDTO6Y
MA6813400180,h_OCHCTP,10-L1-3,2019-02-05 20:30:00.0,BerPreFecMax,0.00266,CHCGILDTO6Y
MA6813400180,h_OCHCTP,10-L1-3,2019-02-05 20:30:00.0,PmdMin,6.27,CHCGILDTO6Y
MA6813400180,h_OCHCTP,10-L1-3,2019-02-05 20:30:00.0,SoPmdAve,2812.59,CHCGILDTO6Y
MA6813400180,h_OCHCTP,10-L1-3,2019-02-05 20:45:00.0,Qmin,8.89,CHCGILDTO6Y
MA6813400180,h_OCHCTP,10-L1-3,2019-02-05 20:45:00.0,PhaseCorrectionAve,-0.122,CHCGILDTO6Y
MA6813400180,h_OCHCTP,10-L1-3,2019-02-05 20:45:00.0,BerPreFecMax,0.00268,CHCGILDTO6Y
MA6813400180,h_OCHCTP,10-L1-3,2019-02-05 20:45:00.0,PmdMin,5.31,CHCGILDTO6Y
MA6813400180,h_OCHCTP,10-L1-3,2019-02-05 20:45:00.0,SoPmdAve,2859.74,CHCGILDTO6Y
MA6813400180,h_OCHCTP,10-L1-4,2019-02-05 20:15:00.0,Qmin,8.33,CHCGILDTO6Y
MA6813400180,h_OCHCTP,10-L1-4,2019-02-05 20:15:00.0,PhaseCorrectionAve,2.72e-06,CHCGILDTO6Y
MA6813400180,h_OCHCTP,10-L1-4,2019-02-05 20:15:00.0,BerPreFecMax,0.00454,CHCGILDTO6Y
MA6813400180,h_OCHCTP,10-L1-4,2019-02-05 20:15:00.0,PmdMin,1.78,CHCGILDTO6Y
MA6813400180,h_OCHCTP,10-L1-4,2019-02-05 20:15:00.0,SoPmdAve,3067.22,CHCGILDTO6Y
MA6813400180,h_OCHCTP,10-L1-4,2019-02-05 20:30:00.0,Qmin,8.35,CHCGILDTO6Y
MA6813400180,h_OCHCTP,10-L1-4,2019-02-05 20:30:00.0,PhaseCorrectionAve,-0.061,CHCGILDTO6Y
MA6813400180,h_OCHCTP,10-L1-4,2019-02-05 20:30:00.0,BerPreFecMax,0.00446,CHCGILDTO6Y
MA6813400180,h_OCHCTP,10-L1-4,2019-02-05 20:30:00.0,PmdMin,0.517,CHCGILDTO6Y
MA6813400180,h_OCHCTP,10-L1-4,2019-02-05 20:30:00.0,SoPmdAve,3097.58,CHCGILDTO6Y
MA6813400180,h_OCHCTP,10-L1-4,2019-02-05 20:45:00.0,Qmin,8.32,CHCGILDTO6Y
MA6813400180,h_OCHCTP,10-L1-4,2019-02-05 20:45:00.0,PhaseCorrectionAve,-0.122,CHCGILDTO6Y
MA6813400180,h_OCHCTP,10-L1-4,2019-02-05 20:45:00.0,BerPreFecMax,0.00458,CHCGILDTO6Y
MA6813400180,h_OCHCTP,10-L1-4,2019-02-05 20:45:00.0,PmdMin,0.913,CHCGILDTO6Y
MA6813400180,h_OCHCTP,10-L1-4,2019-02-05 20:45:00.0,SoPmdAve,3130.21,CHCGILDTO6Y
MA6813400180,h_OCHCTP,10-L1-5,2019-02-05 20:15:00.0,Qmin,8.53,CHCGILDTO6Y
MA6813400180,h_OCHCTP,10-L1-5,2019-02-05 20:15:00.0,PhaseCorrectionAve,-0.122,CHCGILDTO6Y
MA6813400180,h_OCHCTP,10-L1-5,2019-02-05 20:15:00.0,BerPreFecMax,0.00379,CHCGILDTO6Y
MA6813400180,h_OCHCTP,10-L1-5,2019-02-05 20:15:00.0,PmdMin,0.8,CHCGILDTO6Y
MA6813400180,h_OCHCTP,10-L1-5,2019-02-05 20:15:00.0,SoPmdAve,2880.08,CHCGILDTO6Y
MA6813400180,h_OCHCTP,10-L1-5,2019-02-05 20:30:00.0,Qmin,8.57,CHCGILDTO6Y
MA6813400180,h_OCHCTP,10-L1-5,2019-02-05 20:30:00.0,PhaseCorrectionAve,-0.061,CHCGILDTO6Y
MA6813400180,h_OCHCTP,10-L1-5,2019-02-05 20:30:00.0,BerPreFecMax,0.00364,CHCGILDTO6Y
MA6813400180,h_OCHCTP,10-L1-5,2019-02-05 20:30:00.0,PmdMin,1.43,CHCGILDTO6Y
MA6813400180,h_OCHCTP,10-L1-5,2019-02-05 20:30:00.0,SoPmdAve,2857.62,CHCGILDTO6Y
MA6813400180,h_OCHCTP,10-L1-5,2019-02-05 20:45:00.0,Qmin,8.53,CHCGILDTO6Y
MA6813400180,h_OCHCTP,10-L1-5,2019-02-05 20:45:00.0,PhaseCorrectionAve,-0.122,CHCGILDTO6Y
MA6813400180,h_OCHCTP,10-L1-5,2019-02-05 20:45:00.0,BerPreFecMax,0.0038,CHCGILDTO6Y
MA6813400180,h_OCHCTP,10-L1-5,2019-02-05 20:45:00.0,PmdMin,1.23,CHCGILDTO6Y
MA6813400180,h_OCHCTP,10-L1-5,2019-02-05 20:45:00.0,SoPmdAve,2890.7,CHCGILDTO6Y
MA6813400180,h_OCHCTP,10-L1-6,2019-02-05 20:15:00.0,Qmin,8.75,CHCGILDTO6Y
MA6813400180,h_OCHCTP,10-L1-6,2019-02-05 20:15:00.0,PhaseCorrectionAve,-0.122,CHCGILDTO6Y
MA6813400180,h_OCHCTP,10-L1-6,2019-02-05 20:15:00.0,BerPreFecMax,0.00307,CHCGILDTO6Y
MA6813400180,h_OCHCTP,10-L1-6,2019-02-05 20:15:00.0,PmdMin,0.576,CHCGILDTO6Y
MA6813400180,h_OCHCTP,10-L1-6,2019-02-05 20:15:00.0,SoPmdAve,2860.87,CHCGILDTO6Y
MA6813400180,h_OCHCTP,10-L1-6,2019-02-05 20:30:00.0,Qmin,8.76,CHCGILDTO6Y
MA6813400180,h_OCHCTP,10-L1-6,2019-02-05 20:30:00.0,PhaseCorrectionAve,-0.061,CHCGILDTO6Y
MA6813400180,h_OCHCTP,10-L1-6,2019-02-05 20:30:00.0,BerPreFecMax,0.00305,CHCGILDTO6Y
MA6813400180,h_OCHCTP,10-L1-6,2019-02-05 20:30:00.0,PmdMin,1.16,CHCGILDTO6Y
MA6813400180,h_OCHCTP,10-L1-6,2019-02-05 20:30:00.0,SoPmdAve,2826.56,CHCGILDTO6Y
MA6813400180,h_OCHCTP,10-L1-6,2019-02-05 20:45:00.0,Qmin,8.75,CHCGILDTO6Y
MA6813400180,h_OCHCTP,10-L1-6,2019-02-05 20:45:00.0,PhaseCorrectionAve,-0.183,CHCGILDTO6Y
MA6813400180,h_OCHCTP,10-L1-6,2019-02-05 20:45:00.0,BerPreFecMax,0.00308,CHCGILDTO6Y
MA6813400180,h_OCHCTP,10-L1-6,2019-02-05 20:45:00.0,PmdMin,1.14,CHCGILDTO6Y
MA6813400180,h_OCHCTP,10-L1-6,2019-02-05 20:45:00.0,SoPmdAve,2883.21,CHCGILDTO6Y
MA6813400180,h_OCHCTP,10-L1-7,2019-02-05 20:15:00.0,Qmin,8.84,CHCGILDTO6Y
MA6813400180,h_OCHCTP,10-L1-7,2019-02-05 20:15:00.0,PhaseCorrectionAve,-0.306,CHCGILDTO6Y
MA6813400180,h_OCHCTP,10-L1-7,2019-02-05 20:15:00.0,BerPreFecMax,0.00282,CHCGILDTO6Y
MA6813400180,h_OCHCTP,10-L1-7,2019-02-05 20:15:00.0,PmdMin,0.399,CHCGILDTO6Y
MA6813400180,h_OCHCTP,10-L1-7,2019-02-05 20:15:00.0,SoPmdAve,3464.66,CHCGILDTO6Y
MA6813400180,h_OCHCTP,10-L1-7,2019-02-05 20:30:00.0,Qmin,8.85,CHCGILDTO6Y
MA6813400180,h_OCHCTP,10-L1-7,2019-02-05 20:30:00.0,PhaseCorrectionAve,-0.122,CHCGILDTO6Y
MA6813400180,h_OCHCTP,10-L1-7,2019-02-05 20:30:00.0,BerPreFecMax,0.0028,CHCGILDTO6Y
MA6813400180,h_OCHCTP,10-L1-7,2019-02-05 20:30:00.0,PmdMin,1.36,CHCGILDTO6Y
MA6813400180,h_OCHCTP,10-L1-7,2019-02-05 20:30:00.0,SoPmdAve,3629.19,CHCGILDTO6Y
MA6813400180,h_OCHCTP,10-L1-7,2019-02-05 20:45:00.0,Qmin,8.84,CHCGILDTO6Y
MA6813400180,h_OCHCTP,10-L1-7,2019-02-05 20:45:00.0,PhaseCorrectionAve,-0.244,CHCGILDTO6Y
MA6813400180,h_OCHCTP,10-L1-7,2019-02-05 20:45:00.0,BerPreFecMax,0.00284,CHCGILDTO6Y
MA6813400180,h_OCHCTP,10-L1-7,2019-02-05 20:45:00.0,PmdMin,1.66,CHCGILDTO6Y
MA6813400180,h_OCHCTP,10-L1-7,2019-02-05 20:45:00.0,SoPmdAve,3476.12,CHCGILDTO6Y
MA6813400180,h_OCHCTP,10-L1-8,2019-02-05 20:15:00.0,Qmin,9.33,CHCGILDTO6Y
MA6813400180,h_OCHCTP,10-L1-8,2019-02-05 20:15:00.0,PhaseCorrectionAve,-0.306,CHCGILDTO6Y
MA6813400180,h_OCHCTP,10-L1-8,2019-02-05 20:15:00.0,BerPreFecMax,0.00171,CHCGILDTO6Y
MA6813400180,h_OCHCTP,10-L1-8,2019-02-05 20:15:00.0,PmdMin,2.13,CHCGILDTO6Y
MA6813400180,h_OCHCTP,10-L1-8,2019-02-05 20:15:00.0,SoPmdAve,3433.1,CHCGILDTO6Y
MA6813400180,h_OCHCTP,10-L1-8,2019-02-05 20:30:00.0,Qmin,9.33,CHCGILDTO6Y
MA6813400180,h_OCHCTP,10-L1-8,2019-02-05 20:30:00.0,PhaseCorrectionAve,-0.122,CHCGILDTO6Y
MA6813400180,h_OCHCTP,10-L1-8,2019-02-05 20:30:00.0,BerPreFecMax,0.00171,CHCGILDTO6Y
MA6813400180,h_OCHCTP,10-L1-8,2019-02-05 20:30:00.0,PmdMin,1.4,CHCGILDTO6Y
MA6813400180,h_OCHCTP,10-L1-8,2019-02-05 20:30:00.0,SoPmdAve,3299.8,CHCGILDTO6Y
MA6813400180,h_OCHCTP,10-L1-8,2019-02-05 20:45:00.0,Qmin,9.34,CHCGILDTO6Y
MA6813400180,h_OCHCTP,10-L1-8,2019-02-05 20:45:00.0,PhaseCorrectionAve,-0.244,CHCGILDTO6Y
MA6813400180,h_OCHCTP,10-L1-8,2019-02-05 20:45:00.0,BerPreFecMax,0.00169,CHCGILDTO6Y
MA6813400180,h_OCHCTP,10-L1-8,2019-02-05 20:45:00.0,PmdMin,0.197,CHCGILDTO6Y
MA6813400180,h_OCHCTP,10-L1-8,2019-02-05 20:45:00.0,SoPmdAve,3403.52,CHCGILDTO6Y
MA6813400180,h_OCHCTP,10-L1-9,2019-02-05 20:15:00.0,Qmin,9.36,CHCGILDTO6Y
MA6813400180,h_OCHCTP,10-L1-9,2019-02-05 20:15:00.0,PhaseCorrectionAve,-0.306,CHCGILDTO6Y
MA6813400180,h_OCHCTP,10-L1-9,2019-02-05 20:15:00.0,BerPreFecMax,0.00165,CHCGILDTO6Y
MA6813400180,h_OCHCTP,10-L1-9,2019-02-05 20:15:00.0,PmdMin,5.94,CHCGILDTO6Y
MA6813400180,h_OCHCTP,10-L1-9,2019-02-05 20:15:00.0,SoPmdAve,3402.28,CHCGILDTO6Y
MA6813400180,h_OCHCTP,10-L1-9,2019-02-05 20:30:00.0,Qmin,9.35,CHCGILDTO6Y
MA6813400180,h_OCHCTP,10-L1-9,2019-02-05 20:30:00.0,PhaseCorrectionAve,-0.122,CHCGILDTO6Y
MA6813400180,h_OCHCTP,10-L1-9,2019-02-05 20:30:00.0,BerPreFecMax,0.00168,CHCGILDTO6Y
MA6813400180,h_OCHCTP,10-L1-9,2019-02-05 20:30:00.0,PmdMin,6.66,CHCGILDTO6Y
MA6813400180,h_OCHCTP,10-L1-9,2019-02-05 20:30:00.0,SoPmdAve,3314.19,CHCGILDTO6Y
MA6813400180,h_OCHCTP,10-L1-9,2019-02-05 20:45:00.0,Qmin,9.35,CHCGILDTO6Y
MA6813400180,h_OCHCTP,10-L1-9,2019-02-05 20:45:00.0,PhaseCorrectionAve,-0.244,CHCGILDTO6Y
MA6813400180,h_OCHCTP,10-L1-9,2019-02-05 20:45:00.0,BerPreFecMax,0.00166,CHCGILDTO6Y
MA6813400180,h_OCHCTP,10-L1-9,2019-02-05 20:45:00.0,PmdMin,5.41,CHCGILDTO6Y
MA6813400180,h_OCHCTP,10-L1-9,2019-02-05 20:45:00.0,SoPmdAve,3315.44,CHCGILDTO6Y
MA6813400180,h_OCHCTP,10-L1-10,2019-02-05 20:15:00.0,Qmin,9.4,CHCGILDTO6Y
MA6813400180,h_OCHCTP,10-L1-10,2019-02-05 20:15:00.0,PhaseCorrectionAve,-0.306,CHCGILDTO6Y
MA6813400180,h_OCHCTP,10-L1-10,2019-02-05 20:15:00.0,BerPreFecMax,0.00158,CHCGILDTO6Y
MA6813400180,h_OCHCTP,10-L1-10,2019-02-05 20:15:00.0,PmdMin,7.54,CHCGILDTO6Y
MA6813400180,h_OCHCTP,10-L1-10,2019-02-05 20:15:00.0,SoPmdAve,3300.05,CHCGILDTO6Y
MA6813400180,h_OCHCTP,10-L1-10,2019-02-05 20:30:00.0,Qmin,9.39,CHCGILDTO6Y
MA6813400180,h_OCHCTP,10-L1-10,2019-02-05 20:30:00.0,PhaseCorrectionAve,-0.183,CHCGILDTO6Y
MA6813400180,h_OCHCTP,10-L1-10,2019-02-05 20:30:00.0,BerPreFecMax,0.00159,CHCGILDTO6Y
MA6813400180,h_OCHCTP,10-L1-10,2019-02-05 20:30:00.0,PmdMin,10.92,CHCGILDTO6Y
MA6813400180,h_OCHCTP,10-L1-10,2019-02-05 20:30:00.0,SoPmdAve,3243.68,CHCGILDTO6Y
MA6813400180,h_OCHCTP,10-L1-10,2019-02-05 20:45:00.0,Qmin,9.4,CHCGILDTO6Y
MA6813400180,h_OCHCTP,10-L1-10,2019-02-05 20:45:00.0,PhaseCorrectionAve,-0.305,CHCGILDTO6Y
MA6813400180,h_OCHCTP,10-L1-10,2019-02-05 20:45:00.0,BerPreFecMax,0.00158,CHCGILDTO6Y
MA6813400180,h_OCHCTP,10-L1-10,2019-02-05 20:45:00.0,PmdMin,11.09,CHCGILDTO6Y
MA6813400180,h_OCHCTP,10-L1-10,2019-02-05 20:45:00.0,SoPmdAve,3239.42,CHCGILDTO6Y
MA6813400180,h_OCHCTP,11-L1-1,2019-02-05 20:15:00.0,Qmin,9.12,CHCGILDTO6Y
MA6813400180,h_OCHCTP,11-L1-1,2019-02-05 20:15:00.0,PhaseCorrectionAve,1.55e-07,CHCGILDTO6Y
MA6813400180,h_OCHCTP,11-L1-1,2019-02-05 20:15:00.0,BerPreFecMax,0.00212,CHCGILDTO6Y
MA6813400180,h_OCHCTP,11-L1-1,2019-02-05 20:15:00.0,PmdMin,0.982,CHCGILDTO6Y
MA6813400180,h_OCHCTP,11-L1-1,2019-02-05 20:15:00.0,SoPmdAve,3393.27,CHCGILDTO6Y
MA6813400180,h_OCHCTP,11-L1-1,2019-02-05 20:30:00.0,Qmin,9.1,CHCGILDTO6Y
MA6813400180,h_OCHCTP,11-L1-1,2019-02-05 20:30:00.0,PhaseCorrectionAve,1.65e-07,CHCGILDTO6Y
MA6813400180,h_OCHCTP,11-L1-1,2019-02-05 20:30:00.0,BerPreFecMax,0.00217,CHCGILDTO6Y
MA6813400180,h_OCHCTP,11-L1-1,2019-02-05 20:30:00.0,PmdMin,1.2,CHCGILDTO6Y
MA6813400180,h_OCHCTP,11-L1-1,2019-02-05 20:30:00.0,SoPmdAve,3361.27,CHCGILDTO6Y
MA6813400180,h_OCHCTP,11-L1-1,2019-02-05 20:45:00.0,Qmin,9.06,CHCGILDTO6Y
MA6813400180,h_OCHCTP,11-L1-1,2019-02-05 20:45:00.0,PhaseCorrectionAve,1.81e-07,CHCGILDTO6Y
MA6813400180,h_OCHCTP,11-L1-1,2019-02-05 20:45:00.0,BerPreFecMax,0.00227,CHCGILDTO6Y
MA6813400180,h_OCHCTP,11-L1-1,2019-02-05 20:45:00.0,PmdMin,1.32,CHCGILDTO6Y
MA6813400180,h_OCHCTP,11-L1-1,2019-02-05 20:45:00.0,SoPmdAve,3359.4,CHCGILDTO6Y
MA6813400180,h_OCHCTP,11-L1-2,2019-02-05 20:15:00.0,Qmin,8.99,CHCGILDTO6Y
MA6813400180,h_OCHCTP,11-L1-2,2019-02-05 20:15:00.0,PhaseCorrectionAve,-0.061,CHCGILDTO6Y
MA6813400180,h_OCHCTP,11-L1-2,2019-02-05 20:15:00.0,BerPreFecMax,0.00245,CHCGILDTO6Y
MA6813400180,h_OCHCTP,11-L1-2,2019-02-05 20:15:00.0,PmdMin,0.773,CHCGILDTO6Y
MA6813400180,h_OCHCTP,11-L1-2,2019-02-05 20:15:00.0,SoPmdAve,3099.68,CHCGILDTO6Y
MA6813400180,h_OCHCTP,11-L1-2,2019-02-05 20:30:00.0,Qmin,9.0,CHCGILDTO6Y
MA6813400180,h_OCHCTP,11-L1-2,2019-02-05 20:30:00.0,PhaseCorrectionAve,-0.122,CHCGILDTO6Y
MA6813400180,h_OCHCTP,11-L1-2,2019-02-05 20:30:00.0,BerPreFecMax,0.00242,CHCGILDTO6Y
MA6813400180,h_OCHCTP,11-L1-2,2019-02-05 20:30:00.0,PmdMin,0.569,CHCGILDTO6Y
MA6813400180,h_OCHCTP,11-L1-2,2019-02-05 20:30:00.0,SoPmdAve,3091.18,CHCGILDTO6Y
MA6813400180,h_OCHCTP,11-L1-2,2019-02-05 20:45:00.0,Qmin,9.0,CHCGILDTO6Y
MA6813400180,h_OCHCTP,11-L1-2,2019-02-05 20:45:00.0,PhaseCorrectionAve,4.81e-07,CHCGILDTO6Y
MA6813400180,h_OCHCTP,11-L1-2,2019-02-05 20:45:00.0,BerPreFecMax,0.00242,CHCGILDTO6Y
MA6813400180,h_OCHCTP,11-L1-2,2019-02-05 20:45:00.0,PmdMin,1.11,CHCGILDTO6Y
MA6813400180,h_OCHCTP,11-L1-2,2019-02-05 20:45:00.0,SoPmdAve,3158.25,CHCGILDTO6Y
MA6813400180,h_OCHCTP,11-L1-3,2019-02-05 20:15:00.0,Qmin,8.94,CHCGILDTO6Y
MA6813400180,h_OCHCTP,11-L1-3,2019-02-05 20:15:00.0,PhaseCorrectionAve,-0.061,CHCGILDTO6Y
MA6813400180,h_OCHCTP,11-L1-3,2019-02-05 20:15:00.0,BerPreFecMax,0.00256,CHCGILDTO6Y
MA6813400180,h_OCHCTP,11-L1-3,2019-02-05 20:15:00.0,PmdMin,1.2,CHCGILDTO6Y
MA6813400180,h_OCHCTP,11-L1-3,2019-02-05 20:15:00.0,SoPmdAve,2831.97,CHCGILDTO6Y
MA6813400180,h_OCHCTP,11-L1-3,2019-02-05 20:30:00.0,Qmin,8.88,CHCGILDTO6Y
MA6813400180,h_OCHCTP,11-L1-3,2019-02-05 20:30:00.0,PhaseCorrectionAve,-0.122,CHCGILDTO6Y
MA6813400180,h_OCHCTP,11-L1-3,2019-02-05 20:30:00.0,BerPreFecMax,0.00272,CHCGILDTO6Y
MA6813400180,h_OCHCTP,11-L1-3,2019-02-05 20:30:00.0,PmdMin,0.729,CHCGILDTO6Y
MA6813400180,h_OCHCTP,11-L1-3,2019-02-05 20:30:00.0,SoPmdAve,2713.37,CHCGILDTO6Y
MA6813400180,h_OCHCTP,11-L1-3,2019-02-05 20:45:00.0,Qmin,8.89,CHCGILDTO6Y
MA6813400180,h_OCHCTP,11-L1-3,2019-02-05 20:45:00.0,PhaseCorrectionAve,4.1e-07,CHCGILDTO6Y
MA6813400180,h_OCHCTP,11-L1-3,2019-02-05 20:45:00.0,BerPreFecMax,0.00268,CHCGILDTO6Y
MA6813400180,h_OCHCTP,11-L1-3,2019-02-05 20:45:00.0,PmdMin,0.894,CHCGILDTO6Y
MA6813400180,h_OCHCTP,11-L1-3,2019-02-05 20:45:00.0,SoPmdAve,2747.52,CHCGILDTO6Y
MA6813400180,h_OCHCTP,11-L1-4,2019-02-05 20:15:00.0,Qmin,8.75,CHCGILDTO6Y
MA6813400180,h_OCHCTP,11-L1-4,2019-02-05 20:15:00.0,PhaseCorrectionAve,-0.061,CHCGILDTO6Y
MA6813400180,h_OCHCTP,11-L1-4,2019-02-05 20:15:00.0,BerPreFecMax,0.00308,CHCGILDTO6Y
MA6813400180,h_OCHCTP,11-L1-4,2019-02-05 20:15:00.0,PmdMin,0.979,CHCGILDTO6Y
MA6813400180,h_OCHCTP,11-L1-4,2019-02-05 20:15:00.0,SoPmdAve,2937.09,CHCGILDTO6Y
MA6813400180,h_OCHCTP,11-L1-4,2019-02-05 20:30:00.0,Qmin,8.7,CHCGILDTO6Y
MA6813400180,h_OCHCTP,11-L1-4,2019-02-05 20:30:00.0,PhaseCorrectionAve,-0.122,CHCGILDTO6Y
MA6813400180,h_OCHCTP,11-L1-4,2019-02-05 20:30:00.0,BerPreFecMax,0.00323,CHCGILDTO6Y
MA6813400180,h_OCHCTP,11-L1-4,2019-02-05 20:30:00.0,PmdMin,1.1,CHCGILDTO6Y
MA6813400180,h_OCHCTP,11-L1-4,2019-02-05 20:30:00.0,SoPmdAve,2887.11,CHCGILDTO6Y
MA6813400180,h_OCHCTP,11-L1-4,2019-02-05 20:45:00.0,Qmin,8.75,CHCGILDTO6Y
MA6813400180,h_OCHCTP,11-L1-4,2019-02-05 20:45:00.0,PhaseCorrectionAve,5.18e-07,CHCGILDTO6Y
MA6813400180,h_OCHCTP,11-L1-4,2019-02-05 20:45:00.0,BerPreFecMax,0.00309,CHCGILDTO6Y
MA6813400180,h_OCHCTP,11-L1-4,2019-02-05 20:45:00.0,PmdMin,0.502,CHCGILDTO6Y
MA6813400180,h_OCHCTP,11-L1-4,2019-02-05 20:45:00.0,SoPmdAve,3036.31,CHCGILDTO6Y
MA6813400180,h_OCHCTP,11-L1-5,2019-02-05 20:15:00.0,Qmin,8.8,CHCGILDTO6Y
MA6813400180,h_OCHCTP,11-L1-5,2019-02-05 20:15:00.0,PhaseCorrectionAve,-0.122,CHCGILDTO6Y
MA6813400180,h_OCHCTP,11-L1-5,2019-02-05 20:15:00.0,BerPreFecMax,0.00294,CHCGILDTO6Y
MA6813400180,h_OCHCTP,11-L1-5,2019-02-05 20:15:00.0,PmdMin,0.512,CHCGILDTO6Y
MA6813400180,h_OCHCTP,11-L1-5,2019-02-05 20:15:00.0,SoPmdAve,2577.61,CHCGILDTO6Y
MA6813400180,h_OCHCTP,11-L1-5,2019-02-05 20:30:00.0,Qmin,8.84,CHCGILDTO6Y
MA6813400180,h_OCHCTP,11-L1-5,2019-02-05 20:30:00.0,PhaseCorrectionAve,-0.122,CHCGILDTO6Y
MA6813400180,h_OCHCTP,11-L1-5,2019-02-05 20:30:00.0,BerPreFecMax,0.00282,CHCGILDTO6Y
MA6813400180,h_OCHCTP,11-L1-5,2019-02-05 20:30:00.0,PmdMin,0.14,CHCGILDTO6Y
MA6813400180,h_OCHCTP,11-L1-5,2019-02-05 20:30:00.0,SoPmdAve,2579.64,CHCGILDTO6Y
MA6813400180,h_OCHCTP,11-L1-5,2019-02-05 20:45:00.0,Qmin,8.79,CHCGILDTO6Y
MA6813400180,h_OCHCTP,11-L1-5,2019-02-05 20:45:00.0,PhaseCorrectionAve,-0.061,CHCGILDTO6Y
MA6813400180,h_OCHCTP,11-L1-5,2019-02-05 20:45:00.0,BerPreFecMax,0.00296,CHCGILDTO6Y
MA6813400180,h_OCHCTP,11-L1-5,2019-02-05 20:45:00.0,PmdMin,0.587,CHCGILDTO6Y
MA6813400180,h_OCHCTP,11-L1-5,2019-02-05 20:45:00.0,SoPmdAve,2556.37,CHCGILDTO6Y
MA6813400180,h_OCHCTP,11-L1-6,2019-02-05 20:15:00.0,Qmin,8.72,CHCGILDTO6Y
MA6813400180,h_OCHCTP,11-L1-6,2019-02-05 20:15:00.0,PhaseCorrectionAve,-0.122,CHCGILDTO6Y
MA6813400180,h_OCHCTP,11-L1-6,2019-02-05 20:15:00.0,BerPreFecMax,0.00319,CHCGILDTO6Y
MA6813400180,h_OCHCTP,11-L1-6,2019-02-05 20:15:00.0,PmdMin,0.712,CHCGILDTO6Y
MA6813400180,h_OCHCTP,11-L1-6,2019-02-05 20:15:00.0,SoPmdAve,2541.2,CHCGILDTO6Y
MA6813400180,h_OCHCTP,11-L1-6,2019-02-05 20:30:00.0,Qmin,8.72,CHCGILDTO6Y
MA6813400180,h_OCHCTP,11-L1-6,2019-02-05 20:30:00.0,PhaseCorrectionAve,-0.122,CHCGILDTO6Y
MA6813400180,h_OCHCTP,11-L1-6,2019-02-05 20:30:00.0,BerPreFecMax,0.00316,CHCGILDTO6Y
MA6813400180,h_OCHCTP,11-L1-6,2019-02-05 20:30:00.0,PmdMin,0.687,CHCGILDTO6Y
MA6813400180,h_OCHCTP,11-L1-6,2019-02-05 20:30:00.0,SoPmdAve,2541.49,CHCGILDTO6Y
MA6813400180,h_OCHCTP,11-L1-6,2019-02-05 20:45:00.0,Qmin,8.66,CHCGILDTO6Y
MA6813400180,h_OCHCTP,11-L1-6,2019-02-05 20:45:00.0,PhaseCorrectionAve,-0.122,CHCGILDTO6Y
MA6813400180,h_OCHCTP,11-L1-6,2019-02-05 20:45:00.0,BerPreFecMax,0.00337,CHCGILDTO6Y
MA6813400180,h_OCHCTP,11-L1-6,2019-02-05 20:45:00.0,PmdMin,0.776,CHCGILDTO6Y
MA6813400180,h_OCHCTP,11-L1-6,2019-02-05 20:45:00.0,SoPmdAve,2472.43,CHCGILDTO6Y
MA6813400180,h_OCHCTP,11-L1-7,2019-02-05 20:15:00.0,Qmin,8.74,CHCGILDTO6Y
MA6813400180,h_OCHCTP,11-L1-7,2019-02-05 20:15:00.0,PhaseCorrectionAve,-0.122,CHCGILDTO6Y
MA6813400180,h_OCHCTP,11-L1-7,2019-02-05 20:15:00.0,BerPreFecMax,0.00311,CHCGILDTO6Y
MA6813400180,h_OCHCTP,11-L1-7,2019-02-05 20:15:00.0,PmdMin,0.35,CHCGILDTO6Y
MA6813400180,h_OCHCTP,11-L1-7,2019-02-05 20:15:00.0,SoPmdAve,3108.4,CHCGILDTO6Y
MA6813400180,h_OCHCTP,11-L1-7,2019-02-05 20:30:00.0,Qmin,8.75,CHCGILDTO6Y
MA6813400180,h_OCHCTP,11-L1-7,2019-02-05 20:30:00.0,PhaseCorrectionAve,-0.183,CHCGILDTO6Y
MA6813400180,h_OCHCTP,11-L1-7,2019-02-05 20:30:00.0,BerPreFecMax,0.00309,CHCGILDTO6Y
MA6813400180,h_OCHCTP,11-L1-7,2019-02-05 20:30:00.0,PmdMin,1.01,CHCGILDTO6Y
MA6813400180,h_OCHCTP,11-L1-7,2019-02-05 20:30:00.0,SoPmdAve,2986.23,CHCGILDTO6Y
MA6813400180,h_OCHCTP,11-L1-7,2019-02-05 20:45:00.0,Qmin,8.71,CHCGILDTO6Y
MA6813400180,h_OCHCTP,11-L1-7,2019-02-05 20:45:00.0,PhaseCorrectionAve,-0.122,CHCGILDTO6Y
MA6813400180,h_OCHCTP,11-L1-7,2019-02-05 20:45:00.0,BerPreFecMax,0.0032,CHCGILDTO6Y
MA6813400180,h_OCHCTP,11-L1-7,2019-02-05 20:45:00.0,PmdMin,1.6,CHCGILDTO6Y
MA6813400180,h_OCHCTP,11-L1-7,2019-02-05 20:45:00.0,SoPmdAve,3007.03,CHCGILDTO6Y
MA6813400180,h_OCHCTP,11-L1-8,2019-02-05 20:15:00.0,Qmin,8.86,CHCGILDTO6Y
MA6813400180,h_OCHCTP,11-L1-8,2019-02-05 20:15:00.0,PhaseCorrectionAve,-0.122,CHCGILDTO6Y
MA6813400180,h_OCHCTP,11-L1-8,2019-02-05 20:15:00.0,BerPreFecMax,0.00278,CHCGILDTO6Y
MA6813400180,h_OCHCTP,11-L1-8,2019-02-05 20:15:00.0,PmdMin,1.15,CHCGILDTO6Y
MA6813400180,h_OCHCTP,11-L1-8,2019-02-05 20:15:00.0,SoPmdAve,3084.25,CHCGILDTO6Y
MA6813400180,h_OCHCTP,11-L1-8,2019-02-05 20:30:00.0,Qmin,8.87,CHCGILDTO6Y
MA6813400180,h_OCHCTP,11-L1-8,2019-02-05 20:30:00.0,PhaseCorrectionAve,-0.183,CHCGILDTO6Y
MA6813400180,h_OCHCTP,11-L1-8,2019-02-05 20:30:00.0,BerPreFecMax,0.00275,CHCGILDTO6Y
MA6813400180,h_OCHCTP,11-L1-8,2019-02-05 20:30:00.0,PmdMin,0.913,CHCGILDTO6Y
MA6813400180,h_OCHCTP,11-L1-8,2019-02-05 20:30:00.0,SoPmdAve,3124.96,CHCGILDTO6Y
MA6813400180,h_OCHCTP,11-L1-8,2019-02-05 20:45:00.0,Qmin,8.78,CHCGILDTO6Y
MA6813400180,h_OCHCTP,11-L1-8,2019-02-05 20:45:00.0,PhaseCorrectionAve,-0.122,CHCGILDTO6Y
MA6813400180,h_OCHCTP,11-L1-8,2019-02-05 20:45:00.0,BerPreFecMax,0.00301,CHCGILDTO6Y
MA6813400180,h_OCHCTP,11-L1-8,2019-02-05 20:45:00.0,PmdMin,0.589,CHCGILDTO6Y
MA6813400180,h_OCHCTP,11-L1-8,2019-02-05 20:45:00.0,SoPmdAve,3110.84,CHCGILDTO6Y
MA6813400180,h_OCHCTP,11-L1-9,2019-02-05 20:15:00.0,Qmin,8.85,CHCGILDTO6Y
MA6813400180,h_OCHCTP,11-L1-9,2019-02-05 20:15:00.0,PhaseCorrectionAve,-0.122,CHCGILDTO6Y
MA6813400180,h_OCHCTP,11-L1-9,2019-02-05 20:15:00.0,BerPreFecMax,0.00281,CHCGILDTO6Y
MA6813400180,h_OCHCTP,11-L1-9,2019-02-05 20:15:00.0,PmdMin,0.899,CHCGILDTO6Y
MA6813400180,h_OCHCTP,11-L1-9,2019-02-05 20:15:00.0,SoPmdAve,2965.18,CHCGILDTO6Y
MA6813400180,h_OCHCTP,11-L1-9,2019-02-05 20:30:00.0,Qmin,8.79,CHCGILDTO6Y
MA6813400180,h_OCHCTP,11-L1-9,2019-02-05 20:30:00.0,PhaseCorrectionAve,-0.183,CHCGILDTO6Y
MA6813400180,h_OCHCTP,11-L1-9,2019-02-05 20:30:00.0,BerPreFecMax,0.00298,CHCGILDTO6Y
MA6813400180,h_OCHCTP,11-L1-9,2019-02-05 20:30:00.0,PmdMin,0.819,CHCGILDTO6Y
MA6813400180,h_OCHCTP,11-L1-9,2019-02-05 20:30:00.0,SoPmdAve,2968.45,CHCGILDTO6Y
MA6813400180,h_OCHCTP,11-L1-9,2019-02-05 20:45:00.0,Qmin,8.79,CHCGILDTO6Y
MA6813400180,h_OCHCTP,11-L1-9,2019-02-05 20:45:00.0,PhaseCorrectionAve,-0.122,CHCGILDTO6Y
MA6813400180,h_OCHCTP,11-L1-9,2019-02-05 20:45:00.0,BerPreFecMax,0.00296,CHCGILDTO6Y
MA6813400180,h_OCHCTP,11-L1-9,2019-02-05 20:45:00.0,PmdMin,0.616,CHCGILDTO6Y
MA6813400180,h_OCHCTP,11-L1-9,2019-02-05 20:45:00.0,SoPmdAve,2971.3,CHCGILDTO6Y
MA6813400180,h_OCHCTP,11-L1-10,2019-02-05 20:15:00.0,Qmin,8.92,CHCGILDTO6Y
MA6813400180,h_OCHCTP,11-L1-10,2019-02-05 20:15:00.0,PhaseCorrectionAve,-0.244,CHCGILDTO6Y
MA6813400180,h_OCHCTP,11-L1-10,2019-02-05 20:15:00.0,BerPreFecMax,0.00262,CHCGILDTO6Y
MA6813400180,h_OCHCTP,11-L1-10,2019-02-05 20:15:00.0,PmdMin,1.05,CHCGILDTO6Y
MA6813400180,h_OCHCTP,11-L1-10,2019-02-05 20:15:00.0,SoPmdAve,3163.29,CHCGILDTO6Y
MA6813400180,h_OCHCTP,11-L1-10,2019-02-05 20:30:00.0,Qmin,8.79,CHCGILDTO6Y
MA6813400180,h_OCHCTP,11-L1-10,2019-02-05 20:30:00.0,PhaseCorrectionAve,-0.183,CHCGILDTO6Y
MA6813400180,h_OCHCTP,11-L1-10,2019-02-05 20:30:00.0,BerPreFecMax,0.00296,CHCGILDTO6Y
MA6813400180,h_OCHCTP,11-L1-10,2019-02-05 20:30:00.0,PmdMin,1.28,CHCGILDTO6Y
MA6813400180,h_OCHCTP,11-L1-10,2019-02-05 20:30:00.0,SoPmdAve,3101.99,CHCGILDTO6Y
MA6813400180,h_OCHCTP,11-L1-10,2019-02-05 20:45:00.0,Qmin,8.9,CHCGILDTO6Y
MA6813400180,h_OCHCTP,11-L1-10,2019-02-05 20:45:00.0,PhaseCorrectionAve,-0.122,CHCGILDTO6Y
MA6813400180,h_OCHCTP,11-L1-10,2019-02-05 20:45:00.0,BerPreFecMax,0.00266,CHCGILDTO6Y
MA6813400180,h_OCHCTP,11-L1-10,2019-02-05 20:45:00.0,PmdMin,0.352,CHCGILDTO6Y
MA6813400180,h_OCHCTP,11-L1-10,2019-02-05 20:45:00.0,SoPmdAve,3061.65,CHCGILDTO6Y
MA6813400180,h_OCHCTP,13-L1-1,2019-02-05 20:15:00.0,Qmin,9.11,CHCGILDTO6Y
MA6813400180,h_OCHCTP,13-L1-1,2019-02-05 20:15:00.0,PhaseCorrectionAve,2.98e-07,CHCGILDTO6Y
MA6813400180,h_OCHCTP,13-L1-1,2019-02-05 20:15:00.0,BerPreFecMax,0.00216,CHCGILDTO6Y
MA6813400180,h_OCHCTP,13-L1-1,2019-02-05 20:15:00.0,PmdMin,0.713,CHCGILDTO6Y
MA6813400180,h_OCHCTP,13-L1-1,2019-02-05 20:15:00.0,SoPmdAve,3573.77,CHCGILDTO6Y
MA6813400180,h_OCHCTP,13-L1-1,2019-02-05 20:30:00.0,Qmin,9.13,CHCGILDTO6Y
MA6813400180,h_OCHCTP,13-L1-1,2019-02-05 20:30:00.0,PhaseCorrectionAve,2.89e-07,CHCGILDTO6Y
MA6813400180,h_OCHCTP,13-L1-1,2019-02-05 20:30:00.0,BerPreFecMax,0.00212,CHCGILDTO6Y
MA6813400180,h_OCHCTP,13-L1-1,2019-02-05 20:30:00.0,PmdMin,0.594,CHCGILDTO6Y
MA6813400180,h_OCHCTP,13-L1-1,2019-02-05 20:30:00.0,SoPmdAve,3551.36,CHCGILDTO6Y
MA6813400180,h_OCHCTP,13-L1-1,2019-02-05 20:45:00.0,Qmin,9.04,CHCGILDTO6Y
MA6813400180,h_OCHCTP,13-L1-1,2019-02-05 20:45:00.0,PhaseCorrectionAve,3.49e-07,CHCGILDTO6Y
MA6813400180,h_OCHCTP,13-L1-1,2019-02-05 20:45:00.0,BerPreFecMax,0.00231,CHCGILDTO6Y
MA6813400180,h_OCHCTP,13-L1-1,2019-02-05 20:45:00.0,PmdMin,0.486,CHCGILDTO6Y
MA6813400180,h_OCHCTP,13-L1-1,2019-02-05 20:45:00.0,SoPmdAve,3486.65,CHCGILDTO6Y
MA6813400180,h_OCHCTP,13-L1-2,2019-02-05 20:15:00.0,Qmin,9.08,CHCGILDTO6Y
MA6813400180,h_OCHCTP,13-L1-2,2019-02-05 20:15:00.0,PhaseCorrectionAve,-0.061,CHCGILDTO6Y
MA6813400180,h_OCHCTP,13-L1-2,2019-02-05 20:15:00.0,BerPreFecMax,0.00223,CHCGILDTO6Y
MA6813400180,h_OCHCTP,13-L1-2,2019-02-05 20:15:00.0,PmdMin,1.15,CHCGILDTO6Y
MA6813400180,h_OCHCTP,13-L1-2,2019-02-05 20:15:00.0,SoPmdAve,3533.22,CHCGILDTO6Y
MA6813400180,h_OCHCTP,13-L1-2,2019-02-05 20:30:00.0,Qmin,9.08,CHCGILDTO6Y
MA6813400180,h_OCHCTP,13-L1-2,2019-02-05 20:30:00.0,PhaseCorrectionAve,4.09e-07,CHCGILDTO6Y
MA6813400180,h_OCHCTP,13-L1-2,2019-02-05 20:30:00.0,BerPreFecMax,0.00223,CHCGILDTO6Y
MA6813400180,h_OCHCTP,13-L1-2,2019-02-05 20:30:00.0,PmdMin,0.34,CHCGILDTO6Y
MA6813400180,h_OCHCTP,13-L1-2,2019-02-05 20:30:00.0,SoPmdAve,3559.36,CHCGILDTO6Y
MA6813400180,h_OCHCTP,13-L1-2,2019-02-05 20:45:00.0,Qmin,9.09,CHCGILDTO6Y
MA6813400180,h_OCHCTP,13-L1-2,2019-02-05 20:45:00.0,PhaseCorrectionAve,-0.061,CHCGILDTO6Y
MA6813400180,h_OCHCTP,13-L1-2,2019-02-05 20:45:00.0,BerPreFecMax,0.00221,CHCGILDTO6Y
MA6813400180,h_OCHCTP,13-L1-2,2019-02-05 20:45:00.0,PmdMin,1.12,CHCGILDTO6Y
MA6813400180,h_OCHCTP,13-L1-2,2019-02-05 20:45:00.0,SoPmdAve,3502.82,CHCGILDTO6Y
MA6813400180,h_OCHCTP,13-L1-3,2019-02-05 20:15:00.0,Qmin,8.91,CHCGILDTO6Y
MA6813400180,h_OCHCTP,13-L1-3,2019-02-05 20:15:00.0,PhaseCorrectionAve,-0.061,CHCGILDTO6Y
MA6813400180,h_OCHCTP,13-L1-3,2019-02-05 20:15:00.0,BerPreFecMax,0.00264,CHCGILDTO6Y
MA6813400180,h_OCHCTP,13-L1-3,2019-02-05 20:15:00.0,PmdMin,1.38,CHCGILDTO6Y
MA6813400180,h_OCHCTP,13-L1-3,2019-02-05 20:15:00.0,SoPmdAve,2853.34,CHCGILDTO6Y
MA6813400180,h_OCHCTP,13-L1-3,2019-02-05 20:30:00.0,Qmin,8.88,CHCGILDTO6Y
MA6813400180,h_OCHCTP,13-L1-3,2019-02-05 20:30:00.0,PhaseCorrectionAve,-0.061,CHCGILDTO6Y
MA6813400180,h_OCHCTP,13-L1-3,2019-02-05 20:30:00.0,BerPreFecMax,0.00273,CHCGILDTO6Y
MA6813400180,h_OCHCTP,13-L1-3,2019-02-05 20:30:00.0,PmdMin,0.96,CHCGILDTO6Y
MA6813400180,h_OCHCTP,13-L1-3,2019-02-05 20:30:00.0,SoPmdAve,2888.15,CHCGILDTO6Y
MA6813400180,h_OCHCTP,13-L1-3,2019-02-05 20:45:00.0,Qmin,8.84,CHCGILDTO6Y
MA6813400180,h_OCHCTP,13-L1-3,2019-02-05 20:45:00.0,PhaseCorrectionAve,-0.122,CHCGILDTO6Y
MA6813400180,h_OCHCTP,13-L1-3,2019-02-05 20:45:00.0,BerPreFecMax,0.00283,CHCGILDTO6Y
MA6813400180,h_OCHCTP,13-L1-3,2019-02-05 20:45:00.0,PmdMin,0.666,CHCGILDTO6Y
MA6813400180,h_OCHCTP,13-L1-3,2019-02-05 20:45:00.0,SoPmdAve,2872.51,CHCGILDTO6Y
MA6813400180,h_OCHCTP,13-L1-4,2019-02-05 20:15:00.0,Qmin,8.72,CHCGILDTO6Y
MA6813400180,h_OCHCTP,13-L1-4,2019-02-05 20:15:00.0,PhaseCorrectionAve,-0.061,CHCGILDTO6Y
MA6813400180,h_OCHCTP,13-L1-4,2019-02-05 20:15:00.0,BerPreFecMax,0.00316,CHCGILDTO6Y
MA6813400180,h_OCHCTP,13-L1-4,2019-02-05 20:15:00.0,PmdMin,0.273,CHCGILDTO6Y
MA6813400180,h_OCHCTP,13-L1-4,2019-02-05 20:15:00.0,SoPmdAve,3340.67,CHCGILDTO6Y
MA6813400180,h_OCHCTP,13-L1-4,2019-02-05 20:30:00.0,Qmin,8.71,CHCGILDTO6Y
MA6813400180,h_OCHCTP,13-L1-4,2019-02-05 20:30:00.0,PhaseCorrectionAve,-0.122,CHCGILDTO6Y
MA6813400180,h_OCHCTP,13-L1-4,2019-02-05 20:30:00.0,BerPreFecMax,0.00321,CHCGILDTO6Y
MA6813400180,h_OCHCTP,13-L1-4,2019-02-05 20:30:00.0,PmdMin,1.01,CHCGILDTO6Y
MA6813400180,h_OCHCTP,13-L1-4,2019-02-05 20:30:00.0,SoPmdAve,3333.93,CHCGILDTO6Y
MA6813400180,h_OCHCTP,13-L1-4,2019-02-05 20:45:00.0,Qmin,8.75,CHCGILDTO6Y
MA6813400180,h_OCHCTP,13-L1-4,2019-02-05 20:45:00.0,PhaseCorrectionAve,-0.122,CHCGILDTO6Y
MA6813400180,h_OCHCTP,13-L1-4,2019-02-05 20:45:00.0,BerPreFecMax,0.00308,CHCGILDTO6Y
MA6813400180,h_OCHCTP,13-L1-4,2019-02-05 20:45:00.0,PmdMin,0.941,CHCGILDTO6Y
MA6813400180,h_OCHCTP,13-L1-4,2019-02-05 20:45:00.0,SoPmdAve,3345.86,CHCGILDTO6Y
MA6813400180,h_OCHCTP,13-L1-5,2019-02-05 20:15:00.0,Qmin,8.7,CHCGILDTO6Y
MA6813400180,h_OCHCTP,13-L1-5,2019-02-05 20:15:00.0,PhaseCorrectionAve,-0.061,CHCGILDTO6Y
MA6813400180,h_OCHCTP,13-L1-5,2019-02-05 20:15:00.0,BerPreFecMax,0.00324,CHCGILDTO6Y
MA6813400180,h_OCHCTP,13-L1-5,2019-02-05 20:15:00.0,PmdMin,0.8,CHCGILDTO6Y
MA6813400180,h_OCHCTP,13-L1-5,2019-02-05 20:15:00.0,SoPmdAve,2773.72,CHCGILDTO6Y
MA6813400180,h_OCHCTP,13-L1-5,2019-02-05 20:30:00.0,Qmin,8.72,CHCGILDTO6Y
MA6813400180,h_OCHCTP,13-L1-5,2019-02-05 20:30:00.0,PhaseCorrectionAve,-0.122,CHCGILDTO6Y
MA6813400180,h_OCHCTP,13-L1-5,2019-02-05 20:30:00.0,BerPreFecMax,0.00319,CHCGILDTO6Y
MA6813400180,h_OCHCTP,13-L1-5,2019-02-05 20:30:00.0,PmdMin,1.25,CHCGILDTO6Y
MA6813400180,h_OCHCTP,13-L1-5,2019-02-05 20:30:00.0,SoPmdAve,2902.81,CHCGILDTO6Y
MA6813400180,h_OCHCTP,13-L1-5,2019-02-05 20:45:00.0,Qmin,8.66,CHCGILDTO6Y
MA6813400180,h_OCHCTP,13-L1-5,2019-02-05 20:45:00.0,PhaseCorrectionAve,-0.122,CHCGILDTO6Y
MA6813400180,h_OCHCTP,13-L1-5,2019-02-05 20:45:00.0,BerPreFecMax,0.00336,CHCGILDTO6Y
MA6813400180,h_OCHCTP,13-L1-5,2019-02-05 20:45:00.0,PmdMin,0.348,CHCGILDTO6Y
MA6813400180,h_OCHCTP,13-L1-5,2019-02-05 20:45:00.0,SoPmdAve,2811.45,CHCGILDTO6Y
MA6813400180,h_OCHCTP,13-L1-6,2019-02-05 20:15:00.0,Qmin,8.73,CHCGILDTO6Y
MA6813400180,h_OCHCTP,13-L1-6,2019-02-05 20:15:00.0,PhaseCorrectionAve,-0.122,CHCGILDTO6Y
MA6813400180,h_OCHCTP,13-L1-6,2019-02-05 20:15:00.0,BerPreFecMax,0.00315,CHCGILDTO6Y
MA6813400180,h_OCHCTP,13-L1-6,2019-02-05 20:15:00.0,PmdMin,1.21,CHCGILDTO6Y
MA6813400180,h_OCHCTP,13-L1-6,2019-02-05 20:15:00.0,SoPmdAve,2963.91,CHCGILDTO6Y
MA6813400180,h_OCHCTP,13-L1-6,2019-02-05 20:30:00.0,Qmin,8.75,CHCGILDTO6Y
MA6813400180,h_OCHCTP,13-L1-6,2019-02-05 20:30:00.0,PhaseCorrectionAve,-0.183,CHCGILDTO6Y
MA6813400180,h_OCHCTP,13-L1-6,2019-02-05 20:30:00.0,BerPreFecMax,0.00308,CHCGILDTO6Y
MA6813400180,h_OCHCTP,13-L1-6,2019-02-05 20:30:00.0,PmdMin,1.39,CHCGILDTO6Y
MA6813400180,h_OCHCTP,13-L1-6,2019-02-05 20:30:00.0,SoPmdAve,3004.23,CHCGILDTO6Y
MA6813400180,h_OCHCTP,13-L1-6,2019-02-05 20:45:00.0,Qmin,8.77,CHCGILDTO6Y
MA6813400180,h_OCHCTP,13-L1-6,2019-02-05 20:45:00.0,PhaseCorrectionAve,-0.122,CHCGILDTO6Y
MA6813400180,h_OCHCTP,13-L1-6,2019-02-05 20:45:00.0,BerPreFecMax,0.00302,CHCGILDTO6Y
MA6813400180,h_OCHCTP,13-L1-6,2019-02-05 20:45:00.0,PmdMin,0.974,CHCGILDTO6Y
MA6813400180,h_OCHCTP,13-L1-6,2019-02-05 20:45:00.0,SoPmdAve,3041.08,CHCGILDTO6Y
MA6813400180,h_OCHCTP,13-L1-7,2019-02-05 20:15:00.0,Qmin,8.63,CHCGILDTO6Y
MA6813400180,h_OCHCTP,13-L1-7,2019-02-05 20:15:00.0,PhaseCorrectionAve,-0.183,CHCGILDTO6Y
MA6813400180,h_OCHCTP,13-L1-7,2019-02-05 20:15:00.0,BerPreFecMax,0.00345,CHCGILDTO6Y
MA6813400180,h_OCHCTP,13-L1-7,2019-02-05 20:15:00.0,PmdMin,1.28,CHCGILDTO6Y
MA6813400180,h_OCHCTP,13-L1-7,2019-02-05 20:15:00.0,SoPmdAve,3770.38,CHCGILDTO6Y
MA6813400180,h_OCHCTP,13-L1-7,2019-02-05 20:30:00.0,Qmin,8.69,CHCGILDTO6Y
MA6813400180,h_OCHCTP,13-L1-7,2019-02-05 20:30:00.0,PhaseCorrectionAve,-0.183,CHCGILDTO6Y
MA6813400180,h_OCHCTP,13-L1-7,2019-02-05 20:30:00.0,BerPreFecMax,0.00326,CHCGILDTO6Y
MA6813400180,h_OCHCTP,13-L1-7,2019-02-05 20:30:00.0,PmdMin,0.791,CHCGILDTO6Y
MA6813400180,h_OCHCTP,13-L1-7,2019-02-05 20:30:00.0,SoPmdAve,3845.35,CHCGILDTO6Y
MA6813400180,h_OCHCTP,13-L1-7,2019-02-05 20:45:00.0,Qmin,8.67,CHCGILDTO6Y
MA6813400180,h_OCHCTP,13-L1-7,2019-02-05 20:45:00.0,PhaseCorrectionAve,-0.122,CHCGILDTO6Y
MA6813400180,h_OCHCTP,13-L1-7,2019-02-05 20:45:00.0,BerPreFecMax,0.00332,CHCGILDTO6Y
MA6813400180,h_OCHCTP,13-L1-7,2019-02-05 20:45:00.0,PmdMin,0.657,CHCGILDTO6Y
MA6813400180,h_OCHCTP,13-L1-7,2019-02-05 20:45:00.0,SoPmdAve,3617.39,CHCGILDTO6Y
MA6813400180,h_OCHCTP,13-L1-8,2019-02-05 20:15:00.0,Qmin,8.78,CHCGILDTO6Y
MA6813400180,h_OCHCTP,13-L1-8,2019-02-05 20:15:00.0,PhaseCorrectionAve,-0.183,CHCGILDTO6Y
MA6813400180,h_OCHCTP,13-L1-8,2019-02-05 20:15:00.0,BerPreFecMax,0.003,CHCGILDTO6Y
MA6813400180,h_OCHCTP,13-L1-8,2019-02-05 20:15:00.0,PmdMin,1.13,CHCGILDTO6Y
MA6813400180,h_OCHCTP,13-L1-8,2019-02-05 20:15:00.0,SoPmdAve,3815.99,CHCGILDTO6Y
MA6813400180,h_OCHCTP,13-L1-8,2019-02-05 20:30:00.0,Qmin,8.8,CHCGILDTO6Y
MA6813400180,h_OCHCTP,13-L1-8,2019-02-05 20:30:00.0,PhaseCorrectionAve,-0.183,CHCGILDTO6Y
MA6813400180,h_OCHCTP,13-L1-8,2019-02-05 20:30:00.0,BerPreFecMax,0.00295,CHCGILDTO6Y
MA6813400180,h_OCHCTP,13-L1-8,2019-02-05 20:30:00.0,PmdMin,0.406,CHCGILDTO6Y
MA6813400180,h_OCHCTP,13-L1-8,2019-02-05 20:30:00.0,SoPmdAve,3866.95,CHCGILDTO6Y
MA6813400180,h_OCHCTP,13-L1-8,2019-02-05 20:45:00.0,Qmin,8.76,CHCGILDTO6Y
MA6813400180,h_OCHCTP,13-L1-8,2019-02-05 20:45:00.0,PhaseCorrectionAve,-0.122,CHCGILDTO6Y
MA6813400180,h_OCHCTP,13-L1-8,2019-02-05 20:45:00.0,BerPreFecMax,0.00307,CHCGILDTO6Y
MA6813400180,h_OCHCTP,13-L1-8,2019-02-05 20:45:00.0,PmdMin,0.802,CHCGILDTO6Y
MA6813400180,h_OCHCTP,13-L1-8,2019-02-05 20:45:00.0,SoPmdAve,3865.4,CHCGILDTO6Y
MA6813400180,h_OCHCTP,13-L1-9,2019-02-05 20:15:00.0,Qmin,8.77,CHCGILDTO6Y
MA6813400180,h_OCHCTP,13-L1-9,2019-02-05 20:15:00.0,PhaseCorrectionAve,-0.183,CHCGILDTO6Y
MA6813400180,h_OCHCTP,13-L1-9,2019-02-05 20:15:00.0,BerPreFecMax,0.00304,CHCGILDTO6Y
MA6813400180,h_OCHCTP,13-L1-9,2019-02-05 20:15:00.0,PmdMin,0.923,CHCGILDTO6Y
MA6813400180,h_OCHCTP,13-L1-9,2019-02-05 20:15:00.0,SoPmdAve,3580.85,CHCGILDTO6Y
MA6813400180,h_OCHCTP,13-L1-9,2019-02-05 20:30:00.0,Qmin,8.71,CHCGILDTO6Y
MA6813400180,h_OCHCTP,13-L1-9,2019-02-05 20:30:00.0,PhaseCorrectionAve,-0.183,CHCGILDTO6Y
MA6813400180,h_OCHCTP,13-L1-9,2019-02-05 20:30:00.0,BerPreFecMax,0.0032,CHCGILDTO6Y
MA6813400180,h_OCHCTP,13-L1-9,2019-02-05 20:30:00.0,PmdMin,0.921,CHCGILDTO6Y
MA6813400180,h_OCHCTP,13-L1-9,2019-02-05 20:30:00.0,SoPmdAve,3584.19,CHCGILDTO6Y
MA6813400180,h_OCHCTP,13-L1-9,2019-02-05 20:45:00.0,Qmin,8.74,CHCGILDTO6Y
MA6813400180,h_OCHCTP,13-L1-9,2019-02-05 20:45:00.0,PhaseCorrectionAve,-0.122,CHCGILDTO6Y
MA6813400180,h_OCHCTP,13-L1-9,2019-02-05 20:45:00.0,BerPreFecMax,0.00311,CHCGILDTO6Y
MA6813400180,h_OCHCTP,13-L1-9,2019-02-05 20:45:00.0,PmdMin,0.803,CHCGILDTO6Y
MA6813400180,h_OCHCTP,13-L1-9,2019-02-05 20:45:00.0,SoPmdAve,3605.84,CHCGILDTO6Y
MA6813400180,h_OCHCTP,13-L1-10,2019-02-05 20:15:00.0,Qmin,8.63,CHCGILDTO6Y
MA6813400180,h_OCHCTP,13-L1-10,2019-02-05 20:15:00.0,PhaseCorrectionAve,-0.183,CHCGILDTO6Y
MA6813400180,h_OCHCTP,13-L1-10,2019-02-05 20:15:00.0,BerPreFecMax,0.00346,CHCGILDTO6Y
MA6813400180,h_OCHCTP,13-L1-10,2019-02-05 20:15:00.0,PmdMin,0.719,CHCGILDTO6Y
MA6813400180,h_OCHCTP,13-L1-10,2019-02-05 20:15:00.0,SoPmdAve,3790.42,CHCGILDTO6Y
MA6813400180,h_OCHCTP,13-L1-10,2019-02-05 20:30:00.0,Qmin,8.56,CHCGILDTO6Y
MA6813400180,h_OCHCTP,13-L1-10,2019-02-05 20:30:00.0,PhaseCorrectionAve,-0.183,CHCGILDTO6Y
MA6813400180,h_OCHCTP,13-L1-10,2019-02-05 20:30:00.0,BerPreFecMax,0.00369,CHCGILDTO6Y
MA6813400180,h_OCHCTP,13-L1-10,2019-02-05 20:30:00.0,PmdMin,0.955,CHCGILDTO6Y
MA6813400180,h_OCHCTP,13-L1-10,2019-02-05 20:30:00.0,SoPmdAve,3867.36,CHCGILDTO6Y
MA6813400180,h_OCHCTP,13-L1-10,2019-02-05 20:45:00.0,Qmin,8.66,CHCGILDTO6Y
MA6813400180,h_OCHCTP,13-L1-10,2019-02-05 20:45:00.0,PhaseCorrectionAve,-0.122,CHCGILDTO6Y
MA6813400180,h_OCHCTP,13-L1-10,2019-02-05 20:45:00.0,BerPreFecMax,0.00337,CHCGILDTO6Y
MA6813400180,h_OCHCTP,13-L1-10,2019-02-05 20:45:00.0,PmdMin,0.726,CHCGILDTO6Y
MA6813400180,h_OCHCTP,13-L1-10,2019-02-05 20:45:00.0,SoPmdAve,3940.28,CHCGILDTO6Y
