MA6813400180,h_OCHCTP,11-L1-1,2019-01-21 22:15:00.0,Qmin,9.15,CHCGILDTO6Y
MA6813400180,h_OCHCTP,11-L1-1,2019-01-21 22:15:00.0,PhaseCorrectionAve,1.43e-07,CHCGILDTO6Y
MA6813400180,h_OCHCTP,11-L1-1,2019-01-21 22:15:00.0,BerPreFecMax,0.00207,CHCGILDTO6Y
MA6813400180,h_OCHCTP,11-L1-1,2019-01-21 22:15:00.0,PmdMin,1.12,CHCGILDTO6Y
MA6813400180,h_OCHCTP,11-L1-1,2019-01-21 22:15:00.0,SoPmdAve,3449.0,CHCGILDTO6Y
MA6813400180,h_OCHCTP,11-L1-1,2019-01-21 22:30:00.0,Qmin,9.11,CHCGILDTO6Y
MA6813400180,h_OCHCTP,11-L1-1,2019-01-21 22:30:00.0,PhaseCorrectionAve,2.54e-07,CHCGILDTO6Y
MA6813400180,h_OCHCTP,11-L1-1,2019-01-21 22:30:00.0,BerPreFecMax,0.00215,CHCGILDTO6Y
MA6813400180,h_OCHCTP,11-L1-1,2019-01-21 22:30:00.0,PmdMin,1.55,CHCGILDTO6Y
MA6813400180,h_OCHCTP,11-L1-1,2019-01-21 22:30:00.0,SoPmdAve,3399.77,CHCGILDTO6Y
MA6813400180,h_OCHCTP,11-L1-1,2019-01-21 22:45:00.0,Qmin,9.17,CHCGILDTO6Y
MA6813400180,h_OCHCTP,11-L1-1,2019-01-21 22:45:00.0,PhaseCorrectionAve,2.07e-07,CHCGILDTO6Y
MA6813400180,h_OCHCTP,11-L1-1,2019-01-21 22:45:00.0,BerPreFecMax,0.00202,CHCGILDTO6Y
MA6813400180,h_OCHCTP,11-L1-1,2019-01-21 22:45:00.0,PmdMin,0.993,CHCGILDTO6Y
MA6813400180,h_OCHCTP,11-L1-1,2019-01-21 22:45:00.0,SoPmdAve,3439.0,CHCGILDTO6Y
MA6813400180,h_OCHCTP,11-L1-2,2019-01-21 22:15:00.0,Qmin,9.03,CHCGILDTO6Y
MA6813400180,h_OCHCTP,11-L1-2,2019-01-21 22:15:00.0,PhaseCorrectionAve,4.01e-07,CHCGILDTO6Y
MA6813400180,h_OCHCTP,11-L1-2,2019-01-21 22:15:00.0,BerPreFecMax,0.00234,CHCGILDTO6Y
MA6813400180,h_OCHCTP,11-L1-2,2019-01-21 22:15:00.0,PmdMin,0.858,CHCGILDTO6Y
MA6813400180,h_OCHCTP,11-L1-2,2019-01-21 22:15:00.0,SoPmdAve,3120.96,CHCGILDTO6Y
MA6813400180,h_OCHCTP,11-L1-2,2019-01-21 22:30:00.0,Qmin,9.06,CHCGILDTO6Y
MA6813400180,h_OCHCTP,11-L1-2,2019-01-21 22:30:00.0,PhaseCorrectionAve,5.56e-07,CHCGILDTO6Y
MA6813400180,h_OCHCTP,11-L1-2,2019-01-21 22:30:00.0,BerPreFecMax,0.00226,CHCGILDTO6Y
MA6813400180,h_OCHCTP,11-L1-2,2019-01-21 22:30:00.0,PmdMin,1.61,CHCGILDTO6Y
MA6813400180,h_OCHCTP,11-L1-2,2019-01-21 22:30:00.0,SoPmdAve,3101.61,CHCGILDTO6Y
MA6813400180,h_OCHCTP,11-L1-2,2019-01-21 22:45:00.0,Qmin,9.06,CHCGILDTO6Y
MA6813400180,h_OCHCTP,11-L1-2,2019-01-21 22:45:00.0,PhaseCorrectionAve,6.63e-07,CHCGILDTO6Y
MA6813400180,h_OCHCTP,11-L1-2,2019-01-21 22:45:00.0,BerPreFecMax,0.00226,CHCGILDTO6Y
MA6813400180,h_OCHCTP,11-L1-2,2019-01-21 22:45:00.0,PmdMin,1.02,CHCGILDTO6Y
MA6813400180,h_OCHCTP,11-L1-2,2019-01-21 22:45:00.0,SoPmdAve,3260.99,CHCGILDTO6Y
MA6813400180,h_OCHCTP,11-L1-3,2019-01-21 22:15:00.0,Qmin,8.98,CHCGILDTO6Y
MA6813400180,h_OCHCTP,11-L1-3,2019-01-21 22:15:00.0,PhaseCorrectionAve,3.69e-07,CHCGILDTO6Y
MA6813400180,h_OCHCTP,11-L1-3,2019-01-21 22:15:00.0,BerPreFecMax,0.00247,CHCGILDTO6Y
MA6813400180,h_OCHCTP,11-L1-3,2019-01-21 22:15:00.0,PmdMin,0.595,CHCGILDTO6Y
MA6813400180,h_OCHCTP,11-L1-3,2019-01-21 22:15:00.0,SoPmdAve,2620.71,CHCGILDTO6Y
MA6813400180,h_OCHCTP,11-L1-3,2019-01-21 22:30:00.0,Qmin,9.03,CHCGILDTO6Y
MA6813400180,h_OCHCTP,11-L1-3,2019-01-21 22:30:00.0,PhaseCorrectionAve,-0.061,CHCGILDTO6Y
MA6813400180,h_OCHCTP,11-L1-3,2019-01-21 22:30:00.0,BerPreFecMax,0.00234,CHCGILDTO6Y
MA6813400180,h_OCHCTP,11-L1-3,2019-01-21 22:30:00.0,PmdMin,0.0726,CHCGILDTO6Y
MA6813400180,h_OCHCTP,11-L1-3,2019-01-21 22:30:00.0,SoPmdAve,2674.35,CHCGILDTO6Y
MA6813400180,h_OCHCTP,11-L1-3,2019-01-21 22:45:00.0,Qmin,9.02,CHCGILDTO6Y
MA6813400180,h_OCHCTP,11-L1-3,2019-01-21 22:45:00.0,PhaseCorrectionAve,3.99e-07,CHCGILDTO6Y
MA6813400180,h_OCHCTP,11-L1-3,2019-01-21 22:45:00.0,BerPreFecMax,0.00237,CHCGILDTO6Y
MA6813400180,h_OCHCTP,11-L1-3,2019-01-21 22:45:00.0,PmdMin,0.296,CHCGILDTO6Y
MA6813400180,h_OCHCTP,11-L1-3,2019-01-21 22:45:00.0,SoPmdAve,2724.59,CHCGILDTO6Y
MA6813400180,h_OCHCTP,11-L1-4,2019-01-21 22:15:00.0,Qmin,8.76,CHCGILDTO6Y
MA6813400180,h_OCHCTP,11-L1-4,2019-01-21 22:15:00.0,PhaseCorrectionAve,-0.061,CHCGILDTO6Y
MA6813400180,h_OCHCTP,11-L1-4,2019-01-21 22:15:00.0,BerPreFecMax,0.00307,CHCGILDTO6Y
MA6813400180,h_OCHCTP,11-L1-4,2019-01-21 22:15:00.0,PmdMin,0.916,CHCGILDTO6Y
MA6813400180,h_OCHCTP,11-L1-4,2019-01-21 22:15:00.0,SoPmdAve,2994.52,CHCGILDTO6Y
MA6813400180,h_OCHCTP,11-L1-4,2019-01-21 22:30:00.0,Qmin,8.82,CHCGILDTO6Y
MA6813400180,h_OCHCTP,11-L1-4,2019-01-21 22:30:00.0,PhaseCorrectionAve,-0.061,CHCGILDTO6Y
MA6813400180,h_OCHCTP,11-L1-4,2019-01-21 22:30:00.0,BerPreFecMax,0.0029,CHCGILDTO6Y
MA6813400180,h_OCHCTP,11-L1-4,2019-01-21 22:30:00.0,PmdMin,1.37,CHCGILDTO6Y
MA6813400180,h_OCHCTP,11-L1-4,2019-01-21 22:30:00.0,SoPmdAve,2942.63,CHCGILDTO6Y
MA6813400180,h_OCHCTP,11-L1-4,2019-01-21 22:45:00.0,Qmin,8.89,CHCGILDTO6Y
MA6813400180,h_OCHCTP,11-L1-4,2019-01-21 22:45:00.0,PhaseCorrectionAve,4.12e-07,CHCGILDTO6Y
MA6813400180,h_OCHCTP,11-L1-4,2019-01-21 22:45:00.0,BerPreFecMax,0.0027,CHCGILDTO6Y
MA6813400180,h_OCHCTP,11-L1-4,2019-01-21 22:45:00.0,PmdMin,1.21,CHCGILDTO6Y
MA6813400180,h_OCHCTP,11-L1-4,2019-01-21 22:45:00.0,SoPmdAve,2936.52,CHCGILDTO6Y
MA6813400180,h_OCHCTP,11-L1-5,2019-01-21 22:15:00.0,Qmin,8.75,CHCGILDTO6Y
MA6813400180,h_OCHCTP,11-L1-5,2019-01-21 22:15:00.0,PhaseCorrectionAve,-0.061,CHCGILDTO6Y
MA6813400180,h_OCHCTP,11-L1-5,2019-01-21 22:15:00.0,BerPreFecMax,0.00309,CHCGILDTO6Y
MA6813400180,h_OCHCTP,11-L1-5,2019-01-21 22:15:00.0,PmdMin,0.838,CHCGILDTO6Y
MA6813400180,h_OCHCTP,11-L1-5,2019-01-21 22:15:00.0,SoPmdAve,2554.94,CHCGILDTO6Y
MA6813400180,h_OCHCTP,11-L1-5,2019-01-21 22:30:00.0,Qmin,8.86,CHCGILDTO6Y
MA6813400180,h_OCHCTP,11-L1-5,2019-01-21 22:30:00.0,PhaseCorrectionAve,-0.061,CHCGILDTO6Y
MA6813400180,h_OCHCTP,11-L1-5,2019-01-21 22:30:00.0,BerPreFecMax,0.00277,CHCGILDTO6Y
MA6813400180,h_OCHCTP,11-L1-5,2019-01-21 22:30:00.0,PmdMin,0.686,CHCGILDTO6Y
MA6813400180,h_OCHCTP,11-L1-5,2019-01-21 22:30:00.0,SoPmdAve,2474.56,CHCGILDTO6Y
MA6813400180,h_OCHCTP,11-L1-5,2019-01-21 22:45:00.0,Qmin,8.92,CHCGILDTO6Y
MA6813400180,h_OCHCTP,11-L1-5,2019-01-21 22:45:00.0,PhaseCorrectionAve,1.67e-07,CHCGILDTO6Y
MA6813400180,h_OCHCTP,11-L1-5,2019-01-21 22:45:00.0,BerPreFecMax,0.00261,CHCGILDTO6Y
MA6813400180,h_OCHCTP,11-L1-5,2019-01-21 22:45:00.0,PmdMin,0.406,CHCGILDTO6Y
MA6813400180,h_OCHCTP,11-L1-5,2019-01-21 22:45:00.0,SoPmdAve,2535.75,CHCGILDTO6Y
MA6813400180,h_OCHCTP,11-L1-6,2019-01-21 22:15:00.0,Qmin,8.78,CHCGILDTO6Y
MA6813400180,h_OCHCTP,11-L1-6,2019-01-21 22:15:00.0,PhaseCorrectionAve,-0.061,CHCGILDTO6Y
MA6813400180,h_OCHCTP,11-L1-6,2019-01-21 22:15:00.0,BerPreFecMax,0.00301,CHCGILDTO6Y
MA6813400180,h_OCHCTP,11-L1-6,2019-01-21 22:15:00.0,PmdMin,0.306,CHCGILDTO6Y
MA6813400180,h_OCHCTP,11-L1-6,2019-01-21 22:15:00.0,SoPmdAve,2520.96,CHCGILDTO6Y
MA6813400180,h_OCHCTP,11-L1-6,2019-01-21 22:30:00.0,Qmin,8.73,CHCGILDTO6Y
MA6813400180,h_OCHCTP,11-L1-6,2019-01-21 22:30:00.0,PhaseCorrectionAve,-0.122,CHCGILDTO6Y
MA6813400180,h_OCHCTP,11-L1-6,2019-01-21 22:30:00.0,BerPreFecMax,0.00316,CHCGILDTO6Y
MA6813400180,h_OCHCTP,11-L1-6,2019-01-21 22:30:00.0,PmdMin,1.01,CHCGILDTO6Y
MA6813400180,h_OCHCTP,11-L1-6,2019-01-21 22:30:00.0,SoPmdAve,2513.25,CHCGILDTO6Y
MA6813400180,h_OCHCTP,11-L1-6,2019-01-21 22:45:00.0,Qmin,8.86,CHCGILDTO6Y
MA6813400180,h_OCHCTP,11-L1-6,2019-01-21 22:45:00.0,PhaseCorrectionAve,4.09e-07,CHCGILDTO6Y
MA6813400180,h_OCHCTP,11-L1-6,2019-01-21 22:45:00.0,BerPreFecMax,0.00276,CHCGILDTO6Y
MA6813400180,h_OCHCTP,11-L1-6,2019-01-21 22:45:00.0,PmdMin,0.577,CHCGILDTO6Y
MA6813400180,h_OCHCTP,11-L1-6,2019-01-21 22:45:00.0,SoPmdAve,2527.3,CHCGILDTO6Y
MA6813400180,h_OCHCTP,11-L1-7,2019-01-21 22:15:00.0,Qmin,8.87,CHCGILDTO6Y
MA6813400180,h_OCHCTP,11-L1-7,2019-01-21 22:15:00.0,PhaseCorrectionAve,-0.122,CHCGILDTO6Y
MA6813400180,h_OCHCTP,11-L1-7,2019-01-21 22:15:00.0,BerPreFecMax,0.00274,CHCGILDTO6Y
MA6813400180,h_OCHCTP,11-L1-7,2019-01-21 22:15:00.0,PmdMin,0.39,CHCGILDTO6Y
MA6813400180,h_OCHCTP,11-L1-7,2019-01-21 22:15:00.0,SoPmdAve,3081.95,CHCGILDTO6Y
MA6813400180,h_OCHCTP,11-L1-7,2019-01-21 22:30:00.0,Qmin,8.8,CHCGILDTO6Y
MA6813400180,h_OCHCTP,11-L1-7,2019-01-21 22:30:00.0,PhaseCorrectionAve,-0.122,CHCGILDTO6Y
MA6813400180,h_OCHCTP,11-L1-7,2019-01-21 22:30:00.0,BerPreFecMax,0.00294,CHCGILDTO6Y
MA6813400180,h_OCHCTP,11-L1-7,2019-01-21 22:30:00.0,PmdMin,1.33,CHCGILDTO6Y
MA6813400180,h_OCHCTP,11-L1-7,2019-01-21 22:30:00.0,SoPmdAve,3097.52,CHCGILDTO6Y
MA6813400180,h_OCHCTP,11-L1-7,2019-01-21 22:45:00.0,Qmin,8.95,CHCGILDTO6Y
MA6813400180,h_OCHCTP,11-L1-7,2019-01-21 22:45:00.0,PhaseCorrectionAve,2.65e-07,CHCGILDTO6Y
MA6813400180,h_OCHCTP,11-L1-7,2019-01-21 22:45:00.0,BerPreFecMax,0.00254,CHCGILDTO6Y
MA6813400180,h_OCHCTP,11-L1-7,2019-01-21 22:45:00.0,PmdMin,0.729,CHCGILDTO6Y
MA6813400180,h_OCHCTP,11-L1-7,2019-01-21 22:45:00.0,SoPmdAve,2991.11,CHCGILDTO6Y
MA6813400180,h_OCHCTP,11-L1-8,2019-01-21 22:15:00.0,Qmin,8.94,CHCGILDTO6Y
MA6813400180,h_OCHCTP,11-L1-8,2019-01-21 22:15:00.0,PhaseCorrectionAve,-0.122,CHCGILDTO6Y
MA6813400180,h_OCHCTP,11-L1-8,2019-01-21 22:15:00.0,BerPreFecMax,0.00257,CHCGILDTO6Y
MA6813400180,h_OCHCTP,11-L1-8,2019-01-21 22:15:00.0,PmdMin,0.832,CHCGILDTO6Y
MA6813400180,h_OCHCTP,11-L1-8,2019-01-21 22:15:00.0,SoPmdAve,3084.21,CHCGILDTO6Y
MA6813400180,h_OCHCTP,11-L1-8,2019-01-21 22:30:00.0,Qmin,8.85,CHCGILDTO6Y
MA6813400180,h_OCHCTP,11-L1-8,2019-01-21 22:30:00.0,PhaseCorrectionAve,-0.183,CHCGILDTO6Y
MA6813400180,h_OCHCTP,11-L1-8,2019-01-21 22:30:00.0,BerPreFecMax,0.00282,CHCGILDTO6Y
MA6813400180,h_OCHCTP,11-L1-8,2019-01-21 22:30:00.0,PmdMin,0.842,CHCGILDTO6Y
MA6813400180,h_OCHCTP,11-L1-8,2019-01-21 22:30:00.0,SoPmdAve,3060.86,CHCGILDTO6Y
MA6813400180,h_OCHCTP,11-L1-8,2019-01-21 22:45:00.0,Qmin,8.99,CHCGILDTO6Y
MA6813400180,h_OCHCTP,11-L1-8,2019-01-21 22:45:00.0,PhaseCorrectionAve,-0.061,CHCGILDTO6Y
MA6813400180,h_OCHCTP,11-L1-8,2019-01-21 22:45:00.0,BerPreFecMax,0.00243,CHCGILDTO6Y
MA6813400180,h_OCHCTP,11-L1-8,2019-01-21 22:45:00.0,PmdMin,1.82,CHCGILDTO6Y
MA6813400180,h_OCHCTP,11-L1-8,2019-01-21 22:45:00.0,SoPmdAve,2978.53,CHCGILDTO6Y
MA6813400180,h_OCHCTP,11-L1-9,2019-01-21 22:15:00.0,Qmin,8.81,CHCGILDTO6Y
MA6813400180,h_OCHCTP,11-L1-9,2019-01-21 22:15:00.0,PhaseCorrectionAve,-0.183,CHCGILDTO6Y
MA6813400180,h_OCHCTP,11-L1-9,2019-01-21 22:15:00.0,BerPreFecMax,0.00292,CHCGILDTO6Y
MA6813400180,h_OCHCTP,11-L1-9,2019-01-21 22:15:00.0,PmdMin,1.18,CHCGILDTO6Y
MA6813400180,h_OCHCTP,11-L1-9,2019-01-21 22:15:00.0,SoPmdAve,3101.79,CHCGILDTO6Y
MA6813400180,h_OCHCTP,11-L1-9,2019-01-21 22:30:00.0,Qmin,8.76,CHCGILDTO6Y
MA6813400180,h_OCHCTP,11-L1-9,2019-01-21 22:30:00.0,PhaseCorrectionAve,-0.244,CHCGILDTO6Y
MA6813400180,h_OCHCTP,11-L1-9,2019-01-21 22:30:00.0,BerPreFecMax,0.00306,CHCGILDTO6Y
MA6813400180,h_OCHCTP,11-L1-9,2019-01-21 22:30:00.0,PmdMin,0.634,CHCGILDTO6Y
MA6813400180,h_OCHCTP,11-L1-9,2019-01-21 22:30:00.0,SoPmdAve,3093.07,CHCGILDTO6Y
MA6813400180,h_OCHCTP,11-L1-9,2019-01-21 22:45:00.0,Qmin,8.82,CHCGILDTO6Y
MA6813400180,h_OCHCTP,11-L1-9,2019-01-21 22:45:00.0,PhaseCorrectionAve,-0.122,CHCGILDTO6Y
MA6813400180,h_OCHCTP,11-L1-9,2019-01-21 22:45:00.0,BerPreFecMax,0.00289,CHCGILDTO6Y
MA6813400180,h_OCHCTP,11-L1-9,2019-01-21 22:45:00.0,PmdMin,0.547,CHCGILDTO6Y
MA6813400180,h_OCHCTP,11-L1-9,2019-01-21 22:45:00.0,SoPmdAve,3045.62,CHCGILDTO6Y
MA6813400180,h_OCHCTP,11-L1-10,2019-01-21 22:15:00.0,Qmin,8.85,CHCGILDTO6Y
MA6813400180,h_OCHCTP,11-L1-10,2019-01-21 22:15:00.0,PhaseCorrectionAve,-0.183,CHCGILDTO6Y
MA6813400180,h_OCHCTP,11-L1-10,2019-01-21 22:15:00.0,BerPreFecMax,0.00281,CHCGILDTO6Y
MA6813400180,h_OCHCTP,11-L1-10,2019-01-21 22:15:00.0,PmdMin,0.666,CHCGILDTO6Y
MA6813400180,h_OCHCTP,11-L1-10,2019-01-21 22:15:00.0,SoPmdAve,3132.16,CHCGILDTO6Y
MA6813400180,h_OCHCTP,11-L1-10,2019-01-21 22:30:00.0,Qmin,8.84,CHCGILDTO6Y
MA6813400180,h_OCHCTP,11-L1-10,2019-01-21 22:30:00.0,PhaseCorrectionAve,-0.244,CHCGILDTO6Y
MA6813400180,h_OCHCTP,11-L1-10,2019-01-21 22:30:00.0,BerPreFecMax,0.00283,CHCGILDTO6Y
MA6813400180,h_OCHCTP,11-L1-10,2019-01-21 22:30:00.0,PmdMin,0.438,CHCGILDTO6Y
MA6813400180,h_OCHCTP,11-L1-10,2019-01-21 22:30:00.0,SoPmdAve,3001.48,CHCGILDTO6Y
MA6813400180,h_OCHCTP,11-L1-10,2019-01-21 22:45:00.0,Qmin,8.96,CHCGILDTO6Y
MA6813400180,h_OCHCTP,11-L1-10,2019-01-21 22:45:00.0,PhaseCorrectionAve,-0.183,CHCGILDTO6Y
MA6813400180,h_OCHCTP,11-L1-10,2019-01-21 22:45:00.0,BerPreFecMax,0.0025,CHCGILDTO6Y
MA6813400180,h_OCHCTP,11-L1-10,2019-01-21 22:45:00.0,PmdMin,0.776,CHCGILDTO6Y
MA6813400180,h_OCHCTP,11-L1-10,2019-01-21 22:45:00.0,SoPmdAve,3017.16,CHCGILDTO6Y
MA6813400180,h_OCHCTP,13-L1-1,2019-01-21 22:15:00.0,Qmin,9.16,CHCGILDTO6Y
MA6813400180,h_OCHCTP,13-L1-1,2019-01-21 22:15:00.0,PhaseCorrectionAve,2.77e-07,CHCGILDTO6Y
MA6813400180,h_OCHCTP,13-L1-1,2019-01-21 22:15:00.0,BerPreFecMax,0.00205,CHCGILDTO6Y
MA6813400180,h_OCHCTP,13-L1-1,2019-01-21 22:15:00.0,PmdMin,1.54,CHCGILDTO6Y
MA6813400180,h_OCHCTP,13-L1-1,2019-01-21 22:15:00.0,SoPmdAve,3482.64,CHCGILDTO6Y
MA6813400180,h_OCHCTP,13-L1-1,2019-01-21 22:30:00.0,Qmin,9.12,CHCGILDTO6Y
MA6813400180,h_OCHCTP,13-L1-1,2019-01-21 22:30:00.0,PhaseCorrectionAve,-0.122,CHCGILDTO6Y
MA6813400180,h_OCHCTP,13-L1-1,2019-01-21 22:30:00.0,BerPreFecMax,0.00214,CHCGILDTO6Y
MA6813400180,h_OCHCTP,13-L1-1,2019-01-21 22:30:00.0,PmdMin,1.19,CHCGILDTO6Y
MA6813400180,h_OCHCTP,13-L1-1,2019-01-21 22:30:00.0,SoPmdAve,3520.27,CHCGILDTO6Y
MA6813400180,h_OCHCTP,13-L1-1,2019-01-21 22:45:00.0,Qmin,9.22,CHCGILDTO6Y
MA6813400180,h_OCHCTP,13-L1-1,2019-01-21 22:45:00.0,PhaseCorrectionAve,3.42e-07,CHCGILDTO6Y
MA6813400180,h_OCHCTP,13-L1-1,2019-01-21 22:45:00.0,BerPreFecMax,0.00193,CHCGILDTO6Y
MA6813400180,h_OCHCTP,13-L1-1,2019-01-21 22:45:00.0,PmdMin,0.68,CHCGILDTO6Y
MA6813400180,h_OCHCTP,13-L1-1,2019-01-21 22:45:00.0,SoPmdAve,3639.66,CHCGILDTO6Y
MA6813400180,h_OCHCTP,13-L1-2,2019-01-21 22:15:00.0,Qmin,9.1,CHCGILDTO6Y
MA6813400180,h_OCHCTP,13-L1-2,2019-01-21 22:15:00.0,PhaseCorrectionAve,-0.061,CHCGILDTO6Y
MA6813400180,h_OCHCTP,13-L1-2,2019-01-21 22:15:00.0,BerPreFecMax,0.00219,CHCGILDTO6Y
MA6813400180,h_OCHCTP,13-L1-2,2019-01-21 22:15:00.0,PmdMin,1.57,CHCGILDTO6Y
MA6813400180,h_OCHCTP,13-L1-2,2019-01-21 22:15:00.0,SoPmdAve,3552.88,CHCGILDTO6Y
MA6813400180,h_OCHCTP,13-L1-2,2019-01-21 22:30:00.0,Qmin,9.12,CHCGILDTO6Y
MA6813400180,h_OCHCTP,13-L1-2,2019-01-21 22:30:00.0,PhaseCorrectionAve,-0.122,CHCGILDTO6Y
MA6813400180,h_OCHCTP,13-L1-2,2019-01-21 22:30:00.0,BerPreFecMax,0.00213,CHCGILDTO6Y
MA6813400180,h_OCHCTP,13-L1-2,2019-01-21 22:30:00.0,PmdMin,1.08,CHCGILDTO6Y
MA6813400180,h_OCHCTP,13-L1-2,2019-01-21 22:30:00.0,SoPmdAve,3502.41,CHCGILDTO6Y
MA6813400180,h_OCHCTP,13-L1-2,2019-01-21 22:45:00.0,Qmin,9.14,CHCGILDTO6Y
MA6813400180,h_OCHCTP,13-L1-2,2019-01-21 22:45:00.0,PhaseCorrectionAve,-0.122,CHCGILDTO6Y
MA6813400180,h_OCHCTP,13-L1-2,2019-01-21 22:45:00.0,BerPreFecMax,0.00209,CHCGILDTO6Y
MA6813400180,h_OCHCTP,13-L1-2,2019-01-21 22:45:00.0,PmdMin,0.597,CHCGILDTO6Y
MA6813400180,h_OCHCTP,13-L1-2,2019-01-21 22:45:00.0,SoPmdAve,3465.21,CHCGILDTO6Y
MA6813400180,h_OCHCTP,13-L1-3,2019-01-21 22:15:00.0,Qmin,8.95,CHCGILDTO6Y
MA6813400180,h_OCHCTP,13-L1-3,2019-01-21 22:15:00.0,PhaseCorrectionAve,-0.061,CHCGILDTO6Y
MA6813400180,h_OCHCTP,13-L1-3,2019-01-21 22:15:00.0,BerPreFecMax,0.00254,CHCGILDTO6Y
MA6813400180,h_OCHCTP,13-L1-3,2019-01-21 22:15:00.0,PmdMin,1.1,CHCGILDTO6Y
MA6813400180,h_OCHCTP,13-L1-3,2019-01-21 22:15:00.0,SoPmdAve,2930.93,CHCGILDTO6Y
MA6813400180,h_OCHCTP,13-L1-3,2019-01-21 22:30:00.0,Qmin,9.05,CHCGILDTO6Y
MA6813400180,h_OCHCTP,13-L1-3,2019-01-21 22:30:00.0,PhaseCorrectionAve,-0.122,CHCGILDTO6Y
MA6813400180,h_OCHCTP,13-L1-3,2019-01-21 22:30:00.0,BerPreFecMax,0.0023,CHCGILDTO6Y
MA6813400180,h_OCHCTP,13-L1-3,2019-01-21 22:30:00.0,PmdMin,0.882,CHCGILDTO6Y
MA6813400180,h_OCHCTP,13-L1-3,2019-01-21 22:30:00.0,SoPmdAve,3034.89,CHCGILDTO6Y
MA6813400180,h_OCHCTP,13-L1-3,2019-01-21 22:45:00.0,Qmin,9.0,CHCGILDTO6Y
MA6813400180,h_OCHCTP,13-L1-3,2019-01-21 22:45:00.0,PhaseCorrectionAve,-0.244,CHCGILDTO6Y
MA6813400180,h_OCHCTP,13-L1-3,2019-01-21 22:45:00.0,BerPreFecMax,0.00241,CHCGILDTO6Y
MA6813400180,h_OCHCTP,13-L1-3,2019-01-21 22:45:00.0,PmdMin,1.06,CHCGILDTO6Y
MA6813400180,h_OCHCTP,13-L1-3,2019-01-21 22:45:00.0,SoPmdAve,2994.47,CHCGILDTO6Y
MA6813400180,h_OCHCTP,13-L1-4,2019-01-21 22:15:00.0,Qmin,8.7,CHCGILDTO6Y
MA6813400180,h_OCHCTP,13-L1-4,2019-01-21 22:15:00.0,PhaseCorrectionAve,-0.061,CHCGILDTO6Y
MA6813400180,h_OCHCTP,13-L1-4,2019-01-21 22:15:00.0,BerPreFecMax,0.00323,CHCGILDTO6Y
MA6813400180,h_OCHCTP,13-L1-4,2019-01-21 22:15:00.0,PmdMin,1.1,CHCGILDTO6Y
MA6813400180,h_OCHCTP,13-L1-4,2019-01-21 22:15:00.0,SoPmdAve,3412.43,CHCGILDTO6Y
MA6813400180,h_OCHCTP,13-L1-4,2019-01-21 22:30:00.0,Qmin,8.76,CHCGILDTO6Y
MA6813400180,h_OCHCTP,13-L1-4,2019-01-21 22:30:00.0,PhaseCorrectionAve,-0.122,CHCGILDTO6Y
MA6813400180,h_OCHCTP,13-L1-4,2019-01-21 22:30:00.0,BerPreFecMax,0.00307,CHCGILDTO6Y
MA6813400180,h_OCHCTP,13-L1-4,2019-01-21 22:30:00.0,PmdMin,1.43,CHCGILDTO6Y
MA6813400180,h_OCHCTP,13-L1-4,2019-01-21 22:30:00.0,SoPmdAve,3353.79,CHCGILDTO6Y
MA6813400180,h_OCHCTP,13-L1-4,2019-01-21 22:45:00.0,Qmin,8.84,CHCGILDTO6Y
MA6813400180,h_OCHCTP,13-L1-4,2019-01-21 22:45:00.0,PhaseCorrectionAve,-0.306,CHCGILDTO6Y
MA6813400180,h_OCHCTP,13-L1-4,2019-01-21 22:45:00.0,BerPreFecMax,0.00283,CHCGILDTO6Y
MA6813400180,h_OCHCTP,13-L1-4,2019-01-21 22:45:00.0,PmdMin,1.48,CHCGILDTO6Y
MA6813400180,h_OCHCTP,13-L1-4,2019-01-21 22:45:00.0,SoPmdAve,3250.38,CHCGILDTO6Y
MA6813400180,h_OCHCTP,13-L1-5,2019-01-21 22:15:00.0,Qmin,8.69,CHCGILDTO6Y
MA6813400180,h_OCHCTP,13-L1-5,2019-01-21 22:15:00.0,PhaseCorrectionAve,-0.061,CHCGILDTO6Y
MA6813400180,h_OCHCTP,13-L1-5,2019-01-21 22:15:00.0,BerPreFecMax,0.00326,CHCGILDTO6Y
MA6813400180,h_OCHCTP,13-L1-5,2019-01-21 22:15:00.0,PmdMin,1.08,CHCGILDTO6Y
MA6813400180,h_OCHCTP,13-L1-5,2019-01-21 22:15:00.0,SoPmdAve,2825.08,CHCGILDTO6Y
MA6813400180,h_OCHCTP,13-L1-5,2019-01-21 22:30:00.0,Qmin,8.77,CHCGILDTO6Y
MA6813400180,h_OCHCTP,13-L1-5,2019-01-21 22:30:00.0,PhaseCorrectionAve,-0.183,CHCGILDTO6Y
MA6813400180,h_OCHCTP,13-L1-5,2019-01-21 22:30:00.0,BerPreFecMax,0.00304,CHCGILDTO6Y
MA6813400180,h_OCHCTP,13-L1-5,2019-01-21 22:30:00.0,PmdMin,1.06,CHCGILDTO6Y
MA6813400180,h_OCHCTP,13-L1-5,2019-01-21 22:30:00.0,SoPmdAve,2867.19,CHCGILDTO6Y
MA6813400180,h_OCHCTP,13-L1-5,2019-01-21 22:45:00.0,Qmin,8.83,CHCGILDTO6Y
MA6813400180,h_OCHCTP,13-L1-5,2019-01-21 22:45:00.0,PhaseCorrectionAve,-0.306,CHCGILDTO6Y
MA6813400180,h_OCHCTP,13-L1-5,2019-01-21 22:45:00.0,BerPreFecMax,0.00286,CHCGILDTO6Y
MA6813400180,h_OCHCTP,13-L1-5,2019-01-21 22:45:00.0,PmdMin,0.948,CHCGILDTO6Y
MA6813400180,h_OCHCTP,13-L1-5,2019-01-21 22:45:00.0,SoPmdAve,2806.05,CHCGILDTO6Y
MA6813400180,h_OCHCTP,13-L1-6,2019-01-21 22:15:00.0,Qmin,8.77,CHCGILDTO6Y
MA6813400180,h_OCHCTP,13-L1-6,2019-01-21 22:15:00.0,PhaseCorrectionAve,-0.061,CHCGILDTO6Y
MA6813400180,h_OCHCTP,13-L1-6,2019-01-21 22:15:00.0,BerPreFecMax,0.00303,CHCGILDTO6Y
MA6813400180,h_OCHCTP,13-L1-6,2019-01-21 22:15:00.0,PmdMin,1.22,CHCGILDTO6Y
MA6813400180,h_OCHCTP,13-L1-6,2019-01-21 22:15:00.0,SoPmdAve,3063.42,CHCGILDTO6Y
MA6813400180,h_OCHCTP,13-L1-6,2019-01-21 22:30:00.0,Qmin,8.75,CHCGILDTO6Y
MA6813400180,h_OCHCTP,13-L1-6,2019-01-21 22:30:00.0,PhaseCorrectionAve,-0.183,CHCGILDTO6Y
MA6813400180,h_OCHCTP,13-L1-6,2019-01-21 22:30:00.0,BerPreFecMax,0.00308,CHCGILDTO6Y
MA6813400180,h_OCHCTP,13-L1-6,2019-01-21 22:30:00.0,PmdMin,0.821,CHCGILDTO6Y
MA6813400180,h_OCHCTP,13-L1-6,2019-01-21 22:30:00.0,SoPmdAve,3114.74,CHCGILDTO6Y
MA6813400180,h_OCHCTP,13-L1-6,2019-01-21 22:45:00.0,Qmin,8.85,CHCGILDTO6Y
MA6813400180,h_OCHCTP,13-L1-6,2019-01-21 22:45:00.0,PhaseCorrectionAve,-0.367,CHCGILDTO6Y
MA6813400180,h_OCHCTP,13-L1-6,2019-01-21 22:45:00.0,BerPreFecMax,0.00279,CHCGILDTO6Y
MA6813400180,h_OCHCTP,13-L1-6,2019-01-21 22:45:00.0,PmdMin,0.851,CHCGILDTO6Y
MA6813400180,h_OCHCTP,13-L1-6,2019-01-21 22:45:00.0,SoPmdAve,3136.53,CHCGILDTO6Y
MA6813400180,h_OCHCTP,13-L1-7,2019-01-21 22:15:00.0,Qmin,8.8,CHCGILDTO6Y
MA6813400180,h_OCHCTP,13-L1-7,2019-01-21 22:15:00.0,PhaseCorrectionAve,-0.122,CHCGILDTO6Y
MA6813400180,h_OCHCTP,13-L1-7,2019-01-21 22:15:00.0,BerPreFecMax,0.00295,CHCGILDTO6Y
MA6813400180,h_OCHCTP,13-L1-7,2019-01-21 22:15:00.0,PmdMin,1.21,CHCGILDTO6Y
MA6813400180,h_OCHCTP,13-L1-7,2019-01-21 22:15:00.0,SoPmdAve,3679.59,CHCGILDTO6Y
MA6813400180,h_OCHCTP,13-L1-7,2019-01-21 22:30:00.0,Qmin,8.73,CHCGILDTO6Y
MA6813400180,h_OCHCTP,13-L1-7,2019-01-21 22:30:00.0,PhaseCorrectionAve,-0.183,CHCGILDTO6Y
MA6813400180,h_OCHCTP,13-L1-7,2019-01-21 22:30:00.0,BerPreFecMax,0.00315,CHCGILDTO6Y
MA6813400180,h_OCHCTP,13-L1-7,2019-01-21 22:30:00.0,PmdMin,0.283,CHCGILDTO6Y
MA6813400180,h_OCHCTP,13-L1-7,2019-01-21 22:30:00.0,SoPmdAve,3864.54,CHCGILDTO6Y
MA6813400180,h_OCHCTP,13-L1-7,2019-01-21 22:45:00.0,Qmin,8.85,CHCGILDTO6Y
MA6813400180,h_OCHCTP,13-L1-7,2019-01-21 22:45:00.0,PhaseCorrectionAve,-0.367,CHCGILDTO6Y
MA6813400180,h_OCHCTP,13-L1-7,2019-01-21 22:45:00.0,BerPreFecMax,0.00279,CHCGILDTO6Y
MA6813400180,h_OCHCTP,13-L1-7,2019-01-21 22:45:00.0,PmdMin,0.907,CHCGILDTO6Y
MA6813400180,h_OCHCTP,13-L1-7,2019-01-21 22:45:00.0,SoPmdAve,3711.08,CHCGILDTO6Y
MA6813400180,h_OCHCTP,13-L1-8,2019-01-21 22:15:00.0,Qmin,8.88,CHCGILDTO6Y
MA6813400180,h_OCHCTP,13-L1-8,2019-01-21 22:15:00.0,PhaseCorrectionAve,-0.122,CHCGILDTO6Y
MA6813400180,h_OCHCTP,13-L1-8,2019-01-21 22:15:00.0,BerPreFecMax,0.00271,CHCGILDTO6Y
MA6813400180,h_OCHCTP,13-L1-8,2019-01-21 22:15:00.0,PmdMin,1.21,CHCGILDTO6Y
MA6813400180,h_OCHCTP,13-L1-8,2019-01-21 22:15:00.0,SoPmdAve,3861.15,CHCGILDTO6Y
MA6813400180,h_OCHCTP,13-L1-8,2019-01-21 22:30:00.0,Qmin,8.78,CHCGILDTO6Y
MA6813400180,h_OCHCTP,13-L1-8,2019-01-21 22:30:00.0,PhaseCorrectionAve,-0.183,CHCGILDTO6Y
MA6813400180,h_OCHCTP,13-L1-8,2019-01-21 22:30:00.0,BerPreFecMax,0.003,CHCGILDTO6Y
MA6813400180,h_OCHCTP,13-L1-8,2019-01-21 22:30:00.0,PmdMin,0.756,CHCGILDTO6Y
MA6813400180,h_OCHCTP,13-L1-8,2019-01-21 22:30:00.0,SoPmdAve,3877.11,CHCGILDTO6Y
MA6813400180,h_OCHCTP,13-L1-8,2019-01-21 22:45:00.0,Qmin,8.95,CHCGILDTO6Y
MA6813400180,h_OCHCTP,13-L1-8,2019-01-21 22:45:00.0,PhaseCorrectionAve,-0.367,CHCGILDTO6Y
MA6813400180,h_OCHCTP,13-L1-8,2019-01-21 22:45:00.0,BerPreFecMax,0.00254,CHCGILDTO6Y
MA6813400180,h_OCHCTP,13-L1-8,2019-01-21 22:45:00.0,PmdMin,0.981,CHCGILDTO6Y
MA6813400180,h_OCHCTP,13-L1-8,2019-01-21 22:45:00.0,SoPmdAve,3953.63,CHCGILDTO6Y
MA6813400180,h_OCHCTP,13-L1-9,2019-01-21 22:15:00.0,Qmin,8.81,CHCGILDTO6Y
MA6813400180,h_OCHCTP,13-L1-9,2019-01-21 22:15:00.0,PhaseCorrectionAve,-0.122,CHCGILDTO6Y
MA6813400180,h_OCHCTP,13-L1-9,2019-01-21 22:15:00.0,BerPreFecMax,0.00293,CHCGILDTO6Y
MA6813400180,h_OCHCTP,13-L1-9,2019-01-21 22:15:00.0,PmdMin,0.633,CHCGILDTO6Y
MA6813400180,h_OCHCTP,13-L1-9,2019-01-21 22:15:00.0,SoPmdAve,3515.9,CHCGILDTO6Y
MA6813400180,h_OCHCTP,13-L1-9,2019-01-21 22:30:00.0,Qmin,8.73,CHCGILDTO6Y
MA6813400180,h_OCHCTP,13-L1-9,2019-01-21 22:30:00.0,PhaseCorrectionAve,-0.183,CHCGILDTO6Y
MA6813400180,h_OCHCTP,13-L1-9,2019-01-21 22:30:00.0,BerPreFecMax,0.00313,CHCGILDTO6Y
MA6813400180,h_OCHCTP,13-L1-9,2019-01-21 22:30:00.0,PmdMin,0.705,CHCGILDTO6Y
MA6813400180,h_OCHCTP,13-L1-9,2019-01-21 22:30:00.0,SoPmdAve,3577.59,CHCGILDTO6Y
MA6813400180,h_OCHCTP,13-L1-9,2019-01-21 22:45:00.0,Qmin,8.82,CHCGILDTO6Y
MA6813400180,h_OCHCTP,13-L1-9,2019-01-21 22:45:00.0,PhaseCorrectionAve,-0.367,CHCGILDTO6Y
MA6813400180,h_OCHCTP,13-L1-9,2019-01-21 22:45:00.0,BerPreFecMax,0.0029,CHCGILDTO6Y
MA6813400180,h_OCHCTP,13-L1-9,2019-01-21 22:45:00.0,PmdMin,1.04,CHCGILDTO6Y
MA6813400180,h_OCHCTP,13-L1-9,2019-01-21 22:45:00.0,SoPmdAve,3580.0,CHCGILDTO6Y
MA6813400180,h_OCHCTP,13-L1-10,2019-01-21 22:15:00.0,Qmin,8.65,CHCGILDTO6Y
MA6813400180,h_OCHCTP,13-L1-10,2019-01-21 22:15:00.0,PhaseCorrectionAve,-0.183,CHCGILDTO6Y
MA6813400180,h_OCHCTP,13-L1-10,2019-01-21 22:15:00.0,BerPreFecMax,0.00338,CHCGILDTO6Y
MA6813400180,h_OCHCTP,13-L1-10,2019-01-21 22:15:00.0,PmdMin,0.813,CHCGILDTO6Y
MA6813400180,h_OCHCTP,13-L1-10,2019-01-21 22:15:00.0,SoPmdAve,3781.55,CHCGILDTO6Y
MA6813400180,h_OCHCTP,13-L1-10,2019-01-21 22:30:00.0,Qmin,8.65,CHCGILDTO6Y
MA6813400180,h_OCHCTP,13-L1-10,2019-01-21 22:30:00.0,PhaseCorrectionAve,-0.183,CHCGILDTO6Y
MA6813400180,h_OCHCTP,13-L1-10,2019-01-21 22:30:00.0,BerPreFecMax,0.0034,CHCGILDTO6Y
MA6813400180,h_OCHCTP,13-L1-10,2019-01-21 22:30:00.0,PmdMin,0.808,CHCGILDTO6Y
MA6813400180,h_OCHCTP,13-L1-10,2019-01-21 22:30:00.0,SoPmdAve,3789.05,CHCGILDTO6Y
MA6813400180,h_OCHCTP,13-L1-10,2019-01-21 22:45:00.0,Qmin,8.69,CHCGILDTO6Y
MA6813400180,h_OCHCTP,13-L1-10,2019-01-21 22:45:00.0,PhaseCorrectionAve,-0.367,CHCGILDTO6Y
MA6813400180,h_OCHCTP,13-L1-10,2019-01-21 22:45:00.0,BerPreFecMax,0.00327,CHCGILDTO6Y
MA6813400180,h_OCHCTP,13-L1-10,2019-01-21 22:45:00.0,PmdMin,0.842,CHCGILDTO6Y
MA6813400180,h_OCHCTP,13-L1-10,2019-01-21 22:45:00.0,SoPmdAve,3716.83,CHCGILDTO6Y
MA6813400180,h_OCHCTP,10-L1-1,2019-01-21 22:15:00.0,Qmin,9.49,CHCGILDTO6Y
MA6813400180,h_OCHCTP,10-L1-1,2019-01-21 22:15:00.0,PhaseCorrectionAve,4.8e-07,CHCGILDTO6Y
MA6813400180,h_OCHCTP,10-L1-1,2019-01-21 22:15:00.0,BerPreFecMax,0.00143,CHCGILDTO6Y
MA6813400180,h_OCHCTP,10-L1-1,2019-01-21 22:15:00.0,PmdMin,2.68,CHCGILDTO6Y
MA6813400180,h_OCHCTP,10-L1-1,2019-01-21 22:15:00.0,SoPmdAve,3317.85,CHCGILDTO6Y
MA6813400180,h_OCHCTP,10-L1-1,2019-01-21 22:30:00.0,Qmin,9.49,CHCGILDTO6Y
MA6813400180,h_OCHCTP,10-L1-1,2019-01-21 22:30:00.0,PhaseCorrectionAve,4.89e-07,CHCGILDTO6Y
MA6813400180,h_OCHCTP,10-L1-1,2019-01-21 22:30:00.0,BerPreFecMax,0.00143,CHCGILDTO6Y
MA6813400180,h_OCHCTP,10-L1-1,2019-01-21 22:30:00.0,PmdMin,2.19,CHCGILDTO6Y
MA6813400180,h_OCHCTP,10-L1-1,2019-01-21 22:30:00.0,SoPmdAve,3316.73,CHCGILDTO6Y
MA6813400180,h_OCHCTP,10-L1-1,2019-01-21 22:45:00.0,Qmin,9.5,CHCGILDTO6Y
MA6813400180,h_OCHCTP,10-L1-1,2019-01-21 22:45:00.0,PhaseCorrectionAve,4.88e-07,CHCGILDTO6Y
MA6813400180,h_OCHCTP,10-L1-1,2019-01-21 22:45:00.0,BerPreFecMax,0.00142,CHCGILDTO6Y
MA6813400180,h_OCHCTP,10-L1-1,2019-01-21 22:45:00.0,PmdMin,2.88,CHCGILDTO6Y
MA6813400180,h_OCHCTP,10-L1-1,2019-01-21 22:45:00.0,SoPmdAve,3350.31,CHCGILDTO6Y
MA6813400180,h_OCHCTP,10-L1-2,2019-01-21 22:15:00.0,Qmin,9.2,CHCGILDTO6Y
MA6813400180,h_OCHCTP,10-L1-2,2019-01-21 22:15:00.0,PhaseCorrectionAve,-0.061,CHCGILDTO6Y
MA6813400180,h_OCHCTP,10-L1-2,2019-01-21 22:15:00.0,BerPreFecMax,0.00196,CHCGILDTO6Y
MA6813400180,h_OCHCTP,10-L1-2,2019-01-21 22:15:00.0,PmdMin,7.03,CHCGILDTO6Y
MA6813400180,h_OCHCTP,10-L1-2,2019-01-21 22:15:00.0,SoPmdAve,3261.12,CHCGILDTO6Y
MA6813400180,h_OCHCTP,10-L1-2,2019-01-21 22:30:00.0,Qmin,9.21,CHCGILDTO6Y
MA6813400180,h_OCHCTP,10-L1-2,2019-01-21 22:30:00.0,PhaseCorrectionAve,3.33e-07,CHCGILDTO6Y
MA6813400180,h_OCHCTP,10-L1-2,2019-01-21 22:30:00.0,BerPreFecMax,0.00195,CHCGILDTO6Y
MA6813400180,h_OCHCTP,10-L1-2,2019-01-21 22:30:00.0,PmdMin,2.16,CHCGILDTO6Y
MA6813400180,h_OCHCTP,10-L1-2,2019-01-21 22:30:00.0,SoPmdAve,3339.62,CHCGILDTO6Y
MA6813400180,h_OCHCTP,10-L1-2,2019-01-21 22:45:00.0,Qmin,9.2,CHCGILDTO6Y
MA6813400180,h_OCHCTP,10-L1-2,2019-01-21 22:45:00.0,PhaseCorrectionAve,-0.061,CHCGILDTO6Y
MA6813400180,h_OCHCTP,10-L1-2,2019-01-21 22:45:00.0,BerPreFecMax,0.00195,CHCGILDTO6Y
MA6813400180,h_OCHCTP,10-L1-2,2019-01-21 22:45:00.0,PmdMin,4.12,CHCGILDTO6Y
MA6813400180,h_OCHCTP,10-L1-2,2019-01-21 22:45:00.0,SoPmdAve,3352.06,CHCGILDTO6Y
MA6813400180,h_OCHCTP,10-L1-3,2019-01-21 22:15:00.0,Qmin,8.98,CHCGILDTO6Y
MA6813400180,h_OCHCTP,10-L1-3,2019-01-21 22:15:00.0,PhaseCorrectionAve,-0.061,CHCGILDTO6Y
MA6813400180,h_OCHCTP,10-L1-3,2019-01-21 22:15:00.0,BerPreFecMax,0.00246,CHCGILDTO6Y
MA6813400180,h_OCHCTP,10-L1-3,2019-01-21 22:15:00.0,PmdMin,1.51,CHCGILDTO6Y
MA6813400180,h_OCHCTP,10-L1-3,2019-01-21 22:15:00.0,SoPmdAve,2935.07,CHCGILDTO6Y
MA6813400180,h_OCHCTP,10-L1-3,2019-01-21 22:30:00.0,Qmin,8.99,CHCGILDTO6Y
MA6813400180,h_OCHCTP,10-L1-3,2019-01-21 22:30:00.0,PhaseCorrectionAve,5.26e-07,CHCGILDTO6Y
MA6813400180,h_OCHCTP,10-L1-3,2019-01-21 22:30:00.0,BerPreFecMax,0.00245,CHCGILDTO6Y
MA6813400180,h_OCHCTP,10-L1-3,2019-01-21 22:30:00.0,PmdMin,1.08,CHCGILDTO6Y
MA6813400180,h_OCHCTP,10-L1-3,2019-01-21 22:30:00.0,SoPmdAve,2804.93,CHCGILDTO6Y
MA6813400180,h_OCHCTP,10-L1-3,2019-01-21 22:45:00.0,Qmin,8.98,CHCGILDTO6Y
MA6813400180,h_OCHCTP,10-L1-3,2019-01-21 22:45:00.0,PhaseCorrectionAve,-0.061,CHCGILDTO6Y
MA6813400180,h_OCHCTP,10-L1-3,2019-01-21 22:45:00.0,BerPreFecMax,0.00245,CHCGILDTO6Y
MA6813400180,h_OCHCTP,10-L1-3,2019-01-21 22:45:00.0,PmdMin,0.961,CHCGILDTO6Y
MA6813400180,h_OCHCTP,10-L1-3,2019-01-21 22:45:00.0,SoPmdAve,2799.71,CHCGILDTO6Y
MA6813400180,h_OCHCTP,10-L1-4,2019-01-21 22:15:00.0,Qmin,8.45,CHCGILDTO6Y
MA6813400180,h_OCHCTP,10-L1-4,2019-01-21 22:15:00.0,PhaseCorrectionAve,-0.061,CHCGILDTO6Y
MA6813400180,h_OCHCTP,10-L1-4,2019-01-21 22:15:00.0,BerPreFecMax,0.00409,CHCGILDTO6Y
MA6813400180,h_OCHCTP,10-L1-4,2019-01-21 22:15:00.0,PmdMin,7.81,CHCGILDTO6Y
MA6813400180,h_OCHCTP,10-L1-4,2019-01-21 22:15:00.0,SoPmdAve,2921.03,CHCGILDTO6Y
MA6813400180,h_OCHCTP,10-L1-4,2019-01-21 22:30:00.0,Qmin,8.46,CHCGILDTO6Y
MA6813400180,h_OCHCTP,10-L1-4,2019-01-21 22:30:00.0,PhaseCorrectionAve,-0.061,CHCGILDTO6Y
MA6813400180,h_OCHCTP,10-L1-4,2019-01-21 22:30:00.0,BerPreFecMax,0.00403,CHCGILDTO6Y
MA6813400180,h_OCHCTP,10-L1-4,2019-01-21 22:30:00.0,PmdMin,5.43,CHCGILDTO6Y
MA6813400180,h_OCHCTP,10-L1-4,2019-01-21 22:30:00.0,SoPmdAve,2980.31,CHCGILDTO6Y
MA6813400180,h_OCHCTP,10-L1-4,2019-01-21 22:45:00.0,Qmin,8.44,CHCGILDTO6Y
MA6813400180,h_OCHCTP,10-L1-4,2019-01-21 22:45:00.0,PhaseCorrectionAve,-0.061,CHCGILDTO6Y
MA6813400180,h_OCHCTP,10-L1-4,2019-01-21 22:45:00.0,BerPreFecMax,0.00411,CHCGILDTO6Y
MA6813400180,h_OCHCTP,10-L1-4,2019-01-21 22:45:00.0,PmdMin,5.49,CHCGILDTO6Y
MA6813400180,h_OCHCTP,10-L1-4,2019-01-21 22:45:00.0,SoPmdAve,2954.56,CHCGILDTO6Y
MA6813400180,h_OCHCTP,10-L1-5,2019-01-21 22:15:00.0,Qmin,8.59,CHCGILDTO6Y
MA6813400180,h_OCHCTP,10-L1-5,2019-01-21 22:15:00.0,PhaseCorrectionAve,-0.061,CHCGILDTO6Y
MA6813400180,h_OCHCTP,10-L1-5,2019-01-21 22:15:00.0,BerPreFecMax,0.00358,CHCGILDTO6Y
MA6813400180,h_OCHCTP,10-L1-5,2019-01-21 22:15:00.0,PmdMin,2.06,CHCGILDTO6Y
MA6813400180,h_OCHCTP,10-L1-5,2019-01-21 22:15:00.0,SoPmdAve,2816.72,CHCGILDTO6Y
MA6813400180,h_OCHCTP,10-L1-5,2019-01-21 22:30:00.0,Qmin,8.63,CHCGILDTO6Y
MA6813400180,h_OCHCTP,10-L1-5,2019-01-21 22:30:00.0,PhaseCorrectionAve,-0.061,CHCGILDTO6Y
MA6813400180,h_OCHCTP,10-L1-5,2019-01-21 22:30:00.0,BerPreFecMax,0.00347,CHCGILDTO6Y
MA6813400180,h_OCHCTP,10-L1-5,2019-01-21 22:30:00.0,PmdMin,2.15,CHCGILDTO6Y
MA6813400180,h_OCHCTP,10-L1-5,2019-01-21 22:30:00.0,SoPmdAve,2807.94,CHCGILDTO6Y
MA6813400180,h_OCHCTP,10-L1-5,2019-01-21 22:45:00.0,Qmin,8.61,CHCGILDTO6Y
MA6813400180,h_OCHCTP,10-L1-5,2019-01-21 22:45:00.0,PhaseCorrectionAve,-0.183,CHCGILDTO6Y
MA6813400180,h_OCHCTP,10-L1-5,2019-01-21 22:45:00.0,BerPreFecMax,0.00353,CHCGILDTO6Y
MA6813400180,h_OCHCTP,10-L1-5,2019-01-21 22:45:00.0,PmdMin,2.22,CHCGILDTO6Y
MA6813400180,h_OCHCTP,10-L1-5,2019-01-21 22:45:00.0,SoPmdAve,2793.73,CHCGILDTO6Y
MA6813400180,h_OCHCTP,10-L1-6,2019-01-21 22:15:00.0,Qmin,8.78,CHCGILDTO6Y
MA6813400180,h_OCHCTP,10-L1-6,2019-01-21 22:15:00.0,PhaseCorrectionAve,-0.122,CHCGILDTO6Y
MA6813400180,h_OCHCTP,10-L1-6,2019-01-21 22:15:00.0,BerPreFecMax,0.00299,CHCGILDTO6Y
MA6813400180,h_OCHCTP,10-L1-6,2019-01-21 22:15:00.0,PmdMin,3.01,CHCGILDTO6Y
MA6813400180,h_OCHCTP,10-L1-6,2019-01-21 22:15:00.0,SoPmdAve,2813.67,CHCGILDTO6Y
MA6813400180,h_OCHCTP,10-L1-6,2019-01-21 22:30:00.0,Qmin,8.79,CHCGILDTO6Y
MA6813400180,h_OCHCTP,10-L1-6,2019-01-21 22:30:00.0,PhaseCorrectionAve,-0.061,CHCGILDTO6Y
MA6813400180,h_OCHCTP,10-L1-6,2019-01-21 22:30:00.0,BerPreFecMax,0.00297,CHCGILDTO6Y
MA6813400180,h_OCHCTP,10-L1-6,2019-01-21 22:30:00.0,PmdMin,0.857,CHCGILDTO6Y
MA6813400180,h_OCHCTP,10-L1-6,2019-01-21 22:30:00.0,SoPmdAve,2852.88,CHCGILDTO6Y
MA6813400180,h_OCHCTP,10-L1-6,2019-01-21 22:45:00.0,Qmin,8.8,CHCGILDTO6Y
MA6813400180,h_OCHCTP,10-L1-6,2019-01-21 22:45:00.0,PhaseCorrectionAve,-0.183,CHCGILDTO6Y
MA6813400180,h_OCHCTP,10-L1-6,2019-01-21 22:45:00.0,BerPreFecMax,0.00293,CHCGILDTO6Y
MA6813400180,h_OCHCTP,10-L1-6,2019-01-21 22:45:00.0,PmdMin,2.79,CHCGILDTO6Y
MA6813400180,h_OCHCTP,10-L1-6,2019-01-21 22:45:00.0,SoPmdAve,2861.36,CHCGILDTO6Y
MA6813400180,h_OCHCTP,10-L1-7,2019-01-21 22:15:00.0,Qmin,8.88,CHCGILDTO6Y
MA6813400180,h_OCHCTP,10-L1-7,2019-01-21 22:15:00.0,PhaseCorrectionAve,-0.122,CHCGILDTO6Y
MA6813400180,h_OCHCTP,10-L1-7,2019-01-21 22:15:00.0,BerPreFecMax,0.00273,CHCGILDTO6Y
MA6813400180,h_OCHCTP,10-L1-7,2019-01-21 22:15:00.0,PmdMin,1.31,CHCGILDTO6Y
MA6813400180,h_OCHCTP,10-L1-7,2019-01-21 22:15:00.0,SoPmdAve,3390.04,CHCGILDTO6Y
MA6813400180,h_OCHCTP,10-L1-7,2019-01-21 22:30:00.0,Qmin,8.88,CHCGILDTO6Y
MA6813400180,h_OCHCTP,10-L1-7,2019-01-21 22:30:00.0,PhaseCorrectionAve,-0.061,CHCGILDTO6Y
MA6813400180,h_OCHCTP,10-L1-7,2019-01-21 22:30:00.0,BerPreFecMax,0.00272,CHCGILDTO6Y
MA6813400180,h_OCHCTP,10-L1-7,2019-01-21 22:30:00.0,PmdMin,4.12,CHCGILDTO6Y
MA6813400180,h_OCHCTP,10-L1-7,2019-01-21 22:30:00.0,SoPmdAve,3577.77,CHCGILDTO6Y
MA6813400180,h_OCHCTP,10-L1-7,2019-01-21 22:45:00.0,Qmin,8.87,CHCGILDTO6Y
MA6813400180,h_OCHCTP,10-L1-7,2019-01-21 22:45:00.0,PhaseCorrectionAve,-0.305,CHCGILDTO6Y
MA6813400180,h_OCHCTP,10-L1-7,2019-01-21 22:45:00.0,BerPreFecMax,0.00275,CHCGILDTO6Y
MA6813400180,h_OCHCTP,10-L1-7,2019-01-21 22:45:00.0,PmdMin,2.42,CHCGILDTO6Y
MA6813400180,h_OCHCTP,10-L1-7,2019-01-21 22:45:00.0,SoPmdAve,3392.62,CHCGILDTO6Y
MA6813400180,h_OCHCTP,10-L1-8,2019-01-21 22:15:00.0,Qmin,9.3,CHCGILDTO6Y
MA6813400180,h_OCHCTP,10-L1-8,2019-01-21 22:15:00.0,PhaseCorrectionAve,-0.244,CHCGILDTO6Y
MA6813400180,h_OCHCTP,10-L1-8,2019-01-21 22:15:00.0,BerPreFecMax,0.00176,CHCGILDTO6Y
MA6813400180,h_OCHCTP,10-L1-8,2019-01-21 22:15:00.0,PmdMin,0.797,CHCGILDTO6Y
MA6813400180,h_OCHCTP,10-L1-8,2019-01-21 22:15:00.0,SoPmdAve,3370.16,CHCGILDTO6Y
MA6813400180,h_OCHCTP,10-L1-8,2019-01-21 22:30:00.0,Qmin,9.29,CHCGILDTO6Y
MA6813400180,h_OCHCTP,10-L1-8,2019-01-21 22:30:00.0,PhaseCorrectionAve,-0.061,CHCGILDTO6Y
MA6813400180,h_OCHCTP,10-L1-8,2019-01-21 22:30:00.0,BerPreFecMax,0.00179,CHCGILDTO6Y
MA6813400180,h_OCHCTP,10-L1-8,2019-01-21 22:30:00.0,PmdMin,0.981,CHCGILDTO6Y
MA6813400180,h_OCHCTP,10-L1-8,2019-01-21 22:30:00.0,SoPmdAve,3445.54,CHCGILDTO6Y
MA6813400180,h_OCHCTP,10-L1-8,2019-01-21 22:45:00.0,Qmin,9.3,CHCGILDTO6Y
MA6813400180,h_OCHCTP,10-L1-8,2019-01-21 22:45:00.0,PhaseCorrectionAve,-0.305,CHCGILDTO6Y
MA6813400180,h_OCHCTP,10-L1-8,2019-01-21 22:45:00.0,BerPreFecMax,0.00177,CHCGILDTO6Y
MA6813400180,h_OCHCTP,10-L1-8,2019-01-21 22:45:00.0,PmdMin,1.89,CHCGILDTO6Y
MA6813400180,h_OCHCTP,10-L1-8,2019-01-21 22:45:00.0,SoPmdAve,3501.04,CHCGILDTO6Y
MA6813400180,h_OCHCTP,10-L1-9,2019-01-21 22:15:00.0,Qmin,9.29,CHCGILDTO6Y
MA6813400180,h_OCHCTP,10-L1-9,2019-01-21 22:15:00.0,PhaseCorrectionAve,-0.244,CHCGILDTO6Y
MA6813400180,h_OCHCTP,10-L1-9,2019-01-21 22:15:00.0,BerPreFecMax,0.00179,CHCGILDTO6Y
MA6813400180,h_OCHCTP,10-L1-9,2019-01-21 22:15:00.0,PmdMin,1.68,CHCGILDTO6Y
MA6813400180,h_OCHCTP,10-L1-9,2019-01-21 22:15:00.0,SoPmdAve,3432.94,CHCGILDTO6Y
MA6813400180,h_OCHCTP,10-L1-9,2019-01-21 22:30:00.0,Qmin,9.29,CHCGILDTO6Y
MA6813400180,h_OCHCTP,10-L1-9,2019-01-21 22:30:00.0,PhaseCorrectionAve,-0.061,CHCGILDTO6Y
MA6813400180,h_OCHCTP,10-L1-9,2019-01-21 22:30:00.0,BerPreFecMax,0.00179,CHCGILDTO6Y
MA6813400180,h_OCHCTP,10-L1-9,2019-01-21 22:30:00.0,PmdMin,1.77,CHCGILDTO6Y
MA6813400180,h_OCHCTP,10-L1-9,2019-01-21 22:30:00.0,SoPmdAve,3548.3,CHCGILDTO6Y
MA6813400180,h_OCHCTP,10-L1-9,2019-01-21 22:45:00.0,Qmin,9.29,CHCGILDTO6Y
MA6813400180,h_OCHCTP,10-L1-9,2019-01-21 22:45:00.0,PhaseCorrectionAve,-0.305,CHCGILDTO6Y
MA6813400180,h_OCHCTP,10-L1-9,2019-01-21 22:45:00.0,BerPreFecMax,0.00179,CHCGILDTO6Y
MA6813400180,h_OCHCTP,10-L1-9,2019-01-21 22:45:00.0,PmdMin,0.522,CHCGILDTO6Y
MA6813400180,h_OCHCTP,10-L1-9,2019-01-21 22:45:00.0,SoPmdAve,3436.84,CHCGILDTO6Y
MA6813400180,h_OCHCTP,10-L1-10,2019-01-21 22:15:00.0,Qmin,9.31,CHCGILDTO6Y
MA6813400180,h_OCHCTP,10-L1-10,2019-01-21 22:15:00.0,PhaseCorrectionAve,-0.244,CHCGILDTO6Y
MA6813400180,h_OCHCTP,10-L1-10,2019-01-21 22:15:00.0,BerPreFecMax,0.00175,CHCGILDTO6Y
MA6813400180,h_OCHCTP,10-L1-10,2019-01-21 22:15:00.0,PmdMin,4.19,CHCGILDTO6Y
MA6813400180,h_OCHCTP,10-L1-10,2019-01-21 22:15:00.0,SoPmdAve,3172.45,CHCGILDTO6Y
MA6813400180,h_OCHCTP,10-L1-10,2019-01-21 22:30:00.0,Qmin,9.31,CHCGILDTO6Y
MA6813400180,h_OCHCTP,10-L1-10,2019-01-21 22:30:00.0,PhaseCorrectionAve,-0.122,CHCGILDTO6Y
MA6813400180,h_OCHCTP,10-L1-10,2019-01-21 22:30:00.0,BerPreFecMax,0.00174,CHCGILDTO6Y
MA6813400180,h_OCHCTP,10-L1-10,2019-01-21 22:30:00.0,PmdMin,4.86,CHCGILDTO6Y
MA6813400180,h_OCHCTP,10-L1-10,2019-01-21 22:30:00.0,SoPmdAve,3210.91,CHCGILDTO6Y
MA6813400180,h_OCHCTP,10-L1-10,2019-01-21 22:45:00.0,Qmin,9.33,CHCGILDTO6Y
MA6813400180,h_OCHCTP,10-L1-10,2019-01-21 22:45:00.0,PhaseCorrectionAve,-0.305,CHCGILDTO6Y
MA6813400180,h_OCHCTP,10-L1-10,2019-01-21 22:45:00.0,BerPreFecMax,0.00171,CHCGILDTO6Y
MA6813400180,h_OCHCTP,10-L1-10,2019-01-21 22:45:00.0,PmdMin,3.92,CHCGILDTO6Y
MA6813400180,h_OCHCTP,10-L1-10,2019-01-21 22:45:00.0,SoPmdAve,3273.49,CHCGILDTO6Y
