MA6813400180,h_OCHCTP,11-L1-1,2019-01-23 20:15:00.0,Qmin,9.12,CHCGILDTO6Y
MA6813400180,h_OCHCTP,11-L1-1,2019-01-23 20:15:00.0,PhaseCorrectionAve,1.44e-07,CHCGILDTO6Y
MA6813400180,h_OCHCTP,11-L1-1,2019-01-23 20:15:00.0,BerPreFecMax,0.00213,CHCGILDTO6Y
MA6813400180,h_OCHCTP,11-L1-1,2019-01-23 20:15:00.0,PmdMin,0.937,CHCGILDTO6Y
MA6813400180,h_OCHCTP,11-L1-1,2019-01-23 20:15:00.0,SoPmdAve,3325.49,CHCGILDTO6Y
MA6813400180,h_OCHCTP,11-L1-1,2019-01-23 20:30:00.0,Qmin,9.13,CHCGILDTO6Y
MA6813400180,h_OCHCTP,11-L1-1,2019-01-23 20:30:00.0,PhaseCorrectionAve,1.45e-07,CHCGILDTO6Y
MA6813400180,h_OCHCTP,11-L1-1,2019-01-23 20:30:00.0,BerPreFecMax,0.00211,CHCGILDTO6Y
MA6813400180,h_OCHCTP,11-L1-1,2019-01-23 20:30:00.0,PmdMin,1.35,CHCGILDTO6Y
MA6813400180,h_OCHCTP,11-L1-1,2019-01-23 20:30:00.0,SoPmdAve,3428.19,CHCGILDTO6Y
MA6813400180,h_OCHCTP,11-L1-1,2019-01-23 20:45:00.0,Qmin,9.13,CHCGILDTO6Y
MA6813400180,h_OCHCTP,11-L1-1,2019-01-23 20:45:00.0,PhaseCorrectionAve,1.33e-07,CHCGILDTO6Y
MA6813400180,h_OCHCTP,11-L1-1,2019-01-23 20:45:00.0,BerPreFecMax,0.00211,CHCGILDTO6Y
MA6813400180,h_OCHCTP,11-L1-1,2019-01-23 20:45:00.0,PmdMin,0.635,CHCGILDTO6Y
MA6813400180,h_OCHCTP,11-L1-1,2019-01-23 20:45:00.0,SoPmdAve,3370.36,CHCGILDTO6Y
MA6813400180,h_OCHCTP,11-L1-2,2019-01-23 20:15:00.0,Qmin,9.09,CHCGILDTO6Y
MA6813400180,h_OCHCTP,11-L1-2,2019-01-23 20:15:00.0,PhaseCorrectionAve,-0.183,CHCGILDTO6Y
MA6813400180,h_OCHCTP,11-L1-2,2019-01-23 20:15:00.0,BerPreFecMax,0.00221,CHCGILDTO6Y
MA6813400180,h_OCHCTP,11-L1-2,2019-01-23 20:15:00.0,PmdMin,0.606,CHCGILDTO6Y
MA6813400180,h_OCHCTP,11-L1-2,2019-01-23 20:15:00.0,SoPmdAve,3180.57,CHCGILDTO6Y
MA6813400180,h_OCHCTP,11-L1-2,2019-01-23 20:30:00.0,Qmin,9.05,CHCGILDTO6Y
MA6813400180,h_OCHCTP,11-L1-2,2019-01-23 20:30:00.0,PhaseCorrectionAve,4.21e-07,CHCGILDTO6Y
MA6813400180,h_OCHCTP,11-L1-2,2019-01-23 20:30:00.0,BerPreFecMax,0.00228,CHCGILDTO6Y
MA6813400180,h_OCHCTP,11-L1-2,2019-01-23 20:30:00.0,PmdMin,1.01,CHCGILDTO6Y
MA6813400180,h_OCHCTP,11-L1-2,2019-01-23 20:30:00.0,SoPmdAve,3059.59,CHCGILDTO6Y
MA6813400180,h_OCHCTP,11-L1-2,2019-01-23 20:45:00.0,Qmin,9.05,CHCGILDTO6Y
MA6813400180,h_OCHCTP,11-L1-2,2019-01-23 20:45:00.0,PhaseCorrectionAve,4.07e-07,CHCGILDTO6Y
MA6813400180,h_OCHCTP,11-L1-2,2019-01-23 20:45:00.0,BerPreFecMax,0.00229,CHCGILDTO6Y
MA6813400180,h_OCHCTP,11-L1-2,2019-01-23 20:45:00.0,PmdMin,0.922,CHCGILDTO6Y
MA6813400180,h_OCHCTP,11-L1-2,2019-01-23 20:45:00.0,SoPmdAve,3162.75,CHCGILDTO6Y
MA6813400180,h_OCHCTP,11-L1-3,2019-01-23 20:15:00.0,Qmin,9.02,CHCGILDTO6Y
MA6813400180,h_OCHCTP,11-L1-3,2019-01-23 20:15:00.0,PhaseCorrectionAve,-0.183,CHCGILDTO6Y
MA6813400180,h_OCHCTP,11-L1-3,2019-01-23 20:15:00.0,BerPreFecMax,0.00237,CHCGILDTO6Y
MA6813400180,h_OCHCTP,11-L1-3,2019-01-23 20:15:00.0,PmdMin,1.31,CHCGILDTO6Y
MA6813400180,h_OCHCTP,11-L1-3,2019-01-23 20:15:00.0,SoPmdAve,2745.78,CHCGILDTO6Y
MA6813400180,h_OCHCTP,11-L1-3,2019-01-23 20:30:00.0,Qmin,8.99,CHCGILDTO6Y
MA6813400180,h_OCHCTP,11-L1-3,2019-01-23 20:30:00.0,PhaseCorrectionAve,3.5e-07,CHCGILDTO6Y
MA6813400180,h_OCHCTP,11-L1-3,2019-01-23 20:30:00.0,BerPreFecMax,0.00245,CHCGILDTO6Y
MA6813400180,h_OCHCTP,11-L1-3,2019-01-23 20:30:00.0,PmdMin,0.626,CHCGILDTO6Y
MA6813400180,h_OCHCTP,11-L1-3,2019-01-23 20:30:00.0,SoPmdAve,2700.62,CHCGILDTO6Y
MA6813400180,h_OCHCTP,11-L1-3,2019-01-23 20:45:00.0,Qmin,8.96,CHCGILDTO6Y
MA6813400180,h_OCHCTP,11-L1-3,2019-01-23 20:45:00.0,PhaseCorrectionAve,-0.061,CHCGILDTO6Y
MA6813400180,h_OCHCTP,11-L1-3,2019-01-23 20:45:00.0,BerPreFecMax,0.00252,CHCGILDTO6Y
MA6813400180,h_OCHCTP,11-L1-3,2019-01-23 20:45:00.0,PmdMin,1.3,CHCGILDTO6Y
MA6813400180,h_OCHCTP,11-L1-3,2019-01-23 20:45:00.0,SoPmdAve,2802.45,CHCGILDTO6Y
MA6813400180,h_OCHCTP,11-L1-4,2019-01-23 20:15:00.0,Qmin,8.84,CHCGILDTO6Y
MA6813400180,h_OCHCTP,11-L1-4,2019-01-23 20:15:00.0,PhaseCorrectionAve,-0.183,CHCGILDTO6Y
MA6813400180,h_OCHCTP,11-L1-4,2019-01-23 20:15:00.0,BerPreFecMax,0.00284,CHCGILDTO6Y
MA6813400180,h_OCHCTP,11-L1-4,2019-01-23 20:15:00.0,PmdMin,0.574,CHCGILDTO6Y
MA6813400180,h_OCHCTP,11-L1-4,2019-01-23 20:15:00.0,SoPmdAve,2923.3,CHCGILDTO6Y
MA6813400180,h_OCHCTP,11-L1-4,2019-01-23 20:30:00.0,Qmin,8.8,CHCGILDTO6Y
MA6813400180,h_OCHCTP,11-L1-4,2019-01-23 20:30:00.0,PhaseCorrectionAve,4.71e-07,CHCGILDTO6Y
MA6813400180,h_OCHCTP,11-L1-4,2019-01-23 20:30:00.0,BerPreFecMax,0.00295,CHCGILDTO6Y
MA6813400180,h_OCHCTP,11-L1-4,2019-01-23 20:30:00.0,PmdMin,0.546,CHCGILDTO6Y
MA6813400180,h_OCHCTP,11-L1-4,2019-01-23 20:30:00.0,SoPmdAve,2920.24,CHCGILDTO6Y
MA6813400180,h_OCHCTP,11-L1-4,2019-01-23 20:45:00.0,Qmin,8.8,CHCGILDTO6Y
MA6813400180,h_OCHCTP,11-L1-4,2019-01-23 20:45:00.0,PhaseCorrectionAve,-0.122,CHCGILDTO6Y
MA6813400180,h_OCHCTP,11-L1-4,2019-01-23 20:45:00.0,BerPreFecMax,0.00295,CHCGILDTO6Y
MA6813400180,h_OCHCTP,11-L1-4,2019-01-23 20:45:00.0,PmdMin,0.498,CHCGILDTO6Y
MA6813400180,h_OCHCTP,11-L1-4,2019-01-23 20:45:00.0,SoPmdAve,2968.87,CHCGILDTO6Y
MA6813400180,h_OCHCTP,11-L1-5,2019-01-23 20:15:00.0,Qmin,8.91,CHCGILDTO6Y
MA6813400180,h_OCHCTP,11-L1-5,2019-01-23 20:15:00.0,PhaseCorrectionAve,-0.183,CHCGILDTO6Y
MA6813400180,h_OCHCTP,11-L1-5,2019-01-23 20:15:00.0,BerPreFecMax,0.00263,CHCGILDTO6Y
MA6813400180,h_OCHCTP,11-L1-5,2019-01-23 20:15:00.0,PmdMin,0.706,CHCGILDTO6Y
MA6813400180,h_OCHCTP,11-L1-5,2019-01-23 20:15:00.0,SoPmdAve,2577.79,CHCGILDTO6Y
MA6813400180,h_OCHCTP,11-L1-5,2019-01-23 20:30:00.0,Qmin,8.85,CHCGILDTO6Y
MA6813400180,h_OCHCTP,11-L1-5,2019-01-23 20:30:00.0,PhaseCorrectionAve,1.93e-07,CHCGILDTO6Y
MA6813400180,h_OCHCTP,11-L1-5,2019-01-23 20:30:00.0,BerPreFecMax,0.00281,CHCGILDTO6Y
MA6813400180,h_OCHCTP,11-L1-5,2019-01-23 20:30:00.0,PmdMin,1.37,CHCGILDTO6Y
MA6813400180,h_OCHCTP,11-L1-5,2019-01-23 20:30:00.0,SoPmdAve,2596.29,CHCGILDTO6Y
MA6813400180,h_OCHCTP,11-L1-5,2019-01-23 20:45:00.0,Qmin,8.84,CHCGILDTO6Y
MA6813400180,h_OCHCTP,11-L1-5,2019-01-23 20:45:00.0,PhaseCorrectionAve,-0.122,CHCGILDTO6Y
MA6813400180,h_OCHCTP,11-L1-5,2019-01-23 20:45:00.0,BerPreFecMax,0.00282,CHCGILDTO6Y
MA6813400180,h_OCHCTP,11-L1-5,2019-01-23 20:45:00.0,PmdMin,0.696,CHCGILDTO6Y
MA6813400180,h_OCHCTP,11-L1-5,2019-01-23 20:45:00.0,SoPmdAve,2592.47,CHCGILDTO6Y
MA6813400180,h_OCHCTP,11-L1-6,2019-01-23 20:15:00.0,Qmin,8.82,CHCGILDTO6Y
MA6813400180,h_OCHCTP,11-L1-6,2019-01-23 20:15:00.0,PhaseCorrectionAve,-0.183,CHCGILDTO6Y
MA6813400180,h_OCHCTP,11-L1-6,2019-01-23 20:15:00.0,BerPreFecMax,0.00288,CHCGILDTO6Y
MA6813400180,h_OCHCTP,11-L1-6,2019-01-23 20:15:00.0,PmdMin,0.789,CHCGILDTO6Y
MA6813400180,h_OCHCTP,11-L1-6,2019-01-23 20:15:00.0,SoPmdAve,2453.12,CHCGILDTO6Y
MA6813400180,h_OCHCTP,11-L1-6,2019-01-23 20:30:00.0,Qmin,8.77,CHCGILDTO6Y
MA6813400180,h_OCHCTP,11-L1-6,2019-01-23 20:30:00.0,PhaseCorrectionAve,-0.061,CHCGILDTO6Y
MA6813400180,h_OCHCTP,11-L1-6,2019-01-23 20:30:00.0,BerPreFecMax,0.00303,CHCGILDTO6Y
MA6813400180,h_OCHCTP,11-L1-6,2019-01-23 20:30:00.0,PmdMin,0.687,CHCGILDTO6Y
MA6813400180,h_OCHCTP,11-L1-6,2019-01-23 20:30:00.0,SoPmdAve,2485.02,CHCGILDTO6Y
MA6813400180,h_OCHCTP,11-L1-6,2019-01-23 20:45:00.0,Qmin,8.77,CHCGILDTO6Y
MA6813400180,h_OCHCTP,11-L1-6,2019-01-23 20:45:00.0,PhaseCorrectionAve,-0.122,CHCGILDTO6Y
MA6813400180,h_OCHCTP,11-L1-6,2019-01-23 20:45:00.0,BerPreFecMax,0.00303,CHCGILDTO6Y
MA6813400180,h_OCHCTP,11-L1-6,2019-01-23 20:45:00.0,PmdMin,1.07,CHCGILDTO6Y
MA6813400180,h_OCHCTP,11-L1-6,2019-01-23 20:45:00.0,SoPmdAve,2488.6,CHCGILDTO6Y
MA6813400180,h_OCHCTP,11-L1-7,2019-01-23 20:15:00.0,Qmin,8.86,CHCGILDTO6Y
MA6813400180,h_OCHCTP,11-L1-7,2019-01-23 20:15:00.0,PhaseCorrectionAve,-0.183,CHCGILDTO6Y
MA6813400180,h_OCHCTP,11-L1-7,2019-01-23 20:15:00.0,BerPreFecMax,0.00276,CHCGILDTO6Y
MA6813400180,h_OCHCTP,11-L1-7,2019-01-23 20:15:00.0,PmdMin,0.74,CHCGILDTO6Y
MA6813400180,h_OCHCTP,11-L1-7,2019-01-23 20:15:00.0,SoPmdAve,3049.75,CHCGILDTO6Y
MA6813400180,h_OCHCTP,11-L1-7,2019-01-23 20:30:00.0,Qmin,8.81,CHCGILDTO6Y
MA6813400180,h_OCHCTP,11-L1-7,2019-01-23 20:30:00.0,PhaseCorrectionAve,-0.061,CHCGILDTO6Y
MA6813400180,h_OCHCTP,11-L1-7,2019-01-23 20:30:00.0,BerPreFecMax,0.0029,CHCGILDTO6Y
MA6813400180,h_OCHCTP,11-L1-7,2019-01-23 20:30:00.0,PmdMin,0.394,CHCGILDTO6Y
MA6813400180,h_OCHCTP,11-L1-7,2019-01-23 20:30:00.0,SoPmdAve,2966.46,CHCGILDTO6Y
MA6813400180,h_OCHCTP,11-L1-7,2019-01-23 20:45:00.0,Qmin,8.85,CHCGILDTO6Y
MA6813400180,h_OCHCTP,11-L1-7,2019-01-23 20:45:00.0,PhaseCorrectionAve,-0.122,CHCGILDTO6Y
MA6813400180,h_OCHCTP,11-L1-7,2019-01-23 20:45:00.0,BerPreFecMax,0.00281,CHCGILDTO6Y
MA6813400180,h_OCHCTP,11-L1-7,2019-01-23 20:45:00.0,PmdMin,0.528,CHCGILDTO6Y
MA6813400180,h_OCHCTP,11-L1-7,2019-01-23 20:45:00.0,SoPmdAve,3113.07,CHCGILDTO6Y
MA6813400180,h_OCHCTP,11-L1-8,2019-01-23 20:15:00.0,Qmin,8.93,CHCGILDTO6Y
MA6813400180,h_OCHCTP,11-L1-8,2019-01-23 20:15:00.0,PhaseCorrectionAve,-0.183,CHCGILDTO6Y
MA6813400180,h_OCHCTP,11-L1-8,2019-01-23 20:15:00.0,BerPreFecMax,0.00259,CHCGILDTO6Y
MA6813400180,h_OCHCTP,11-L1-8,2019-01-23 20:15:00.0,PmdMin,0.529,CHCGILDTO6Y
MA6813400180,h_OCHCTP,11-L1-8,2019-01-23 20:15:00.0,SoPmdAve,3084.71,CHCGILDTO6Y
MA6813400180,h_OCHCTP,11-L1-8,2019-01-23 20:30:00.0,Qmin,8.92,CHCGILDTO6Y
MA6813400180,h_OCHCTP,11-L1-8,2019-01-23 20:30:00.0,PhaseCorrectionAve,-0.061,CHCGILDTO6Y
MA6813400180,h_OCHCTP,11-L1-8,2019-01-23 20:30:00.0,BerPreFecMax,0.00262,CHCGILDTO6Y
MA6813400180,h_OCHCTP,11-L1-8,2019-01-23 20:30:00.0,PmdMin,1.36,CHCGILDTO6Y
MA6813400180,h_OCHCTP,11-L1-8,2019-01-23 20:30:00.0,SoPmdAve,3105.24,CHCGILDTO6Y
MA6813400180,h_OCHCTP,11-L1-8,2019-01-23 20:45:00.0,Qmin,8.93,CHCGILDTO6Y
MA6813400180,h_OCHCTP,11-L1-8,2019-01-23 20:45:00.0,PhaseCorrectionAve,-0.122,CHCGILDTO6Y
MA6813400180,h_OCHCTP,11-L1-8,2019-01-23 20:45:00.0,BerPreFecMax,0.00258,CHCGILDTO6Y
MA6813400180,h_OCHCTP,11-L1-8,2019-01-23 20:45:00.0,PmdMin,0.714,CHCGILDTO6Y
MA6813400180,h_OCHCTP,11-L1-8,2019-01-23 20:45:00.0,SoPmdAve,3143.1,CHCGILDTO6Y
MA6813400180,h_OCHCTP,11-L1-9,2019-01-23 20:15:00.0,Qmin,8.86,CHCGILDTO6Y
MA6813400180,h_OCHCTP,11-L1-9,2019-01-23 20:15:00.0,PhaseCorrectionAve,-0.183,CHCGILDTO6Y
MA6813400180,h_OCHCTP,11-L1-9,2019-01-23 20:15:00.0,BerPreFecMax,0.00277,CHCGILDTO6Y
MA6813400180,h_OCHCTP,11-L1-9,2019-01-23 20:15:00.0,PmdMin,1.26,CHCGILDTO6Y
MA6813400180,h_OCHCTP,11-L1-9,2019-01-23 20:15:00.0,SoPmdAve,3062.62,CHCGILDTO6Y
MA6813400180,h_OCHCTP,11-L1-9,2019-01-23 20:30:00.0,Qmin,8.85,CHCGILDTO6Y
MA6813400180,h_OCHCTP,11-L1-9,2019-01-23 20:30:00.0,PhaseCorrectionAve,-0.061,CHCGILDTO6Y
MA6813400180,h_OCHCTP,11-L1-9,2019-01-23 20:30:00.0,BerPreFecMax,0.00279,CHCGILDTO6Y
MA6813400180,h_OCHCTP,11-L1-9,2019-01-23 20:30:00.0,PmdMin,0.782,CHCGILDTO6Y
MA6813400180,h_OCHCTP,11-L1-9,2019-01-23 20:30:00.0,SoPmdAve,3110.22,CHCGILDTO6Y
MA6813400180,h_OCHCTP,11-L1-9,2019-01-23 20:45:00.0,Qmin,8.87,CHCGILDTO6Y
MA6813400180,h_OCHCTP,11-L1-9,2019-01-23 20:45:00.0,PhaseCorrectionAve,-0.122,CHCGILDTO6Y
MA6813400180,h_OCHCTP,11-L1-9,2019-01-23 20:45:00.0,BerPreFecMax,0.00275,CHCGILDTO6Y
MA6813400180,h_OCHCTP,11-L1-9,2019-01-23 20:45:00.0,PmdMin,0.426,CHCGILDTO6Y
MA6813400180,h_OCHCTP,11-L1-9,2019-01-23 20:45:00.0,SoPmdAve,3087.25,CHCGILDTO6Y
MA6813400180,h_OCHCTP,11-L1-10,2019-01-23 20:15:00.0,Qmin,8.98,CHCGILDTO6Y
MA6813400180,h_OCHCTP,11-L1-10,2019-01-23 20:15:00.0,PhaseCorrectionAve,-0.244,CHCGILDTO6Y
MA6813400180,h_OCHCTP,11-L1-10,2019-01-23 20:15:00.0,BerPreFecMax,0.00247,CHCGILDTO6Y
MA6813400180,h_OCHCTP,11-L1-10,2019-01-23 20:15:00.0,PmdMin,1.12,CHCGILDTO6Y
MA6813400180,h_OCHCTP,11-L1-10,2019-01-23 20:15:00.0,SoPmdAve,3089.84,CHCGILDTO6Y
MA6813400180,h_OCHCTP,11-L1-10,2019-01-23 20:30:00.0,Qmin,8.98,CHCGILDTO6Y
MA6813400180,h_OCHCTP,11-L1-10,2019-01-23 20:30:00.0,PhaseCorrectionAve,-0.061,CHCGILDTO6Y
MA6813400180,h_OCHCTP,11-L1-10,2019-01-23 20:30:00.0,BerPreFecMax,0.00245,CHCGILDTO6Y
MA6813400180,h_OCHCTP,11-L1-10,2019-01-23 20:30:00.0,PmdMin,1.23,CHCGILDTO6Y
MA6813400180,h_OCHCTP,11-L1-10,2019-01-23 20:30:00.0,SoPmdAve,3068.99,CHCGILDTO6Y
MA6813400180,h_OCHCTP,11-L1-10,2019-01-23 20:45:00.0,Qmin,9.01,CHCGILDTO6Y
MA6813400180,h_OCHCTP,11-L1-10,2019-01-23 20:45:00.0,PhaseCorrectionAve,-0.122,CHCGILDTO6Y
MA6813400180,h_OCHCTP,11-L1-10,2019-01-23 20:45:00.0,BerPreFecMax,0.00239,CHCGILDTO6Y
MA6813400180,h_OCHCTP,11-L1-10,2019-01-23 20:45:00.0,PmdMin,0.642,CHCGILDTO6Y
MA6813400180,h_OCHCTP,11-L1-10,2019-01-23 20:45:00.0,SoPmdAve,3059.02,CHCGILDTO6Y
MA6813400180,h_OCHCTP,10-L1-1,2019-01-23 20:15:00.0,Qmin,9.52,CHCGILDTO6Y
MA6813400180,h_OCHCTP,10-L1-1,2019-01-23 20:15:00.0,PhaseCorrectionAve,5.67e-07,CHCGILDTO6Y
MA6813400180,h_OCHCTP,10-L1-1,2019-01-23 20:15:00.0,BerPreFecMax,0.00138,CHCGILDTO6Y
MA6813400180,h_OCHCTP,10-L1-1,2019-01-23 20:15:00.0,PmdMin,2.44,CHCGILDTO6Y
MA6813400180,h_OCHCTP,10-L1-1,2019-01-23 20:15:00.0,SoPmdAve,3233.62,CHCGILDTO6Y
MA6813400180,h_OCHCTP,10-L1-1,2019-01-23 20:30:00.0,Qmin,9.52,CHCGILDTO6Y
MA6813400180,h_OCHCTP,10-L1-1,2019-01-23 20:30:00.0,PhaseCorrectionAve,5.72e-07,CHCGILDTO6Y
MA6813400180,h_OCHCTP,10-L1-1,2019-01-23 20:30:00.0,BerPreFecMax,0.00138,CHCGILDTO6Y
MA6813400180,h_OCHCTP,10-L1-1,2019-01-23 20:30:00.0,PmdMin,2.13,CHCGILDTO6Y
MA6813400180,h_OCHCTP,10-L1-1,2019-01-23 20:30:00.0,SoPmdAve,3310.5,CHCGILDTO6Y
MA6813400180,h_OCHCTP,10-L1-1,2019-01-23 20:45:00.0,Qmin,9.52,CHCGILDTO6Y
MA6813400180,h_OCHCTP,10-L1-1,2019-01-23 20:45:00.0,PhaseCorrectionAve,-0.122,CHCGILDTO6Y
MA6813400180,h_OCHCTP,10-L1-1,2019-01-23 20:45:00.0,BerPreFecMax,0.00138,CHCGILDTO6Y
MA6813400180,h_OCHCTP,10-L1-1,2019-01-23 20:45:00.0,PmdMin,3.51,CHCGILDTO6Y
MA6813400180,h_OCHCTP,10-L1-1,2019-01-23 20:45:00.0,SoPmdAve,3308.53,CHCGILDTO6Y
MA6813400180,h_OCHCTP,10-L1-2,2019-01-23 20:15:00.0,Qmin,9.24,CHCGILDTO6Y
MA6813400180,h_OCHCTP,10-L1-2,2019-01-23 20:15:00.0,PhaseCorrectionAve,3.66e-07,CHCGILDTO6Y
MA6813400180,h_OCHCTP,10-L1-2,2019-01-23 20:15:00.0,BerPreFecMax,0.00189,CHCGILDTO6Y
MA6813400180,h_OCHCTP,10-L1-2,2019-01-23 20:15:00.0,PmdMin,3.03,CHCGILDTO6Y
MA6813400180,h_OCHCTP,10-L1-2,2019-01-23 20:15:00.0,SoPmdAve,3335.88,CHCGILDTO6Y
MA6813400180,h_OCHCTP,10-L1-2,2019-01-23 20:30:00.0,Qmin,9.25,CHCGILDTO6Y
MA6813400180,h_OCHCTP,10-L1-2,2019-01-23 20:30:00.0,PhaseCorrectionAve,3.58e-07,CHCGILDTO6Y
MA6813400180,h_OCHCTP,10-L1-2,2019-01-23 20:30:00.0,BerPreFecMax,0.00187,CHCGILDTO6Y
MA6813400180,h_OCHCTP,10-L1-2,2019-01-23 20:30:00.0,PmdMin,2.28,CHCGILDTO6Y
MA6813400180,h_OCHCTP,10-L1-2,2019-01-23 20:30:00.0,SoPmdAve,3328.68,CHCGILDTO6Y
MA6813400180,h_OCHCTP,10-L1-2,2019-01-23 20:45:00.0,Qmin,9.26,CHCGILDTO6Y
MA6813400180,h_OCHCTP,10-L1-2,2019-01-23 20:45:00.0,PhaseCorrectionAve,-0.122,CHCGILDTO6Y
MA6813400180,h_OCHCTP,10-L1-2,2019-01-23 20:45:00.0,BerPreFecMax,0.00185,CHCGILDTO6Y
MA6813400180,h_OCHCTP,10-L1-2,2019-01-23 20:45:00.0,PmdMin,0.941,CHCGILDTO6Y
MA6813400180,h_OCHCTP,10-L1-2,2019-01-23 20:45:00.0,SoPmdAve,3289.46,CHCGILDTO6Y
MA6813400180,h_OCHCTP,10-L1-3,2019-01-23 20:15:00.0,Qmin,9.01,CHCGILDTO6Y
MA6813400180,h_OCHCTP,10-L1-3,2019-01-23 20:15:00.0,PhaseCorrectionAve,5.13e-07,CHCGILDTO6Y
MA6813400180,h_OCHCTP,10-L1-3,2019-01-23 20:15:00.0,BerPreFecMax,0.00239,CHCGILDTO6Y
MA6813400180,h_OCHCTP,10-L1-3,2019-01-23 20:15:00.0,PmdMin,0.835,CHCGILDTO6Y
MA6813400180,h_OCHCTP,10-L1-3,2019-01-23 20:15:00.0,SoPmdAve,2863.72,CHCGILDTO6Y
MA6813400180,h_OCHCTP,10-L1-3,2019-01-23 20:30:00.0,Qmin,9.04,CHCGILDTO6Y
MA6813400180,h_OCHCTP,10-L1-3,2019-01-23 20:30:00.0,PhaseCorrectionAve,5.08e-07,CHCGILDTO6Y
MA6813400180,h_OCHCTP,10-L1-3,2019-01-23 20:30:00.0,BerPreFecMax,0.00232,CHCGILDTO6Y
MA6813400180,h_OCHCTP,10-L1-3,2019-01-23 20:30:00.0,PmdMin,1.78,CHCGILDTO6Y
MA6813400180,h_OCHCTP,10-L1-3,2019-01-23 20:30:00.0,SoPmdAve,2843.54,CHCGILDTO6Y
MA6813400180,h_OCHCTP,10-L1-3,2019-01-23 20:45:00.0,Qmin,9.03,CHCGILDTO6Y
MA6813400180,h_OCHCTP,10-L1-3,2019-01-23 20:45:00.0,PhaseCorrectionAve,-0.122,CHCGILDTO6Y
MA6813400180,h_OCHCTP,10-L1-3,2019-01-23 20:45:00.0,BerPreFecMax,0.00234,CHCGILDTO6Y
MA6813400180,h_OCHCTP,10-L1-3,2019-01-23 20:45:00.0,PmdMin,0.771,CHCGILDTO6Y
MA6813400180,h_OCHCTP,10-L1-3,2019-01-23 20:45:00.0,SoPmdAve,2836.03,CHCGILDTO6Y
MA6813400180,h_OCHCTP,10-L1-4,2019-01-23 20:15:00.0,Qmin,8.45,CHCGILDTO6Y
MA6813400180,h_OCHCTP,10-L1-4,2019-01-23 20:15:00.0,PhaseCorrectionAve,-0.061,CHCGILDTO6Y
MA6813400180,h_OCHCTP,10-L1-4,2019-01-23 20:15:00.0,BerPreFecMax,0.00406,CHCGILDTO6Y
MA6813400180,h_OCHCTP,10-L1-4,2019-01-23 20:15:00.0,PmdMin,8.72,CHCGILDTO6Y
MA6813400180,h_OCHCTP,10-L1-4,2019-01-23 20:15:00.0,SoPmdAve,3018.99,CHCGILDTO6Y
MA6813400180,h_OCHCTP,10-L1-4,2019-01-23 20:30:00.0,Qmin,8.52,CHCGILDTO6Y
MA6813400180,h_OCHCTP,10-L1-4,2019-01-23 20:30:00.0,PhaseCorrectionAve,-0.061,CHCGILDTO6Y
MA6813400180,h_OCHCTP,10-L1-4,2019-01-23 20:30:00.0,BerPreFecMax,0.00382,CHCGILDTO6Y
MA6813400180,h_OCHCTP,10-L1-4,2019-01-23 20:30:00.0,PmdMin,7.81,CHCGILDTO6Y
MA6813400180,h_OCHCTP,10-L1-4,2019-01-23 20:30:00.0,SoPmdAve,2937.97,CHCGILDTO6Y
MA6813400180,h_OCHCTP,10-L1-4,2019-01-23 20:45:00.0,Qmin,8.51,CHCGILDTO6Y
MA6813400180,h_OCHCTP,10-L1-4,2019-01-23 20:45:00.0,PhaseCorrectionAve,-0.183,CHCGILDTO6Y
MA6813400180,h_OCHCTP,10-L1-4,2019-01-23 20:45:00.0,BerPreFecMax,0.00385,CHCGILDTO6Y
MA6813400180,h_OCHCTP,10-L1-4,2019-01-23 20:45:00.0,PmdMin,8.38,CHCGILDTO6Y
MA6813400180,h_OCHCTP,10-L1-4,2019-01-23 20:45:00.0,SoPmdAve,3017.44,CHCGILDTO6Y
MA6813400180,h_OCHCTP,10-L1-5,2019-01-23 20:15:00.0,Qmin,8.63,CHCGILDTO6Y
MA6813400180,h_OCHCTP,10-L1-5,2019-01-23 20:15:00.0,PhaseCorrectionAve,-0.122,CHCGILDTO6Y
MA6813400180,h_OCHCTP,10-L1-5,2019-01-23 20:15:00.0,BerPreFecMax,0.00344,CHCGILDTO6Y
MA6813400180,h_OCHCTP,10-L1-5,2019-01-23 20:15:00.0,PmdMin,4.57,CHCGILDTO6Y
MA6813400180,h_OCHCTP,10-L1-5,2019-01-23 20:15:00.0,SoPmdAve,2897.3,CHCGILDTO6Y
MA6813400180,h_OCHCTP,10-L1-5,2019-01-23 20:30:00.0,Qmin,8.69,CHCGILDTO6Y
MA6813400180,h_OCHCTP,10-L1-5,2019-01-23 20:30:00.0,PhaseCorrectionAve,-0.122,CHCGILDTO6Y
MA6813400180,h_OCHCTP,10-L1-5,2019-01-23 20:30:00.0,BerPreFecMax,0.00326,CHCGILDTO6Y
MA6813400180,h_OCHCTP,10-L1-5,2019-01-23 20:30:00.0,PmdMin,1.57,CHCGILDTO6Y
MA6813400180,h_OCHCTP,10-L1-5,2019-01-23 20:30:00.0,SoPmdAve,2791.07,CHCGILDTO6Y
MA6813400180,h_OCHCTP,10-L1-5,2019-01-23 20:45:00.0,Qmin,8.69,CHCGILDTO6Y
MA6813400180,h_OCHCTP,10-L1-5,2019-01-23 20:45:00.0,PhaseCorrectionAve,-0.183,CHCGILDTO6Y
MA6813400180,h_OCHCTP,10-L1-5,2019-01-23 20:45:00.0,BerPreFecMax,0.00328,CHCGILDTO6Y
MA6813400180,h_OCHCTP,10-L1-5,2019-01-23 20:45:00.0,PmdMin,1.34,CHCGILDTO6Y
MA6813400180,h_OCHCTP,10-L1-5,2019-01-23 20:45:00.0,SoPmdAve,2909.17,CHCGILDTO6Y
MA6813400180,h_OCHCTP,10-L1-6,2019-01-23 20:15:00.0,Qmin,8.86,CHCGILDTO6Y
MA6813400180,h_OCHCTP,10-L1-6,2019-01-23 20:15:00.0,PhaseCorrectionAve,-0.183,CHCGILDTO6Y
MA6813400180,h_OCHCTP,10-L1-6,2019-01-23 20:15:00.0,BerPreFecMax,0.00278,CHCGILDTO6Y
MA6813400180,h_OCHCTP,10-L1-6,2019-01-23 20:15:00.0,PmdMin,1.23,CHCGILDTO6Y
MA6813400180,h_OCHCTP,10-L1-6,2019-01-23 20:15:00.0,SoPmdAve,2848.45,CHCGILDTO6Y
MA6813400180,h_OCHCTP,10-L1-6,2019-01-23 20:30:00.0,Qmin,8.9,CHCGILDTO6Y
MA6813400180,h_OCHCTP,10-L1-6,2019-01-23 20:30:00.0,PhaseCorrectionAve,-0.183,CHCGILDTO6Y
MA6813400180,h_OCHCTP,10-L1-6,2019-01-23 20:30:00.0,BerPreFecMax,0.00266,CHCGILDTO6Y
MA6813400180,h_OCHCTP,10-L1-6,2019-01-23 20:30:00.0,PmdMin,0.737,CHCGILDTO6Y
MA6813400180,h_OCHCTP,10-L1-6,2019-01-23 20:30:00.0,SoPmdAve,2829.0,CHCGILDTO6Y
MA6813400180,h_OCHCTP,10-L1-6,2019-01-23 20:45:00.0,Qmin,8.89,CHCGILDTO6Y
MA6813400180,h_OCHCTP,10-L1-6,2019-01-23 20:45:00.0,PhaseCorrectionAve,-0.183,CHCGILDTO6Y
MA6813400180,h_OCHCTP,10-L1-6,2019-01-23 20:45:00.0,BerPreFecMax,0.00269,CHCGILDTO6Y
MA6813400180,h_OCHCTP,10-L1-6,2019-01-23 20:45:00.0,PmdMin,0.93,CHCGILDTO6Y
MA6813400180,h_OCHCTP,10-L1-6,2019-01-23 20:45:00.0,SoPmdAve,2782.14,CHCGILDTO6Y
MA6813400180,h_OCHCTP,10-L1-7,2019-01-23 20:15:00.0,Qmin,8.91,CHCGILDTO6Y
MA6813400180,h_OCHCTP,10-L1-7,2019-01-23 20:15:00.0,PhaseCorrectionAve,-0.183,CHCGILDTO6Y
MA6813400180,h_OCHCTP,10-L1-7,2019-01-23 20:15:00.0,BerPreFecMax,0.00263,CHCGILDTO6Y
MA6813400180,h_OCHCTP,10-L1-7,2019-01-23 20:15:00.0,PmdMin,0.653,CHCGILDTO6Y
MA6813400180,h_OCHCTP,10-L1-7,2019-01-23 20:15:00.0,SoPmdAve,3535.4,CHCGILDTO6Y
MA6813400180,h_OCHCTP,10-L1-7,2019-01-23 20:30:00.0,Qmin,8.94,CHCGILDTO6Y
MA6813400180,h_OCHCTP,10-L1-7,2019-01-23 20:30:00.0,PhaseCorrectionAve,-0.183,CHCGILDTO6Y
MA6813400180,h_OCHCTP,10-L1-7,2019-01-23 20:30:00.0,BerPreFecMax,0.00255,CHCGILDTO6Y
MA6813400180,h_OCHCTP,10-L1-7,2019-01-23 20:30:00.0,PmdMin,0.465,CHCGILDTO6Y
MA6813400180,h_OCHCTP,10-L1-7,2019-01-23 20:30:00.0,SoPmdAve,3405.76,CHCGILDTO6Y
MA6813400180,h_OCHCTP,10-L1-7,2019-01-23 20:45:00.0,Qmin,8.95,CHCGILDTO6Y
MA6813400180,h_OCHCTP,10-L1-7,2019-01-23 20:45:00.0,PhaseCorrectionAve,-0.183,CHCGILDTO6Y
MA6813400180,h_OCHCTP,10-L1-7,2019-01-23 20:45:00.0,BerPreFecMax,0.00254,CHCGILDTO6Y
MA6813400180,h_OCHCTP,10-L1-7,2019-01-23 20:45:00.0,PmdMin,1.73,CHCGILDTO6Y
MA6813400180,h_OCHCTP,10-L1-7,2019-01-23 20:45:00.0,SoPmdAve,3439.66,CHCGILDTO6Y
MA6813400180,h_OCHCTP,10-L1-8,2019-01-23 20:15:00.0,Qmin,9.31,CHCGILDTO6Y
MA6813400180,h_OCHCTP,10-L1-8,2019-01-23 20:15:00.0,PhaseCorrectionAve,-0.183,CHCGILDTO6Y
MA6813400180,h_OCHCTP,10-L1-8,2019-01-23 20:15:00.0,BerPreFecMax,0.00174,CHCGILDTO6Y
MA6813400180,h_OCHCTP,10-L1-8,2019-01-23 20:15:00.0,PmdMin,1.91,CHCGILDTO6Y
MA6813400180,h_OCHCTP,10-L1-8,2019-01-23 20:15:00.0,SoPmdAve,3488.66,CHCGILDTO6Y
MA6813400180,h_OCHCTP,10-L1-8,2019-01-23 20:30:00.0,Qmin,9.31,CHCGILDTO6Y
MA6813400180,h_OCHCTP,10-L1-8,2019-01-23 20:30:00.0,PhaseCorrectionAve,-0.183,CHCGILDTO6Y
MA6813400180,h_OCHCTP,10-L1-8,2019-01-23 20:30:00.0,BerPreFecMax,0.00174,CHCGILDTO6Y
MA6813400180,h_OCHCTP,10-L1-8,2019-01-23 20:30:00.0,PmdMin,1.21,CHCGILDTO6Y
MA6813400180,h_OCHCTP,10-L1-8,2019-01-23 20:30:00.0,SoPmdAve,3578.53,CHCGILDTO6Y
MA6813400180,h_OCHCTP,10-L1-8,2019-01-23 20:45:00.0,Qmin,9.33,CHCGILDTO6Y
MA6813400180,h_OCHCTP,10-L1-8,2019-01-23 20:45:00.0,PhaseCorrectionAve,-0.183,CHCGILDTO6Y
MA6813400180,h_OCHCTP,10-L1-8,2019-01-23 20:45:00.0,BerPreFecMax,0.00171,CHCGILDTO6Y
MA6813400180,h_OCHCTP,10-L1-8,2019-01-23 20:45:00.0,PmdMin,0.488,CHCGILDTO6Y
MA6813400180,h_OCHCTP,10-L1-8,2019-01-23 20:45:00.0,SoPmdAve,3434.42,CHCGILDTO6Y
MA6813400180,h_OCHCTP,10-L1-9,2019-01-23 20:15:00.0,Qmin,9.33,CHCGILDTO6Y
MA6813400180,h_OCHCTP,10-L1-9,2019-01-23 20:15:00.0,PhaseCorrectionAve,-0.183,CHCGILDTO6Y
MA6813400180,h_OCHCTP,10-L1-9,2019-01-23 20:15:00.0,BerPreFecMax,0.00171,CHCGILDTO6Y
MA6813400180,h_OCHCTP,10-L1-9,2019-01-23 20:15:00.0,PmdMin,0.896,CHCGILDTO6Y
MA6813400180,h_OCHCTP,10-L1-9,2019-01-23 20:15:00.0,SoPmdAve,3389.67,CHCGILDTO6Y
MA6813400180,h_OCHCTP,10-L1-9,2019-01-23 20:30:00.0,Qmin,9.31,CHCGILDTO6Y
MA6813400180,h_OCHCTP,10-L1-9,2019-01-23 20:30:00.0,PhaseCorrectionAve,-0.244,CHCGILDTO6Y
MA6813400180,h_OCHCTP,10-L1-9,2019-01-23 20:30:00.0,BerPreFecMax,0.00174,CHCGILDTO6Y
MA6813400180,h_OCHCTP,10-L1-9,2019-01-23 20:30:00.0,PmdMin,1.16,CHCGILDTO6Y
MA6813400180,h_OCHCTP,10-L1-9,2019-01-23 20:30:00.0,SoPmdAve,3511.47,CHCGILDTO6Y
MA6813400180,h_OCHCTP,10-L1-9,2019-01-23 20:45:00.0,Qmin,9.33,CHCGILDTO6Y
MA6813400180,h_OCHCTP,10-L1-9,2019-01-23 20:45:00.0,PhaseCorrectionAve,-0.183,CHCGILDTO6Y
MA6813400180,h_OCHCTP,10-L1-9,2019-01-23 20:45:00.0,BerPreFecMax,0.00171,CHCGILDTO6Y
MA6813400180,h_OCHCTP,10-L1-9,2019-01-23 20:45:00.0,PmdMin,1.16,CHCGILDTO6Y
MA6813400180,h_OCHCTP,10-L1-9,2019-01-23 20:45:00.0,SoPmdAve,3471.57,CHCGILDTO6Y
MA6813400180,h_OCHCTP,10-L1-10,2019-01-23 20:15:00.0,Qmin,9.38,CHCGILDTO6Y
MA6813400180,h_OCHCTP,10-L1-10,2019-01-23 20:15:00.0,PhaseCorrectionAve,-0.183,CHCGILDTO6Y
MA6813400180,h_OCHCTP,10-L1-10,2019-01-23 20:15:00.0,BerPreFecMax,0.00162,CHCGILDTO6Y
MA6813400180,h_OCHCTP,10-L1-10,2019-01-23 20:15:00.0,PmdMin,3.49,CHCGILDTO6Y
MA6813400180,h_OCHCTP,10-L1-10,2019-01-23 20:15:00.0,SoPmdAve,3178.62,CHCGILDTO6Y
MA6813400180,h_OCHCTP,10-L1-10,2019-01-23 20:30:00.0,Qmin,9.38,CHCGILDTO6Y
MA6813400180,h_OCHCTP,10-L1-10,2019-01-23 20:30:00.0,PhaseCorrectionAve,-0.244,CHCGILDTO6Y
MA6813400180,h_OCHCTP,10-L1-10,2019-01-23 20:30:00.0,BerPreFecMax,0.00163,CHCGILDTO6Y
MA6813400180,h_OCHCTP,10-L1-10,2019-01-23 20:30:00.0,PmdMin,7.33,CHCGILDTO6Y
MA6813400180,h_OCHCTP,10-L1-10,2019-01-23 20:30:00.0,SoPmdAve,3240.68,CHCGILDTO6Y
MA6813400180,h_OCHCTP,10-L1-10,2019-01-23 20:45:00.0,Qmin,9.39,CHCGILDTO6Y
MA6813400180,h_OCHCTP,10-L1-10,2019-01-23 20:45:00.0,PhaseCorrectionAve,-0.183,CHCGILDTO6Y
MA6813400180,h_OCHCTP,10-L1-10,2019-01-23 20:45:00.0,BerPreFecMax,0.00159,CHCGILDTO6Y
MA6813400180,h_OCHCTP,10-L1-10,2019-01-23 20:45:00.0,PmdMin,7.32,CHCGILDTO6Y
MA6813400180,h_OCHCTP,10-L1-10,2019-01-23 20:45:00.0,SoPmdAve,3197.37,CHCGILDTO6Y
MA6813400180,h_OCHCTP,13-L1-1,2019-01-23 20:15:00.0,Qmin,9.16,CHCGILDTO6Y
MA6813400180,h_OCHCTP,13-L1-1,2019-01-23 20:15:00.0,PhaseCorrectionAve,2.64e-07,CHCGILDTO6Y
MA6813400180,h_OCHCTP,13-L1-1,2019-01-23 20:15:00.0,BerPreFecMax,0.00204,CHCGILDTO6Y
MA6813400180,h_OCHCTP,13-L1-1,2019-01-23 20:15:00.0,PmdMin,1.82,CHCGILDTO6Y
MA6813400180,h_OCHCTP,13-L1-1,2019-01-23 20:15:00.0,SoPmdAve,3532.91,CHCGILDTO6Y
MA6813400180,h_OCHCTP,13-L1-1,2019-01-23 20:30:00.0,Qmin,9.16,CHCGILDTO6Y
MA6813400180,h_OCHCTP,13-L1-1,2019-01-23 20:30:00.0,PhaseCorrectionAve,2.63e-07,CHCGILDTO6Y
MA6813400180,h_OCHCTP,13-L1-1,2019-01-23 20:30:00.0,BerPreFecMax,0.00204,CHCGILDTO6Y
MA6813400180,h_OCHCTP,13-L1-1,2019-01-23 20:30:00.0,PmdMin,0.747,CHCGILDTO6Y
MA6813400180,h_OCHCTP,13-L1-1,2019-01-23 20:30:00.0,SoPmdAve,3490.0,CHCGILDTO6Y
MA6813400180,h_OCHCTP,13-L1-1,2019-01-23 20:45:00.0,Qmin,9.16,CHCGILDTO6Y
MA6813400180,h_OCHCTP,13-L1-1,2019-01-23 20:45:00.0,PhaseCorrectionAve,2.47e-07,CHCGILDTO6Y
MA6813400180,h_OCHCTP,13-L1-1,2019-01-23 20:45:00.0,BerPreFecMax,0.00205,CHCGILDTO6Y
MA6813400180,h_OCHCTP,13-L1-1,2019-01-23 20:45:00.0,PmdMin,1.74,CHCGILDTO6Y
MA6813400180,h_OCHCTP,13-L1-1,2019-01-23 20:45:00.0,SoPmdAve,3551.8,CHCGILDTO6Y
MA6813400180,h_OCHCTP,13-L1-2,2019-01-23 20:15:00.0,Qmin,9.18,CHCGILDTO6Y
MA6813400180,h_OCHCTP,13-L1-2,2019-01-23 20:15:00.0,PhaseCorrectionAve,3.35e-07,CHCGILDTO6Y
MA6813400180,h_OCHCTP,13-L1-2,2019-01-23 20:15:00.0,BerPreFecMax,0.00201,CHCGILDTO6Y
MA6813400180,h_OCHCTP,13-L1-2,2019-01-23 20:15:00.0,PmdMin,1.05,CHCGILDTO6Y
MA6813400180,h_OCHCTP,13-L1-2,2019-01-23 20:15:00.0,SoPmdAve,3472.2,CHCGILDTO6Y
MA6813400180,h_OCHCTP,13-L1-2,2019-01-23 20:30:00.0,Qmin,9.18,CHCGILDTO6Y
MA6813400180,h_OCHCTP,13-L1-2,2019-01-23 20:30:00.0,PhaseCorrectionAve,-0.061,CHCGILDTO6Y
MA6813400180,h_OCHCTP,13-L1-2,2019-01-23 20:30:00.0,BerPreFecMax,0.00201,CHCGILDTO6Y
MA6813400180,h_OCHCTP,13-L1-2,2019-01-23 20:30:00.0,PmdMin,0.788,CHCGILDTO6Y
MA6813400180,h_OCHCTP,13-L1-2,2019-01-23 20:30:00.0,SoPmdAve,3542.6,CHCGILDTO6Y
MA6813400180,h_OCHCTP,13-L1-2,2019-01-23 20:45:00.0,Qmin,9.15,CHCGILDTO6Y
MA6813400180,h_OCHCTP,13-L1-2,2019-01-23 20:45:00.0,PhaseCorrectionAve,3.19e-07,CHCGILDTO6Y
MA6813400180,h_OCHCTP,13-L1-2,2019-01-23 20:45:00.0,BerPreFecMax,0.00207,CHCGILDTO6Y
MA6813400180,h_OCHCTP,13-L1-2,2019-01-23 20:45:00.0,PmdMin,1.18,CHCGILDTO6Y
MA6813400180,h_OCHCTP,13-L1-2,2019-01-23 20:45:00.0,SoPmdAve,3502.41,CHCGILDTO6Y
MA6813400180,h_OCHCTP,13-L1-3,2019-01-23 20:15:00.0,Qmin,9.03,CHCGILDTO6Y
MA6813400180,h_OCHCTP,13-L1-3,2019-01-23 20:15:00.0,PhaseCorrectionAve,4.66e-07,CHCGILDTO6Y
MA6813400180,h_OCHCTP,13-L1-3,2019-01-23 20:15:00.0,BerPreFecMax,0.00233,CHCGILDTO6Y
MA6813400180,h_OCHCTP,13-L1-3,2019-01-23 20:15:00.0,PmdMin,0.432,CHCGILDTO6Y
MA6813400180,h_OCHCTP,13-L1-3,2019-01-23 20:15:00.0,SoPmdAve,2993.54,CHCGILDTO6Y
MA6813400180,h_OCHCTP,13-L1-3,2019-01-23 20:30:00.0,Qmin,8.98,CHCGILDTO6Y
MA6813400180,h_OCHCTP,13-L1-3,2019-01-23 20:30:00.0,PhaseCorrectionAve,-0.061,CHCGILDTO6Y
MA6813400180,h_OCHCTP,13-L1-3,2019-01-23 20:30:00.0,BerPreFecMax,0.00245,CHCGILDTO6Y
MA6813400180,h_OCHCTP,13-L1-3,2019-01-23 20:30:00.0,PmdMin,0.748,CHCGILDTO6Y
MA6813400180,h_OCHCTP,13-L1-3,2019-01-23 20:30:00.0,SoPmdAve,2967.92,CHCGILDTO6Y
MA6813400180,h_OCHCTP,13-L1-3,2019-01-23 20:45:00.0,Qmin,8.95,CHCGILDTO6Y
MA6813400180,h_OCHCTP,13-L1-3,2019-01-23 20:45:00.0,PhaseCorrectionAve,5.1e-07,CHCGILDTO6Y
MA6813400180,h_OCHCTP,13-L1-3,2019-01-23 20:45:00.0,BerPreFecMax,0.00254,CHCGILDTO6Y
MA6813400180,h_OCHCTP,13-L1-3,2019-01-23 20:45:00.0,PmdMin,0.875,CHCGILDTO6Y
MA6813400180,h_OCHCTP,13-L1-3,2019-01-23 20:45:00.0,SoPmdAve,2869.24,CHCGILDTO6Y
MA6813400180,h_OCHCTP,13-L1-4,2019-01-23 20:15:00.0,Qmin,8.81,CHCGILDTO6Y
MA6813400180,h_OCHCTP,13-L1-4,2019-01-23 20:15:00.0,PhaseCorrectionAve,4.69e-07,CHCGILDTO6Y
MA6813400180,h_OCHCTP,13-L1-4,2019-01-23 20:15:00.0,BerPreFecMax,0.0029,CHCGILDTO6Y
MA6813400180,h_OCHCTP,13-L1-4,2019-01-23 20:15:00.0,PmdMin,1.33,CHCGILDTO6Y
MA6813400180,h_OCHCTP,13-L1-4,2019-01-23 20:15:00.0,SoPmdAve,3399.37,CHCGILDTO6Y
MA6813400180,h_OCHCTP,13-L1-4,2019-01-23 20:30:00.0,Qmin,8.75,CHCGILDTO6Y
MA6813400180,h_OCHCTP,13-L1-4,2019-01-23 20:30:00.0,PhaseCorrectionAve,-0.061,CHCGILDTO6Y
MA6813400180,h_OCHCTP,13-L1-4,2019-01-23 20:30:00.0,BerPreFecMax,0.00308,CHCGILDTO6Y
MA6813400180,h_OCHCTP,13-L1-4,2019-01-23 20:30:00.0,PmdMin,1.21,CHCGILDTO6Y
MA6813400180,h_OCHCTP,13-L1-4,2019-01-23 20:30:00.0,SoPmdAve,3365.23,CHCGILDTO6Y
MA6813400180,h_OCHCTP,13-L1-4,2019-01-23 20:45:00.0,Qmin,8.75,CHCGILDTO6Y
MA6813400180,h_OCHCTP,13-L1-4,2019-01-23 20:45:00.0,PhaseCorrectionAve,-0.061,CHCGILDTO6Y
MA6813400180,h_OCHCTP,13-L1-4,2019-01-23 20:45:00.0,BerPreFecMax,0.00308,CHCGILDTO6Y
MA6813400180,h_OCHCTP,13-L1-4,2019-01-23 20:45:00.0,PmdMin,0.372,CHCGILDTO6Y
MA6813400180,h_OCHCTP,13-L1-4,2019-01-23 20:45:00.0,SoPmdAve,3317.88,CHCGILDTO6Y
MA6813400180,h_OCHCTP,13-L1-5,2019-01-23 20:15:00.0,Qmin,8.79,CHCGILDTO6Y
MA6813400180,h_OCHCTP,13-L1-5,2019-01-23 20:15:00.0,PhaseCorrectionAve,3.02e-07,CHCGILDTO6Y
MA6813400180,h_OCHCTP,13-L1-5,2019-01-23 20:15:00.0,BerPreFecMax,0.00297,CHCGILDTO6Y
MA6813400180,h_OCHCTP,13-L1-5,2019-01-23 20:15:00.0,PmdMin,0.597,CHCGILDTO6Y
MA6813400180,h_OCHCTP,13-L1-5,2019-01-23 20:15:00.0,SoPmdAve,2874.16,CHCGILDTO6Y
MA6813400180,h_OCHCTP,13-L1-5,2019-01-23 20:30:00.0,Qmin,8.73,CHCGILDTO6Y
MA6813400180,h_OCHCTP,13-L1-5,2019-01-23 20:30:00.0,PhaseCorrectionAve,-0.061,CHCGILDTO6Y
MA6813400180,h_OCHCTP,13-L1-5,2019-01-23 20:30:00.0,BerPreFecMax,0.00314,CHCGILDTO6Y
MA6813400180,h_OCHCTP,13-L1-5,2019-01-23 20:30:00.0,PmdMin,0.825,CHCGILDTO6Y
MA6813400180,h_OCHCTP,13-L1-5,2019-01-23 20:30:00.0,SoPmdAve,2764.21,CHCGILDTO6Y
MA6813400180,h_OCHCTP,13-L1-5,2019-01-23 20:45:00.0,Qmin,8.71,CHCGILDTO6Y
MA6813400180,h_OCHCTP,13-L1-5,2019-01-23 20:45:00.0,PhaseCorrectionAve,-0.122,CHCGILDTO6Y
MA6813400180,h_OCHCTP,13-L1-5,2019-01-23 20:45:00.0,BerPreFecMax,0.00319,CHCGILDTO6Y
MA6813400180,h_OCHCTP,13-L1-5,2019-01-23 20:45:00.0,PmdMin,1.12,CHCGILDTO6Y
MA6813400180,h_OCHCTP,13-L1-5,2019-01-23 20:45:00.0,SoPmdAve,2908.06,CHCGILDTO6Y
MA6813400180,h_OCHCTP,13-L1-6,2019-01-23 20:15:00.0,Qmin,8.84,CHCGILDTO6Y
MA6813400180,h_OCHCTP,13-L1-6,2019-01-23 20:15:00.0,PhaseCorrectionAve,5.09e-07,CHCGILDTO6Y
MA6813400180,h_OCHCTP,13-L1-6,2019-01-23 20:15:00.0,BerPreFecMax,0.00284,CHCGILDTO6Y
MA6813400180,h_OCHCTP,13-L1-6,2019-01-23 20:15:00.0,PmdMin,1.05,CHCGILDTO6Y
MA6813400180,h_OCHCTP,13-L1-6,2019-01-23 20:15:00.0,SoPmdAve,3088.09,CHCGILDTO6Y
MA6813400180,h_OCHCTP,13-L1-6,2019-01-23 20:30:00.0,Qmin,8.77,CHCGILDTO6Y
MA6813400180,h_OCHCTP,13-L1-6,2019-01-23 20:30:00.0,PhaseCorrectionAve,-0.061,CHCGILDTO6Y
MA6813400180,h_OCHCTP,13-L1-6,2019-01-23 20:30:00.0,BerPreFecMax,0.00301,CHCGILDTO6Y
MA6813400180,h_OCHCTP,13-L1-6,2019-01-23 20:30:00.0,PmdMin,0.565,CHCGILDTO6Y
MA6813400180,h_OCHCTP,13-L1-6,2019-01-23 20:30:00.0,SoPmdAve,2987.37,CHCGILDTO6Y
MA6813400180,h_OCHCTP,13-L1-6,2019-01-23 20:45:00.0,Qmin,8.78,CHCGILDTO6Y
MA6813400180,h_OCHCTP,13-L1-6,2019-01-23 20:45:00.0,PhaseCorrectionAve,-0.122,CHCGILDTO6Y
MA6813400180,h_OCHCTP,13-L1-6,2019-01-23 20:45:00.0,BerPreFecMax,0.00301,CHCGILDTO6Y
MA6813400180,h_OCHCTP,13-L1-6,2019-01-23 20:45:00.0,PmdMin,0.759,CHCGILDTO6Y
MA6813400180,h_OCHCTP,13-L1-6,2019-01-23 20:45:00.0,SoPmdAve,3061.94,CHCGILDTO6Y
MA6813400180,h_OCHCTP,13-L1-7,2019-01-23 20:15:00.0,Qmin,8.8,CHCGILDTO6Y
MA6813400180,h_OCHCTP,13-L1-7,2019-01-23 20:15:00.0,PhaseCorrectionAve,4.33e-07,CHCGILDTO6Y
MA6813400180,h_OCHCTP,13-L1-7,2019-01-23 20:15:00.0,BerPreFecMax,0.00294,CHCGILDTO6Y
MA6813400180,h_OCHCTP,13-L1-7,2019-01-23 20:15:00.0,PmdMin,0.529,CHCGILDTO6Y
MA6813400180,h_OCHCTP,13-L1-7,2019-01-23 20:15:00.0,SoPmdAve,3770.61,CHCGILDTO6Y
MA6813400180,h_OCHCTP,13-L1-7,2019-01-23 20:30:00.0,Qmin,8.75,CHCGILDTO6Y
MA6813400180,h_OCHCTP,13-L1-7,2019-01-23 20:30:00.0,PhaseCorrectionAve,-0.061,CHCGILDTO6Y
MA6813400180,h_OCHCTP,13-L1-7,2019-01-23 20:30:00.0,BerPreFecMax,0.00307,CHCGILDTO6Y
MA6813400180,h_OCHCTP,13-L1-7,2019-01-23 20:30:00.0,PmdMin,1.31,CHCGILDTO6Y
MA6813400180,h_OCHCTP,13-L1-7,2019-01-23 20:30:00.0,SoPmdAve,3761.79,CHCGILDTO6Y
MA6813400180,h_OCHCTP,13-L1-7,2019-01-23 20:45:00.0,Qmin,8.79,CHCGILDTO6Y
MA6813400180,h_OCHCTP,13-L1-7,2019-01-23 20:45:00.0,PhaseCorrectionAve,-0.122,CHCGILDTO6Y
MA6813400180,h_OCHCTP,13-L1-7,2019-01-23 20:45:00.0,BerPreFecMax,0.00297,CHCGILDTO6Y
MA6813400180,h_OCHCTP,13-L1-7,2019-01-23 20:45:00.0,PmdMin,0.821,CHCGILDTO6Y
MA6813400180,h_OCHCTP,13-L1-7,2019-01-23 20:45:00.0,SoPmdAve,3675.95,CHCGILDTO6Y
MA6813400180,h_OCHCTP,13-L1-8,2019-01-23 20:15:00.0,Qmin,8.85,CHCGILDTO6Y
MA6813400180,h_OCHCTP,13-L1-8,2019-01-23 20:15:00.0,PhaseCorrectionAve,8.93e-07,CHCGILDTO6Y
MA6813400180,h_OCHCTP,13-L1-8,2019-01-23 20:15:00.0,BerPreFecMax,0.0028,CHCGILDTO6Y
MA6813400180,h_OCHCTP,13-L1-8,2019-01-23 20:15:00.0,PmdMin,0.497,CHCGILDTO6Y
MA6813400180,h_OCHCTP,13-L1-8,2019-01-23 20:15:00.0,SoPmdAve,3980.33,CHCGILDTO6Y
MA6813400180,h_OCHCTP,13-L1-8,2019-01-23 20:30:00.0,Qmin,8.86,CHCGILDTO6Y
MA6813400180,h_OCHCTP,13-L1-8,2019-01-23 20:30:00.0,PhaseCorrectionAve,-0.122,CHCGILDTO6Y
MA6813400180,h_OCHCTP,13-L1-8,2019-01-23 20:30:00.0,BerPreFecMax,0.00278,CHCGILDTO6Y
MA6813400180,h_OCHCTP,13-L1-8,2019-01-23 20:30:00.0,PmdMin,1.31,CHCGILDTO6Y
MA6813400180,h_OCHCTP,13-L1-8,2019-01-23 20:30:00.0,SoPmdAve,3847.53,CHCGILDTO6Y
MA6813400180,h_OCHCTP,13-L1-8,2019-01-23 20:45:00.0,Qmin,8.86,CHCGILDTO6Y
MA6813400180,h_OCHCTP,13-L1-8,2019-01-23 20:45:00.0,PhaseCorrectionAve,-0.122,CHCGILDTO6Y
MA6813400180,h_OCHCTP,13-L1-8,2019-01-23 20:45:00.0,BerPreFecMax,0.00277,CHCGILDTO6Y
MA6813400180,h_OCHCTP,13-L1-8,2019-01-23 20:45:00.0,PmdMin,0.989,CHCGILDTO6Y
MA6813400180,h_OCHCTP,13-L1-8,2019-01-23 20:45:00.0,SoPmdAve,3892.24,CHCGILDTO6Y
MA6813400180,h_OCHCTP,13-L1-9,2019-01-23 20:15:00.0,Qmin,8.83,CHCGILDTO6Y
MA6813400180,h_OCHCTP,13-L1-9,2019-01-23 20:15:00.0,PhaseCorrectionAve,2.97e-06,CHCGILDTO6Y
MA6813400180,h_OCHCTP,13-L1-9,2019-01-23 20:15:00.0,BerPreFecMax,0.00286,CHCGILDTO6Y
MA6813400180,h_OCHCTP,13-L1-9,2019-01-23 20:15:00.0,PmdMin,1.4,CHCGILDTO6Y
MA6813400180,h_OCHCTP,13-L1-9,2019-01-23 20:15:00.0,SoPmdAve,3476.94,CHCGILDTO6Y
MA6813400180,h_OCHCTP,13-L1-9,2019-01-23 20:30:00.0,Qmin,8.82,CHCGILDTO6Y
MA6813400180,h_OCHCTP,13-L1-9,2019-01-23 20:30:00.0,PhaseCorrectionAve,-0.183,CHCGILDTO6Y
MA6813400180,h_OCHCTP,13-L1-9,2019-01-23 20:30:00.0,BerPreFecMax,0.00288,CHCGILDTO6Y
MA6813400180,h_OCHCTP,13-L1-9,2019-01-23 20:30:00.0,PmdMin,0.0651,CHCGILDTO6Y
MA6813400180,h_OCHCTP,13-L1-9,2019-01-23 20:30:00.0,SoPmdAve,3537.16,CHCGILDTO6Y
MA6813400180,h_OCHCTP,13-L1-9,2019-01-23 20:45:00.0,Qmin,8.84,CHCGILDTO6Y
MA6813400180,h_OCHCTP,13-L1-9,2019-01-23 20:45:00.0,PhaseCorrectionAve,-0.183,CHCGILDTO6Y
MA6813400180,h_OCHCTP,13-L1-9,2019-01-23 20:45:00.0,BerPreFecMax,0.00283,CHCGILDTO6Y
MA6813400180,h_OCHCTP,13-L1-9,2019-01-23 20:45:00.0,PmdMin,0.665,CHCGILDTO6Y
MA6813400180,h_OCHCTP,13-L1-9,2019-01-23 20:45:00.0,SoPmdAve,3528.52,CHCGILDTO6Y
MA6813400180,h_OCHCTP,13-L1-10,2019-01-23 20:15:00.0,Qmin,8.73,CHCGILDTO6Y
MA6813400180,h_OCHCTP,13-L1-10,2019-01-23 20:15:00.0,PhaseCorrectionAve,-0.183,CHCGILDTO6Y
MA6813400180,h_OCHCTP,13-L1-10,2019-01-23 20:15:00.0,BerPreFecMax,0.00315,CHCGILDTO6Y
MA6813400180,h_OCHCTP,13-L1-10,2019-01-23 20:15:00.0,PmdMin,0.971,CHCGILDTO6Y
MA6813400180,h_OCHCTP,13-L1-10,2019-01-23 20:15:00.0,SoPmdAve,3631.11,CHCGILDTO6Y
MA6813400180,h_OCHCTP,13-L1-10,2019-01-23 20:30:00.0,Qmin,8.74,CHCGILDTO6Y
MA6813400180,h_OCHCTP,13-L1-10,2019-01-23 20:30:00.0,PhaseCorrectionAve,-0.183,CHCGILDTO6Y
MA6813400180,h_OCHCTP,13-L1-10,2019-01-23 20:30:00.0,BerPreFecMax,0.00313,CHCGILDTO6Y
MA6813400180,h_OCHCTP,13-L1-10,2019-01-23 20:30:00.0,PmdMin,1.39,CHCGILDTO6Y
MA6813400180,h_OCHCTP,13-L1-10,2019-01-23 20:30:00.0,SoPmdAve,3742.76,CHCGILDTO6Y
MA6813400180,h_OCHCTP,13-L1-10,2019-01-23 20:45:00.0,Qmin,8.77,CHCGILDTO6Y
MA6813400180,h_OCHCTP,13-L1-10,2019-01-23 20:45:00.0,PhaseCorrectionAve,-0.183,CHCGILDTO6Y
MA6813400180,h_OCHCTP,13-L1-10,2019-01-23 20:45:00.0,BerPreFecMax,0.00302,CHCGILDTO6Y
MA6813400180,h_OCHCTP,13-L1-10,2019-01-23 20:45:00.0,PmdMin,0.909,CHCGILDTO6Y
MA6813400180,h_OCHCTP,13-L1-10,2019-01-23 20:45:00.0,SoPmdAve,3820.84,CHCGILDTO6Y
