MA6813400180,h_OCHCTP,10-L1-1,2019-01-25 11:15:00.0,Qmin,9.41,CHCGILDTO6Y
MA6813400180,h_OCHCTP,10-L1-1,2019-01-25 11:15:00.0,PhaseCorrectionAve,-0.0609,CHCGILDTO6Y
MA6813400180,h_OCHCTP,10-L1-1,2019-01-25 11:15:00.0,BerPreFecMax,0.00157,CHCGILDTO6Y
MA6813400180,h_OCHCTP,10-L1-1,2019-01-25 11:15:00.0,PmdMin,0.833,CHCGILDTO6Y
MA6813400180,h_OCHCTP,10-L1-1,2019-01-25 11:15:00.0,SoPmdAve,3275.25,CHCGILDTO6Y
MA6813400180,h_OCHCTP,10-L1-1,2019-01-25 11:30:00.0,Qmin,9.42,CHCGILDTO6Y
MA6813400180,h_OCHCTP,10-L1-1,2019-01-25 11:30:00.0,PhaseCorrectionAve,3.32e-07,CHCGILDTO6Y
MA6813400180,h_OCHCTP,10-L1-1,2019-01-25 11:30:00.0,BerPreFecMax,0.00154,CHCGILDTO6Y
MA6813400180,h_OCHCTP,10-L1-1,2019-01-25 11:30:00.0,PmdMin,2.78,CHCGILDTO6Y
MA6813400180,h_OCHCTP,10-L1-1,2019-01-25 11:30:00.0,SoPmdAve,3323.36,CHCGILDTO6Y
MA6813400180,h_OCHCTP,10-L1-1,2019-01-25 11:45:00.0,Qmin,9.42,CHCGILDTO6Y
MA6813400180,h_OCHCTP,10-L1-1,2019-01-25 11:45:00.0,PhaseCorrectionAve,3.25e-07,CHCGILDTO6Y
MA6813400180,h_OCHCTP,10-L1-1,2019-01-25 11:45:00.0,BerPreFecMax,0.00155,CHCGILDTO6Y
MA6813400180,h_OCHCTP,10-L1-1,2019-01-25 11:45:00.0,PmdMin,3.19,CHCGILDTO6Y
MA6813400180,h_OCHCTP,10-L1-1,2019-01-25 11:45:00.0,SoPmdAve,3301.65,CHCGILDTO6Y
MA6813400180,h_OCHCTP,10-L1-2,2019-01-25 11:15:00.0,Qmin,9.14,CHCGILDTO6Y
MA6813400180,h_OCHCTP,10-L1-2,2019-01-25 11:15:00.0,PhaseCorrectionAve,-0.0609,CHCGILDTO6Y
MA6813400180,h_OCHCTP,10-L1-2,2019-01-25 11:15:00.0,BerPreFecMax,0.0021,CHCGILDTO6Y
MA6813400180,h_OCHCTP,10-L1-2,2019-01-25 11:15:00.0,PmdMin,1.66,CHCGILDTO6Y
MA6813400180,h_OCHCTP,10-L1-2,2019-01-25 11:15:00.0,SoPmdAve,3383.4,CHCGILDTO6Y
MA6813400180,h_OCHCTP,10-L1-2,2019-01-25 11:30:00.0,Qmin,9.13,CHCGILDTO6Y
MA6813400180,h_OCHCTP,10-L1-2,2019-01-25 11:30:00.0,PhaseCorrectionAve,3.07e-07,CHCGILDTO6Y
MA6813400180,h_OCHCTP,10-L1-2,2019-01-25 11:30:00.0,BerPreFecMax,0.0021,CHCGILDTO6Y
MA6813400180,h_OCHCTP,10-L1-2,2019-01-25 11:30:00.0,PmdMin,0.699,CHCGILDTO6Y
MA6813400180,h_OCHCTP,10-L1-2,2019-01-25 11:30:00.0,SoPmdAve,3385.71,CHCGILDTO6Y
MA6813400180,h_OCHCTP,10-L1-2,2019-01-25 11:45:00.0,Qmin,9.12,CHCGILDTO6Y
MA6813400180,h_OCHCTP,10-L1-2,2019-01-25 11:45:00.0,PhaseCorrectionAve,-0.183,CHCGILDTO6Y
MA6813400180,h_OCHCTP,10-L1-2,2019-01-25 11:45:00.0,BerPreFecMax,0.00212,CHCGILDTO6Y
MA6813400180,h_OCHCTP,10-L1-2,2019-01-25 11:45:00.0,PmdMin,0.851,CHCGILDTO6Y
MA6813400180,h_OCHCTP,10-L1-2,2019-01-25 11:45:00.0,SoPmdAve,3374.62,CHCGILDTO6Y
MA6813400180,h_OCHCTP,10-L1-3,2019-01-25 11:15:00.0,Qmin,8.84,CHCGILDTO6Y
MA6813400180,h_OCHCTP,10-L1-3,2019-01-25 11:15:00.0,PhaseCorrectionAve,-0.0609,CHCGILDTO6Y
MA6813400180,h_OCHCTP,10-L1-3,2019-01-25 11:15:00.0,BerPreFecMax,0.00284,CHCGILDTO6Y
MA6813400180,h_OCHCTP,10-L1-3,2019-01-25 11:15:00.0,PmdMin,2.46,CHCGILDTO6Y
MA6813400180,h_OCHCTP,10-L1-3,2019-01-25 11:15:00.0,SoPmdAve,2895.76,CHCGILDTO6Y
MA6813400180,h_OCHCTP,10-L1-3,2019-01-25 11:30:00.0,Qmin,8.83,CHCGILDTO6Y
MA6813400180,h_OCHCTP,10-L1-3,2019-01-25 11:30:00.0,PhaseCorrectionAve,5.53e-07,CHCGILDTO6Y
MA6813400180,h_OCHCTP,10-L1-3,2019-01-25 11:30:00.0,BerPreFecMax,0.00286,CHCGILDTO6Y
MA6813400180,h_OCHCTP,10-L1-3,2019-01-25 11:30:00.0,PmdMin,1.73,CHCGILDTO6Y
MA6813400180,h_OCHCTP,10-L1-3,2019-01-25 11:30:00.0,SoPmdAve,2924.81,CHCGILDTO6Y
MA6813400180,h_OCHCTP,10-L1-3,2019-01-25 11:45:00.0,Qmin,8.83,CHCGILDTO6Y
MA6813400180,h_OCHCTP,10-L1-3,2019-01-25 11:45:00.0,PhaseCorrectionAve,-0.244,CHCGILDTO6Y
MA6813400180,h_OCHCTP,10-L1-3,2019-01-25 11:45:00.0,BerPreFecMax,0.00285,CHCGILDTO6Y
MA6813400180,h_OCHCTP,10-L1-3,2019-01-25 11:45:00.0,PmdMin,1.28,CHCGILDTO6Y
MA6813400180,h_OCHCTP,10-L1-3,2019-01-25 11:45:00.0,SoPmdAve,2899.9,CHCGILDTO6Y
MA6813400180,h_OCHCTP,10-L1-4,2019-01-25 11:15:00.0,Qmin,8.22,CHCGILDTO6Y
MA6813400180,h_OCHCTP,10-L1-4,2019-01-25 11:15:00.0,PhaseCorrectionAve,-0.0609,CHCGILDTO6Y
MA6813400180,h_OCHCTP,10-L1-4,2019-01-25 11:15:00.0,BerPreFecMax,0.00498,CHCGILDTO6Y
MA6813400180,h_OCHCTP,10-L1-4,2019-01-25 11:15:00.0,PmdMin,1.74,CHCGILDTO6Y
MA6813400180,h_OCHCTP,10-L1-4,2019-01-25 11:15:00.0,SoPmdAve,3138.48,CHCGILDTO6Y
MA6813400180,h_OCHCTP,10-L1-4,2019-01-25 11:30:00.0,Qmin,8.21,CHCGILDTO6Y
MA6813400180,h_OCHCTP,10-L1-4,2019-01-25 11:30:00.0,PhaseCorrectionAve,-0.061,CHCGILDTO6Y
MA6813400180,h_OCHCTP,10-L1-4,2019-01-25 11:30:00.0,BerPreFecMax,0.00504,CHCGILDTO6Y
MA6813400180,h_OCHCTP,10-L1-4,2019-01-25 11:30:00.0,PmdMin,1.29,CHCGILDTO6Y
MA6813400180,h_OCHCTP,10-L1-4,2019-01-25 11:30:00.0,SoPmdAve,3124.45,CHCGILDTO6Y
MA6813400180,h_OCHCTP,10-L1-4,2019-01-25 11:45:00.0,Qmin,8.23,CHCGILDTO6Y
MA6813400180,h_OCHCTP,10-L1-4,2019-01-25 11:45:00.0,PhaseCorrectionAve,-0.244,CHCGILDTO6Y
MA6813400180,h_OCHCTP,10-L1-4,2019-01-25 11:45:00.0,BerPreFecMax,0.00496,CHCGILDTO6Y
MA6813400180,h_OCHCTP,10-L1-4,2019-01-25 11:45:00.0,PmdMin,0.906,CHCGILDTO6Y
MA6813400180,h_OCHCTP,10-L1-4,2019-01-25 11:45:00.0,SoPmdAve,3094.78,CHCGILDTO6Y
MA6813400180,h_OCHCTP,10-L1-5,2019-01-25 11:15:00.0,Qmin,8.43,CHCGILDTO6Y
MA6813400180,h_OCHCTP,10-L1-5,2019-01-25 11:15:00.0,PhaseCorrectionAve,-0.0609,CHCGILDTO6Y
MA6813400180,h_OCHCTP,10-L1-5,2019-01-25 11:15:00.0,BerPreFecMax,0.00417,CHCGILDTO6Y
MA6813400180,h_OCHCTP,10-L1-5,2019-01-25 11:15:00.0,PmdMin,1.28,CHCGILDTO6Y
MA6813400180,h_OCHCTP,10-L1-5,2019-01-25 11:15:00.0,SoPmdAve,2871.99,CHCGILDTO6Y
MA6813400180,h_OCHCTP,10-L1-5,2019-01-25 11:30:00.0,Qmin,8.4,CHCGILDTO6Y
MA6813400180,h_OCHCTP,10-L1-5,2019-01-25 11:30:00.0,PhaseCorrectionAve,-0.122,CHCGILDTO6Y
MA6813400180,h_OCHCTP,10-L1-5,2019-01-25 11:30:00.0,BerPreFecMax,0.00425,CHCGILDTO6Y
MA6813400180,h_OCHCTP,10-L1-5,2019-01-25 11:30:00.0,PmdMin,1.09,CHCGILDTO6Y
MA6813400180,h_OCHCTP,10-L1-5,2019-01-25 11:30:00.0,SoPmdAve,2923.13,CHCGILDTO6Y
MA6813400180,h_OCHCTP,10-L1-5,2019-01-25 11:45:00.0,Qmin,8.42,CHCGILDTO6Y
MA6813400180,h_OCHCTP,10-L1-5,2019-01-25 11:45:00.0,PhaseCorrectionAve,-0.244,CHCGILDTO6Y
MA6813400180,h_OCHCTP,10-L1-5,2019-01-25 11:45:00.0,BerPreFecMax,0.00419,CHCGILDTO6Y
MA6813400180,h_OCHCTP,10-L1-5,2019-01-25 11:45:00.0,PmdMin,1.95,CHCGILDTO6Y
MA6813400180,h_OCHCTP,10-L1-5,2019-01-25 11:45:00.0,SoPmdAve,2949.85,CHCGILDTO6Y
MA6813400180,h_OCHCTP,10-L1-6,2019-01-25 11:15:00.0,Qmin,8.65,CHCGILDTO6Y
MA6813400180,h_OCHCTP,10-L1-6,2019-01-25 11:15:00.0,PhaseCorrectionAve,-0.0609,CHCGILDTO6Y
MA6813400180,h_OCHCTP,10-L1-6,2019-01-25 11:15:00.0,BerPreFecMax,0.00338,CHCGILDTO6Y
MA6813400180,h_OCHCTP,10-L1-6,2019-01-25 11:15:00.0,PmdMin,5.86,CHCGILDTO6Y
MA6813400180,h_OCHCTP,10-L1-6,2019-01-25 11:15:00.0,SoPmdAve,2835.94,CHCGILDTO6Y
MA6813400180,h_OCHCTP,10-L1-6,2019-01-25 11:30:00.0,Qmin,8.65,CHCGILDTO6Y
MA6813400180,h_OCHCTP,10-L1-6,2019-01-25 11:30:00.0,PhaseCorrectionAve,-0.122,CHCGILDTO6Y
MA6813400180,h_OCHCTP,10-L1-6,2019-01-25 11:30:00.0,BerPreFecMax,0.00339,CHCGILDTO6Y
MA6813400180,h_OCHCTP,10-L1-6,2019-01-25 11:30:00.0,PmdMin,5.04,CHCGILDTO6Y
MA6813400180,h_OCHCTP,10-L1-6,2019-01-25 11:30:00.0,SoPmdAve,2796.94,CHCGILDTO6Y
MA6813400180,h_OCHCTP,10-L1-6,2019-01-25 11:45:00.0,Qmin,8.65,CHCGILDTO6Y
MA6813400180,h_OCHCTP,10-L1-6,2019-01-25 11:45:00.0,PhaseCorrectionAve,-0.244,CHCGILDTO6Y
MA6813400180,h_OCHCTP,10-L1-6,2019-01-25 11:45:00.0,BerPreFecMax,0.00339,CHCGILDTO6Y
MA6813400180,h_OCHCTP,10-L1-6,2019-01-25 11:45:00.0,PmdMin,2.84,CHCGILDTO6Y
MA6813400180,h_OCHCTP,10-L1-6,2019-01-25 11:45:00.0,SoPmdAve,2867.52,CHCGILDTO6Y
MA6813400180,h_OCHCTP,10-L1-7,2019-01-25 11:15:00.0,Qmin,8.77,CHCGILDTO6Y
MA6813400180,h_OCHCTP,10-L1-7,2019-01-25 11:15:00.0,PhaseCorrectionAve,-0.0609,CHCGILDTO6Y
MA6813400180,h_OCHCTP,10-L1-7,2019-01-25 11:15:00.0,BerPreFecMax,0.00303,CHCGILDTO6Y
MA6813400180,h_OCHCTP,10-L1-7,2019-01-25 11:15:00.0,PmdMin,2.92,CHCGILDTO6Y
MA6813400180,h_OCHCTP,10-L1-7,2019-01-25 11:15:00.0,SoPmdAve,3397.4,CHCGILDTO6Y
MA6813400180,h_OCHCTP,10-L1-7,2019-01-25 11:30:00.0,Qmin,8.77,CHCGILDTO6Y
MA6813400180,h_OCHCTP,10-L1-7,2019-01-25 11:30:00.0,PhaseCorrectionAve,-0.122,CHCGILDTO6Y
MA6813400180,h_OCHCTP,10-L1-7,2019-01-25 11:30:00.0,BerPreFecMax,0.00304,CHCGILDTO6Y
MA6813400180,h_OCHCTP,10-L1-7,2019-01-25 11:30:00.0,PmdMin,2.97,CHCGILDTO6Y
MA6813400180,h_OCHCTP,10-L1-7,2019-01-25 11:30:00.0,SoPmdAve,3421.64,CHCGILDTO6Y
MA6813400180,h_OCHCTP,10-L1-7,2019-01-25 11:45:00.0,Qmin,8.77,CHCGILDTO6Y
MA6813400180,h_OCHCTP,10-L1-7,2019-01-25 11:45:00.0,PhaseCorrectionAve,-0.244,CHCGILDTO6Y
MA6813400180,h_OCHCTP,10-L1-7,2019-01-25 11:45:00.0,BerPreFecMax,0.00303,CHCGILDTO6Y
MA6813400180,h_OCHCTP,10-L1-7,2019-01-25 11:45:00.0,PmdMin,1.94,CHCGILDTO6Y
MA6813400180,h_OCHCTP,10-L1-7,2019-01-25 11:45:00.0,SoPmdAve,3381.7,CHCGILDTO6Y
MA6813400180,h_OCHCTP,10-L1-8,2019-01-25 11:15:00.0,Qmin,9.31,CHCGILDTO6Y
MA6813400180,h_OCHCTP,10-L1-8,2019-01-25 11:15:00.0,PhaseCorrectionAve,-0.122,CHCGILDTO6Y
MA6813400180,h_OCHCTP,10-L1-8,2019-01-25 11:15:00.0,BerPreFecMax,0.00174,CHCGILDTO6Y
MA6813400180,h_OCHCTP,10-L1-8,2019-01-25 11:15:00.0,PmdMin,1.8,CHCGILDTO6Y
MA6813400180,h_OCHCTP,10-L1-8,2019-01-25 11:15:00.0,SoPmdAve,3439.06,CHCGILDTO6Y
MA6813400180,h_OCHCTP,10-L1-8,2019-01-25 11:30:00.0,Qmin,9.31,CHCGILDTO6Y
MA6813400180,h_OCHCTP,10-L1-8,2019-01-25 11:30:00.0,PhaseCorrectionAve,-0.183,CHCGILDTO6Y
MA6813400180,h_OCHCTP,10-L1-8,2019-01-25 11:30:00.0,BerPreFecMax,0.00174,CHCGILDTO6Y
MA6813400180,h_OCHCTP,10-L1-8,2019-01-25 11:30:00.0,PmdMin,0.359,CHCGILDTO6Y
MA6813400180,h_OCHCTP,10-L1-8,2019-01-25 11:30:00.0,SoPmdAve,3342.76,CHCGILDTO6Y
MA6813400180,h_OCHCTP,10-L1-8,2019-01-25 11:45:00.0,Qmin,9.31,CHCGILDTO6Y
MA6813400180,h_OCHCTP,10-L1-8,2019-01-25 11:45:00.0,PhaseCorrectionAve,-0.244,CHCGILDTO6Y
MA6813400180,h_OCHCTP,10-L1-8,2019-01-25 11:45:00.0,BerPreFecMax,0.00175,CHCGILDTO6Y
MA6813400180,h_OCHCTP,10-L1-8,2019-01-25 11:45:00.0,PmdMin,1.93,CHCGILDTO6Y
MA6813400180,h_OCHCTP,10-L1-8,2019-01-25 11:45:00.0,SoPmdAve,3453.21,CHCGILDTO6Y
MA6813400180,h_OCHCTP,10-L1-9,2019-01-25 11:15:00.0,Qmin,9.35,CHCGILDTO6Y
MA6813400180,h_OCHCTP,10-L1-9,2019-01-25 11:15:00.0,PhaseCorrectionAve,-0.122,CHCGILDTO6Y
MA6813400180,h_OCHCTP,10-L1-9,2019-01-25 11:15:00.0,BerPreFecMax,0.00168,CHCGILDTO6Y
MA6813400180,h_OCHCTP,10-L1-9,2019-01-25 11:15:00.0,PmdMin,0.932,CHCGILDTO6Y
MA6813400180,h_OCHCTP,10-L1-9,2019-01-25 11:15:00.0,SoPmdAve,3380.4,CHCGILDTO6Y
MA6813400180,h_OCHCTP,10-L1-9,2019-01-25 11:30:00.0,Qmin,9.35,CHCGILDTO6Y
MA6813400180,h_OCHCTP,10-L1-9,2019-01-25 11:30:00.0,PhaseCorrectionAve,-0.183,CHCGILDTO6Y
MA6813400180,h_OCHCTP,10-L1-9,2019-01-25 11:30:00.0,BerPreFecMax,0.00167,CHCGILDTO6Y
MA6813400180,h_OCHCTP,10-L1-9,2019-01-25 11:30:00.0,PmdMin,0.349,CHCGILDTO6Y
MA6813400180,h_OCHCTP,10-L1-9,2019-01-25 11:30:00.0,SoPmdAve,3292.46,CHCGILDTO6Y
MA6813400180,h_OCHCTP,10-L1-9,2019-01-25 11:45:00.0,Qmin,9.36,CHCGILDTO6Y
MA6813400180,h_OCHCTP,10-L1-9,2019-01-25 11:45:00.0,PhaseCorrectionAve,-0.305,CHCGILDTO6Y
MA6813400180,h_OCHCTP,10-L1-9,2019-01-25 11:45:00.0,BerPreFecMax,0.00165,CHCGILDTO6Y
MA6813400180,h_OCHCTP,10-L1-9,2019-01-25 11:45:00.0,PmdMin,0.454,CHCGILDTO6Y
MA6813400180,h_OCHCTP,10-L1-9,2019-01-25 11:45:00.0,SoPmdAve,3387.62,CHCGILDTO6Y
MA6813400180,h_OCHCTP,10-L1-10,2019-01-25 11:15:00.0,Qmin,9.38,CHCGILDTO6Y
MA6813400180,h_OCHCTP,10-L1-10,2019-01-25 11:15:00.0,PhaseCorrectionAve,-0.122,CHCGILDTO6Y
MA6813400180,h_OCHCTP,10-L1-10,2019-01-25 11:15:00.0,BerPreFecMax,0.00162,CHCGILDTO6Y
MA6813400180,h_OCHCTP,10-L1-10,2019-01-25 11:15:00.0,PmdMin,2.85,CHCGILDTO6Y
MA6813400180,h_OCHCTP,10-L1-10,2019-01-25 11:15:00.0,SoPmdAve,3180.14,CHCGILDTO6Y
MA6813400180,h_OCHCTP,10-L1-10,2019-01-25 11:30:00.0,Qmin,9.38,CHCGILDTO6Y
MA6813400180,h_OCHCTP,10-L1-10,2019-01-25 11:30:00.0,PhaseCorrectionAve,-0.183,CHCGILDTO6Y
MA6813400180,h_OCHCTP,10-L1-10,2019-01-25 11:30:00.0,BerPreFecMax,0.00162,CHCGILDTO6Y
MA6813400180,h_OCHCTP,10-L1-10,2019-01-25 11:30:00.0,PmdMin,5.0,CHCGILDTO6Y
MA6813400180,h_OCHCTP,10-L1-10,2019-01-25 11:30:00.0,SoPmdAve,3258.84,CHCGILDTO6Y
MA6813400180,h_OCHCTP,10-L1-10,2019-01-25 11:45:00.0,Qmin,9.38,CHCGILDTO6Y
MA6813400180,h_OCHCTP,10-L1-10,2019-01-25 11:45:00.0,PhaseCorrectionAve,-0.305,CHCGILDTO6Y
MA6813400180,h_OCHCTP,10-L1-10,2019-01-25 11:45:00.0,BerPreFecMax,0.00161,CHCGILDTO6Y
MA6813400180,h_OCHCTP,10-L1-10,2019-01-25 11:45:00.0,PmdMin,4.15,CHCGILDTO6Y
MA6813400180,h_OCHCTP,10-L1-10,2019-01-25 11:45:00.0,SoPmdAve,3236.01,CHCGILDTO6Y
MA6813400180,h_OCHCTP,11-L1-1,2019-01-25 11:15:00.0,Qmin,9.18,CHCGILDTO6Y
MA6813400180,h_OCHCTP,11-L1-1,2019-01-25 11:15:00.0,PhaseCorrectionAve,1.12e-07,CHCGILDTO6Y
MA6813400180,h_OCHCTP,11-L1-1,2019-01-25 11:15:00.0,BerPreFecMax,0.00201,CHCGILDTO6Y
MA6813400180,h_OCHCTP,11-L1-1,2019-01-25 11:15:00.0,PmdMin,1.3,CHCGILDTO6Y
MA6813400180,h_OCHCTP,11-L1-1,2019-01-25 11:15:00.0,SoPmdAve,3455.43,CHCGILDTO6Y
MA6813400180,h_OCHCTP,11-L1-1,2019-01-25 11:30:00.0,Qmin,9.13,CHCGILDTO6Y
MA6813400180,h_OCHCTP,11-L1-1,2019-01-25 11:30:00.0,PhaseCorrectionAve,-0.0609,CHCGILDTO6Y
MA6813400180,h_OCHCTP,11-L1-1,2019-01-25 11:30:00.0,BerPreFecMax,0.00212,CHCGILDTO6Y
MA6813400180,h_OCHCTP,11-L1-1,2019-01-25 11:30:00.0,PmdMin,0.88,CHCGILDTO6Y
MA6813400180,h_OCHCTP,11-L1-1,2019-01-25 11:30:00.0,SoPmdAve,3336.88,CHCGILDTO6Y
MA6813400180,h_OCHCTP,11-L1-1,2019-01-25 11:45:00.0,Qmin,9.19,CHCGILDTO6Y
MA6813400180,h_OCHCTP,11-L1-1,2019-01-25 11:45:00.0,PhaseCorrectionAve,1.01e-07,CHCGILDTO6Y
MA6813400180,h_OCHCTP,11-L1-1,2019-01-25 11:45:00.0,BerPreFecMax,0.00199,CHCGILDTO6Y
MA6813400180,h_OCHCTP,11-L1-1,2019-01-25 11:45:00.0,PmdMin,1.11,CHCGILDTO6Y
MA6813400180,h_OCHCTP,11-L1-1,2019-01-25 11:45:00.0,SoPmdAve,3395.56,CHCGILDTO6Y
MA6813400180,h_OCHCTP,11-L1-2,2019-01-25 11:15:00.0,Qmin,9.07,CHCGILDTO6Y
MA6813400180,h_OCHCTP,11-L1-2,2019-01-25 11:15:00.0,PhaseCorrectionAve,-0.0611,CHCGILDTO6Y
MA6813400180,h_OCHCTP,11-L1-2,2019-01-25 11:15:00.0,BerPreFecMax,0.00225,CHCGILDTO6Y
MA6813400180,h_OCHCTP,11-L1-2,2019-01-25 11:15:00.0,PmdMin,0.505,CHCGILDTO6Y
MA6813400180,h_OCHCTP,11-L1-2,2019-01-25 11:15:00.0,SoPmdAve,3171.69,CHCGILDTO6Y
MA6813400180,h_OCHCTP,11-L1-2,2019-01-25 11:30:00.0,Qmin,9.05,CHCGILDTO6Y
MA6813400180,h_OCHCTP,11-L1-2,2019-01-25 11:30:00.0,PhaseCorrectionAve,-0.0609,CHCGILDTO6Y
MA6813400180,h_OCHCTP,11-L1-2,2019-01-25 11:30:00.0,BerPreFecMax,0.0023,CHCGILDTO6Y
MA6813400180,h_OCHCTP,11-L1-2,2019-01-25 11:30:00.0,PmdMin,0.647,CHCGILDTO6Y
MA6813400180,h_OCHCTP,11-L1-2,2019-01-25 11:30:00.0,SoPmdAve,3210.75,CHCGILDTO6Y
MA6813400180,h_OCHCTP,11-L1-2,2019-01-25 11:45:00.0,Qmin,9.1,CHCGILDTO6Y
MA6813400180,h_OCHCTP,11-L1-2,2019-01-25 11:45:00.0,PhaseCorrectionAve,2.74e-07,CHCGILDTO6Y
MA6813400180,h_OCHCTP,11-L1-2,2019-01-25 11:45:00.0,BerPreFecMax,0.00218,CHCGILDTO6Y
MA6813400180,h_OCHCTP,11-L1-2,2019-01-25 11:45:00.0,PmdMin,0.553,CHCGILDTO6Y
MA6813400180,h_OCHCTP,11-L1-2,2019-01-25 11:45:00.0,SoPmdAve,3239.99,CHCGILDTO6Y
MA6813400180,h_OCHCTP,11-L1-3,2019-01-25 11:15:00.0,Qmin,8.91,CHCGILDTO6Y
MA6813400180,h_OCHCTP,11-L1-3,2019-01-25 11:15:00.0,PhaseCorrectionAve,-0.0611,CHCGILDTO6Y
MA6813400180,h_OCHCTP,11-L1-3,2019-01-25 11:15:00.0,BerPreFecMax,0.00263,CHCGILDTO6Y
MA6813400180,h_OCHCTP,11-L1-3,2019-01-25 11:15:00.0,PmdMin,0.177,CHCGILDTO6Y
MA6813400180,h_OCHCTP,11-L1-3,2019-01-25 11:15:00.0,SoPmdAve,2726.47,CHCGILDTO6Y
MA6813400180,h_OCHCTP,11-L1-3,2019-01-25 11:30:00.0,Qmin,8.96,CHCGILDTO6Y
MA6813400180,h_OCHCTP,11-L1-3,2019-01-25 11:30:00.0,PhaseCorrectionAve,-0.122,CHCGILDTO6Y
MA6813400180,h_OCHCTP,11-L1-3,2019-01-25 11:30:00.0,BerPreFecMax,0.00251,CHCGILDTO6Y
MA6813400180,h_OCHCTP,11-L1-3,2019-01-25 11:30:00.0,PmdMin,1.18,CHCGILDTO6Y
MA6813400180,h_OCHCTP,11-L1-3,2019-01-25 11:30:00.0,SoPmdAve,2758.79,CHCGILDTO6Y
MA6813400180,h_OCHCTP,11-L1-3,2019-01-25 11:45:00.0,Qmin,8.96,CHCGILDTO6Y
MA6813400180,h_OCHCTP,11-L1-3,2019-01-25 11:45:00.0,PhaseCorrectionAve,3.21e-07,CHCGILDTO6Y
MA6813400180,h_OCHCTP,11-L1-3,2019-01-25 11:45:00.0,BerPreFecMax,0.00251,CHCGILDTO6Y
MA6813400180,h_OCHCTP,11-L1-3,2019-01-25 11:45:00.0,PmdMin,0.556,CHCGILDTO6Y
MA6813400180,h_OCHCTP,11-L1-3,2019-01-25 11:45:00.0,SoPmdAve,2775.46,CHCGILDTO6Y
MA6813400180,h_OCHCTP,11-L1-4,2019-01-25 11:15:00.0,Qmin,8.71,CHCGILDTO6Y
MA6813400180,h_OCHCTP,11-L1-4,2019-01-25 11:15:00.0,PhaseCorrectionAve,-0.122,CHCGILDTO6Y
MA6813400180,h_OCHCTP,11-L1-4,2019-01-25 11:15:00.0,BerPreFecMax,0.0032,CHCGILDTO6Y
MA6813400180,h_OCHCTP,11-L1-4,2019-01-25 11:15:00.0,PmdMin,0.904,CHCGILDTO6Y
MA6813400180,h_OCHCTP,11-L1-4,2019-01-25 11:15:00.0,SoPmdAve,3072.74,CHCGILDTO6Y
MA6813400180,h_OCHCTP,11-L1-4,2019-01-25 11:30:00.0,Qmin,8.73,CHCGILDTO6Y
MA6813400180,h_OCHCTP,11-L1-4,2019-01-25 11:30:00.0,PhaseCorrectionAve,-0.122,CHCGILDTO6Y
MA6813400180,h_OCHCTP,11-L1-4,2019-01-25 11:30:00.0,BerPreFecMax,0.00315,CHCGILDTO6Y
MA6813400180,h_OCHCTP,11-L1-4,2019-01-25 11:30:00.0,PmdMin,1.32,CHCGILDTO6Y
MA6813400180,h_OCHCTP,11-L1-4,2019-01-25 11:30:00.0,SoPmdAve,2957.09,CHCGILDTO6Y
MA6813400180,h_OCHCTP,11-L1-4,2019-01-25 11:45:00.0,Qmin,8.7,CHCGILDTO6Y
MA6813400180,h_OCHCTP,11-L1-4,2019-01-25 11:45:00.0,PhaseCorrectionAve,5.07e-07,CHCGILDTO6Y
MA6813400180,h_OCHCTP,11-L1-4,2019-01-25 11:45:00.0,BerPreFecMax,0.00325,CHCGILDTO6Y
MA6813400180,h_OCHCTP,11-L1-4,2019-01-25 11:45:00.0,PmdMin,0.44,CHCGILDTO6Y
MA6813400180,h_OCHCTP,11-L1-4,2019-01-25 11:45:00.0,SoPmdAve,2913.45,CHCGILDTO6Y
MA6813400180,h_OCHCTP,11-L1-5,2019-01-25 11:15:00.0,Qmin,8.85,CHCGILDTO6Y
MA6813400180,h_OCHCTP,11-L1-5,2019-01-25 11:15:00.0,PhaseCorrectionAve,-0.122,CHCGILDTO6Y
MA6813400180,h_OCHCTP,11-L1-5,2019-01-25 11:15:00.0,BerPreFecMax,0.0028,CHCGILDTO6Y
MA6813400180,h_OCHCTP,11-L1-5,2019-01-25 11:15:00.0,PmdMin,0.614,CHCGILDTO6Y
MA6813400180,h_OCHCTP,11-L1-5,2019-01-25 11:15:00.0,SoPmdAve,2581.98,CHCGILDTO6Y
MA6813400180,h_OCHCTP,11-L1-5,2019-01-25 11:30:00.0,Qmin,8.84,CHCGILDTO6Y
MA6813400180,h_OCHCTP,11-L1-5,2019-01-25 11:30:00.0,PhaseCorrectionAve,-0.122,CHCGILDTO6Y
MA6813400180,h_OCHCTP,11-L1-5,2019-01-25 11:30:00.0,BerPreFecMax,0.00283,CHCGILDTO6Y
MA6813400180,h_OCHCTP,11-L1-5,2019-01-25 11:30:00.0,PmdMin,0.937,CHCGILDTO6Y
MA6813400180,h_OCHCTP,11-L1-5,2019-01-25 11:30:00.0,SoPmdAve,2497.42,CHCGILDTO6Y
MA6813400180,h_OCHCTP,11-L1-5,2019-01-25 11:45:00.0,Qmin,8.8,CHCGILDTO6Y
MA6813400180,h_OCHCTP,11-L1-5,2019-01-25 11:45:00.0,PhaseCorrectionAve,-0.061,CHCGILDTO6Y
MA6813400180,h_OCHCTP,11-L1-5,2019-01-25 11:45:00.0,BerPreFecMax,0.00294,CHCGILDTO6Y
MA6813400180,h_OCHCTP,11-L1-5,2019-01-25 11:45:00.0,PmdMin,1.09,CHCGILDTO6Y
MA6813400180,h_OCHCTP,11-L1-5,2019-01-25 11:45:00.0,SoPmdAve,2503.6,CHCGILDTO6Y
MA6813400180,h_OCHCTP,11-L1-6,2019-01-25 11:15:00.0,Qmin,8.78,CHCGILDTO6Y
MA6813400180,h_OCHCTP,11-L1-6,2019-01-25 11:15:00.0,PhaseCorrectionAve,-0.122,CHCGILDTO6Y
MA6813400180,h_OCHCTP,11-L1-6,2019-01-25 11:15:00.0,BerPreFecMax,0.00298,CHCGILDTO6Y
MA6813400180,h_OCHCTP,11-L1-6,2019-01-25 11:15:00.0,PmdMin,0.962,CHCGILDTO6Y
MA6813400180,h_OCHCTP,11-L1-6,2019-01-25 11:15:00.0,SoPmdAve,2472.77,CHCGILDTO6Y
MA6813400180,h_OCHCTP,11-L1-6,2019-01-25 11:30:00.0,Qmin,8.74,CHCGILDTO6Y
MA6813400180,h_OCHCTP,11-L1-6,2019-01-25 11:30:00.0,PhaseCorrectionAve,-0.122,CHCGILDTO6Y
MA6813400180,h_OCHCTP,11-L1-6,2019-01-25 11:30:00.0,BerPreFecMax,0.00311,CHCGILDTO6Y
MA6813400180,h_OCHCTP,11-L1-6,2019-01-25 11:30:00.0,PmdMin,0.578,CHCGILDTO6Y
MA6813400180,h_OCHCTP,11-L1-6,2019-01-25 11:30:00.0,SoPmdAve,2475.17,CHCGILDTO6Y
MA6813400180,h_OCHCTP,11-L1-6,2019-01-25 11:45:00.0,Qmin,8.76,CHCGILDTO6Y
MA6813400180,h_OCHCTP,11-L1-6,2019-01-25 11:45:00.0,PhaseCorrectionAve,-0.061,CHCGILDTO6Y
MA6813400180,h_OCHCTP,11-L1-6,2019-01-25 11:45:00.0,BerPreFecMax,0.00307,CHCGILDTO6Y
MA6813400180,h_OCHCTP,11-L1-6,2019-01-25 11:45:00.0,PmdMin,1.37,CHCGILDTO6Y
MA6813400180,h_OCHCTP,11-L1-6,2019-01-25 11:45:00.0,SoPmdAve,2458.11,CHCGILDTO6Y
MA6813400180,h_OCHCTP,11-L1-7,2019-01-25 11:15:00.0,Qmin,8.84,CHCGILDTO6Y
MA6813400180,h_OCHCTP,11-L1-7,2019-01-25 11:15:00.0,PhaseCorrectionAve,-0.122,CHCGILDTO6Y
MA6813400180,h_OCHCTP,11-L1-7,2019-01-25 11:15:00.0,BerPreFecMax,0.00283,CHCGILDTO6Y
MA6813400180,h_OCHCTP,11-L1-7,2019-01-25 11:15:00.0,PmdMin,0.968,CHCGILDTO6Y
MA6813400180,h_OCHCTP,11-L1-7,2019-01-25 11:15:00.0,SoPmdAve,3035.64,CHCGILDTO6Y
MA6813400180,h_OCHCTP,11-L1-7,2019-01-25 11:30:00.0,Qmin,8.83,CHCGILDTO6Y
MA6813400180,h_OCHCTP,11-L1-7,2019-01-25 11:30:00.0,PhaseCorrectionAve,-0.122,CHCGILDTO6Y
MA6813400180,h_OCHCTP,11-L1-7,2019-01-25 11:30:00.0,BerPreFecMax,0.00286,CHCGILDTO6Y
MA6813400180,h_OCHCTP,11-L1-7,2019-01-25 11:30:00.0,PmdMin,1.1,CHCGILDTO6Y
MA6813400180,h_OCHCTP,11-L1-7,2019-01-25 11:30:00.0,SoPmdAve,2991.95,CHCGILDTO6Y
MA6813400180,h_OCHCTP,11-L1-7,2019-01-25 11:45:00.0,Qmin,8.82,CHCGILDTO6Y
MA6813400180,h_OCHCTP,11-L1-7,2019-01-25 11:45:00.0,PhaseCorrectionAve,-0.061,CHCGILDTO6Y
MA6813400180,h_OCHCTP,11-L1-7,2019-01-25 11:45:00.0,BerPreFecMax,0.00288,CHCGILDTO6Y
MA6813400180,h_OCHCTP,11-L1-7,2019-01-25 11:45:00.0,PmdMin,1.77,CHCGILDTO6Y
MA6813400180,h_OCHCTP,11-L1-7,2019-01-25 11:45:00.0,SoPmdAve,2991.26,CHCGILDTO6Y
MA6813400180,h_OCHCTP,11-L1-8,2019-01-25 11:15:00.0,Qmin,8.93,CHCGILDTO6Y
MA6813400180,h_OCHCTP,11-L1-8,2019-01-25 11:15:00.0,PhaseCorrectionAve,-0.183,CHCGILDTO6Y
MA6813400180,h_OCHCTP,11-L1-8,2019-01-25 11:15:00.0,BerPreFecMax,0.00259,CHCGILDTO6Y
MA6813400180,h_OCHCTP,11-L1-8,2019-01-25 11:15:00.0,PmdMin,0.0795,CHCGILDTO6Y
MA6813400180,h_OCHCTP,11-L1-8,2019-01-25 11:15:00.0,SoPmdAve,3081.13,CHCGILDTO6Y
MA6813400180,h_OCHCTP,11-L1-8,2019-01-25 11:30:00.0,Qmin,8.88,CHCGILDTO6Y
MA6813400180,h_OCHCTP,11-L1-8,2019-01-25 11:30:00.0,PhaseCorrectionAve,-0.122,CHCGILDTO6Y
MA6813400180,h_OCHCTP,11-L1-8,2019-01-25 11:30:00.0,BerPreFecMax,0.00273,CHCGILDTO6Y
MA6813400180,h_OCHCTP,11-L1-8,2019-01-25 11:30:00.0,PmdMin,0.633,CHCGILDTO6Y
MA6813400180,h_OCHCTP,11-L1-8,2019-01-25 11:30:00.0,SoPmdAve,3140.17,CHCGILDTO6Y
MA6813400180,h_OCHCTP,11-L1-8,2019-01-25 11:45:00.0,Qmin,8.94,CHCGILDTO6Y
MA6813400180,h_OCHCTP,11-L1-8,2019-01-25 11:45:00.0,PhaseCorrectionAve,-0.061,CHCGILDTO6Y
MA6813400180,h_OCHCTP,11-L1-8,2019-01-25 11:45:00.0,BerPreFecMax,0.00258,CHCGILDTO6Y
MA6813400180,h_OCHCTP,11-L1-8,2019-01-25 11:45:00.0,PmdMin,0.386,CHCGILDTO6Y
MA6813400180,h_OCHCTP,11-L1-8,2019-01-25 11:45:00.0,SoPmdAve,3102.4,CHCGILDTO6Y
MA6813400180,h_OCHCTP,11-L1-9,2019-01-25 11:15:00.0,Qmin,8.79,CHCGILDTO6Y
MA6813400180,h_OCHCTP,11-L1-9,2019-01-25 11:15:00.0,PhaseCorrectionAve,-0.183,CHCGILDTO6Y
MA6813400180,h_OCHCTP,11-L1-9,2019-01-25 11:15:00.0,BerPreFecMax,0.00297,CHCGILDTO6Y
MA6813400180,h_OCHCTP,11-L1-9,2019-01-25 11:15:00.0,PmdMin,0.69,CHCGILDTO6Y
MA6813400180,h_OCHCTP,11-L1-9,2019-01-25 11:15:00.0,SoPmdAve,3086.82,CHCGILDTO6Y
MA6813400180,h_OCHCTP,11-L1-9,2019-01-25 11:30:00.0,Qmin,8.79,CHCGILDTO6Y
MA6813400180,h_OCHCTP,11-L1-9,2019-01-25 11:30:00.0,PhaseCorrectionAve,-0.122,CHCGILDTO6Y
MA6813400180,h_OCHCTP,11-L1-9,2019-01-25 11:30:00.0,BerPreFecMax,0.00298,CHCGILDTO6Y
MA6813400180,h_OCHCTP,11-L1-9,2019-01-25 11:30:00.0,PmdMin,0.355,CHCGILDTO6Y
MA6813400180,h_OCHCTP,11-L1-9,2019-01-25 11:30:00.0,SoPmdAve,3080.61,CHCGILDTO6Y
MA6813400180,h_OCHCTP,11-L1-9,2019-01-25 11:45:00.0,Qmin,8.86,CHCGILDTO6Y
MA6813400180,h_OCHCTP,11-L1-9,2019-01-25 11:45:00.0,PhaseCorrectionAve,-0.061,CHCGILDTO6Y
MA6813400180,h_OCHCTP,11-L1-9,2019-01-25 11:45:00.0,BerPreFecMax,0.00279,CHCGILDTO6Y
MA6813400180,h_OCHCTP,11-L1-9,2019-01-25 11:45:00.0,PmdMin,1.08,CHCGILDTO6Y
MA6813400180,h_OCHCTP,11-L1-9,2019-01-25 11:45:00.0,SoPmdAve,3081.08,CHCGILDTO6Y
MA6813400180,h_OCHCTP,11-L1-10,2019-01-25 11:15:00.0,Qmin,8.94,CHCGILDTO6Y
MA6813400180,h_OCHCTP,11-L1-10,2019-01-25 11:15:00.0,PhaseCorrectionAve,-0.183,CHCGILDTO6Y
MA6813400180,h_OCHCTP,11-L1-10,2019-01-25 11:15:00.0,BerPreFecMax,0.00257,CHCGILDTO6Y
MA6813400180,h_OCHCTP,11-L1-10,2019-01-25 11:15:00.0,PmdMin,1.58,CHCGILDTO6Y
MA6813400180,h_OCHCTP,11-L1-10,2019-01-25 11:15:00.0,SoPmdAve,3073.94,CHCGILDTO6Y
MA6813400180,h_OCHCTP,11-L1-10,2019-01-25 11:30:00.0,Qmin,8.93,CHCGILDTO6Y
MA6813400180,h_OCHCTP,11-L1-10,2019-01-25 11:30:00.0,PhaseCorrectionAve,-0.122,CHCGILDTO6Y
MA6813400180,h_OCHCTP,11-L1-10,2019-01-25 11:30:00.0,BerPreFecMax,0.00258,CHCGILDTO6Y
MA6813400180,h_OCHCTP,11-L1-10,2019-01-25 11:30:00.0,PmdMin,0.65,CHCGILDTO6Y
MA6813400180,h_OCHCTP,11-L1-10,2019-01-25 11:30:00.0,SoPmdAve,3053.27,CHCGILDTO6Y
MA6813400180,h_OCHCTP,11-L1-10,2019-01-25 11:45:00.0,Qmin,9.02,CHCGILDTO6Y
MA6813400180,h_OCHCTP,11-L1-10,2019-01-25 11:45:00.0,PhaseCorrectionAve,-0.061,CHCGILDTO6Y
MA6813400180,h_OCHCTP,11-L1-10,2019-01-25 11:45:00.0,BerPreFecMax,0.00237,CHCGILDTO6Y
MA6813400180,h_OCHCTP,11-L1-10,2019-01-25 11:45:00.0,PmdMin,0.495,CHCGILDTO6Y
MA6813400180,h_OCHCTP,11-L1-10,2019-01-25 11:45:00.0,SoPmdAve,3039.31,CHCGILDTO6Y
MA6813400180,h_OCHCTP,13-L1-1,2019-01-25 11:15:00.0,Qmin,9.11,CHCGILDTO6Y
MA6813400180,h_OCHCTP,13-L1-1,2019-01-25 11:15:00.0,PhaseCorrectionAve,2.42e-07,CHCGILDTO6Y
MA6813400180,h_OCHCTP,13-L1-1,2019-01-25 11:15:00.0,BerPreFecMax,0.00215,CHCGILDTO6Y
MA6813400180,h_OCHCTP,13-L1-1,2019-01-25 11:15:00.0,PmdMin,1.37,CHCGILDTO6Y
MA6813400180,h_OCHCTP,13-L1-1,2019-01-25 11:15:00.0,SoPmdAve,3543.32,CHCGILDTO6Y
MA6813400180,h_OCHCTP,13-L1-1,2019-01-25 11:30:00.0,Qmin,9.11,CHCGILDTO6Y
MA6813400180,h_OCHCTP,13-L1-1,2019-01-25 11:30:00.0,PhaseCorrectionAve,2.63e-07,CHCGILDTO6Y
MA6813400180,h_OCHCTP,13-L1-1,2019-01-25 11:30:00.0,BerPreFecMax,0.00215,CHCGILDTO6Y
MA6813400180,h_OCHCTP,13-L1-1,2019-01-25 11:30:00.0,PmdMin,1.55,CHCGILDTO6Y
MA6813400180,h_OCHCTP,13-L1-1,2019-01-25 11:30:00.0,SoPmdAve,3466.3,CHCGILDTO6Y
MA6813400180,h_OCHCTP,13-L1-1,2019-01-25 11:45:00.0,Qmin,9.18,CHCGILDTO6Y
MA6813400180,h_OCHCTP,13-L1-1,2019-01-25 11:45:00.0,PhaseCorrectionAve,2.19e-07,CHCGILDTO6Y
MA6813400180,h_OCHCTP,13-L1-1,2019-01-25 11:45:00.0,BerPreFecMax,0.00201,CHCGILDTO6Y
MA6813400180,h_OCHCTP,13-L1-1,2019-01-25 11:45:00.0,PmdMin,1.11,CHCGILDTO6Y
MA6813400180,h_OCHCTP,13-L1-1,2019-01-25 11:45:00.0,SoPmdAve,3473.94,CHCGILDTO6Y
MA6813400180,h_OCHCTP,13-L1-2,2019-01-25 11:15:00.0,Qmin,9.17,CHCGILDTO6Y
MA6813400180,h_OCHCTP,13-L1-2,2019-01-25 11:15:00.0,PhaseCorrectionAve,-0.061,CHCGILDTO6Y
MA6813400180,h_OCHCTP,13-L1-2,2019-01-25 11:15:00.0,BerPreFecMax,0.00203,CHCGILDTO6Y
MA6813400180,h_OCHCTP,13-L1-2,2019-01-25 11:15:00.0,PmdMin,1.26,CHCGILDTO6Y
MA6813400180,h_OCHCTP,13-L1-2,2019-01-25 11:15:00.0,SoPmdAve,3436.95,CHCGILDTO6Y
MA6813400180,h_OCHCTP,13-L1-2,2019-01-25 11:30:00.0,Qmin,9.14,CHCGILDTO6Y
MA6813400180,h_OCHCTP,13-L1-2,2019-01-25 11:30:00.0,PhaseCorrectionAve,-0.061,CHCGILDTO6Y
MA6813400180,h_OCHCTP,13-L1-2,2019-01-25 11:30:00.0,BerPreFecMax,0.0021,CHCGILDTO6Y
MA6813400180,h_OCHCTP,13-L1-2,2019-01-25 11:30:00.0,PmdMin,1.08,CHCGILDTO6Y
MA6813400180,h_OCHCTP,13-L1-2,2019-01-25 11:30:00.0,SoPmdAve,3538.54,CHCGILDTO6Y
MA6813400180,h_OCHCTP,13-L1-2,2019-01-25 11:45:00.0,Qmin,9.18,CHCGILDTO6Y
MA6813400180,h_OCHCTP,13-L1-2,2019-01-25 11:45:00.0,PhaseCorrectionAve,2.38e-07,CHCGILDTO6Y
MA6813400180,h_OCHCTP,13-L1-2,2019-01-25 11:45:00.0,BerPreFecMax,0.00201,CHCGILDTO6Y
MA6813400180,h_OCHCTP,13-L1-2,2019-01-25 11:45:00.0,PmdMin,1.56,CHCGILDTO6Y
MA6813400180,h_OCHCTP,13-L1-2,2019-01-25 11:45:00.0,SoPmdAve,3488.36,CHCGILDTO6Y
MA6813400180,h_OCHCTP,13-L1-3,2019-01-25 11:15:00.0,Qmin,8.97,CHCGILDTO6Y
MA6813400180,h_OCHCTP,13-L1-3,2019-01-25 11:15:00.0,PhaseCorrectionAve,-0.061,CHCGILDTO6Y
MA6813400180,h_OCHCTP,13-L1-3,2019-01-25 11:15:00.0,BerPreFecMax,0.00248,CHCGILDTO6Y
MA6813400180,h_OCHCTP,13-L1-3,2019-01-25 11:15:00.0,PmdMin,0.794,CHCGILDTO6Y
MA6813400180,h_OCHCTP,13-L1-3,2019-01-25 11:15:00.0,SoPmdAve,3026.85,CHCGILDTO6Y
MA6813400180,h_OCHCTP,13-L1-3,2019-01-25 11:30:00.0,Qmin,8.97,CHCGILDTO6Y
MA6813400180,h_OCHCTP,13-L1-3,2019-01-25 11:30:00.0,PhaseCorrectionAve,-0.122,CHCGILDTO6Y
MA6813400180,h_OCHCTP,13-L1-3,2019-01-25 11:30:00.0,BerPreFecMax,0.00248,CHCGILDTO6Y
MA6813400180,h_OCHCTP,13-L1-3,2019-01-25 11:30:00.0,PmdMin,0.991,CHCGILDTO6Y
MA6813400180,h_OCHCTP,13-L1-3,2019-01-25 11:30:00.0,SoPmdAve,2969.95,CHCGILDTO6Y
MA6813400180,h_OCHCTP,13-L1-3,2019-01-25 11:45:00.0,Qmin,8.93,CHCGILDTO6Y
MA6813400180,h_OCHCTP,13-L1-3,2019-01-25 11:45:00.0,PhaseCorrectionAve,4.58e-07,CHCGILDTO6Y
MA6813400180,h_OCHCTP,13-L1-3,2019-01-25 11:45:00.0,BerPreFecMax,0.00259,CHCGILDTO6Y
MA6813400180,h_OCHCTP,13-L1-3,2019-01-25 11:45:00.0,PmdMin,0.592,CHCGILDTO6Y
MA6813400180,h_OCHCTP,13-L1-3,2019-01-25 11:45:00.0,SoPmdAve,2984.78,CHCGILDTO6Y
MA6813400180,h_OCHCTP,13-L1-4,2019-01-25 11:15:00.0,Qmin,8.7,CHCGILDTO6Y
MA6813400180,h_OCHCTP,13-L1-4,2019-01-25 11:15:00.0,PhaseCorrectionAve,-0.061,CHCGILDTO6Y
MA6813400180,h_OCHCTP,13-L1-4,2019-01-25 11:15:00.0,BerPreFecMax,0.00325,CHCGILDTO6Y
MA6813400180,h_OCHCTP,13-L1-4,2019-01-25 11:15:00.0,PmdMin,0.685,CHCGILDTO6Y
MA6813400180,h_OCHCTP,13-L1-4,2019-01-25 11:15:00.0,SoPmdAve,3514.83,CHCGILDTO6Y
MA6813400180,h_OCHCTP,13-L1-4,2019-01-25 11:30:00.0,Qmin,8.68,CHCGILDTO6Y
MA6813400180,h_OCHCTP,13-L1-4,2019-01-25 11:30:00.0,PhaseCorrectionAve,-0.183,CHCGILDTO6Y
MA6813400180,h_OCHCTP,13-L1-4,2019-01-25 11:30:00.0,BerPreFecMax,0.00329,CHCGILDTO6Y
MA6813400180,h_OCHCTP,13-L1-4,2019-01-25 11:30:00.0,PmdMin,1.16,CHCGILDTO6Y
MA6813400180,h_OCHCTP,13-L1-4,2019-01-25 11:30:00.0,SoPmdAve,3306.85,CHCGILDTO6Y
MA6813400180,h_OCHCTP,13-L1-4,2019-01-25 11:45:00.0,Qmin,8.66,CHCGILDTO6Y
MA6813400180,h_OCHCTP,13-L1-4,2019-01-25 11:45:00.0,PhaseCorrectionAve,5.16e-07,CHCGILDTO6Y
MA6813400180,h_OCHCTP,13-L1-4,2019-01-25 11:45:00.0,BerPreFecMax,0.00337,CHCGILDTO6Y
MA6813400180,h_OCHCTP,13-L1-4,2019-01-25 11:45:00.0,PmdMin,0.49,CHCGILDTO6Y
MA6813400180,h_OCHCTP,13-L1-4,2019-01-25 11:45:00.0,SoPmdAve,3349.79,CHCGILDTO6Y
MA6813400180,h_OCHCTP,13-L1-5,2019-01-25 11:15:00.0,Qmin,8.76,CHCGILDTO6Y
MA6813400180,h_OCHCTP,13-L1-5,2019-01-25 11:15:00.0,PhaseCorrectionAve,-0.061,CHCGILDTO6Y
MA6813400180,h_OCHCTP,13-L1-5,2019-01-25 11:15:00.0,BerPreFecMax,0.00306,CHCGILDTO6Y
MA6813400180,h_OCHCTP,13-L1-5,2019-01-25 11:15:00.0,PmdMin,1.07,CHCGILDTO6Y
MA6813400180,h_OCHCTP,13-L1-5,2019-01-25 11:15:00.0,SoPmdAve,2868.18,CHCGILDTO6Y
MA6813400180,h_OCHCTP,13-L1-5,2019-01-25 11:30:00.0,Qmin,8.68,CHCGILDTO6Y
MA6813400180,h_OCHCTP,13-L1-5,2019-01-25 11:30:00.0,PhaseCorrectionAve,-0.183,CHCGILDTO6Y
MA6813400180,h_OCHCTP,13-L1-5,2019-01-25 11:30:00.0,BerPreFecMax,0.00331,CHCGILDTO6Y
MA6813400180,h_OCHCTP,13-L1-5,2019-01-25 11:30:00.0,PmdMin,0.791,CHCGILDTO6Y
MA6813400180,h_OCHCTP,13-L1-5,2019-01-25 11:30:00.0,SoPmdAve,2900.33,CHCGILDTO6Y
MA6813400180,h_OCHCTP,13-L1-5,2019-01-25 11:45:00.0,Qmin,8.67,CHCGILDTO6Y
MA6813400180,h_OCHCTP,13-L1-5,2019-01-25 11:45:00.0,PhaseCorrectionAve,3.11e-07,CHCGILDTO6Y
MA6813400180,h_OCHCTP,13-L1-5,2019-01-25 11:45:00.0,BerPreFecMax,0.00334,CHCGILDTO6Y
MA6813400180,h_OCHCTP,13-L1-5,2019-01-25 11:45:00.0,PmdMin,1.21,CHCGILDTO6Y
MA6813400180,h_OCHCTP,13-L1-5,2019-01-25 11:45:00.0,SoPmdAve,2905.53,CHCGILDTO6Y
MA6813400180,h_OCHCTP,13-L1-6,2019-01-25 11:15:00.0,Qmin,8.78,CHCGILDTO6Y
MA6813400180,h_OCHCTP,13-L1-6,2019-01-25 11:15:00.0,PhaseCorrectionAve,-0.061,CHCGILDTO6Y
MA6813400180,h_OCHCTP,13-L1-6,2019-01-25 11:15:00.0,BerPreFecMax,0.003,CHCGILDTO6Y
MA6813400180,h_OCHCTP,13-L1-6,2019-01-25 11:15:00.0,PmdMin,0.934,CHCGILDTO6Y
MA6813400180,h_OCHCTP,13-L1-6,2019-01-25 11:15:00.0,SoPmdAve,3025.28,CHCGILDTO6Y
MA6813400180,h_OCHCTP,13-L1-6,2019-01-25 11:30:00.0,Qmin,8.73,CHCGILDTO6Y
MA6813400180,h_OCHCTP,13-L1-6,2019-01-25 11:30:00.0,PhaseCorrectionAve,-0.305,CHCGILDTO6Y
MA6813400180,h_OCHCTP,13-L1-6,2019-01-25 11:30:00.0,BerPreFecMax,0.00314,CHCGILDTO6Y
MA6813400180,h_OCHCTP,13-L1-6,2019-01-25 11:30:00.0,PmdMin,1.01,CHCGILDTO6Y
MA6813400180,h_OCHCTP,13-L1-6,2019-01-25 11:30:00.0,SoPmdAve,3139.46,CHCGILDTO6Y
MA6813400180,h_OCHCTP,13-L1-6,2019-01-25 11:45:00.0,Qmin,8.74,CHCGILDTO6Y
MA6813400180,h_OCHCTP,13-L1-6,2019-01-25 11:45:00.0,PhaseCorrectionAve,-0.061,CHCGILDTO6Y
MA6813400180,h_OCHCTP,13-L1-6,2019-01-25 11:45:00.0,BerPreFecMax,0.0031,CHCGILDTO6Y
MA6813400180,h_OCHCTP,13-L1-6,2019-01-25 11:45:00.0,PmdMin,0.962,CHCGILDTO6Y
MA6813400180,h_OCHCTP,13-L1-6,2019-01-25 11:45:00.0,SoPmdAve,2977.88,CHCGILDTO6Y
MA6813400180,h_OCHCTP,13-L1-7,2019-01-25 11:15:00.0,Qmin,8.7,CHCGILDTO6Y
MA6813400180,h_OCHCTP,13-L1-7,2019-01-25 11:15:00.0,PhaseCorrectionAve,-0.061,CHCGILDTO6Y
MA6813400180,h_OCHCTP,13-L1-7,2019-01-25 11:15:00.0,BerPreFecMax,0.00324,CHCGILDTO6Y
MA6813400180,h_OCHCTP,13-L1-7,2019-01-25 11:15:00.0,PmdMin,1.47,CHCGILDTO6Y
MA6813400180,h_OCHCTP,13-L1-7,2019-01-25 11:15:00.0,SoPmdAve,3730.74,CHCGILDTO6Y
MA6813400180,h_OCHCTP,13-L1-7,2019-01-25 11:30:00.0,Qmin,8.71,CHCGILDTO6Y
MA6813400180,h_OCHCTP,13-L1-7,2019-01-25 11:30:00.0,PhaseCorrectionAve,-0.305,CHCGILDTO6Y
MA6813400180,h_OCHCTP,13-L1-7,2019-01-25 11:30:00.0,BerPreFecMax,0.0032,CHCGILDTO6Y
MA6813400180,h_OCHCTP,13-L1-7,2019-01-25 11:30:00.0,PmdMin,0.744,CHCGILDTO6Y
MA6813400180,h_OCHCTP,13-L1-7,2019-01-25 11:30:00.0,SoPmdAve,3828.2,CHCGILDTO6Y
MA6813400180,h_OCHCTP,13-L1-7,2019-01-25 11:45:00.0,Qmin,8.75,CHCGILDTO6Y
MA6813400180,h_OCHCTP,13-L1-7,2019-01-25 11:45:00.0,PhaseCorrectionAve,-0.061,CHCGILDTO6Y
MA6813400180,h_OCHCTP,13-L1-7,2019-01-25 11:45:00.0,BerPreFecMax,0.00309,CHCGILDTO6Y
MA6813400180,h_OCHCTP,13-L1-7,2019-01-25 11:45:00.0,PmdMin,0.36,CHCGILDTO6Y
MA6813400180,h_OCHCTP,13-L1-7,2019-01-25 11:45:00.0,SoPmdAve,3682.28,CHCGILDTO6Y
MA6813400180,h_OCHCTP,13-L1-8,2019-01-25 11:15:00.0,Qmin,8.88,CHCGILDTO6Y
MA6813400180,h_OCHCTP,13-L1-8,2019-01-25 11:15:00.0,PhaseCorrectionAve,-0.061,CHCGILDTO6Y
MA6813400180,h_OCHCTP,13-L1-8,2019-01-25 11:15:00.0,BerPreFecMax,0.00272,CHCGILDTO6Y
MA6813400180,h_OCHCTP,13-L1-8,2019-01-25 11:15:00.0,PmdMin,1.14,CHCGILDTO6Y
MA6813400180,h_OCHCTP,13-L1-8,2019-01-25 11:15:00.0,SoPmdAve,3911.78,CHCGILDTO6Y
MA6813400180,h_OCHCTP,13-L1-8,2019-01-25 11:30:00.0,Qmin,8.88,CHCGILDTO6Y
MA6813400180,h_OCHCTP,13-L1-8,2019-01-25 11:30:00.0,PhaseCorrectionAve,-0.366,CHCGILDTO6Y
MA6813400180,h_OCHCTP,13-L1-8,2019-01-25 11:30:00.0,BerPreFecMax,0.00272,CHCGILDTO6Y
MA6813400180,h_OCHCTP,13-L1-8,2019-01-25 11:30:00.0,PmdMin,0.884,CHCGILDTO6Y
MA6813400180,h_OCHCTP,13-L1-8,2019-01-25 11:30:00.0,SoPmdAve,3880.89,CHCGILDTO6Y
MA6813400180,h_OCHCTP,13-L1-8,2019-01-25 11:45:00.0,Qmin,8.88,CHCGILDTO6Y
MA6813400180,h_OCHCTP,13-L1-8,2019-01-25 11:45:00.0,PhaseCorrectionAve,-0.122,CHCGILDTO6Y
MA6813400180,h_OCHCTP,13-L1-8,2019-01-25 11:45:00.0,BerPreFecMax,0.00272,CHCGILDTO6Y
MA6813400180,h_OCHCTP,13-L1-8,2019-01-25 11:45:00.0,PmdMin,1.63,CHCGILDTO6Y
MA6813400180,h_OCHCTP,13-L1-8,2019-01-25 11:45:00.0,SoPmdAve,3872.41,CHCGILDTO6Y
MA6813400180,h_OCHCTP,13-L1-9,2019-01-25 11:15:00.0,Qmin,8.75,CHCGILDTO6Y
MA6813400180,h_OCHCTP,13-L1-9,2019-01-25 11:15:00.0,PhaseCorrectionAve,-0.122,CHCGILDTO6Y
MA6813400180,h_OCHCTP,13-L1-9,2019-01-25 11:15:00.0,BerPreFecMax,0.00307,CHCGILDTO6Y
MA6813400180,h_OCHCTP,13-L1-9,2019-01-25 11:15:00.0,PmdMin,0.966,CHCGILDTO6Y
MA6813400180,h_OCHCTP,13-L1-9,2019-01-25 11:15:00.0,SoPmdAve,3463.71,CHCGILDTO6Y
MA6813400180,h_OCHCTP,13-L1-9,2019-01-25 11:30:00.0,Qmin,8.76,CHCGILDTO6Y
MA6813400180,h_OCHCTP,13-L1-9,2019-01-25 11:30:00.0,PhaseCorrectionAve,-0.366,CHCGILDTO6Y
MA6813400180,h_OCHCTP,13-L1-9,2019-01-25 11:30:00.0,BerPreFecMax,0.00305,CHCGILDTO6Y
MA6813400180,h_OCHCTP,13-L1-9,2019-01-25 11:30:00.0,PmdMin,0.413,CHCGILDTO6Y
MA6813400180,h_OCHCTP,13-L1-9,2019-01-25 11:30:00.0,SoPmdAve,3515.53,CHCGILDTO6Y
MA6813400180,h_OCHCTP,13-L1-9,2019-01-25 11:45:00.0,Qmin,8.81,CHCGILDTO6Y
MA6813400180,h_OCHCTP,13-L1-9,2019-01-25 11:45:00.0,PhaseCorrectionAve,-0.122,CHCGILDTO6Y
MA6813400180,h_OCHCTP,13-L1-9,2019-01-25 11:45:00.0,BerPreFecMax,0.00292,CHCGILDTO6Y
MA6813400180,h_OCHCTP,13-L1-9,2019-01-25 11:45:00.0,PmdMin,1.63,CHCGILDTO6Y
MA6813400180,h_OCHCTP,13-L1-9,2019-01-25 11:45:00.0,SoPmdAve,3474.24,CHCGILDTO6Y
MA6813400180,h_OCHCTP,13-L1-10,2019-01-25 11:15:00.0,Qmin,8.7,CHCGILDTO6Y
MA6813400180,h_OCHCTP,13-L1-10,2019-01-25 11:15:00.0,PhaseCorrectionAve,-0.122,CHCGILDTO6Y
MA6813400180,h_OCHCTP,13-L1-10,2019-01-25 11:15:00.0,BerPreFecMax,0.00323,CHCGILDTO6Y
MA6813400180,h_OCHCTP,13-L1-10,2019-01-25 11:15:00.0,PmdMin,1.12,CHCGILDTO6Y
MA6813400180,h_OCHCTP,13-L1-10,2019-01-25 11:15:00.0,SoPmdAve,3749.51,CHCGILDTO6Y
MA6813400180,h_OCHCTP,13-L1-10,2019-01-25 11:30:00.0,Qmin,8.64,CHCGILDTO6Y
MA6813400180,h_OCHCTP,13-L1-10,2019-01-25 11:30:00.0,PhaseCorrectionAve,-0.366,CHCGILDTO6Y
MA6813400180,h_OCHCTP,13-L1-10,2019-01-25 11:30:00.0,BerPreFecMax,0.00341,CHCGILDTO6Y
MA6813400180,h_OCHCTP,13-L1-10,2019-01-25 11:30:00.0,PmdMin,0.739,CHCGILDTO6Y
MA6813400180,h_OCHCTP,13-L1-10,2019-01-25 11:30:00.0,SoPmdAve,3814.26,CHCGILDTO6Y
MA6813400180,h_OCHCTP,13-L1-10,2019-01-25 11:45:00.0,Qmin,8.73,CHCGILDTO6Y
MA6813400180,h_OCHCTP,13-L1-10,2019-01-25 11:45:00.0,PhaseCorrectionAve,-0.183,CHCGILDTO6Y
MA6813400180,h_OCHCTP,13-L1-10,2019-01-25 11:45:00.0,BerPreFecMax,0.00316,CHCGILDTO6Y
MA6813400180,h_OCHCTP,13-L1-10,2019-01-25 11:45:00.0,PmdMin,0.719,CHCGILDTO6Y
MA6813400180,h_OCHCTP,13-L1-10,2019-01-25 11:45:00.0,SoPmdAve,3635.47,CHCGILDTO6Y
