MA6813400180,h_OCHCTP,11-L1-1,2019-01-23 01:15:00.0,Qmin,9.1,CHCGILDTO6Y
MA6813400180,h_OCHCTP,11-L1-1,2019-01-23 01:15:00.0,PhaseCorrectionAve,9.78e-08,CHCGILDTO6Y
MA6813400180,h_OCHCTP,11-L1-1,2019-01-23 01:15:00.0,BerPreFecMax,0.00217,CHCGILDTO6Y
MA6813400180,h_OCHCTP,11-L1-1,2019-01-23 01:15:00.0,PmdMin,1.51,CHCGILDTO6Y
MA6813400180,h_OCHCTP,11-L1-1,2019-01-23 01:15:00.0,SoPmdAve,3337.01,CHCGILDTO6Y
MA6813400180,h_OCHCTP,11-L1-1,2019-01-23 01:30:00.0,Qmin,9.08,CHCGILDTO6Y
MA6813400180,h_OCHCTP,11-L1-1,2019-01-23 01:30:00.0,PhaseCorrectionAve,-0.061,CHCGILDTO6Y
MA6813400180,h_OCHCTP,11-L1-1,2019-01-23 01:30:00.0,BerPreFecMax,0.00223,CHCGILDTO6Y
MA6813400180,h_OCHCTP,11-L1-1,2019-01-23 01:30:00.0,PmdMin,0.852,CHCGILDTO6Y
MA6813400180,h_OCHCTP,11-L1-1,2019-01-23 01:30:00.0,SoPmdAve,3465.35,CHCGILDTO6Y
MA6813400180,h_OCHCTP,11-L1-1,2019-01-23 01:45:00.0,Qmin,9.02,CHCGILDTO6Y
MA6813400180,h_OCHCTP,11-L1-1,2019-01-23 01:45:00.0,PhaseCorrectionAve,1.23e-07,CHCGILDTO6Y
MA6813400180,h_OCHCTP,11-L1-1,2019-01-23 01:45:00.0,BerPreFecMax,0.00236,CHCGILDTO6Y
MA6813400180,h_OCHCTP,11-L1-1,2019-01-23 01:45:00.0,PmdMin,1.26,CHCGILDTO6Y
MA6813400180,h_OCHCTP,11-L1-1,2019-01-23 01:45:00.0,SoPmdAve,3388.85,CHCGILDTO6Y
MA6813400180,h_OCHCTP,11-L1-2,2019-01-23 01:15:00.0,Qmin,9.02,CHCGILDTO6Y
MA6813400180,h_OCHCTP,11-L1-2,2019-01-23 01:15:00.0,PhaseCorrectionAve,2.56e-07,CHCGILDTO6Y
MA6813400180,h_OCHCTP,11-L1-2,2019-01-23 01:15:00.0,BerPreFecMax,0.00236,CHCGILDTO6Y
MA6813400180,h_OCHCTP,11-L1-2,2019-01-23 01:15:00.0,PmdMin,0.982,CHCGILDTO6Y
MA6813400180,h_OCHCTP,11-L1-2,2019-01-23 01:15:00.0,SoPmdAve,3222.89,CHCGILDTO6Y
MA6813400180,h_OCHCTP,11-L1-2,2019-01-23 01:30:00.0,Qmin,9.02,CHCGILDTO6Y
MA6813400180,h_OCHCTP,11-L1-2,2019-01-23 01:30:00.0,PhaseCorrectionAve,-0.122,CHCGILDTO6Y
MA6813400180,h_OCHCTP,11-L1-2,2019-01-23 01:30:00.0,BerPreFecMax,0.00236,CHCGILDTO6Y
MA6813400180,h_OCHCTP,11-L1-2,2019-01-23 01:30:00.0,PmdMin,0.948,CHCGILDTO6Y
MA6813400180,h_OCHCTP,11-L1-2,2019-01-23 01:30:00.0,SoPmdAve,3215.81,CHCGILDTO6Y
MA6813400180,h_OCHCTP,11-L1-2,2019-01-23 01:45:00.0,Qmin,9.0,CHCGILDTO6Y
MA6813400180,h_OCHCTP,11-L1-2,2019-01-23 01:45:00.0,PhaseCorrectionAve,2.85e-07,CHCGILDTO6Y
MA6813400180,h_OCHCTP,11-L1-2,2019-01-23 01:45:00.0,BerPreFecMax,0.00242,CHCGILDTO6Y
MA6813400180,h_OCHCTP,11-L1-2,2019-01-23 01:45:00.0,PmdMin,1.0,CHCGILDTO6Y
MA6813400180,h_OCHCTP,11-L1-2,2019-01-23 01:45:00.0,SoPmdAve,3268.4,CHCGILDTO6Y
MA6813400180,h_OCHCTP,11-L1-3,2019-01-23 01:15:00.0,Qmin,8.88,CHCGILDTO6Y
MA6813400180,h_OCHCTP,11-L1-3,2019-01-23 01:15:00.0,PhaseCorrectionAve,3.99e-07,CHCGILDTO6Y
MA6813400180,h_OCHCTP,11-L1-3,2019-01-23 01:15:00.0,BerPreFecMax,0.00273,CHCGILDTO6Y
MA6813400180,h_OCHCTP,11-L1-3,2019-01-23 01:15:00.0,PmdMin,0.742,CHCGILDTO6Y
MA6813400180,h_OCHCTP,11-L1-3,2019-01-23 01:15:00.0,SoPmdAve,2747.86,CHCGILDTO6Y
MA6813400180,h_OCHCTP,11-L1-3,2019-01-23 01:30:00.0,Qmin,8.88,CHCGILDTO6Y
MA6813400180,h_OCHCTP,11-L1-3,2019-01-23 01:30:00.0,PhaseCorrectionAve,-0.122,CHCGILDTO6Y
MA6813400180,h_OCHCTP,11-L1-3,2019-01-23 01:30:00.0,BerPreFecMax,0.00272,CHCGILDTO6Y
MA6813400180,h_OCHCTP,11-L1-3,2019-01-23 01:30:00.0,PmdMin,0.895,CHCGILDTO6Y
MA6813400180,h_OCHCTP,11-L1-3,2019-01-23 01:30:00.0,SoPmdAve,2677.71,CHCGILDTO6Y
MA6813400180,h_OCHCTP,11-L1-3,2019-01-23 01:45:00.0,Qmin,8.9,CHCGILDTO6Y
MA6813400180,h_OCHCTP,11-L1-3,2019-01-23 01:45:00.0,PhaseCorrectionAve,3.16e-07,CHCGILDTO6Y
MA6813400180,h_OCHCTP,11-L1-3,2019-01-23 01:45:00.0,BerPreFecMax,0.00267,CHCGILDTO6Y
MA6813400180,h_OCHCTP,11-L1-3,2019-01-23 01:45:00.0,PmdMin,0.383,CHCGILDTO6Y
MA6813400180,h_OCHCTP,11-L1-3,2019-01-23 01:45:00.0,SoPmdAve,2778.34,CHCGILDTO6Y
MA6813400180,h_OCHCTP,11-L1-4,2019-01-23 01:15:00.0,Qmin,8.67,CHCGILDTO6Y
MA6813400180,h_OCHCTP,11-L1-4,2019-01-23 01:15:00.0,PhaseCorrectionAve,5.47e-07,CHCGILDTO6Y
MA6813400180,h_OCHCTP,11-L1-4,2019-01-23 01:15:00.0,BerPreFecMax,0.00333,CHCGILDTO6Y
MA6813400180,h_OCHCTP,11-L1-4,2019-01-23 01:15:00.0,PmdMin,0.826,CHCGILDTO6Y
MA6813400180,h_OCHCTP,11-L1-4,2019-01-23 01:15:00.0,SoPmdAve,2884.99,CHCGILDTO6Y
MA6813400180,h_OCHCTP,11-L1-4,2019-01-23 01:30:00.0,Qmin,8.68,CHCGILDTO6Y
MA6813400180,h_OCHCTP,11-L1-4,2019-01-23 01:30:00.0,PhaseCorrectionAve,-0.122,CHCGILDTO6Y
MA6813400180,h_OCHCTP,11-L1-4,2019-01-23 01:30:00.0,BerPreFecMax,0.00329,CHCGILDTO6Y
MA6813400180,h_OCHCTP,11-L1-4,2019-01-23 01:30:00.0,PmdMin,0.755,CHCGILDTO6Y
MA6813400180,h_OCHCTP,11-L1-4,2019-01-23 01:30:00.0,SoPmdAve,2947.39,CHCGILDTO6Y
MA6813400180,h_OCHCTP,11-L1-4,2019-01-23 01:45:00.0,Qmin,8.68,CHCGILDTO6Y
MA6813400180,h_OCHCTP,11-L1-4,2019-01-23 01:45:00.0,PhaseCorrectionAve,-0.061,CHCGILDTO6Y
MA6813400180,h_OCHCTP,11-L1-4,2019-01-23 01:45:00.0,BerPreFecMax,0.00332,CHCGILDTO6Y
MA6813400180,h_OCHCTP,11-L1-4,2019-01-23 01:45:00.0,PmdMin,1.34,CHCGILDTO6Y
MA6813400180,h_OCHCTP,11-L1-4,2019-01-23 01:45:00.0,SoPmdAve,2952.93,CHCGILDTO6Y
MA6813400180,h_OCHCTP,11-L1-5,2019-01-23 01:15:00.0,Qmin,8.85,CHCGILDTO6Y
MA6813400180,h_OCHCTP,11-L1-5,2019-01-23 01:15:00.0,PhaseCorrectionAve,1.72e-07,CHCGILDTO6Y
MA6813400180,h_OCHCTP,11-L1-5,2019-01-23 01:15:00.0,BerPreFecMax,0.00281,CHCGILDTO6Y
MA6813400180,h_OCHCTP,11-L1-5,2019-01-23 01:15:00.0,PmdMin,0.943,CHCGILDTO6Y
MA6813400180,h_OCHCTP,11-L1-5,2019-01-23 01:15:00.0,SoPmdAve,2572.01,CHCGILDTO6Y
MA6813400180,h_OCHCTP,11-L1-5,2019-01-23 01:30:00.0,Qmin,8.82,CHCGILDTO6Y
MA6813400180,h_OCHCTP,11-L1-5,2019-01-23 01:30:00.0,PhaseCorrectionAve,-0.183,CHCGILDTO6Y
MA6813400180,h_OCHCTP,11-L1-5,2019-01-23 01:30:00.0,BerPreFecMax,0.00289,CHCGILDTO6Y
MA6813400180,h_OCHCTP,11-L1-5,2019-01-23 01:30:00.0,PmdMin,0.847,CHCGILDTO6Y
MA6813400180,h_OCHCTP,11-L1-5,2019-01-23 01:30:00.0,SoPmdAve,2584.35,CHCGILDTO6Y
MA6813400180,h_OCHCTP,11-L1-5,2019-01-23 01:45:00.0,Qmin,8.79,CHCGILDTO6Y
MA6813400180,h_OCHCTP,11-L1-5,2019-01-23 01:45:00.0,PhaseCorrectionAve,-0.122,CHCGILDTO6Y
MA6813400180,h_OCHCTP,11-L1-5,2019-01-23 01:45:00.0,BerPreFecMax,0.00298,CHCGILDTO6Y
MA6813400180,h_OCHCTP,11-L1-5,2019-01-23 01:45:00.0,PmdMin,0.539,CHCGILDTO6Y
MA6813400180,h_OCHCTP,11-L1-5,2019-01-23 01:45:00.0,SoPmdAve,2473.38,CHCGILDTO6Y
MA6813400180,h_OCHCTP,11-L1-6,2019-01-23 01:15:00.0,Qmin,8.86,CHCGILDTO6Y
MA6813400180,h_OCHCTP,11-L1-6,2019-01-23 01:15:00.0,PhaseCorrectionAve,3.64e-07,CHCGILDTO6Y
MA6813400180,h_OCHCTP,11-L1-6,2019-01-23 01:15:00.0,BerPreFecMax,0.00278,CHCGILDTO6Y
MA6813400180,h_OCHCTP,11-L1-6,2019-01-23 01:15:00.0,PmdMin,1.3,CHCGILDTO6Y
MA6813400180,h_OCHCTP,11-L1-6,2019-01-23 01:15:00.0,SoPmdAve,2539.39,CHCGILDTO6Y
MA6813400180,h_OCHCTP,11-L1-6,2019-01-23 01:30:00.0,Qmin,8.84,CHCGILDTO6Y
MA6813400180,h_OCHCTP,11-L1-6,2019-01-23 01:30:00.0,PhaseCorrectionAve,-0.183,CHCGILDTO6Y
MA6813400180,h_OCHCTP,11-L1-6,2019-01-23 01:30:00.0,BerPreFecMax,0.00282,CHCGILDTO6Y
MA6813400180,h_OCHCTP,11-L1-6,2019-01-23 01:30:00.0,PmdMin,1.11,CHCGILDTO6Y
MA6813400180,h_OCHCTP,11-L1-6,2019-01-23 01:30:00.0,SoPmdAve,2557.28,CHCGILDTO6Y
MA6813400180,h_OCHCTP,11-L1-6,2019-01-23 01:45:00.0,Qmin,8.77,CHCGILDTO6Y
MA6813400180,h_OCHCTP,11-L1-6,2019-01-23 01:45:00.0,PhaseCorrectionAve,-0.122,CHCGILDTO6Y
MA6813400180,h_OCHCTP,11-L1-6,2019-01-23 01:45:00.0,BerPreFecMax,0.00304,CHCGILDTO6Y
MA6813400180,h_OCHCTP,11-L1-6,2019-01-23 01:45:00.0,PmdMin,0.896,CHCGILDTO6Y
MA6813400180,h_OCHCTP,11-L1-6,2019-01-23 01:45:00.0,SoPmdAve,2495.97,CHCGILDTO6Y
MA6813400180,h_OCHCTP,11-L1-7,2019-01-23 01:15:00.0,Qmin,8.94,CHCGILDTO6Y
MA6813400180,h_OCHCTP,11-L1-7,2019-01-23 01:15:00.0,PhaseCorrectionAve,2e-07,CHCGILDTO6Y
MA6813400180,h_OCHCTP,11-L1-7,2019-01-23 01:15:00.0,BerPreFecMax,0.00257,CHCGILDTO6Y
MA6813400180,h_OCHCTP,11-L1-7,2019-01-23 01:15:00.0,PmdMin,0.599,CHCGILDTO6Y
MA6813400180,h_OCHCTP,11-L1-7,2019-01-23 01:15:00.0,SoPmdAve,3008.26,CHCGILDTO6Y
MA6813400180,h_OCHCTP,11-L1-7,2019-01-23 01:30:00.0,Qmin,8.92,CHCGILDTO6Y
MA6813400180,h_OCHCTP,11-L1-7,2019-01-23 01:30:00.0,PhaseCorrectionAve,-0.183,CHCGILDTO6Y
MA6813400180,h_OCHCTP,11-L1-7,2019-01-23 01:30:00.0,BerPreFecMax,0.0026,CHCGILDTO6Y
MA6813400180,h_OCHCTP,11-L1-7,2019-01-23 01:30:00.0,PmdMin,0.936,CHCGILDTO6Y
MA6813400180,h_OCHCTP,11-L1-7,2019-01-23 01:30:00.0,SoPmdAve,3065.55,CHCGILDTO6Y
MA6813400180,h_OCHCTP,11-L1-7,2019-01-23 01:45:00.0,Qmin,8.91,CHCGILDTO6Y
MA6813400180,h_OCHCTP,11-L1-7,2019-01-23 01:45:00.0,PhaseCorrectionAve,-0.122,CHCGILDTO6Y
MA6813400180,h_OCHCTP,11-L1-7,2019-01-23 01:45:00.0,BerPreFecMax,0.00263,CHCGILDTO6Y
MA6813400180,h_OCHCTP,11-L1-7,2019-01-23 01:45:00.0,PmdMin,0.242,CHCGILDTO6Y
MA6813400180,h_OCHCTP,11-L1-7,2019-01-23 01:45:00.0,SoPmdAve,3120.29,CHCGILDTO6Y
MA6813400180,h_OCHCTP,11-L1-8,2019-01-23 01:15:00.0,Qmin,9.04,CHCGILDTO6Y
MA6813400180,h_OCHCTP,11-L1-8,2019-01-23 01:15:00.0,PhaseCorrectionAve,4.81e-07,CHCGILDTO6Y
MA6813400180,h_OCHCTP,11-L1-8,2019-01-23 01:15:00.0,BerPreFecMax,0.00231,CHCGILDTO6Y
MA6813400180,h_OCHCTP,11-L1-8,2019-01-23 01:15:00.0,PmdMin,1.18,CHCGILDTO6Y
MA6813400180,h_OCHCTP,11-L1-8,2019-01-23 01:15:00.0,SoPmdAve,3066.32,CHCGILDTO6Y
MA6813400180,h_OCHCTP,11-L1-8,2019-01-23 01:30:00.0,Qmin,9.05,CHCGILDTO6Y
MA6813400180,h_OCHCTP,11-L1-8,2019-01-23 01:30:00.0,PhaseCorrectionAve,-0.183,CHCGILDTO6Y
MA6813400180,h_OCHCTP,11-L1-8,2019-01-23 01:30:00.0,BerPreFecMax,0.00229,CHCGILDTO6Y
MA6813400180,h_OCHCTP,11-L1-8,2019-01-23 01:30:00.0,PmdMin,0.612,CHCGILDTO6Y
MA6813400180,h_OCHCTP,11-L1-8,2019-01-23 01:30:00.0,SoPmdAve,3034.08,CHCGILDTO6Y
MA6813400180,h_OCHCTP,11-L1-8,2019-01-23 01:45:00.0,Qmin,9.01,CHCGILDTO6Y
MA6813400180,h_OCHCTP,11-L1-8,2019-01-23 01:45:00.0,PhaseCorrectionAve,-0.122,CHCGILDTO6Y
MA6813400180,h_OCHCTP,11-L1-8,2019-01-23 01:45:00.0,BerPreFecMax,0.00239,CHCGILDTO6Y
MA6813400180,h_OCHCTP,11-L1-8,2019-01-23 01:45:00.0,PmdMin,1.11,CHCGILDTO6Y
MA6813400180,h_OCHCTP,11-L1-8,2019-01-23 01:45:00.0,SoPmdAve,3093.53,CHCGILDTO6Y
MA6813400180,h_OCHCTP,11-L1-9,2019-01-23 01:15:00.0,Qmin,8.92,CHCGILDTO6Y
MA6813400180,h_OCHCTP,11-L1-9,2019-01-23 01:15:00.0,PhaseCorrectionAve,1.23e-06,CHCGILDTO6Y
MA6813400180,h_OCHCTP,11-L1-9,2019-01-23 01:15:00.0,BerPreFecMax,0.00261,CHCGILDTO6Y
MA6813400180,h_OCHCTP,11-L1-9,2019-01-23 01:15:00.0,PmdMin,0.873,CHCGILDTO6Y
MA6813400180,h_OCHCTP,11-L1-9,2019-01-23 01:15:00.0,SoPmdAve,3102.39,CHCGILDTO6Y
MA6813400180,h_OCHCTP,11-L1-9,2019-01-23 01:30:00.0,Qmin,8.94,CHCGILDTO6Y
MA6813400180,h_OCHCTP,11-L1-9,2019-01-23 01:30:00.0,PhaseCorrectionAve,-0.183,CHCGILDTO6Y
MA6813400180,h_OCHCTP,11-L1-9,2019-01-23 01:30:00.0,BerPreFecMax,0.00256,CHCGILDTO6Y
MA6813400180,h_OCHCTP,11-L1-9,2019-01-23 01:30:00.0,PmdMin,0.176,CHCGILDTO6Y
MA6813400180,h_OCHCTP,11-L1-9,2019-01-23 01:30:00.0,SoPmdAve,3082.14,CHCGILDTO6Y
MA6813400180,h_OCHCTP,11-L1-9,2019-01-23 01:45:00.0,Qmin,8.95,CHCGILDTO6Y
MA6813400180,h_OCHCTP,11-L1-9,2019-01-23 01:45:00.0,PhaseCorrectionAve,-0.183,CHCGILDTO6Y
MA6813400180,h_OCHCTP,11-L1-9,2019-01-23 01:45:00.0,BerPreFecMax,0.00253,CHCGILDTO6Y
MA6813400180,h_OCHCTP,11-L1-9,2019-01-23 01:45:00.0,PmdMin,0.337,CHCGILDTO6Y
MA6813400180,h_OCHCTP,11-L1-9,2019-01-23 01:45:00.0,SoPmdAve,3091.73,CHCGILDTO6Y
MA6813400180,h_OCHCTP,11-L1-10,2019-01-23 01:15:00.0,Qmin,9.05,CHCGILDTO6Y
MA6813400180,h_OCHCTP,11-L1-10,2019-01-23 01:15:00.0,PhaseCorrectionAve,-0.122,CHCGILDTO6Y
MA6813400180,h_OCHCTP,11-L1-10,2019-01-23 01:15:00.0,BerPreFecMax,0.00229,CHCGILDTO6Y
MA6813400180,h_OCHCTP,11-L1-10,2019-01-23 01:15:00.0,PmdMin,0.573,CHCGILDTO6Y
MA6813400180,h_OCHCTP,11-L1-10,2019-01-23 01:15:00.0,SoPmdAve,3167.85,CHCGILDTO6Y
MA6813400180,h_OCHCTP,11-L1-10,2019-01-23 01:30:00.0,Qmin,9.01,CHCGILDTO6Y
MA6813400180,h_OCHCTP,11-L1-10,2019-01-23 01:30:00.0,PhaseCorrectionAve,-0.183,CHCGILDTO6Y
MA6813400180,h_OCHCTP,11-L1-10,2019-01-23 01:30:00.0,BerPreFecMax,0.00238,CHCGILDTO6Y
MA6813400180,h_OCHCTP,11-L1-10,2019-01-23 01:30:00.0,PmdMin,0.451,CHCGILDTO6Y
MA6813400180,h_OCHCTP,11-L1-10,2019-01-23 01:30:00.0,SoPmdAve,3078.27,CHCGILDTO6Y
MA6813400180,h_OCHCTP,11-L1-10,2019-01-23 01:45:00.0,Qmin,9.0,CHCGILDTO6Y
MA6813400180,h_OCHCTP,11-L1-10,2019-01-23 01:45:00.0,PhaseCorrectionAve,-0.183,CHCGILDTO6Y
MA6813400180,h_OCHCTP,11-L1-10,2019-01-23 01:45:00.0,BerPreFecMax,0.0024,CHCGILDTO6Y
MA6813400180,h_OCHCTP,11-L1-10,2019-01-23 01:45:00.0,PmdMin,1.57,CHCGILDTO6Y
MA6813400180,h_OCHCTP,11-L1-10,2019-01-23 01:45:00.0,SoPmdAve,3055.49,CHCGILDTO6Y
MA6813400180,h_OCHCTP,13-L1-1,2019-01-23 01:15:00.0,Qmin,9.1,CHCGILDTO6Y
MA6813400180,h_OCHCTP,13-L1-1,2019-01-23 01:15:00.0,PhaseCorrectionAve,2.06e-07,CHCGILDTO6Y
MA6813400180,h_OCHCTP,13-L1-1,2019-01-23 01:15:00.0,BerPreFecMax,0.00219,CHCGILDTO6Y
MA6813400180,h_OCHCTP,13-L1-1,2019-01-23 01:15:00.0,PmdMin,0.707,CHCGILDTO6Y
MA6813400180,h_OCHCTP,13-L1-1,2019-01-23 01:15:00.0,SoPmdAve,3550.35,CHCGILDTO6Y
MA6813400180,h_OCHCTP,13-L1-1,2019-01-23 01:30:00.0,Qmin,9.05,CHCGILDTO6Y
MA6813400180,h_OCHCTP,13-L1-1,2019-01-23 01:30:00.0,PhaseCorrectionAve,1.91e-07,CHCGILDTO6Y
MA6813400180,h_OCHCTP,13-L1-1,2019-01-23 01:30:00.0,BerPreFecMax,0.00229,CHCGILDTO6Y
MA6813400180,h_OCHCTP,13-L1-1,2019-01-23 01:30:00.0,PmdMin,1.02,CHCGILDTO6Y
MA6813400180,h_OCHCTP,13-L1-1,2019-01-23 01:30:00.0,SoPmdAve,3636.76,CHCGILDTO6Y
MA6813400180,h_OCHCTP,13-L1-1,2019-01-23 01:45:00.0,Qmin,9.02,CHCGILDTO6Y
MA6813400180,h_OCHCTP,13-L1-1,2019-01-23 01:45:00.0,PhaseCorrectionAve,1.95e-07,CHCGILDTO6Y
MA6813400180,h_OCHCTP,13-L1-1,2019-01-23 01:45:00.0,BerPreFecMax,0.00235,CHCGILDTO6Y
MA6813400180,h_OCHCTP,13-L1-1,2019-01-23 01:45:00.0,PmdMin,1.08,CHCGILDTO6Y
MA6813400180,h_OCHCTP,13-L1-1,2019-01-23 01:45:00.0,SoPmdAve,3557.05,CHCGILDTO6Y
MA6813400180,h_OCHCTP,13-L1-2,2019-01-23 01:15:00.0,Qmin,9.14,CHCGILDTO6Y
MA6813400180,h_OCHCTP,13-L1-2,2019-01-23 01:15:00.0,PhaseCorrectionAve,2.68e-07,CHCGILDTO6Y
MA6813400180,h_OCHCTP,13-L1-2,2019-01-23 01:15:00.0,BerPreFecMax,0.00209,CHCGILDTO6Y
MA6813400180,h_OCHCTP,13-L1-2,2019-01-23 01:15:00.0,PmdMin,1.03,CHCGILDTO6Y
MA6813400180,h_OCHCTP,13-L1-2,2019-01-23 01:15:00.0,SoPmdAve,3488.84,CHCGILDTO6Y
MA6813400180,h_OCHCTP,13-L1-2,2019-01-23 01:30:00.0,Qmin,9.11,CHCGILDTO6Y
MA6813400180,h_OCHCTP,13-L1-2,2019-01-23 01:30:00.0,PhaseCorrectionAve,2.9e-07,CHCGILDTO6Y
MA6813400180,h_OCHCTP,13-L1-2,2019-01-23 01:30:00.0,BerPreFecMax,0.00215,CHCGILDTO6Y
MA6813400180,h_OCHCTP,13-L1-2,2019-01-23 01:30:00.0,PmdMin,1.18,CHCGILDTO6Y
MA6813400180,h_OCHCTP,13-L1-2,2019-01-23 01:30:00.0,SoPmdAve,3602.61,CHCGILDTO6Y
MA6813400180,h_OCHCTP,13-L1-2,2019-01-23 01:45:00.0,Qmin,9.06,CHCGILDTO6Y
MA6813400180,h_OCHCTP,13-L1-2,2019-01-23 01:45:00.0,PhaseCorrectionAve,-0.061,CHCGILDTO6Y
MA6813400180,h_OCHCTP,13-L1-2,2019-01-23 01:45:00.0,BerPreFecMax,0.00228,CHCGILDTO6Y
MA6813400180,h_OCHCTP,13-L1-2,2019-01-23 01:45:00.0,PmdMin,1.04,CHCGILDTO6Y
MA6813400180,h_OCHCTP,13-L1-2,2019-01-23 01:45:00.0,SoPmdAve,3526.1,CHCGILDTO6Y
MA6813400180,h_OCHCTP,13-L1-3,2019-01-23 01:15:00.0,Qmin,8.88,CHCGILDTO6Y
MA6813400180,h_OCHCTP,13-L1-3,2019-01-23 01:15:00.0,PhaseCorrectionAve,-0.061,CHCGILDTO6Y
MA6813400180,h_OCHCTP,13-L1-3,2019-01-23 01:15:00.0,BerPreFecMax,0.00271,CHCGILDTO6Y
MA6813400180,h_OCHCTP,13-L1-3,2019-01-23 01:15:00.0,PmdMin,0.559,CHCGILDTO6Y
MA6813400180,h_OCHCTP,13-L1-3,2019-01-23 01:15:00.0,SoPmdAve,2984.71,CHCGILDTO6Y
MA6813400180,h_OCHCTP,13-L1-3,2019-01-23 01:30:00.0,Qmin,8.88,CHCGILDTO6Y
MA6813400180,h_OCHCTP,13-L1-3,2019-01-23 01:30:00.0,PhaseCorrectionAve,4.74e-07,CHCGILDTO6Y
MA6813400180,h_OCHCTP,13-L1-3,2019-01-23 01:30:00.0,BerPreFecMax,0.00271,CHCGILDTO6Y
MA6813400180,h_OCHCTP,13-L1-3,2019-01-23 01:30:00.0,PmdMin,1.02,CHCGILDTO6Y
MA6813400180,h_OCHCTP,13-L1-3,2019-01-23 01:30:00.0,SoPmdAve,2977.88,CHCGILDTO6Y
MA6813400180,h_OCHCTP,13-L1-3,2019-01-23 01:45:00.0,Qmin,8.88,CHCGILDTO6Y
MA6813400180,h_OCHCTP,13-L1-3,2019-01-23 01:45:00.0,PhaseCorrectionAve,-0.183,CHCGILDTO6Y
MA6813400180,h_OCHCTP,13-L1-3,2019-01-23 01:45:00.0,BerPreFecMax,0.00273,CHCGILDTO6Y
MA6813400180,h_OCHCTP,13-L1-3,2019-01-23 01:45:00.0,PmdMin,0.715,CHCGILDTO6Y
MA6813400180,h_OCHCTP,13-L1-3,2019-01-23 01:45:00.0,SoPmdAve,2986.98,CHCGILDTO6Y
MA6813400180,h_OCHCTP,13-L1-4,2019-01-23 01:15:00.0,Qmin,8.62,CHCGILDTO6Y
MA6813400180,h_OCHCTP,13-L1-4,2019-01-23 01:15:00.0,PhaseCorrectionAve,-0.061,CHCGILDTO6Y
MA6813400180,h_OCHCTP,13-L1-4,2019-01-23 01:15:00.0,BerPreFecMax,0.0035,CHCGILDTO6Y
MA6813400180,h_OCHCTP,13-L1-4,2019-01-23 01:15:00.0,PmdMin,0.29,CHCGILDTO6Y
MA6813400180,h_OCHCTP,13-L1-4,2019-01-23 01:15:00.0,SoPmdAve,3525.57,CHCGILDTO6Y
MA6813400180,h_OCHCTP,13-L1-4,2019-01-23 01:30:00.0,Qmin,8.64,CHCGILDTO6Y
MA6813400180,h_OCHCTP,13-L1-4,2019-01-23 01:30:00.0,PhaseCorrectionAve,5.52e-07,CHCGILDTO6Y
MA6813400180,h_OCHCTP,13-L1-4,2019-01-23 01:30:00.0,BerPreFecMax,0.00342,CHCGILDTO6Y
MA6813400180,h_OCHCTP,13-L1-4,2019-01-23 01:30:00.0,PmdMin,1.12,CHCGILDTO6Y
MA6813400180,h_OCHCTP,13-L1-4,2019-01-23 01:30:00.0,SoPmdAve,3412.55,CHCGILDTO6Y
MA6813400180,h_OCHCTP,13-L1-4,2019-01-23 01:45:00.0,Qmin,8.67,CHCGILDTO6Y
MA6813400180,h_OCHCTP,13-L1-4,2019-01-23 01:45:00.0,PhaseCorrectionAve,-0.244,CHCGILDTO6Y
MA6813400180,h_OCHCTP,13-L1-4,2019-01-23 01:45:00.0,BerPreFecMax,0.00333,CHCGILDTO6Y
MA6813400180,h_OCHCTP,13-L1-4,2019-01-23 01:45:00.0,PmdMin,0.608,CHCGILDTO6Y
MA6813400180,h_OCHCTP,13-L1-4,2019-01-23 01:45:00.0,SoPmdAve,3338.66,CHCGILDTO6Y
MA6813400180,h_OCHCTP,13-L1-5,2019-01-23 01:15:00.0,Qmin,8.64,CHCGILDTO6Y
MA6813400180,h_OCHCTP,13-L1-5,2019-01-23 01:15:00.0,PhaseCorrectionAve,-0.061,CHCGILDTO6Y
MA6813400180,h_OCHCTP,13-L1-5,2019-01-23 01:15:00.0,BerPreFecMax,0.00343,CHCGILDTO6Y
MA6813400180,h_OCHCTP,13-L1-5,2019-01-23 01:15:00.0,PmdMin,1.03,CHCGILDTO6Y
MA6813400180,h_OCHCTP,13-L1-5,2019-01-23 01:15:00.0,SoPmdAve,2778.29,CHCGILDTO6Y
MA6813400180,h_OCHCTP,13-L1-5,2019-01-23 01:30:00.0,Qmin,8.67,CHCGILDTO6Y
MA6813400180,h_OCHCTP,13-L1-5,2019-01-23 01:30:00.0,PhaseCorrectionAve,3.83e-07,CHCGILDTO6Y
MA6813400180,h_OCHCTP,13-L1-5,2019-01-23 01:30:00.0,BerPreFecMax,0.00333,CHCGILDTO6Y
MA6813400180,h_OCHCTP,13-L1-5,2019-01-23 01:30:00.0,PmdMin,0.771,CHCGILDTO6Y
MA6813400180,h_OCHCTP,13-L1-5,2019-01-23 01:30:00.0,SoPmdAve,2818.34,CHCGILDTO6Y
MA6813400180,h_OCHCTP,13-L1-5,2019-01-23 01:45:00.0,Qmin,8.63,CHCGILDTO6Y
MA6813400180,h_OCHCTP,13-L1-5,2019-01-23 01:45:00.0,PhaseCorrectionAve,-0.305,CHCGILDTO6Y
MA6813400180,h_OCHCTP,13-L1-5,2019-01-23 01:45:00.0,BerPreFecMax,0.00346,CHCGILDTO6Y
MA6813400180,h_OCHCTP,13-L1-5,2019-01-23 01:45:00.0,PmdMin,0.895,CHCGILDTO6Y
MA6813400180,h_OCHCTP,13-L1-5,2019-01-23 01:45:00.0,SoPmdAve,2792.22,CHCGILDTO6Y
MA6813400180,h_OCHCTP,13-L1-6,2019-01-23 01:15:00.0,Qmin,8.85,CHCGILDTO6Y
MA6813400180,h_OCHCTP,13-L1-6,2019-01-23 01:15:00.0,PhaseCorrectionAve,-0.061,CHCGILDTO6Y
MA6813400180,h_OCHCTP,13-L1-6,2019-01-23 01:15:00.0,BerPreFecMax,0.00279,CHCGILDTO6Y
MA6813400180,h_OCHCTP,13-L1-6,2019-01-23 01:15:00.0,PmdMin,1.24,CHCGILDTO6Y
MA6813400180,h_OCHCTP,13-L1-6,2019-01-23 01:15:00.0,SoPmdAve,2984.22,CHCGILDTO6Y
MA6813400180,h_OCHCTP,13-L1-6,2019-01-23 01:30:00.0,Qmin,8.82,CHCGILDTO6Y
MA6813400180,h_OCHCTP,13-L1-6,2019-01-23 01:30:00.0,PhaseCorrectionAve,-0.061,CHCGILDTO6Y
MA6813400180,h_OCHCTP,13-L1-6,2019-01-23 01:30:00.0,BerPreFecMax,0.00288,CHCGILDTO6Y
MA6813400180,h_OCHCTP,13-L1-6,2019-01-23 01:30:00.0,PmdMin,1.09,CHCGILDTO6Y
MA6813400180,h_OCHCTP,13-L1-6,2019-01-23 01:30:00.0,SoPmdAve,3078.8,CHCGILDTO6Y
MA6813400180,h_OCHCTP,13-L1-6,2019-01-23 01:45:00.0,Qmin,8.77,CHCGILDTO6Y
MA6813400180,h_OCHCTP,13-L1-6,2019-01-23 01:45:00.0,PhaseCorrectionAve,-0.427,CHCGILDTO6Y
MA6813400180,h_OCHCTP,13-L1-6,2019-01-23 01:45:00.0,BerPreFecMax,0.00302,CHCGILDTO6Y
MA6813400180,h_OCHCTP,13-L1-6,2019-01-23 01:45:00.0,PmdMin,0.484,CHCGILDTO6Y
MA6813400180,h_OCHCTP,13-L1-6,2019-01-23 01:45:00.0,SoPmdAve,3000.49,CHCGILDTO6Y
MA6813400180,h_OCHCTP,13-L1-7,2019-01-23 01:15:00.0,Qmin,8.84,CHCGILDTO6Y
MA6813400180,h_OCHCTP,13-L1-7,2019-01-23 01:15:00.0,PhaseCorrectionAve,-0.061,CHCGILDTO6Y
MA6813400180,h_OCHCTP,13-L1-7,2019-01-23 01:15:00.0,BerPreFecMax,0.00284,CHCGILDTO6Y
MA6813400180,h_OCHCTP,13-L1-7,2019-01-23 01:15:00.0,PmdMin,0.57,CHCGILDTO6Y
MA6813400180,h_OCHCTP,13-L1-7,2019-01-23 01:15:00.0,SoPmdAve,3806.04,CHCGILDTO6Y
MA6813400180,h_OCHCTP,13-L1-7,2019-01-23 01:30:00.0,Qmin,8.78,CHCGILDTO6Y
MA6813400180,h_OCHCTP,13-L1-7,2019-01-23 01:30:00.0,PhaseCorrectionAve,-0.122,CHCGILDTO6Y
MA6813400180,h_OCHCTP,13-L1-7,2019-01-23 01:30:00.0,BerPreFecMax,0.00299,CHCGILDTO6Y
MA6813400180,h_OCHCTP,13-L1-7,2019-01-23 01:30:00.0,PmdMin,0.474,CHCGILDTO6Y
MA6813400180,h_OCHCTP,13-L1-7,2019-01-23 01:30:00.0,SoPmdAve,3688.16,CHCGILDTO6Y
MA6813400180,h_OCHCTP,13-L1-7,2019-01-23 01:45:00.0,Qmin,8.79,CHCGILDTO6Y
MA6813400180,h_OCHCTP,13-L1-7,2019-01-23 01:45:00.0,PhaseCorrectionAve,-0.427,CHCGILDTO6Y
MA6813400180,h_OCHCTP,13-L1-7,2019-01-23 01:45:00.0,BerPreFecMax,0.00298,CHCGILDTO6Y
MA6813400180,h_OCHCTP,13-L1-7,2019-01-23 01:45:00.0,PmdMin,1.25,CHCGILDTO6Y
MA6813400180,h_OCHCTP,13-L1-7,2019-01-23 01:45:00.0,SoPmdAve,3747.87,CHCGILDTO6Y
MA6813400180,h_OCHCTP,13-L1-8,2019-01-23 01:15:00.0,Qmin,8.97,CHCGILDTO6Y
MA6813400180,h_OCHCTP,13-L1-8,2019-01-23 01:15:00.0,PhaseCorrectionAve,-0.061,CHCGILDTO6Y
MA6813400180,h_OCHCTP,13-L1-8,2019-01-23 01:15:00.0,BerPreFecMax,0.00248,CHCGILDTO6Y
MA6813400180,h_OCHCTP,13-L1-8,2019-01-23 01:15:00.0,PmdMin,1.32,CHCGILDTO6Y
MA6813400180,h_OCHCTP,13-L1-8,2019-01-23 01:15:00.0,SoPmdAve,4011.21,CHCGILDTO6Y
MA6813400180,h_OCHCTP,13-L1-8,2019-01-23 01:30:00.0,Qmin,8.96,CHCGILDTO6Y
MA6813400180,h_OCHCTP,13-L1-8,2019-01-23 01:30:00.0,PhaseCorrectionAve,-0.122,CHCGILDTO6Y
MA6813400180,h_OCHCTP,13-L1-8,2019-01-23 01:30:00.0,BerPreFecMax,0.00251,CHCGILDTO6Y
MA6813400180,h_OCHCTP,13-L1-8,2019-01-23 01:30:00.0,PmdMin,1.22,CHCGILDTO6Y
MA6813400180,h_OCHCTP,13-L1-8,2019-01-23 01:30:00.0,SoPmdAve,3908.99,CHCGILDTO6Y
MA6813400180,h_OCHCTP,13-L1-8,2019-01-23 01:45:00.0,Qmin,8.94,CHCGILDTO6Y
MA6813400180,h_OCHCTP,13-L1-8,2019-01-23 01:45:00.0,PhaseCorrectionAve,-0.427,CHCGILDTO6Y
MA6813400180,h_OCHCTP,13-L1-8,2019-01-23 01:45:00.0,BerPreFecMax,0.00256,CHCGILDTO6Y
MA6813400180,h_OCHCTP,13-L1-8,2019-01-23 01:45:00.0,PmdMin,0.53,CHCGILDTO6Y
MA6813400180,h_OCHCTP,13-L1-8,2019-01-23 01:45:00.0,SoPmdAve,3828.1,CHCGILDTO6Y
MA6813400180,h_OCHCTP,13-L1-9,2019-01-23 01:15:00.0,Qmin,8.92,CHCGILDTO6Y
MA6813400180,h_OCHCTP,13-L1-9,2019-01-23 01:15:00.0,PhaseCorrectionAve,-0.122,CHCGILDTO6Y
MA6813400180,h_OCHCTP,13-L1-9,2019-01-23 01:15:00.0,BerPreFecMax,0.00262,CHCGILDTO6Y
MA6813400180,h_OCHCTP,13-L1-9,2019-01-23 01:15:00.0,PmdMin,1.56,CHCGILDTO6Y
MA6813400180,h_OCHCTP,13-L1-9,2019-01-23 01:15:00.0,SoPmdAve,3534.47,CHCGILDTO6Y
MA6813400180,h_OCHCTP,13-L1-9,2019-01-23 01:30:00.0,Qmin,8.93,CHCGILDTO6Y
MA6813400180,h_OCHCTP,13-L1-9,2019-01-23 01:30:00.0,PhaseCorrectionAve,-0.244,CHCGILDTO6Y
MA6813400180,h_OCHCTP,13-L1-9,2019-01-23 01:30:00.0,BerPreFecMax,0.0026,CHCGILDTO6Y
MA6813400180,h_OCHCTP,13-L1-9,2019-01-23 01:30:00.0,PmdMin,0.929,CHCGILDTO6Y
MA6813400180,h_OCHCTP,13-L1-9,2019-01-23 01:30:00.0,SoPmdAve,3608.85,CHCGILDTO6Y
MA6813400180,h_OCHCTP,13-L1-9,2019-01-23 01:45:00.0,Qmin,8.88,CHCGILDTO6Y
MA6813400180,h_OCHCTP,13-L1-9,2019-01-23 01:45:00.0,PhaseCorrectionAve,-0.427,CHCGILDTO6Y
MA6813400180,h_OCHCTP,13-L1-9,2019-01-23 01:45:00.0,BerPreFecMax,0.00272,CHCGILDTO6Y
MA6813400180,h_OCHCTP,13-L1-9,2019-01-23 01:45:00.0,PmdMin,0.875,CHCGILDTO6Y
MA6813400180,h_OCHCTP,13-L1-9,2019-01-23 01:45:00.0,SoPmdAve,3511.17,CHCGILDTO6Y
MA6813400180,h_OCHCTP,13-L1-10,2019-01-23 01:15:00.0,Qmin,8.73,CHCGILDTO6Y
MA6813400180,h_OCHCTP,13-L1-10,2019-01-23 01:15:00.0,PhaseCorrectionAve,-0.122,CHCGILDTO6Y
MA6813400180,h_OCHCTP,13-L1-10,2019-01-23 01:15:00.0,BerPreFecMax,0.00315,CHCGILDTO6Y
MA6813400180,h_OCHCTP,13-L1-10,2019-01-23 01:15:00.0,PmdMin,0.461,CHCGILDTO6Y
MA6813400180,h_OCHCTP,13-L1-10,2019-01-23 01:15:00.0,SoPmdAve,3764.54,CHCGILDTO6Y
MA6813400180,h_OCHCTP,13-L1-10,2019-01-23 01:30:00.0,Qmin,8.7,CHCGILDTO6Y
MA6813400180,h_OCHCTP,13-L1-10,2019-01-23 01:30:00.0,PhaseCorrectionAve,-0.244,CHCGILDTO6Y
MA6813400180,h_OCHCTP,13-L1-10,2019-01-23 01:30:00.0,BerPreFecMax,0.00323,CHCGILDTO6Y
MA6813400180,h_OCHCTP,13-L1-10,2019-01-23 01:30:00.0,PmdMin,0.63,CHCGILDTO6Y
MA6813400180,h_OCHCTP,13-L1-10,2019-01-23 01:30:00.0,SoPmdAve,3733.42,CHCGILDTO6Y
MA6813400180,h_OCHCTP,13-L1-10,2019-01-23 01:45:00.0,Qmin,8.73,CHCGILDTO6Y
MA6813400180,h_OCHCTP,13-L1-10,2019-01-23 01:45:00.0,PhaseCorrectionAve,-0.427,CHCGILDTO6Y
MA6813400180,h_OCHCTP,13-L1-10,2019-01-23 01:45:00.0,BerPreFecMax,0.00313,CHCGILDTO6Y
MA6813400180,h_OCHCTP,13-L1-10,2019-01-23 01:45:00.0,PmdMin,0.902,CHCGILDTO6Y
MA6813400180,h_OCHCTP,13-L1-10,2019-01-23 01:45:00.0,SoPmdAve,3807.06,CHCGILDTO6Y
MA6813400180,h_OCHCTP,10-L1-1,2019-01-23 01:15:00.0,Qmin,9.54,CHCGILDTO6Y
MA6813400180,h_OCHCTP,10-L1-1,2019-01-23 01:15:00.0,PhaseCorrectionAve,5.26e-07,CHCGILDTO6Y
MA6813400180,h_OCHCTP,10-L1-1,2019-01-23 01:15:00.0,BerPreFecMax,0.00135,CHCGILDTO6Y
MA6813400180,h_OCHCTP,10-L1-1,2019-01-23 01:15:00.0,PmdMin,1.48,CHCGILDTO6Y
MA6813400180,h_OCHCTP,10-L1-1,2019-01-23 01:15:00.0,SoPmdAve,3244.05,CHCGILDTO6Y
MA6813400180,h_OCHCTP,10-L1-1,2019-01-23 01:30:00.0,Qmin,9.55,CHCGILDTO6Y
MA6813400180,h_OCHCTP,10-L1-1,2019-01-23 01:30:00.0,PhaseCorrectionAve,5.29e-07,CHCGILDTO6Y
MA6813400180,h_OCHCTP,10-L1-1,2019-01-23 01:30:00.0,BerPreFecMax,0.00134,CHCGILDTO6Y
MA6813400180,h_OCHCTP,10-L1-1,2019-01-23 01:30:00.0,PmdMin,2.26,CHCGILDTO6Y
MA6813400180,h_OCHCTP,10-L1-1,2019-01-23 01:30:00.0,SoPmdAve,3231.58,CHCGILDTO6Y
MA6813400180,h_OCHCTP,10-L1-1,2019-01-23 01:45:00.0,Qmin,9.55,CHCGILDTO6Y
MA6813400180,h_OCHCTP,10-L1-1,2019-01-23 01:45:00.0,PhaseCorrectionAve,5.5e-07,CHCGILDTO6Y
MA6813400180,h_OCHCTP,10-L1-1,2019-01-23 01:45:00.0,BerPreFecMax,0.00134,CHCGILDTO6Y
MA6813400180,h_OCHCTP,10-L1-1,2019-01-23 01:45:00.0,PmdMin,4.04,CHCGILDTO6Y
MA6813400180,h_OCHCTP,10-L1-1,2019-01-23 01:45:00.0,SoPmdAve,3180.58,CHCGILDTO6Y
MA6813400180,h_OCHCTP,10-L1-2,2019-01-23 01:15:00.0,Qmin,9.26,CHCGILDTO6Y
MA6813400180,h_OCHCTP,10-L1-2,2019-01-23 01:15:00.0,PhaseCorrectionAve,-0.061,CHCGILDTO6Y
MA6813400180,h_OCHCTP,10-L1-2,2019-01-23 01:15:00.0,BerPreFecMax,0.00184,CHCGILDTO6Y
MA6813400180,h_OCHCTP,10-L1-2,2019-01-23 01:15:00.0,PmdMin,1.37,CHCGILDTO6Y
MA6813400180,h_OCHCTP,10-L1-2,2019-01-23 01:15:00.0,SoPmdAve,3411.8,CHCGILDTO6Y
MA6813400180,h_OCHCTP,10-L1-2,2019-01-23 01:30:00.0,Qmin,9.26,CHCGILDTO6Y
MA6813400180,h_OCHCTP,10-L1-2,2019-01-23 01:30:00.0,PhaseCorrectionAve,-0.061,CHCGILDTO6Y
MA6813400180,h_OCHCTP,10-L1-2,2019-01-23 01:30:00.0,BerPreFecMax,0.00184,CHCGILDTO6Y
MA6813400180,h_OCHCTP,10-L1-2,2019-01-23 01:30:00.0,PmdMin,0.903,CHCGILDTO6Y
MA6813400180,h_OCHCTP,10-L1-2,2019-01-23 01:30:00.0,SoPmdAve,3400.48,CHCGILDTO6Y
MA6813400180,h_OCHCTP,10-L1-2,2019-01-23 01:45:00.0,Qmin,9.27,CHCGILDTO6Y
MA6813400180,h_OCHCTP,10-L1-2,2019-01-23 01:45:00.0,PhaseCorrectionAve,3.41e-07,CHCGILDTO6Y
MA6813400180,h_OCHCTP,10-L1-2,2019-01-23 01:45:00.0,BerPreFecMax,0.00183,CHCGILDTO6Y
MA6813400180,h_OCHCTP,10-L1-2,2019-01-23 01:45:00.0,PmdMin,1.32,CHCGILDTO6Y
MA6813400180,h_OCHCTP,10-L1-2,2019-01-23 01:45:00.0,SoPmdAve,3368.44,CHCGILDTO6Y
MA6813400180,h_OCHCTP,10-L1-3,2019-01-23 01:15:00.0,Qmin,9.06,CHCGILDTO6Y
MA6813400180,h_OCHCTP,10-L1-3,2019-01-23 01:15:00.0,PhaseCorrectionAve,-0.061,CHCGILDTO6Y
MA6813400180,h_OCHCTP,10-L1-3,2019-01-23 01:15:00.0,BerPreFecMax,0.00226,CHCGILDTO6Y
MA6813400180,h_OCHCTP,10-L1-3,2019-01-23 01:15:00.0,PmdMin,1.98,CHCGILDTO6Y
MA6813400180,h_OCHCTP,10-L1-3,2019-01-23 01:15:00.0,SoPmdAve,2842.08,CHCGILDTO6Y
MA6813400180,h_OCHCTP,10-L1-3,2019-01-23 01:30:00.0,Qmin,9.07,CHCGILDTO6Y
MA6813400180,h_OCHCTP,10-L1-3,2019-01-23 01:30:00.0,PhaseCorrectionAve,-0.061,CHCGILDTO6Y
MA6813400180,h_OCHCTP,10-L1-3,2019-01-23 01:30:00.0,BerPreFecMax,0.00225,CHCGILDTO6Y
MA6813400180,h_OCHCTP,10-L1-3,2019-01-23 01:30:00.0,PmdMin,1.05,CHCGILDTO6Y
MA6813400180,h_OCHCTP,10-L1-3,2019-01-23 01:30:00.0,SoPmdAve,2829.83,CHCGILDTO6Y
MA6813400180,h_OCHCTP,10-L1-3,2019-01-23 01:45:00.0,Qmin,9.07,CHCGILDTO6Y
MA6813400180,h_OCHCTP,10-L1-3,2019-01-23 01:45:00.0,PhaseCorrectionAve,-0.0611,CHCGILDTO6Y
MA6813400180,h_OCHCTP,10-L1-3,2019-01-23 01:45:00.0,BerPreFecMax,0.00225,CHCGILDTO6Y
MA6813400180,h_OCHCTP,10-L1-3,2019-01-23 01:45:00.0,PmdMin,1.43,CHCGILDTO6Y
MA6813400180,h_OCHCTP,10-L1-3,2019-01-23 01:45:00.0,SoPmdAve,2825.47,CHCGILDTO6Y
MA6813400180,h_OCHCTP,10-L1-4,2019-01-23 01:15:00.0,Qmin,8.54,CHCGILDTO6Y
MA6813400180,h_OCHCTP,10-L1-4,2019-01-23 01:15:00.0,PhaseCorrectionAve,-0.061,CHCGILDTO6Y
MA6813400180,h_OCHCTP,10-L1-4,2019-01-23 01:15:00.0,BerPreFecMax,0.00375,CHCGILDTO6Y
MA6813400180,h_OCHCTP,10-L1-4,2019-01-23 01:15:00.0,PmdMin,4.12,CHCGILDTO6Y
MA6813400180,h_OCHCTP,10-L1-4,2019-01-23 01:15:00.0,SoPmdAve,2968.66,CHCGILDTO6Y
MA6813400180,h_OCHCTP,10-L1-4,2019-01-23 01:30:00.0,Qmin,8.54,CHCGILDTO6Y
MA6813400180,h_OCHCTP,10-L1-4,2019-01-23 01:30:00.0,PhaseCorrectionAve,-0.061,CHCGILDTO6Y
MA6813400180,h_OCHCTP,10-L1-4,2019-01-23 01:30:00.0,BerPreFecMax,0.00375,CHCGILDTO6Y
MA6813400180,h_OCHCTP,10-L1-4,2019-01-23 01:30:00.0,PmdMin,5.39,CHCGILDTO6Y
MA6813400180,h_OCHCTP,10-L1-4,2019-01-23 01:30:00.0,SoPmdAve,3081.18,CHCGILDTO6Y
MA6813400180,h_OCHCTP,10-L1-4,2019-01-23 01:45:00.0,Qmin,8.56,CHCGILDTO6Y
MA6813400180,h_OCHCTP,10-L1-4,2019-01-23 01:45:00.0,PhaseCorrectionAve,-0.0611,CHCGILDTO6Y
MA6813400180,h_OCHCTP,10-L1-4,2019-01-23 01:45:00.0,BerPreFecMax,0.00369,CHCGILDTO6Y
MA6813400180,h_OCHCTP,10-L1-4,2019-01-23 01:45:00.0,PmdMin,3.82,CHCGILDTO6Y
MA6813400180,h_OCHCTP,10-L1-4,2019-01-23 01:45:00.0,SoPmdAve,3039.34,CHCGILDTO6Y
MA6813400180,h_OCHCTP,10-L1-5,2019-01-23 01:15:00.0,Qmin,8.72,CHCGILDTO6Y
MA6813400180,h_OCHCTP,10-L1-5,2019-01-23 01:15:00.0,PhaseCorrectionAve,-0.061,CHCGILDTO6Y
MA6813400180,h_OCHCTP,10-L1-5,2019-01-23 01:15:00.0,BerPreFecMax,0.00318,CHCGILDTO6Y
MA6813400180,h_OCHCTP,10-L1-5,2019-01-23 01:15:00.0,PmdMin,6.95,CHCGILDTO6Y
MA6813400180,h_OCHCTP,10-L1-5,2019-01-23 01:15:00.0,SoPmdAve,2827.08,CHCGILDTO6Y
MA6813400180,h_OCHCTP,10-L1-5,2019-01-23 01:30:00.0,Qmin,8.73,CHCGILDTO6Y
MA6813400180,h_OCHCTP,10-L1-5,2019-01-23 01:30:00.0,PhaseCorrectionAve,-0.061,CHCGILDTO6Y
MA6813400180,h_OCHCTP,10-L1-5,2019-01-23 01:30:00.0,BerPreFecMax,0.00315,CHCGILDTO6Y
MA6813400180,h_OCHCTP,10-L1-5,2019-01-23 01:30:00.0,PmdMin,5.31,CHCGILDTO6Y
MA6813400180,h_OCHCTP,10-L1-5,2019-01-23 01:30:00.0,SoPmdAve,2799.26,CHCGILDTO6Y
MA6813400180,h_OCHCTP,10-L1-5,2019-01-23 01:45:00.0,Qmin,8.71,CHCGILDTO6Y
MA6813400180,h_OCHCTP,10-L1-5,2019-01-23 01:45:00.0,PhaseCorrectionAve,-0.0611,CHCGILDTO6Y
MA6813400180,h_OCHCTP,10-L1-5,2019-01-23 01:45:00.0,BerPreFecMax,0.00321,CHCGILDTO6Y
MA6813400180,h_OCHCTP,10-L1-5,2019-01-23 01:45:00.0,PmdMin,4.76,CHCGILDTO6Y
MA6813400180,h_OCHCTP,10-L1-5,2019-01-23 01:45:00.0,SoPmdAve,2816.62,CHCGILDTO6Y
MA6813400180,h_OCHCTP,10-L1-6,2019-01-23 01:15:00.0,Qmin,8.9,CHCGILDTO6Y
MA6813400180,h_OCHCTP,10-L1-6,2019-01-23 01:15:00.0,PhaseCorrectionAve,-0.061,CHCGILDTO6Y
MA6813400180,h_OCHCTP,10-L1-6,2019-01-23 01:15:00.0,BerPreFecMax,0.00267,CHCGILDTO6Y
MA6813400180,h_OCHCTP,10-L1-6,2019-01-23 01:15:00.0,PmdMin,0.312,CHCGILDTO6Y
MA6813400180,h_OCHCTP,10-L1-6,2019-01-23 01:15:00.0,SoPmdAve,2860.2,CHCGILDTO6Y
MA6813400180,h_OCHCTP,10-L1-6,2019-01-23 01:30:00.0,Qmin,8.9,CHCGILDTO6Y
MA6813400180,h_OCHCTP,10-L1-6,2019-01-23 01:30:00.0,PhaseCorrectionAve,-0.061,CHCGILDTO6Y
MA6813400180,h_OCHCTP,10-L1-6,2019-01-23 01:30:00.0,BerPreFecMax,0.00266,CHCGILDTO6Y
MA6813400180,h_OCHCTP,10-L1-6,2019-01-23 01:30:00.0,PmdMin,0.79,CHCGILDTO6Y
MA6813400180,h_OCHCTP,10-L1-6,2019-01-23 01:30:00.0,SoPmdAve,2978.6,CHCGILDTO6Y
MA6813400180,h_OCHCTP,10-L1-6,2019-01-23 01:45:00.0,Qmin,8.91,CHCGILDTO6Y
MA6813400180,h_OCHCTP,10-L1-6,2019-01-23 01:45:00.0,PhaseCorrectionAve,-0.122,CHCGILDTO6Y
MA6813400180,h_OCHCTP,10-L1-6,2019-01-23 01:45:00.0,BerPreFecMax,0.00265,CHCGILDTO6Y
MA6813400180,h_OCHCTP,10-L1-6,2019-01-23 01:45:00.0,PmdMin,0.94,CHCGILDTO6Y
MA6813400180,h_OCHCTP,10-L1-6,2019-01-23 01:45:00.0,SoPmdAve,2886.14,CHCGILDTO6Y
MA6813400180,h_OCHCTP,10-L1-7,2019-01-23 01:15:00.0,Qmin,8.94,CHCGILDTO6Y
MA6813400180,h_OCHCTP,10-L1-7,2019-01-23 01:15:00.0,PhaseCorrectionAve,-0.061,CHCGILDTO6Y
MA6813400180,h_OCHCTP,10-L1-7,2019-01-23 01:15:00.0,BerPreFecMax,0.00257,CHCGILDTO6Y
MA6813400180,h_OCHCTP,10-L1-7,2019-01-23 01:15:00.0,PmdMin,1.24,CHCGILDTO6Y
MA6813400180,h_OCHCTP,10-L1-7,2019-01-23 01:15:00.0,SoPmdAve,3437.34,CHCGILDTO6Y
MA6813400180,h_OCHCTP,10-L1-7,2019-01-23 01:30:00.0,Qmin,8.95,CHCGILDTO6Y
MA6813400180,h_OCHCTP,10-L1-7,2019-01-23 01:30:00.0,PhaseCorrectionAve,-0.061,CHCGILDTO6Y
MA6813400180,h_OCHCTP,10-L1-7,2019-01-23 01:30:00.0,BerPreFecMax,0.00253,CHCGILDTO6Y
MA6813400180,h_OCHCTP,10-L1-7,2019-01-23 01:30:00.0,PmdMin,2.91,CHCGILDTO6Y
MA6813400180,h_OCHCTP,10-L1-7,2019-01-23 01:30:00.0,SoPmdAve,3458.46,CHCGILDTO6Y
MA6813400180,h_OCHCTP,10-L1-7,2019-01-23 01:45:00.0,Qmin,8.95,CHCGILDTO6Y
MA6813400180,h_OCHCTP,10-L1-7,2019-01-23 01:45:00.0,PhaseCorrectionAve,-0.122,CHCGILDTO6Y
MA6813400180,h_OCHCTP,10-L1-7,2019-01-23 01:45:00.0,BerPreFecMax,0.00254,CHCGILDTO6Y
MA6813400180,h_OCHCTP,10-L1-7,2019-01-23 01:45:00.0,PmdMin,2.23,CHCGILDTO6Y
MA6813400180,h_OCHCTP,10-L1-7,2019-01-23 01:45:00.0,SoPmdAve,3422.24,CHCGILDTO6Y
MA6813400180,h_OCHCTP,10-L1-8,2019-01-23 01:15:00.0,Qmin,9.34,CHCGILDTO6Y
MA6813400180,h_OCHCTP,10-L1-8,2019-01-23 01:15:00.0,PhaseCorrectionAve,-0.061,CHCGILDTO6Y
MA6813400180,h_OCHCTP,10-L1-8,2019-01-23 01:15:00.0,BerPreFecMax,0.0017,CHCGILDTO6Y
MA6813400180,h_OCHCTP,10-L1-8,2019-01-23 01:15:00.0,PmdMin,2.24,CHCGILDTO6Y
MA6813400180,h_OCHCTP,10-L1-8,2019-01-23 01:15:00.0,SoPmdAve,3382.45,CHCGILDTO6Y
MA6813400180,h_OCHCTP,10-L1-8,2019-01-23 01:30:00.0,Qmin,9.34,CHCGILDTO6Y
MA6813400180,h_OCHCTP,10-L1-8,2019-01-23 01:30:00.0,PhaseCorrectionAve,-0.061,CHCGILDTO6Y
MA6813400180,h_OCHCTP,10-L1-8,2019-01-23 01:30:00.0,BerPreFecMax,0.00169,CHCGILDTO6Y
MA6813400180,h_OCHCTP,10-L1-8,2019-01-23 01:30:00.0,PmdMin,1.8,CHCGILDTO6Y
MA6813400180,h_OCHCTP,10-L1-8,2019-01-23 01:30:00.0,SoPmdAve,3400.6,CHCGILDTO6Y
MA6813400180,h_OCHCTP,10-L1-8,2019-01-23 01:45:00.0,Qmin,9.33,CHCGILDTO6Y
MA6813400180,h_OCHCTP,10-L1-8,2019-01-23 01:45:00.0,PhaseCorrectionAve,-0.122,CHCGILDTO6Y
MA6813400180,h_OCHCTP,10-L1-8,2019-01-23 01:45:00.0,BerPreFecMax,0.00172,CHCGILDTO6Y
MA6813400180,h_OCHCTP,10-L1-8,2019-01-23 01:45:00.0,PmdMin,1.78,CHCGILDTO6Y
MA6813400180,h_OCHCTP,10-L1-8,2019-01-23 01:45:00.0,SoPmdAve,3381.3,CHCGILDTO6Y
MA6813400180,h_OCHCTP,10-L1-9,2019-01-23 01:15:00.0,Qmin,9.33,CHCGILDTO6Y
MA6813400180,h_OCHCTP,10-L1-9,2019-01-23 01:15:00.0,PhaseCorrectionAve,-0.061,CHCGILDTO6Y
MA6813400180,h_OCHCTP,10-L1-9,2019-01-23 01:15:00.0,BerPreFecMax,0.00171,CHCGILDTO6Y
MA6813400180,h_OCHCTP,10-L1-9,2019-01-23 01:15:00.0,PmdMin,1.42,CHCGILDTO6Y
MA6813400180,h_OCHCTP,10-L1-9,2019-01-23 01:15:00.0,SoPmdAve,3495.07,CHCGILDTO6Y
MA6813400180,h_OCHCTP,10-L1-9,2019-01-23 01:30:00.0,Qmin,9.32,CHCGILDTO6Y
MA6813400180,h_OCHCTP,10-L1-9,2019-01-23 01:30:00.0,PhaseCorrectionAve,-0.061,CHCGILDTO6Y
MA6813400180,h_OCHCTP,10-L1-9,2019-01-23 01:30:00.0,BerPreFecMax,0.00172,CHCGILDTO6Y
MA6813400180,h_OCHCTP,10-L1-9,2019-01-23 01:30:00.0,PmdMin,1.78,CHCGILDTO6Y
MA6813400180,h_OCHCTP,10-L1-9,2019-01-23 01:30:00.0,SoPmdAve,3486.78,CHCGILDTO6Y
MA6813400180,h_OCHCTP,10-L1-9,2019-01-23 01:45:00.0,Qmin,9.34,CHCGILDTO6Y
MA6813400180,h_OCHCTP,10-L1-9,2019-01-23 01:45:00.0,PhaseCorrectionAve,-0.183,CHCGILDTO6Y
MA6813400180,h_OCHCTP,10-L1-9,2019-01-23 01:45:00.0,BerPreFecMax,0.0017,CHCGILDTO6Y
MA6813400180,h_OCHCTP,10-L1-9,2019-01-23 01:45:00.0,PmdMin,1.11,CHCGILDTO6Y
MA6813400180,h_OCHCTP,10-L1-9,2019-01-23 01:45:00.0,SoPmdAve,3497.64,CHCGILDTO6Y
MA6813400180,h_OCHCTP,10-L1-10,2019-01-23 01:15:00.0,Qmin,9.37,CHCGILDTO6Y
MA6813400180,h_OCHCTP,10-L1-10,2019-01-23 01:15:00.0,PhaseCorrectionAve,-0.061,CHCGILDTO6Y
MA6813400180,h_OCHCTP,10-L1-10,2019-01-23 01:15:00.0,BerPreFecMax,0.00163,CHCGILDTO6Y
MA6813400180,h_OCHCTP,10-L1-10,2019-01-23 01:15:00.0,PmdMin,2.49,CHCGILDTO6Y
MA6813400180,h_OCHCTP,10-L1-10,2019-01-23 01:15:00.0,SoPmdAve,3309.59,CHCGILDTO6Y
MA6813400180,h_OCHCTP,10-L1-10,2019-01-23 01:30:00.0,Qmin,9.36,CHCGILDTO6Y
MA6813400180,h_OCHCTP,10-L1-10,2019-01-23 01:30:00.0,PhaseCorrectionAve,-0.061,CHCGILDTO6Y
MA6813400180,h_OCHCTP,10-L1-10,2019-01-23 01:30:00.0,BerPreFecMax,0.00164,CHCGILDTO6Y
MA6813400180,h_OCHCTP,10-L1-10,2019-01-23 01:30:00.0,PmdMin,2.96,CHCGILDTO6Y
MA6813400180,h_OCHCTP,10-L1-10,2019-01-23 01:30:00.0,SoPmdAve,3289.05,CHCGILDTO6Y
MA6813400180,h_OCHCTP,10-L1-10,2019-01-23 01:45:00.0,Qmin,9.36,CHCGILDTO6Y
MA6813400180,h_OCHCTP,10-L1-10,2019-01-23 01:45:00.0,PhaseCorrectionAve,-0.183,CHCGILDTO6Y
MA6813400180,h_OCHCTP,10-L1-10,2019-01-23 01:45:00.0,BerPreFecMax,0.00165,CHCGILDTO6Y
MA6813400180,h_OCHCTP,10-L1-10,2019-01-23 01:45:00.0,PmdMin,2.46,CHCGILDTO6Y
MA6813400180,h_OCHCTP,10-L1-10,2019-01-23 01:45:00.0,SoPmdAve,3271.93,CHCGILDTO6Y
