MA6813400180,h_OCHCTP,13-L1-1,2019-02-06 14:15:00.0,Qmin,9.2,CHCGILDTO6Y
MA6813400180,h_OCHCTP,13-L1-1,2019-02-06 14:15:00.0,PhaseCorrectionAve,2.62e-07,CHCGILDTO6Y
MA6813400180,h_OCHCTP,13-L1-1,2019-02-06 14:15:00.0,BerPreFecMax,0.00196,CHCGILDTO6Y
MA6813400180,h_OCHCTP,13-L1-1,2019-02-06 14:15:00.0,PmdMin,0.469,CHCGILDTO6Y
MA6813400180,h_OCHCTP,13-L1-1,2019-02-06 14:15:00.0,SoPmdAve,3525.32,CHCGILDTO6Y
MA6813400180,h_OCHCTP,13-L1-1,2019-02-06 14:30:00.0,Qmin,9.2,CHCGILDTO6Y
MA6813400180,h_OCHCTP,13-L1-1,2019-02-06 14:30:00.0,PhaseCorrectionAve,2.81e-07,CHCGILDTO6Y
MA6813400180,h_OCHCTP,13-L1-1,2019-02-06 14:30:00.0,BerPreFecMax,0.00196,CHCGILDTO6Y
MA6813400180,h_OCHCTP,13-L1-1,2019-02-06 14:30:00.0,PmdMin,1.23,CHCGILDTO6Y
MA6813400180,h_OCHCTP,13-L1-1,2019-02-06 14:30:00.0,SoPmdAve,3643.86,CHCGILDTO6Y
MA6813400180,h_OCHCTP,13-L1-1,2019-02-06 14:45:00.0,Qmin,9.13,CHCGILDTO6Y
MA6813400180,h_OCHCTP,13-L1-1,2019-02-06 14:45:00.0,PhaseCorrectionAve,2.71e-07,CHCGILDTO6Y
MA6813400180,h_OCHCTP,13-L1-1,2019-02-06 14:45:00.0,BerPreFecMax,0.0021,CHCGILDTO6Y
MA6813400180,h_OCHCTP,13-L1-1,2019-02-06 14:45:00.0,PmdMin,1.65,CHCGILDTO6Y
MA6813400180,h_OCHCTP,13-L1-1,2019-02-06 14:45:00.0,SoPmdAve,3562.49,CHCGILDTO6Y
MA6813400180,h_OCHCTP,13-L1-2,2019-02-06 14:15:00.0,Qmin,9.15,CHCGILDTO6Y
MA6813400180,h_OCHCTP,13-L1-2,2019-02-06 14:15:00.0,PhaseCorrectionAve,3.39e-07,CHCGILDTO6Y
MA6813400180,h_OCHCTP,13-L1-2,2019-02-06 14:15:00.0,BerPreFecMax,0.00207,CHCGILDTO6Y
MA6813400180,h_OCHCTP,13-L1-2,2019-02-06 14:15:00.0,PmdMin,0.794,CHCGILDTO6Y
MA6813400180,h_OCHCTP,13-L1-2,2019-02-06 14:15:00.0,SoPmdAve,3546.16,CHCGILDTO6Y
MA6813400180,h_OCHCTP,13-L1-2,2019-02-06 14:30:00.0,Qmin,9.19,CHCGILDTO6Y
MA6813400180,h_OCHCTP,13-L1-2,2019-02-06 14:30:00.0,PhaseCorrectionAve,3.71e-07,CHCGILDTO6Y
MA6813400180,h_OCHCTP,13-L1-2,2019-02-06 14:30:00.0,BerPreFecMax,0.00199,CHCGILDTO6Y
MA6813400180,h_OCHCTP,13-L1-2,2019-02-06 14:30:00.0,PmdMin,0.514,CHCGILDTO6Y
MA6813400180,h_OCHCTP,13-L1-2,2019-02-06 14:30:00.0,SoPmdAve,3522.78,CHCGILDTO6Y
MA6813400180,h_OCHCTP,13-L1-2,2019-02-06 14:45:00.0,Qmin,9.13,CHCGILDTO6Y
MA6813400180,h_OCHCTP,13-L1-2,2019-02-06 14:45:00.0,PhaseCorrectionAve,3.55e-07,CHCGILDTO6Y
MA6813400180,h_OCHCTP,13-L1-2,2019-02-06 14:45:00.0,BerPreFecMax,0.00212,CHCGILDTO6Y
MA6813400180,h_OCHCTP,13-L1-2,2019-02-06 14:45:00.0,PmdMin,1.39,CHCGILDTO6Y
MA6813400180,h_OCHCTP,13-L1-2,2019-02-06 14:45:00.0,SoPmdAve,3463.33,CHCGILDTO6Y
MA6813400180,h_OCHCTP,13-L1-3,2019-02-06 14:15:00.0,Qmin,9.0,CHCGILDTO6Y
MA6813400180,h_OCHCTP,13-L1-3,2019-02-06 14:15:00.0,PhaseCorrectionAve,4.54e-07,CHCGILDTO6Y
MA6813400180,h_OCHCTP,13-L1-3,2019-02-06 14:15:00.0,BerPreFecMax,0.00241,CHCGILDTO6Y
MA6813400180,h_OCHCTP,13-L1-3,2019-02-06 14:15:00.0,PmdMin,0.865,CHCGILDTO6Y
MA6813400180,h_OCHCTP,13-L1-3,2019-02-06 14:15:00.0,SoPmdAve,2902.75,CHCGILDTO6Y
MA6813400180,h_OCHCTP,13-L1-3,2019-02-06 14:30:00.0,Qmin,8.99,CHCGILDTO6Y
MA6813400180,h_OCHCTP,13-L1-3,2019-02-06 14:30:00.0,PhaseCorrectionAve,5.52e-07,CHCGILDTO6Y
MA6813400180,h_OCHCTP,13-L1-3,2019-02-06 14:30:00.0,BerPreFecMax,0.00244,CHCGILDTO6Y
MA6813400180,h_OCHCTP,13-L1-3,2019-02-06 14:30:00.0,PmdMin,0.5,CHCGILDTO6Y
MA6813400180,h_OCHCTP,13-L1-3,2019-02-06 14:30:00.0,SoPmdAve,2882.58,CHCGILDTO6Y
MA6813400180,h_OCHCTP,13-L1-3,2019-02-06 14:45:00.0,Qmin,9.03,CHCGILDTO6Y
MA6813400180,h_OCHCTP,13-L1-3,2019-02-06 14:45:00.0,PhaseCorrectionAve,4.74e-07,CHCGILDTO6Y
MA6813400180,h_OCHCTP,13-L1-3,2019-02-06 14:45:00.0,BerPreFecMax,0.00235,CHCGILDTO6Y
MA6813400180,h_OCHCTP,13-L1-3,2019-02-06 14:45:00.0,PmdMin,1.24,CHCGILDTO6Y
MA6813400180,h_OCHCTP,13-L1-3,2019-02-06 14:45:00.0,SoPmdAve,2850.67,CHCGILDTO6Y
MA6813400180,h_OCHCTP,13-L1-4,2019-02-06 14:15:00.0,Qmin,8.74,CHCGILDTO6Y
MA6813400180,h_OCHCTP,13-L1-4,2019-02-06 14:15:00.0,PhaseCorrectionAve,-0.0611,CHCGILDTO6Y
MA6813400180,h_OCHCTP,13-L1-4,2019-02-06 14:15:00.0,BerPreFecMax,0.00311,CHCGILDTO6Y
MA6813400180,h_OCHCTP,13-L1-4,2019-02-06 14:15:00.0,PmdMin,0.43,CHCGILDTO6Y
MA6813400180,h_OCHCTP,13-L1-4,2019-02-06 14:15:00.0,SoPmdAve,3303.49,CHCGILDTO6Y
MA6813400180,h_OCHCTP,13-L1-4,2019-02-06 14:30:00.0,Qmin,8.76,CHCGILDTO6Y
MA6813400180,h_OCHCTP,13-L1-4,2019-02-06 14:30:00.0,PhaseCorrectionAve,4.95e-07,CHCGILDTO6Y
MA6813400180,h_OCHCTP,13-L1-4,2019-02-06 14:30:00.0,BerPreFecMax,0.00305,CHCGILDTO6Y
MA6813400180,h_OCHCTP,13-L1-4,2019-02-06 14:30:00.0,PmdMin,1.29,CHCGILDTO6Y
MA6813400180,h_OCHCTP,13-L1-4,2019-02-06 14:30:00.0,SoPmdAve,3427.21,CHCGILDTO6Y
MA6813400180,h_OCHCTP,13-L1-4,2019-02-06 14:45:00.0,Qmin,8.81,CHCGILDTO6Y
MA6813400180,h_OCHCTP,13-L1-4,2019-02-06 14:45:00.0,PhaseCorrectionAve,4.6e-07,CHCGILDTO6Y
MA6813400180,h_OCHCTP,13-L1-4,2019-02-06 14:45:00.0,BerPreFecMax,0.00292,CHCGILDTO6Y
MA6813400180,h_OCHCTP,13-L1-4,2019-02-06 14:45:00.0,PmdMin,0.718,CHCGILDTO6Y
MA6813400180,h_OCHCTP,13-L1-4,2019-02-06 14:45:00.0,SoPmdAve,3290.46,CHCGILDTO6Y
MA6813400180,h_OCHCTP,13-L1-5,2019-02-06 14:15:00.0,Qmin,8.69,CHCGILDTO6Y
MA6813400180,h_OCHCTP,13-L1-5,2019-02-06 14:15:00.0,PhaseCorrectionAve,-0.0611,CHCGILDTO6Y
MA6813400180,h_OCHCTP,13-L1-5,2019-02-06 14:15:00.0,BerPreFecMax,0.00326,CHCGILDTO6Y
MA6813400180,h_OCHCTP,13-L1-5,2019-02-06 14:15:00.0,PmdMin,0.677,CHCGILDTO6Y
MA6813400180,h_OCHCTP,13-L1-5,2019-02-06 14:15:00.0,SoPmdAve,2904.74,CHCGILDTO6Y
MA6813400180,h_OCHCTP,13-L1-5,2019-02-06 14:30:00.0,Qmin,8.64,CHCGILDTO6Y
MA6813400180,h_OCHCTP,13-L1-5,2019-02-06 14:30:00.0,PhaseCorrectionAve,3.85e-07,CHCGILDTO6Y
MA6813400180,h_OCHCTP,13-L1-5,2019-02-06 14:30:00.0,BerPreFecMax,0.00342,CHCGILDTO6Y
MA6813400180,h_OCHCTP,13-L1-5,2019-02-06 14:30:00.0,PmdMin,0.373,CHCGILDTO6Y
MA6813400180,h_OCHCTP,13-L1-5,2019-02-06 14:30:00.0,SoPmdAve,2869.69,CHCGILDTO6Y
MA6813400180,h_OCHCTP,13-L1-5,2019-02-06 14:45:00.0,Qmin,8.73,CHCGILDTO6Y
MA6813400180,h_OCHCTP,13-L1-5,2019-02-06 14:45:00.0,PhaseCorrectionAve,3.4e-07,CHCGILDTO6Y
MA6813400180,h_OCHCTP,13-L1-5,2019-02-06 14:45:00.0,BerPreFecMax,0.00315,CHCGILDTO6Y
MA6813400180,h_OCHCTP,13-L1-5,2019-02-06 14:45:00.0,PmdMin,1.45,CHCGILDTO6Y
MA6813400180,h_OCHCTP,13-L1-5,2019-02-06 14:45:00.0,SoPmdAve,2812.04,CHCGILDTO6Y
MA6813400180,h_OCHCTP,13-L1-6,2019-02-06 14:15:00.0,Qmin,8.69,CHCGILDTO6Y
MA6813400180,h_OCHCTP,13-L1-6,2019-02-06 14:15:00.0,PhaseCorrectionAve,-0.0611,CHCGILDTO6Y
MA6813400180,h_OCHCTP,13-L1-6,2019-02-06 14:15:00.0,BerPreFecMax,0.00325,CHCGILDTO6Y
MA6813400180,h_OCHCTP,13-L1-6,2019-02-06 14:15:00.0,PmdMin,1.07,CHCGILDTO6Y
MA6813400180,h_OCHCTP,13-L1-6,2019-02-06 14:15:00.0,SoPmdAve,2989.99,CHCGILDTO6Y
MA6813400180,h_OCHCTP,13-L1-6,2019-02-06 14:30:00.0,Qmin,8.63,CHCGILDTO6Y
MA6813400180,h_OCHCTP,13-L1-6,2019-02-06 14:30:00.0,PhaseCorrectionAve,7.47e-07,CHCGILDTO6Y
MA6813400180,h_OCHCTP,13-L1-6,2019-02-06 14:30:00.0,BerPreFecMax,0.00347,CHCGILDTO6Y
MA6813400180,h_OCHCTP,13-L1-6,2019-02-06 14:30:00.0,PmdMin,0.548,CHCGILDTO6Y
MA6813400180,h_OCHCTP,13-L1-6,2019-02-06 14:30:00.0,SoPmdAve,3057.81,CHCGILDTO6Y
MA6813400180,h_OCHCTP,13-L1-6,2019-02-06 14:45:00.0,Qmin,8.77,CHCGILDTO6Y
MA6813400180,h_OCHCTP,13-L1-6,2019-02-06 14:45:00.0,PhaseCorrectionAve,5.92e-07,CHCGILDTO6Y
MA6813400180,h_OCHCTP,13-L1-6,2019-02-06 14:45:00.0,BerPreFecMax,0.00302,CHCGILDTO6Y
MA6813400180,h_OCHCTP,13-L1-6,2019-02-06 14:45:00.0,PmdMin,1.27,CHCGILDTO6Y
MA6813400180,h_OCHCTP,13-L1-6,2019-02-06 14:45:00.0,SoPmdAve,3022.78,CHCGILDTO6Y
MA6813400180,h_OCHCTP,13-L1-7,2019-02-06 14:15:00.0,Qmin,8.72,CHCGILDTO6Y
MA6813400180,h_OCHCTP,13-L1-7,2019-02-06 14:15:00.0,PhaseCorrectionAve,-0.0611,CHCGILDTO6Y
MA6813400180,h_OCHCTP,13-L1-7,2019-02-06 14:15:00.0,BerPreFecMax,0.00318,CHCGILDTO6Y
MA6813400180,h_OCHCTP,13-L1-7,2019-02-06 14:15:00.0,PmdMin,1.22,CHCGILDTO6Y
MA6813400180,h_OCHCTP,13-L1-7,2019-02-06 14:15:00.0,SoPmdAve,3714.69,CHCGILDTO6Y
MA6813400180,h_OCHCTP,13-L1-7,2019-02-06 14:30:00.0,Qmin,8.58,CHCGILDTO6Y
MA6813400180,h_OCHCTP,13-L1-7,2019-02-06 14:30:00.0,PhaseCorrectionAve,-0.122,CHCGILDTO6Y
MA6813400180,h_OCHCTP,13-L1-7,2019-02-06 14:30:00.0,BerPreFecMax,0.00364,CHCGILDTO6Y
MA6813400180,h_OCHCTP,13-L1-7,2019-02-06 14:30:00.0,PmdMin,1.35,CHCGILDTO6Y
MA6813400180,h_OCHCTP,13-L1-7,2019-02-06 14:30:00.0,SoPmdAve,3812.81,CHCGILDTO6Y
MA6813400180,h_OCHCTP,13-L1-7,2019-02-06 14:45:00.0,Qmin,8.69,CHCGILDTO6Y
MA6813400180,h_OCHCTP,13-L1-7,2019-02-06 14:45:00.0,PhaseCorrectionAve,5.2e-07,CHCGILDTO6Y
MA6813400180,h_OCHCTP,13-L1-7,2019-02-06 14:45:00.0,BerPreFecMax,0.00327,CHCGILDTO6Y
MA6813400180,h_OCHCTP,13-L1-7,2019-02-06 14:45:00.0,PmdMin,1.32,CHCGILDTO6Y
MA6813400180,h_OCHCTP,13-L1-7,2019-02-06 14:45:00.0,SoPmdAve,3789.33,CHCGILDTO6Y
MA6813400180,h_OCHCTP,13-L1-8,2019-02-06 14:15:00.0,Qmin,8.81,CHCGILDTO6Y
MA6813400180,h_OCHCTP,13-L1-8,2019-02-06 14:15:00.0,PhaseCorrectionAve,-0.0611,CHCGILDTO6Y
MA6813400180,h_OCHCTP,13-L1-8,2019-02-06 14:15:00.0,BerPreFecMax,0.0029,CHCGILDTO6Y
MA6813400180,h_OCHCTP,13-L1-8,2019-02-06 14:15:00.0,PmdMin,0.49,CHCGILDTO6Y
MA6813400180,h_OCHCTP,13-L1-8,2019-02-06 14:15:00.0,SoPmdAve,3797.36,CHCGILDTO6Y
MA6813400180,h_OCHCTP,13-L1-8,2019-02-06 14:30:00.0,Qmin,8.73,CHCGILDTO6Y
MA6813400180,h_OCHCTP,13-L1-8,2019-02-06 14:30:00.0,PhaseCorrectionAve,-0.122,CHCGILDTO6Y
MA6813400180,h_OCHCTP,13-L1-8,2019-02-06 14:30:00.0,BerPreFecMax,0.00313,CHCGILDTO6Y
MA6813400180,h_OCHCTP,13-L1-8,2019-02-06 14:30:00.0,PmdMin,1.08,CHCGILDTO6Y
MA6813400180,h_OCHCTP,13-L1-8,2019-02-06 14:30:00.0,SoPmdAve,3732.24,CHCGILDTO6Y
MA6813400180,h_OCHCTP,13-L1-8,2019-02-06 14:45:00.0,Qmin,8.76,CHCGILDTO6Y
MA6813400180,h_OCHCTP,13-L1-8,2019-02-06 14:45:00.0,PhaseCorrectionAve,1.3e-06,CHCGILDTO6Y
MA6813400180,h_OCHCTP,13-L1-8,2019-02-06 14:45:00.0,BerPreFecMax,0.00305,CHCGILDTO6Y
MA6813400180,h_OCHCTP,13-L1-8,2019-02-06 14:45:00.0,PmdMin,0.877,CHCGILDTO6Y
MA6813400180,h_OCHCTP,13-L1-8,2019-02-06 14:45:00.0,SoPmdAve,3742.39,CHCGILDTO6Y
MA6813400180,h_OCHCTP,13-L1-9,2019-02-06 14:15:00.0,Qmin,8.74,CHCGILDTO6Y
MA6813400180,h_OCHCTP,13-L1-9,2019-02-06 14:15:00.0,PhaseCorrectionAve,-0.122,CHCGILDTO6Y
MA6813400180,h_OCHCTP,13-L1-9,2019-02-06 14:15:00.0,BerPreFecMax,0.00312,CHCGILDTO6Y
MA6813400180,h_OCHCTP,13-L1-9,2019-02-06 14:15:00.0,PmdMin,1.08,CHCGILDTO6Y
MA6813400180,h_OCHCTP,13-L1-9,2019-02-06 14:15:00.0,SoPmdAve,3551.48,CHCGILDTO6Y
MA6813400180,h_OCHCTP,13-L1-9,2019-02-06 14:30:00.0,Qmin,8.7,CHCGILDTO6Y
MA6813400180,h_OCHCTP,13-L1-9,2019-02-06 14:30:00.0,PhaseCorrectionAve,-0.122,CHCGILDTO6Y
MA6813400180,h_OCHCTP,13-L1-9,2019-02-06 14:30:00.0,BerPreFecMax,0.00323,CHCGILDTO6Y
MA6813400180,h_OCHCTP,13-L1-9,2019-02-06 14:30:00.0,PmdMin,0.583,CHCGILDTO6Y
MA6813400180,h_OCHCTP,13-L1-9,2019-02-06 14:30:00.0,SoPmdAve,3573.36,CHCGILDTO6Y
MA6813400180,h_OCHCTP,13-L1-9,2019-02-06 14:45:00.0,Qmin,8.69,CHCGILDTO6Y
MA6813400180,h_OCHCTP,13-L1-9,2019-02-06 14:45:00.0,PhaseCorrectionAve,4.44e-06,CHCGILDTO6Y
MA6813400180,h_OCHCTP,13-L1-9,2019-02-06 14:45:00.0,BerPreFecMax,0.00326,CHCGILDTO6Y
MA6813400180,h_OCHCTP,13-L1-9,2019-02-06 14:45:00.0,PmdMin,0.545,CHCGILDTO6Y
MA6813400180,h_OCHCTP,13-L1-9,2019-02-06 14:45:00.0,SoPmdAve,3530.31,CHCGILDTO6Y
MA6813400180,h_OCHCTP,13-L1-10,2019-02-06 14:15:00.0,Qmin,8.71,CHCGILDTO6Y
MA6813400180,h_OCHCTP,13-L1-10,2019-02-06 14:15:00.0,PhaseCorrectionAve,-0.183,CHCGILDTO6Y
MA6813400180,h_OCHCTP,13-L1-10,2019-02-06 14:15:00.0,BerPreFecMax,0.00321,CHCGILDTO6Y
MA6813400180,h_OCHCTP,13-L1-10,2019-02-06 14:15:00.0,PmdMin,1.64,CHCGILDTO6Y
MA6813400180,h_OCHCTP,13-L1-10,2019-02-06 14:15:00.0,SoPmdAve,3813.88,CHCGILDTO6Y
MA6813400180,h_OCHCTP,13-L1-10,2019-02-06 14:30:00.0,Qmin,8.6,CHCGILDTO6Y
MA6813400180,h_OCHCTP,13-L1-10,2019-02-06 14:30:00.0,PhaseCorrectionAve,-0.122,CHCGILDTO6Y
MA6813400180,h_OCHCTP,13-L1-10,2019-02-06 14:30:00.0,BerPreFecMax,0.00356,CHCGILDTO6Y
MA6813400180,h_OCHCTP,13-L1-10,2019-02-06 14:30:00.0,PmdMin,1.48,CHCGILDTO6Y
MA6813400180,h_OCHCTP,13-L1-10,2019-02-06 14:30:00.0,SoPmdAve,3830.76,CHCGILDTO6Y
MA6813400180,h_OCHCTP,13-L1-10,2019-02-06 14:45:00.0,Qmin,8.61,CHCGILDTO6Y
MA6813400180,h_OCHCTP,13-L1-10,2019-02-06 14:45:00.0,PhaseCorrectionAve,3.67e-06,CHCGILDTO6Y
MA6813400180,h_OCHCTP,13-L1-10,2019-02-06 14:45:00.0,BerPreFecMax,0.00352,CHCGILDTO6Y
MA6813400180,h_OCHCTP,13-L1-10,2019-02-06 14:45:00.0,PmdMin,0.823,CHCGILDTO6Y
MA6813400180,h_OCHCTP,13-L1-10,2019-02-06 14:45:00.0,SoPmdAve,3864.15,CHCGILDTO6Y
MA6813400180,h_OCHCTP,11-L1-1,2019-02-06 14:15:00.0,Qmin,9.17,CHCGILDTO6Y
MA6813400180,h_OCHCTP,11-L1-1,2019-02-06 14:15:00.0,PhaseCorrectionAve,1.45e-07,CHCGILDTO6Y
MA6813400180,h_OCHCTP,11-L1-1,2019-02-06 14:15:00.0,BerPreFecMax,0.00202,CHCGILDTO6Y
MA6813400180,h_OCHCTP,11-L1-1,2019-02-06 14:15:00.0,PmdMin,1.21,CHCGILDTO6Y
MA6813400180,h_OCHCTP,11-L1-1,2019-02-06 14:15:00.0,SoPmdAve,3251.28,CHCGILDTO6Y
MA6813400180,h_OCHCTP,11-L1-1,2019-02-06 14:30:00.0,Qmin,9.2,CHCGILDTO6Y
MA6813400180,h_OCHCTP,11-L1-1,2019-02-06 14:30:00.0,PhaseCorrectionAve,1.28e-07,CHCGILDTO6Y
MA6813400180,h_OCHCTP,11-L1-1,2019-02-06 14:30:00.0,BerPreFecMax,0.00197,CHCGILDTO6Y
MA6813400180,h_OCHCTP,11-L1-1,2019-02-06 14:30:00.0,PmdMin,0.997,CHCGILDTO6Y
MA6813400180,h_OCHCTP,11-L1-1,2019-02-06 14:30:00.0,SoPmdAve,3363.75,CHCGILDTO6Y
MA6813400180,h_OCHCTP,11-L1-1,2019-02-06 14:45:00.0,Qmin,9.13,CHCGILDTO6Y
MA6813400180,h_OCHCTP,11-L1-1,2019-02-06 14:45:00.0,PhaseCorrectionAve,1.39e-07,CHCGILDTO6Y
MA6813400180,h_OCHCTP,11-L1-1,2019-02-06 14:45:00.0,BerPreFecMax,0.00212,CHCGILDTO6Y
MA6813400180,h_OCHCTP,11-L1-1,2019-02-06 14:45:00.0,PmdMin,0.638,CHCGILDTO6Y
MA6813400180,h_OCHCTP,11-L1-1,2019-02-06 14:45:00.0,SoPmdAve,3376.77,CHCGILDTO6Y
MA6813400180,h_OCHCTP,11-L1-2,2019-02-06 14:15:00.0,Qmin,9.03,CHCGILDTO6Y
MA6813400180,h_OCHCTP,11-L1-2,2019-02-06 14:15:00.0,PhaseCorrectionAve,4.17e-07,CHCGILDTO6Y
MA6813400180,h_OCHCTP,11-L1-2,2019-02-06 14:15:00.0,BerPreFecMax,0.00234,CHCGILDTO6Y
MA6813400180,h_OCHCTP,11-L1-2,2019-02-06 14:15:00.0,PmdMin,1.16,CHCGILDTO6Y
MA6813400180,h_OCHCTP,11-L1-2,2019-02-06 14:15:00.0,SoPmdAve,3220.33,CHCGILDTO6Y
MA6813400180,h_OCHCTP,11-L1-2,2019-02-06 14:30:00.0,Qmin,9.06,CHCGILDTO6Y
MA6813400180,h_OCHCTP,11-L1-2,2019-02-06 14:30:00.0,PhaseCorrectionAve,-0.061,CHCGILDTO6Y
MA6813400180,h_OCHCTP,11-L1-2,2019-02-06 14:30:00.0,BerPreFecMax,0.00227,CHCGILDTO6Y
MA6813400180,h_OCHCTP,11-L1-2,2019-02-06 14:30:00.0,PmdMin,0.632,CHCGILDTO6Y
MA6813400180,h_OCHCTP,11-L1-2,2019-02-06 14:30:00.0,SoPmdAve,3191.62,CHCGILDTO6Y
MA6813400180,h_OCHCTP,11-L1-2,2019-02-06 14:45:00.0,Qmin,9.09,CHCGILDTO6Y
MA6813400180,h_OCHCTP,11-L1-2,2019-02-06 14:45:00.0,PhaseCorrectionAve,4.41e-07,CHCGILDTO6Y
MA6813400180,h_OCHCTP,11-L1-2,2019-02-06 14:45:00.0,BerPreFecMax,0.0022,CHCGILDTO6Y
MA6813400180,h_OCHCTP,11-L1-2,2019-02-06 14:45:00.0,PmdMin,1.1,CHCGILDTO6Y
MA6813400180,h_OCHCTP,11-L1-2,2019-02-06 14:45:00.0,SoPmdAve,3175.64,CHCGILDTO6Y
MA6813400180,h_OCHCTP,11-L1-3,2019-02-06 14:15:00.0,Qmin,9.0,CHCGILDTO6Y
MA6813400180,h_OCHCTP,11-L1-3,2019-02-06 14:15:00.0,PhaseCorrectionAve,3.4e-07,CHCGILDTO6Y
MA6813400180,h_OCHCTP,11-L1-3,2019-02-06 14:15:00.0,BerPreFecMax,0.00241,CHCGILDTO6Y
MA6813400180,h_OCHCTP,11-L1-3,2019-02-06 14:15:00.0,PmdMin,0.793,CHCGILDTO6Y
MA6813400180,h_OCHCTP,11-L1-3,2019-02-06 14:15:00.0,SoPmdAve,2724.16,CHCGILDTO6Y
MA6813400180,h_OCHCTP,11-L1-3,2019-02-06 14:30:00.0,Qmin,9.03,CHCGILDTO6Y
MA6813400180,h_OCHCTP,11-L1-3,2019-02-06 14:30:00.0,PhaseCorrectionAve,-0.061,CHCGILDTO6Y
MA6813400180,h_OCHCTP,11-L1-3,2019-02-06 14:30:00.0,BerPreFecMax,0.00235,CHCGILDTO6Y
MA6813400180,h_OCHCTP,11-L1-3,2019-02-06 14:30:00.0,PmdMin,1.0,CHCGILDTO6Y
MA6813400180,h_OCHCTP,11-L1-3,2019-02-06 14:30:00.0,SoPmdAve,2752.79,CHCGILDTO6Y
MA6813400180,h_OCHCTP,11-L1-3,2019-02-06 14:45:00.0,Qmin,9.01,CHCGILDTO6Y
MA6813400180,h_OCHCTP,11-L1-3,2019-02-06 14:45:00.0,PhaseCorrectionAve,-0.061,CHCGILDTO6Y
MA6813400180,h_OCHCTP,11-L1-3,2019-02-06 14:45:00.0,BerPreFecMax,0.00238,CHCGILDTO6Y
MA6813400180,h_OCHCTP,11-L1-3,2019-02-06 14:45:00.0,PmdMin,1.04,CHCGILDTO6Y
MA6813400180,h_OCHCTP,11-L1-3,2019-02-06 14:45:00.0,SoPmdAve,2688.67,CHCGILDTO6Y
MA6813400180,h_OCHCTP,11-L1-4,2019-02-06 14:15:00.0,Qmin,8.77,CHCGILDTO6Y
MA6813400180,h_OCHCTP,11-L1-4,2019-02-06 14:15:00.0,PhaseCorrectionAve,4.76e-07,CHCGILDTO6Y
MA6813400180,h_OCHCTP,11-L1-4,2019-02-06 14:15:00.0,BerPreFecMax,0.00303,CHCGILDTO6Y
MA6813400180,h_OCHCTP,11-L1-4,2019-02-06 14:15:00.0,PmdMin,0.23,CHCGILDTO6Y
MA6813400180,h_OCHCTP,11-L1-4,2019-02-06 14:15:00.0,SoPmdAve,3061.16,CHCGILDTO6Y
MA6813400180,h_OCHCTP,11-L1-4,2019-02-06 14:30:00.0,Qmin,8.83,CHCGILDTO6Y
MA6813400180,h_OCHCTP,11-L1-4,2019-02-06 14:30:00.0,PhaseCorrectionAve,-0.061,CHCGILDTO6Y
MA6813400180,h_OCHCTP,11-L1-4,2019-02-06 14:30:00.0,BerPreFecMax,0.00286,CHCGILDTO6Y
MA6813400180,h_OCHCTP,11-L1-4,2019-02-06 14:30:00.0,PmdMin,1.01,CHCGILDTO6Y
MA6813400180,h_OCHCTP,11-L1-4,2019-02-06 14:30:00.0,SoPmdAve,2942.78,CHCGILDTO6Y
MA6813400180,h_OCHCTP,11-L1-4,2019-02-06 14:45:00.0,Qmin,8.83,CHCGILDTO6Y
MA6813400180,h_OCHCTP,11-L1-4,2019-02-06 14:45:00.0,PhaseCorrectionAve,-0.061,CHCGILDTO6Y
MA6813400180,h_OCHCTP,11-L1-4,2019-02-06 14:45:00.0,BerPreFecMax,0.00285,CHCGILDTO6Y
MA6813400180,h_OCHCTP,11-L1-4,2019-02-06 14:45:00.0,PmdMin,0.602,CHCGILDTO6Y
MA6813400180,h_OCHCTP,11-L1-4,2019-02-06 14:45:00.0,SoPmdAve,3033.89,CHCGILDTO6Y
MA6813400180,h_OCHCTP,11-L1-5,2019-02-06 14:15:00.0,Qmin,8.78,CHCGILDTO6Y
MA6813400180,h_OCHCTP,11-L1-5,2019-02-06 14:15:00.0,PhaseCorrectionAve,2.09e-07,CHCGILDTO6Y
MA6813400180,h_OCHCTP,11-L1-5,2019-02-06 14:15:00.0,BerPreFecMax,0.00301,CHCGILDTO6Y
MA6813400180,h_OCHCTP,11-L1-5,2019-02-06 14:15:00.0,PmdMin,0.362,CHCGILDTO6Y
MA6813400180,h_OCHCTP,11-L1-5,2019-02-06 14:15:00.0,SoPmdAve,2465.91,CHCGILDTO6Y
MA6813400180,h_OCHCTP,11-L1-5,2019-02-06 14:30:00.0,Qmin,8.79,CHCGILDTO6Y
MA6813400180,h_OCHCTP,11-L1-5,2019-02-06 14:30:00.0,PhaseCorrectionAve,-0.061,CHCGILDTO6Y
MA6813400180,h_OCHCTP,11-L1-5,2019-02-06 14:30:00.0,BerPreFecMax,0.00298,CHCGILDTO6Y
MA6813400180,h_OCHCTP,11-L1-5,2019-02-06 14:30:00.0,PmdMin,0.344,CHCGILDTO6Y
MA6813400180,h_OCHCTP,11-L1-5,2019-02-06 14:30:00.0,SoPmdAve,2547.21,CHCGILDTO6Y
MA6813400180,h_OCHCTP,11-L1-5,2019-02-06 14:45:00.0,Qmin,8.85,CHCGILDTO6Y
MA6813400180,h_OCHCTP,11-L1-5,2019-02-06 14:45:00.0,PhaseCorrectionAve,-0.061,CHCGILDTO6Y
MA6813400180,h_OCHCTP,11-L1-5,2019-02-06 14:45:00.0,BerPreFecMax,0.00281,CHCGILDTO6Y
MA6813400180,h_OCHCTP,11-L1-5,2019-02-06 14:45:00.0,PmdMin,0.729,CHCGILDTO6Y
MA6813400180,h_OCHCTP,11-L1-5,2019-02-06 14:45:00.0,SoPmdAve,2537.93,CHCGILDTO6Y
MA6813400180,h_OCHCTP,11-L1-6,2019-02-06 14:15:00.0,Qmin,8.76,CHCGILDTO6Y
MA6813400180,h_OCHCTP,11-L1-6,2019-02-06 14:15:00.0,PhaseCorrectionAve,5.71e-07,CHCGILDTO6Y
MA6813400180,h_OCHCTP,11-L1-6,2019-02-06 14:15:00.0,BerPreFecMax,0.00306,CHCGILDTO6Y
MA6813400180,h_OCHCTP,11-L1-6,2019-02-06 14:15:00.0,PmdMin,0.922,CHCGILDTO6Y
MA6813400180,h_OCHCTP,11-L1-6,2019-02-06 14:15:00.0,SoPmdAve,2510.3,CHCGILDTO6Y
MA6813400180,h_OCHCTP,11-L1-6,2019-02-06 14:30:00.0,Qmin,8.66,CHCGILDTO6Y
MA6813400180,h_OCHCTP,11-L1-6,2019-02-06 14:30:00.0,PhaseCorrectionAve,-0.061,CHCGILDTO6Y
MA6813400180,h_OCHCTP,11-L1-6,2019-02-06 14:30:00.0,BerPreFecMax,0.00337,CHCGILDTO6Y
MA6813400180,h_OCHCTP,11-L1-6,2019-02-06 14:30:00.0,PmdMin,0.677,CHCGILDTO6Y
MA6813400180,h_OCHCTP,11-L1-6,2019-02-06 14:30:00.0,SoPmdAve,2553.07,CHCGILDTO6Y
MA6813400180,h_OCHCTP,11-L1-6,2019-02-06 14:45:00.0,Qmin,8.77,CHCGILDTO6Y
MA6813400180,h_OCHCTP,11-L1-6,2019-02-06 14:45:00.0,PhaseCorrectionAve,-0.061,CHCGILDTO6Y
MA6813400180,h_OCHCTP,11-L1-6,2019-02-06 14:45:00.0,BerPreFecMax,0.00302,CHCGILDTO6Y
MA6813400180,h_OCHCTP,11-L1-6,2019-02-06 14:45:00.0,PmdMin,0.766,CHCGILDTO6Y
MA6813400180,h_OCHCTP,11-L1-6,2019-02-06 14:45:00.0,SoPmdAve,2532.7,CHCGILDTO6Y
MA6813400180,h_OCHCTP,11-L1-7,2019-02-06 14:15:00.0,Qmin,8.79,CHCGILDTO6Y
MA6813400180,h_OCHCTP,11-L1-7,2019-02-06 14:15:00.0,PhaseCorrectionAve,3.16e-07,CHCGILDTO6Y
MA6813400180,h_OCHCTP,11-L1-7,2019-02-06 14:15:00.0,BerPreFecMax,0.00296,CHCGILDTO6Y
MA6813400180,h_OCHCTP,11-L1-7,2019-02-06 14:15:00.0,PmdMin,1.52,CHCGILDTO6Y
MA6813400180,h_OCHCTP,11-L1-7,2019-02-06 14:15:00.0,SoPmdAve,2994.59,CHCGILDTO6Y
MA6813400180,h_OCHCTP,11-L1-7,2019-02-06 14:30:00.0,Qmin,8.66,CHCGILDTO6Y
MA6813400180,h_OCHCTP,11-L1-7,2019-02-06 14:30:00.0,PhaseCorrectionAve,-0.061,CHCGILDTO6Y
MA6813400180,h_OCHCTP,11-L1-7,2019-02-06 14:30:00.0,BerPreFecMax,0.00335,CHCGILDTO6Y
MA6813400180,h_OCHCTP,11-L1-7,2019-02-06 14:30:00.0,PmdMin,0.818,CHCGILDTO6Y
MA6813400180,h_OCHCTP,11-L1-7,2019-02-06 14:30:00.0,SoPmdAve,2953.13,CHCGILDTO6Y
MA6813400180,h_OCHCTP,11-L1-7,2019-02-06 14:45:00.0,Qmin,8.71,CHCGILDTO6Y
MA6813400180,h_OCHCTP,11-L1-7,2019-02-06 14:45:00.0,PhaseCorrectionAve,-0.122,CHCGILDTO6Y
MA6813400180,h_OCHCTP,11-L1-7,2019-02-06 14:45:00.0,BerPreFecMax,0.00322,CHCGILDTO6Y
MA6813400180,h_OCHCTP,11-L1-7,2019-02-06 14:45:00.0,PmdMin,0.715,CHCGILDTO6Y
MA6813400180,h_OCHCTP,11-L1-7,2019-02-06 14:45:00.0,SoPmdAve,3033.69,CHCGILDTO6Y
MA6813400180,h_OCHCTP,11-L1-8,2019-02-06 14:15:00.0,Qmin,8.83,CHCGILDTO6Y
MA6813400180,h_OCHCTP,11-L1-8,2019-02-06 14:15:00.0,PhaseCorrectionAve,8.89e-07,CHCGILDTO6Y
MA6813400180,h_OCHCTP,11-L1-8,2019-02-06 14:15:00.0,BerPreFecMax,0.00285,CHCGILDTO6Y
MA6813400180,h_OCHCTP,11-L1-8,2019-02-06 14:15:00.0,PmdMin,0.342,CHCGILDTO6Y
MA6813400180,h_OCHCTP,11-L1-8,2019-02-06 14:15:00.0,SoPmdAve,3040.71,CHCGILDTO6Y
MA6813400180,h_OCHCTP,11-L1-8,2019-02-06 14:30:00.0,Qmin,8.8,CHCGILDTO6Y
MA6813400180,h_OCHCTP,11-L1-8,2019-02-06 14:30:00.0,PhaseCorrectionAve,-0.061,CHCGILDTO6Y
MA6813400180,h_OCHCTP,11-L1-8,2019-02-06 14:30:00.0,BerPreFecMax,0.00295,CHCGILDTO6Y
MA6813400180,h_OCHCTP,11-L1-8,2019-02-06 14:30:00.0,PmdMin,0.563,CHCGILDTO6Y
MA6813400180,h_OCHCTP,11-L1-8,2019-02-06 14:30:00.0,SoPmdAve,3188.47,CHCGILDTO6Y
MA6813400180,h_OCHCTP,11-L1-8,2019-02-06 14:45:00.0,Qmin,8.77,CHCGILDTO6Y
MA6813400180,h_OCHCTP,11-L1-8,2019-02-06 14:45:00.0,PhaseCorrectionAve,-0.183,CHCGILDTO6Y
MA6813400180,h_OCHCTP,11-L1-8,2019-02-06 14:45:00.0,BerPreFecMax,0.00303,CHCGILDTO6Y
MA6813400180,h_OCHCTP,11-L1-8,2019-02-06 14:45:00.0,PmdMin,0.917,CHCGILDTO6Y
MA6813400180,h_OCHCTP,11-L1-8,2019-02-06 14:45:00.0,SoPmdAve,3066.97,CHCGILDTO6Y
MA6813400180,h_OCHCTP,11-L1-9,2019-02-06 14:15:00.0,Qmin,8.85,CHCGILDTO6Y
MA6813400180,h_OCHCTP,11-L1-9,2019-02-06 14:15:00.0,PhaseCorrectionAve,1.58e-06,CHCGILDTO6Y
MA6813400180,h_OCHCTP,11-L1-9,2019-02-06 14:15:00.0,BerPreFecMax,0.00282,CHCGILDTO6Y
MA6813400180,h_OCHCTP,11-L1-9,2019-02-06 14:15:00.0,PmdMin,0.898,CHCGILDTO6Y
MA6813400180,h_OCHCTP,11-L1-9,2019-02-06 14:15:00.0,SoPmdAve,2914.01,CHCGILDTO6Y
MA6813400180,h_OCHCTP,11-L1-9,2019-02-06 14:30:00.0,Qmin,8.78,CHCGILDTO6Y
MA6813400180,h_OCHCTP,11-L1-9,2019-02-06 14:30:00.0,PhaseCorrectionAve,-0.061,CHCGILDTO6Y
MA6813400180,h_OCHCTP,11-L1-9,2019-02-06 14:30:00.0,BerPreFecMax,0.003,CHCGILDTO6Y
MA6813400180,h_OCHCTP,11-L1-9,2019-02-06 14:30:00.0,PmdMin,1.03,CHCGILDTO6Y
MA6813400180,h_OCHCTP,11-L1-9,2019-02-06 14:30:00.0,SoPmdAve,2999.59,CHCGILDTO6Y
MA6813400180,h_OCHCTP,11-L1-9,2019-02-06 14:45:00.0,Qmin,8.8,CHCGILDTO6Y
MA6813400180,h_OCHCTP,11-L1-9,2019-02-06 14:45:00.0,PhaseCorrectionAve,-0.244,CHCGILDTO6Y
MA6813400180,h_OCHCTP,11-L1-9,2019-02-06 14:45:00.0,BerPreFecMax,0.00294,CHCGILDTO6Y
MA6813400180,h_OCHCTP,11-L1-9,2019-02-06 14:45:00.0,PmdMin,0.307,CHCGILDTO6Y
MA6813400180,h_OCHCTP,11-L1-9,2019-02-06 14:45:00.0,SoPmdAve,2954.19,CHCGILDTO6Y
MA6813400180,h_OCHCTP,11-L1-10,2019-02-06 14:15:00.0,Qmin,8.96,CHCGILDTO6Y
MA6813400180,h_OCHCTP,11-L1-10,2019-02-06 14:15:00.0,PhaseCorrectionAve,1.79e-06,CHCGILDTO6Y
MA6813400180,h_OCHCTP,11-L1-10,2019-02-06 14:15:00.0,BerPreFecMax,0.00252,CHCGILDTO6Y
MA6813400180,h_OCHCTP,11-L1-10,2019-02-06 14:15:00.0,PmdMin,0.859,CHCGILDTO6Y
MA6813400180,h_OCHCTP,11-L1-10,2019-02-06 14:15:00.0,SoPmdAve,3022.09,CHCGILDTO6Y
MA6813400180,h_OCHCTP,11-L1-10,2019-02-06 14:30:00.0,Qmin,8.89,CHCGILDTO6Y
MA6813400180,h_OCHCTP,11-L1-10,2019-02-06 14:30:00.0,PhaseCorrectionAve,-0.061,CHCGILDTO6Y
MA6813400180,h_OCHCTP,11-L1-10,2019-02-06 14:30:00.0,BerPreFecMax,0.0027,CHCGILDTO6Y
MA6813400180,h_OCHCTP,11-L1-10,2019-02-06 14:30:00.0,PmdMin,1.2,CHCGILDTO6Y
MA6813400180,h_OCHCTP,11-L1-10,2019-02-06 14:30:00.0,SoPmdAve,3180.44,CHCGILDTO6Y
MA6813400180,h_OCHCTP,11-L1-10,2019-02-06 14:45:00.0,Qmin,8.91,CHCGILDTO6Y
MA6813400180,h_OCHCTP,11-L1-10,2019-02-06 14:45:00.0,PhaseCorrectionAve,-0.244,CHCGILDTO6Y
MA6813400180,h_OCHCTP,11-L1-10,2019-02-06 14:45:00.0,BerPreFecMax,0.00264,CHCGILDTO6Y
MA6813400180,h_OCHCTP,11-L1-10,2019-02-06 14:45:00.0,PmdMin,1.05,CHCGILDTO6Y
MA6813400180,h_OCHCTP,11-L1-10,2019-02-06 14:45:00.0,SoPmdAve,3091.72,CHCGILDTO6Y
MA6813400180,h_OCHCTP,10-L1-1,2019-02-06 14:15:00.0,Qmin,9.49,CHCGILDTO6Y
MA6813400180,h_OCHCTP,10-L1-1,2019-02-06 14:15:00.0,PhaseCorrectionAve,4.36e-07,CHCGILDTO6Y
MA6813400180,h_OCHCTP,10-L1-1,2019-02-06 14:15:00.0,BerPreFecMax,0.00143,CHCGILDTO6Y
MA6813400180,h_OCHCTP,10-L1-1,2019-02-06 14:15:00.0,PmdMin,1.61,CHCGILDTO6Y
MA6813400180,h_OCHCTP,10-L1-1,2019-02-06 14:15:00.0,SoPmdAve,3490.31,CHCGILDTO6Y
MA6813400180,h_OCHCTP,10-L1-1,2019-02-06 14:30:00.0,Qmin,9.48,CHCGILDTO6Y
MA6813400180,h_OCHCTP,10-L1-1,2019-02-06 14:30:00.0,PhaseCorrectionAve,4.33e-07,CHCGILDTO6Y
MA6813400180,h_OCHCTP,10-L1-1,2019-02-06 14:30:00.0,BerPreFecMax,0.00144,CHCGILDTO6Y
MA6813400180,h_OCHCTP,10-L1-1,2019-02-06 14:30:00.0,PmdMin,0.843,CHCGILDTO6Y
MA6813400180,h_OCHCTP,10-L1-1,2019-02-06 14:30:00.0,SoPmdAve,3515.68,CHCGILDTO6Y
MA6813400180,h_OCHCTP,10-L1-1,2019-02-06 14:45:00.0,Qmin,9.48,CHCGILDTO6Y
MA6813400180,h_OCHCTP,10-L1-1,2019-02-06 14:45:00.0,PhaseCorrectionAve,4.57e-07,CHCGILDTO6Y
MA6813400180,h_OCHCTP,10-L1-1,2019-02-06 14:45:00.0,BerPreFecMax,0.00145,CHCGILDTO6Y
MA6813400180,h_OCHCTP,10-L1-1,2019-02-06 14:45:00.0,PmdMin,0.939,CHCGILDTO6Y
MA6813400180,h_OCHCTP,10-L1-1,2019-02-06 14:45:00.0,SoPmdAve,3488.77,CHCGILDTO6Y
MA6813400180,h_OCHCTP,10-L1-2,2019-02-06 14:15:00.0,Qmin,9.15,CHCGILDTO6Y
MA6813400180,h_OCHCTP,10-L1-2,2019-02-06 14:15:00.0,PhaseCorrectionAve,3.35e-07,CHCGILDTO6Y
MA6813400180,h_OCHCTP,10-L1-2,2019-02-06 14:15:00.0,BerPreFecMax,0.00206,CHCGILDTO6Y
MA6813400180,h_OCHCTP,10-L1-2,2019-02-06 14:15:00.0,PmdMin,5.36,CHCGILDTO6Y
MA6813400180,h_OCHCTP,10-L1-2,2019-02-06 14:15:00.0,SoPmdAve,3238.64,CHCGILDTO6Y
MA6813400180,h_OCHCTP,10-L1-2,2019-02-06 14:30:00.0,Qmin,9.17,CHCGILDTO6Y
MA6813400180,h_OCHCTP,10-L1-2,2019-02-06 14:30:00.0,PhaseCorrectionAve,-0.122,CHCGILDTO6Y
MA6813400180,h_OCHCTP,10-L1-2,2019-02-06 14:30:00.0,BerPreFecMax,0.00203,CHCGILDTO6Y
MA6813400180,h_OCHCTP,10-L1-2,2019-02-06 14:30:00.0,PmdMin,7.18,CHCGILDTO6Y
MA6813400180,h_OCHCTP,10-L1-2,2019-02-06 14:30:00.0,SoPmdAve,3285.76,CHCGILDTO6Y
MA6813400180,h_OCHCTP,10-L1-2,2019-02-06 14:45:00.0,Qmin,9.16,CHCGILDTO6Y
MA6813400180,h_OCHCTP,10-L1-2,2019-02-06 14:45:00.0,PhaseCorrectionAve,3.44e-07,CHCGILDTO6Y
MA6813400180,h_OCHCTP,10-L1-2,2019-02-06 14:45:00.0,BerPreFecMax,0.00204,CHCGILDTO6Y
MA6813400180,h_OCHCTP,10-L1-2,2019-02-06 14:45:00.0,PmdMin,3.25,CHCGILDTO6Y
MA6813400180,h_OCHCTP,10-L1-2,2019-02-06 14:45:00.0,SoPmdAve,3364.93,CHCGILDTO6Y
MA6813400180,h_OCHCTP,10-L1-3,2019-02-06 14:15:00.0,Qmin,8.86,CHCGILDTO6Y
MA6813400180,h_OCHCTP,10-L1-3,2019-02-06 14:15:00.0,PhaseCorrectionAve,5.76e-07,CHCGILDTO6Y
MA6813400180,h_OCHCTP,10-L1-3,2019-02-06 14:15:00.0,BerPreFecMax,0.00276,CHCGILDTO6Y
MA6813400180,h_OCHCTP,10-L1-3,2019-02-06 14:15:00.0,PmdMin,2.7,CHCGILDTO6Y
MA6813400180,h_OCHCTP,10-L1-3,2019-02-06 14:15:00.0,SoPmdAve,2865.86,CHCGILDTO6Y
MA6813400180,h_OCHCTP,10-L1-3,2019-02-06 14:30:00.0,Qmin,8.85,CHCGILDTO6Y
MA6813400180,h_OCHCTP,10-L1-3,2019-02-06 14:30:00.0,PhaseCorrectionAve,-0.122,CHCGILDTO6Y
MA6813400180,h_OCHCTP,10-L1-3,2019-02-06 14:30:00.0,BerPreFecMax,0.00279,CHCGILDTO6Y
MA6813400180,h_OCHCTP,10-L1-3,2019-02-06 14:30:00.0,PmdMin,3.01,CHCGILDTO6Y
MA6813400180,h_OCHCTP,10-L1-3,2019-02-06 14:30:00.0,SoPmdAve,2815.59,CHCGILDTO6Y
MA6813400180,h_OCHCTP,10-L1-3,2019-02-06 14:45:00.0,Qmin,8.85,CHCGILDTO6Y
MA6813400180,h_OCHCTP,10-L1-3,2019-02-06 14:45:00.0,PhaseCorrectionAve,6.06e-07,CHCGILDTO6Y
MA6813400180,h_OCHCTP,10-L1-3,2019-02-06 14:45:00.0,BerPreFecMax,0.00279,CHCGILDTO6Y
MA6813400180,h_OCHCTP,10-L1-3,2019-02-06 14:45:00.0,PmdMin,5.15,CHCGILDTO6Y
MA6813400180,h_OCHCTP,10-L1-3,2019-02-06 14:45:00.0,SoPmdAve,2870.82,CHCGILDTO6Y
MA6813400180,h_OCHCTP,10-L1-4,2019-02-06 14:15:00.0,Qmin,8.25,CHCGILDTO6Y
MA6813400180,h_OCHCTP,10-L1-4,2019-02-06 14:15:00.0,PhaseCorrectionAve,3.32e-06,CHCGILDTO6Y
MA6813400180,h_OCHCTP,10-L1-4,2019-02-06 14:15:00.0,BerPreFecMax,0.00485,CHCGILDTO6Y
MA6813400180,h_OCHCTP,10-L1-4,2019-02-06 14:15:00.0,PmdMin,1.29,CHCGILDTO6Y
MA6813400180,h_OCHCTP,10-L1-4,2019-02-06 14:15:00.0,SoPmdAve,3073.2,CHCGILDTO6Y
MA6813400180,h_OCHCTP,10-L1-4,2019-02-06 14:30:00.0,Qmin,8.24,CHCGILDTO6Y
MA6813400180,h_OCHCTP,10-L1-4,2019-02-06 14:30:00.0,PhaseCorrectionAve,-0.122,CHCGILDTO6Y
MA6813400180,h_OCHCTP,10-L1-4,2019-02-06 14:30:00.0,BerPreFecMax,0.00489,CHCGILDTO6Y
MA6813400180,h_OCHCTP,10-L1-4,2019-02-06 14:30:00.0,PmdMin,1.54,CHCGILDTO6Y
MA6813400180,h_OCHCTP,10-L1-4,2019-02-06 14:30:00.0,SoPmdAve,3172.86,CHCGILDTO6Y
MA6813400180,h_OCHCTP,10-L1-4,2019-02-06 14:45:00.0,Qmin,8.24,CHCGILDTO6Y
MA6813400180,h_OCHCTP,10-L1-4,2019-02-06 14:45:00.0,PhaseCorrectionAve,3.4e-06,CHCGILDTO6Y
MA6813400180,h_OCHCTP,10-L1-4,2019-02-06 14:45:00.0,BerPreFecMax,0.00491,CHCGILDTO6Y
MA6813400180,h_OCHCTP,10-L1-4,2019-02-06 14:45:00.0,PmdMin,1.25,CHCGILDTO6Y
MA6813400180,h_OCHCTP,10-L1-4,2019-02-06 14:45:00.0,SoPmdAve,3177.67,CHCGILDTO6Y
MA6813400180,h_OCHCTP,10-L1-5,2019-02-06 14:15:00.0,Qmin,8.46,CHCGILDTO6Y
MA6813400180,h_OCHCTP,10-L1-5,2019-02-06 14:15:00.0,PhaseCorrectionAve,-0.061,CHCGILDTO6Y
MA6813400180,h_OCHCTP,10-L1-5,2019-02-06 14:15:00.0,BerPreFecMax,0.00404,CHCGILDTO6Y
MA6813400180,h_OCHCTP,10-L1-5,2019-02-06 14:15:00.0,PmdMin,3.49,CHCGILDTO6Y
MA6813400180,h_OCHCTP,10-L1-5,2019-02-06 14:15:00.0,SoPmdAve,2813.16,CHCGILDTO6Y
MA6813400180,h_OCHCTP,10-L1-5,2019-02-06 14:30:00.0,Qmin,8.45,CHCGILDTO6Y
MA6813400180,h_OCHCTP,10-L1-5,2019-02-06 14:30:00.0,PhaseCorrectionAve,-0.122,CHCGILDTO6Y
MA6813400180,h_OCHCTP,10-L1-5,2019-02-06 14:30:00.0,BerPreFecMax,0.00409,CHCGILDTO6Y
MA6813400180,h_OCHCTP,10-L1-5,2019-02-06 14:30:00.0,PmdMin,4.2,CHCGILDTO6Y
MA6813400180,h_OCHCTP,10-L1-5,2019-02-06 14:30:00.0,SoPmdAve,2771.89,CHCGILDTO6Y
MA6813400180,h_OCHCTP,10-L1-5,2019-02-06 14:45:00.0,Qmin,8.43,CHCGILDTO6Y
MA6813400180,h_OCHCTP,10-L1-5,2019-02-06 14:45:00.0,PhaseCorrectionAve,-0.061,CHCGILDTO6Y
MA6813400180,h_OCHCTP,10-L1-5,2019-02-06 14:45:00.0,BerPreFecMax,0.00414,CHCGILDTO6Y
MA6813400180,h_OCHCTP,10-L1-5,2019-02-06 14:45:00.0,PmdMin,5.25,CHCGILDTO6Y
MA6813400180,h_OCHCTP,10-L1-5,2019-02-06 14:45:00.0,SoPmdAve,2744.65,CHCGILDTO6Y
MA6813400180,h_OCHCTP,10-L1-6,2019-02-06 14:15:00.0,Qmin,8.68,CHCGILDTO6Y
MA6813400180,h_OCHCTP,10-L1-6,2019-02-06 14:15:00.0,PhaseCorrectionAve,-0.061,CHCGILDTO6Y
MA6813400180,h_OCHCTP,10-L1-6,2019-02-06 14:15:00.0,BerPreFecMax,0.00328,CHCGILDTO6Y
MA6813400180,h_OCHCTP,10-L1-6,2019-02-06 14:15:00.0,PmdMin,1.23,CHCGILDTO6Y
MA6813400180,h_OCHCTP,10-L1-6,2019-02-06 14:15:00.0,SoPmdAve,2844.12,CHCGILDTO6Y
MA6813400180,h_OCHCTP,10-L1-6,2019-02-06 14:30:00.0,Qmin,8.68,CHCGILDTO6Y
MA6813400180,h_OCHCTP,10-L1-6,2019-02-06 14:30:00.0,PhaseCorrectionAve,-0.122,CHCGILDTO6Y
MA6813400180,h_OCHCTP,10-L1-6,2019-02-06 14:30:00.0,BerPreFecMax,0.00329,CHCGILDTO6Y
MA6813400180,h_OCHCTP,10-L1-6,2019-02-06 14:30:00.0,PmdMin,0.694,CHCGILDTO6Y
MA6813400180,h_OCHCTP,10-L1-6,2019-02-06 14:30:00.0,SoPmdAve,2856.15,CHCGILDTO6Y
MA6813400180,h_OCHCTP,10-L1-6,2019-02-06 14:45:00.0,Qmin,8.68,CHCGILDTO6Y
MA6813400180,h_OCHCTP,10-L1-6,2019-02-06 14:45:00.0,PhaseCorrectionAve,-0.061,CHCGILDTO6Y
MA6813400180,h_OCHCTP,10-L1-6,2019-02-06 14:45:00.0,BerPreFecMax,0.0033,CHCGILDTO6Y
MA6813400180,h_OCHCTP,10-L1-6,2019-02-06 14:45:00.0,PmdMin,0.363,CHCGILDTO6Y
MA6813400180,h_OCHCTP,10-L1-6,2019-02-06 14:45:00.0,SoPmdAve,2803.9,CHCGILDTO6Y
MA6813400180,h_OCHCTP,10-L1-7,2019-02-06 14:15:00.0,Qmin,8.82,CHCGILDTO6Y
MA6813400180,h_OCHCTP,10-L1-7,2019-02-06 14:15:00.0,PhaseCorrectionAve,-0.122,CHCGILDTO6Y
MA6813400180,h_OCHCTP,10-L1-7,2019-02-06 14:15:00.0,BerPreFecMax,0.00288,CHCGILDTO6Y
MA6813400180,h_OCHCTP,10-L1-7,2019-02-06 14:15:00.0,PmdMin,1.5,CHCGILDTO6Y
MA6813400180,h_OCHCTP,10-L1-7,2019-02-06 14:15:00.0,SoPmdAve,3371.99,CHCGILDTO6Y
MA6813400180,h_OCHCTP,10-L1-7,2019-02-06 14:30:00.0,Qmin,8.81,CHCGILDTO6Y
MA6813400180,h_OCHCTP,10-L1-7,2019-02-06 14:30:00.0,PhaseCorrectionAve,-0.122,CHCGILDTO6Y
MA6813400180,h_OCHCTP,10-L1-7,2019-02-06 14:30:00.0,BerPreFecMax,0.00291,CHCGILDTO6Y
MA6813400180,h_OCHCTP,10-L1-7,2019-02-06 14:30:00.0,PmdMin,1.55,CHCGILDTO6Y
MA6813400180,h_OCHCTP,10-L1-7,2019-02-06 14:30:00.0,SoPmdAve,3398.08,CHCGILDTO6Y
MA6813400180,h_OCHCTP,10-L1-7,2019-02-06 14:45:00.0,Qmin,8.79,CHCGILDTO6Y
MA6813400180,h_OCHCTP,10-L1-7,2019-02-06 14:45:00.0,PhaseCorrectionAve,-0.061,CHCGILDTO6Y
MA6813400180,h_OCHCTP,10-L1-7,2019-02-06 14:45:00.0,BerPreFecMax,0.00297,CHCGILDTO6Y
MA6813400180,h_OCHCTP,10-L1-7,2019-02-06 14:45:00.0,PmdMin,2.0,CHCGILDTO6Y
MA6813400180,h_OCHCTP,10-L1-7,2019-02-06 14:45:00.0,SoPmdAve,3524.04,CHCGILDTO6Y
MA6813400180,h_OCHCTP,10-L1-8,2019-02-06 14:15:00.0,Qmin,9.32,CHCGILDTO6Y
MA6813400180,h_OCHCTP,10-L1-8,2019-02-06 14:15:00.0,PhaseCorrectionAve,-0.122,CHCGILDTO6Y
MA6813400180,h_OCHCTP,10-L1-8,2019-02-06 14:15:00.0,BerPreFecMax,0.00173,CHCGILDTO6Y
MA6813400180,h_OCHCTP,10-L1-8,2019-02-06 14:15:00.0,PmdMin,1.16,CHCGILDTO6Y
MA6813400180,h_OCHCTP,10-L1-8,2019-02-06 14:15:00.0,SoPmdAve,3332.21,CHCGILDTO6Y
MA6813400180,h_OCHCTP,10-L1-8,2019-02-06 14:30:00.0,Qmin,9.29,CHCGILDTO6Y
MA6813400180,h_OCHCTP,10-L1-8,2019-02-06 14:30:00.0,PhaseCorrectionAve,-0.122,CHCGILDTO6Y
MA6813400180,h_OCHCTP,10-L1-8,2019-02-06 14:30:00.0,BerPreFecMax,0.00178,CHCGILDTO6Y
MA6813400180,h_OCHCTP,10-L1-8,2019-02-06 14:30:00.0,PmdMin,0.57,CHCGILDTO6Y
MA6813400180,h_OCHCTP,10-L1-8,2019-02-06 14:30:00.0,SoPmdAve,3359.42,CHCGILDTO6Y
MA6813400180,h_OCHCTP,10-L1-8,2019-02-06 14:45:00.0,Qmin,9.32,CHCGILDTO6Y
MA6813400180,h_OCHCTP,10-L1-8,2019-02-06 14:45:00.0,PhaseCorrectionAve,-0.061,CHCGILDTO6Y
MA6813400180,h_OCHCTP,10-L1-8,2019-02-06 14:45:00.0,BerPreFecMax,0.00173,CHCGILDTO6Y
MA6813400180,h_OCHCTP,10-L1-8,2019-02-06 14:45:00.0,PmdMin,0.757,CHCGILDTO6Y
MA6813400180,h_OCHCTP,10-L1-8,2019-02-06 14:45:00.0,SoPmdAve,3379.0,CHCGILDTO6Y
MA6813400180,h_OCHCTP,10-L1-9,2019-02-06 14:15:00.0,Qmin,9.33,CHCGILDTO6Y
MA6813400180,h_OCHCTP,10-L1-9,2019-02-06 14:15:00.0,PhaseCorrectionAve,-0.183,CHCGILDTO6Y
MA6813400180,h_OCHCTP,10-L1-9,2019-02-06 14:15:00.0,BerPreFecMax,0.00171,CHCGILDTO6Y
MA6813400180,h_OCHCTP,10-L1-9,2019-02-06 14:15:00.0,PmdMin,1.71,CHCGILDTO6Y
MA6813400180,h_OCHCTP,10-L1-9,2019-02-06 14:15:00.0,SoPmdAve,3272.07,CHCGILDTO6Y
MA6813400180,h_OCHCTP,10-L1-9,2019-02-06 14:30:00.0,Qmin,9.31,CHCGILDTO6Y
MA6813400180,h_OCHCTP,10-L1-9,2019-02-06 14:30:00.0,PhaseCorrectionAve,-0.122,CHCGILDTO6Y
MA6813400180,h_OCHCTP,10-L1-9,2019-02-06 14:30:00.0,BerPreFecMax,0.00175,CHCGILDTO6Y
MA6813400180,h_OCHCTP,10-L1-9,2019-02-06 14:30:00.0,PmdMin,1.81,CHCGILDTO6Y
MA6813400180,h_OCHCTP,10-L1-9,2019-02-06 14:30:00.0,SoPmdAve,3259.6,CHCGILDTO6Y
MA6813400180,h_OCHCTP,10-L1-9,2019-02-06 14:45:00.0,Qmin,9.34,CHCGILDTO6Y
MA6813400180,h_OCHCTP,10-L1-9,2019-02-06 14:45:00.0,PhaseCorrectionAve,-0.122,CHCGILDTO6Y
MA6813400180,h_OCHCTP,10-L1-9,2019-02-06 14:45:00.0,BerPreFecMax,0.00168,CHCGILDTO6Y
MA6813400180,h_OCHCTP,10-L1-9,2019-02-06 14:45:00.0,PmdMin,2.03,CHCGILDTO6Y
MA6813400180,h_OCHCTP,10-L1-9,2019-02-06 14:45:00.0,SoPmdAve,3217.69,CHCGILDTO6Y
MA6813400180,h_OCHCTP,10-L1-10,2019-02-06 14:15:00.0,Qmin,9.4,CHCGILDTO6Y
MA6813400180,h_OCHCTP,10-L1-10,2019-02-06 14:15:00.0,PhaseCorrectionAve,-0.244,CHCGILDTO6Y
MA6813400180,h_OCHCTP,10-L1-10,2019-02-06 14:15:00.0,BerPreFecMax,0.00158,CHCGILDTO6Y
MA6813400180,h_OCHCTP,10-L1-10,2019-02-06 14:15:00.0,PmdMin,5.53,CHCGILDTO6Y
MA6813400180,h_OCHCTP,10-L1-10,2019-02-06 14:15:00.0,SoPmdAve,3269.51,CHCGILDTO6Y
MA6813400180,h_OCHCTP,10-L1-10,2019-02-06 14:30:00.0,Qmin,9.38,CHCGILDTO6Y
MA6813400180,h_OCHCTP,10-L1-10,2019-02-06 14:30:00.0,PhaseCorrectionAve,-0.122,CHCGILDTO6Y
MA6813400180,h_OCHCTP,10-L1-10,2019-02-06 14:30:00.0,BerPreFecMax,0.00161,CHCGILDTO6Y
MA6813400180,h_OCHCTP,10-L1-10,2019-02-06 14:30:00.0,PmdMin,7.51,CHCGILDTO6Y
MA6813400180,h_OCHCTP,10-L1-10,2019-02-06 14:30:00.0,SoPmdAve,3275.5,CHCGILDTO6Y
MA6813400180,h_OCHCTP,10-L1-10,2019-02-06 14:45:00.0,Qmin,9.4,CHCGILDTO6Y
MA6813400180,h_OCHCTP,10-L1-10,2019-02-06 14:45:00.0,PhaseCorrectionAve,-0.122,CHCGILDTO6Y
MA6813400180,h_OCHCTP,10-L1-10,2019-02-06 14:45:00.0,BerPreFecMax,0.00158,CHCGILDTO6Y
MA6813400180,h_OCHCTP,10-L1-10,2019-02-06 14:45:00.0,PmdMin,6.11,CHCGILDTO6Y
MA6813400180,h_OCHCTP,10-L1-10,2019-02-06 14:45:00.0,SoPmdAve,3300.67,CHCGILDTO6Y
