MA6813400180,h_OCHCTP,11-L1-1,2019-01-23 16:15:00.0,Qmin,9.16,CHCGILDTO6Y
MA6813400180,h_OCHCTP,11-L1-1,2019-01-23 16:15:00.0,PhaseCorrectionAve,1.54e-07,CHCGILDTO6Y
MA6813400180,h_OCHCTP,11-L1-1,2019-01-23 16:15:00.0,BerPreFecMax,0.00204,CHCGILDTO6Y
MA6813400180,h_OCHCTP,11-L1-1,2019-01-23 16:15:00.0,PmdMin,0.452,CHCGILDTO6Y
MA6813400180,h_OCHCTP,11-L1-1,2019-01-23 16:15:00.0,SoPmdAve,3358.37,CHCGILDTO6Y
MA6813400180,h_OCHCTP,11-L1-1,2019-01-23 16:30:00.0,Qmin,9.16,CHCGILDTO6Y
MA6813400180,h_OCHCTP,11-L1-1,2019-01-23 16:30:00.0,PhaseCorrectionAve,1.53e-07,CHCGILDTO6Y
MA6813400180,h_OCHCTP,11-L1-1,2019-01-23 16:30:00.0,BerPreFecMax,0.00204,CHCGILDTO6Y
MA6813400180,h_OCHCTP,11-L1-1,2019-01-23 16:30:00.0,PmdMin,1.21,CHCGILDTO6Y
MA6813400180,h_OCHCTP,11-L1-1,2019-01-23 16:30:00.0,SoPmdAve,3373.07,CHCGILDTO6Y
MA6813400180,h_OCHCTP,11-L1-1,2019-01-23 16:45:00.0,Qmin,9.17,CHCGILDTO6Y
MA6813400180,h_OCHCTP,11-L1-1,2019-01-23 16:45:00.0,PhaseCorrectionAve,1.59e-07,CHCGILDTO6Y
MA6813400180,h_OCHCTP,11-L1-1,2019-01-23 16:45:00.0,BerPreFecMax,0.00202,CHCGILDTO6Y
MA6813400180,h_OCHCTP,11-L1-1,2019-01-23 16:45:00.0,PmdMin,1.25,CHCGILDTO6Y
MA6813400180,h_OCHCTP,11-L1-1,2019-01-23 16:45:00.0,SoPmdAve,3349.3,CHCGILDTO6Y
MA6813400180,h_OCHCTP,11-L1-2,2019-01-23 16:15:00.0,Qmin,9.08,CHCGILDTO6Y
MA6813400180,h_OCHCTP,11-L1-2,2019-01-23 16:15:00.0,PhaseCorrectionAve,-0.061,CHCGILDTO6Y
MA6813400180,h_OCHCTP,11-L1-2,2019-01-23 16:15:00.0,BerPreFecMax,0.00223,CHCGILDTO6Y
MA6813400180,h_OCHCTP,11-L1-2,2019-01-23 16:15:00.0,PmdMin,0.657,CHCGILDTO6Y
MA6813400180,h_OCHCTP,11-L1-2,2019-01-23 16:15:00.0,SoPmdAve,3116.55,CHCGILDTO6Y
MA6813400180,h_OCHCTP,11-L1-2,2019-01-23 16:30:00.0,Qmin,9.07,CHCGILDTO6Y
MA6813400180,h_OCHCTP,11-L1-2,2019-01-23 16:30:00.0,PhaseCorrectionAve,4.61e-07,CHCGILDTO6Y
MA6813400180,h_OCHCTP,11-L1-2,2019-01-23 16:30:00.0,BerPreFecMax,0.00224,CHCGILDTO6Y
MA6813400180,h_OCHCTP,11-L1-2,2019-01-23 16:30:00.0,PmdMin,1.02,CHCGILDTO6Y
MA6813400180,h_OCHCTP,11-L1-2,2019-01-23 16:30:00.0,SoPmdAve,3120.9,CHCGILDTO6Y
MA6813400180,h_OCHCTP,11-L1-2,2019-01-23 16:45:00.0,Qmin,9.09,CHCGILDTO6Y
MA6813400180,h_OCHCTP,11-L1-2,2019-01-23 16:45:00.0,PhaseCorrectionAve,-0.061,CHCGILDTO6Y
MA6813400180,h_OCHCTP,11-L1-2,2019-01-23 16:45:00.0,BerPreFecMax,0.00221,CHCGILDTO6Y
MA6813400180,h_OCHCTP,11-L1-2,2019-01-23 16:45:00.0,PmdMin,1.14,CHCGILDTO6Y
MA6813400180,h_OCHCTP,11-L1-2,2019-01-23 16:45:00.0,SoPmdAve,3140.78,CHCGILDTO6Y
MA6813400180,h_OCHCTP,11-L1-3,2019-01-23 16:15:00.0,Qmin,9.0,CHCGILDTO6Y
MA6813400180,h_OCHCTP,11-L1-3,2019-01-23 16:15:00.0,PhaseCorrectionAve,-0.061,CHCGILDTO6Y
MA6813400180,h_OCHCTP,11-L1-3,2019-01-23 16:15:00.0,BerPreFecMax,0.00242,CHCGILDTO6Y
MA6813400180,h_OCHCTP,11-L1-3,2019-01-23 16:15:00.0,PmdMin,0.648,CHCGILDTO6Y
MA6813400180,h_OCHCTP,11-L1-3,2019-01-23 16:15:00.0,SoPmdAve,2705.12,CHCGILDTO6Y
MA6813400180,h_OCHCTP,11-L1-3,2019-01-23 16:30:00.0,Qmin,9.01,CHCGILDTO6Y
MA6813400180,h_OCHCTP,11-L1-3,2019-01-23 16:30:00.0,PhaseCorrectionAve,3.63e-07,CHCGILDTO6Y
MA6813400180,h_OCHCTP,11-L1-3,2019-01-23 16:30:00.0,BerPreFecMax,0.0024,CHCGILDTO6Y
MA6813400180,h_OCHCTP,11-L1-3,2019-01-23 16:30:00.0,PmdMin,0.514,CHCGILDTO6Y
MA6813400180,h_OCHCTP,11-L1-3,2019-01-23 16:30:00.0,SoPmdAve,2688.95,CHCGILDTO6Y
MA6813400180,h_OCHCTP,11-L1-3,2019-01-23 16:45:00.0,Qmin,9.01,CHCGILDTO6Y
MA6813400180,h_OCHCTP,11-L1-3,2019-01-23 16:45:00.0,PhaseCorrectionAve,-0.061,CHCGILDTO6Y
MA6813400180,h_OCHCTP,11-L1-3,2019-01-23 16:45:00.0,BerPreFecMax,0.00238,CHCGILDTO6Y
MA6813400180,h_OCHCTP,11-L1-3,2019-01-23 16:45:00.0,PmdMin,1.28,CHCGILDTO6Y
MA6813400180,h_OCHCTP,11-L1-3,2019-01-23 16:45:00.0,SoPmdAve,2711.87,CHCGILDTO6Y
MA6813400180,h_OCHCTP,11-L1-4,2019-01-23 16:15:00.0,Qmin,8.84,CHCGILDTO6Y
MA6813400180,h_OCHCTP,11-L1-4,2019-01-23 16:15:00.0,PhaseCorrectionAve,-0.122,CHCGILDTO6Y
MA6813400180,h_OCHCTP,11-L1-4,2019-01-23 16:15:00.0,BerPreFecMax,0.00284,CHCGILDTO6Y
MA6813400180,h_OCHCTP,11-L1-4,2019-01-23 16:15:00.0,PmdMin,1.03,CHCGILDTO6Y
MA6813400180,h_OCHCTP,11-L1-4,2019-01-23 16:15:00.0,SoPmdAve,2922.54,CHCGILDTO6Y
MA6813400180,h_OCHCTP,11-L1-4,2019-01-23 16:30:00.0,Qmin,8.83,CHCGILDTO6Y
MA6813400180,h_OCHCTP,11-L1-4,2019-01-23 16:30:00.0,PhaseCorrectionAve,4.78e-07,CHCGILDTO6Y
MA6813400180,h_OCHCTP,11-L1-4,2019-01-23 16:30:00.0,BerPreFecMax,0.00285,CHCGILDTO6Y
MA6813400180,h_OCHCTP,11-L1-4,2019-01-23 16:30:00.0,PmdMin,0.369,CHCGILDTO6Y
MA6813400180,h_OCHCTP,11-L1-4,2019-01-23 16:30:00.0,SoPmdAve,2986.48,CHCGILDTO6Y
MA6813400180,h_OCHCTP,11-L1-4,2019-01-23 16:45:00.0,Qmin,8.83,CHCGILDTO6Y
MA6813400180,h_OCHCTP,11-L1-4,2019-01-23 16:45:00.0,PhaseCorrectionAve,-0.061,CHCGILDTO6Y
MA6813400180,h_OCHCTP,11-L1-4,2019-01-23 16:45:00.0,BerPreFecMax,0.00285,CHCGILDTO6Y
MA6813400180,h_OCHCTP,11-L1-4,2019-01-23 16:45:00.0,PmdMin,0.622,CHCGILDTO6Y
MA6813400180,h_OCHCTP,11-L1-4,2019-01-23 16:45:00.0,SoPmdAve,2947.76,CHCGILDTO6Y
MA6813400180,h_OCHCTP,11-L1-5,2019-01-23 16:15:00.0,Qmin,8.88,CHCGILDTO6Y
MA6813400180,h_OCHCTP,11-L1-5,2019-01-23 16:15:00.0,PhaseCorrectionAve,-0.122,CHCGILDTO6Y
MA6813400180,h_OCHCTP,11-L1-5,2019-01-23 16:15:00.0,BerPreFecMax,0.00271,CHCGILDTO6Y
MA6813400180,h_OCHCTP,11-L1-5,2019-01-23 16:15:00.0,PmdMin,0.702,CHCGILDTO6Y
MA6813400180,h_OCHCTP,11-L1-5,2019-01-23 16:15:00.0,SoPmdAve,2566.24,CHCGILDTO6Y
MA6813400180,h_OCHCTP,11-L1-5,2019-01-23 16:30:00.0,Qmin,8.88,CHCGILDTO6Y
MA6813400180,h_OCHCTP,11-L1-5,2019-01-23 16:30:00.0,PhaseCorrectionAve,-0.061,CHCGILDTO6Y
MA6813400180,h_OCHCTP,11-L1-5,2019-01-23 16:30:00.0,BerPreFecMax,0.00271,CHCGILDTO6Y
MA6813400180,h_OCHCTP,11-L1-5,2019-01-23 16:30:00.0,PmdMin,0.649,CHCGILDTO6Y
MA6813400180,h_OCHCTP,11-L1-5,2019-01-23 16:30:00.0,SoPmdAve,2554.1,CHCGILDTO6Y
MA6813400180,h_OCHCTP,11-L1-5,2019-01-23 16:45:00.0,Qmin,8.91,CHCGILDTO6Y
MA6813400180,h_OCHCTP,11-L1-5,2019-01-23 16:45:00.0,PhaseCorrectionAve,-0.061,CHCGILDTO6Y
MA6813400180,h_OCHCTP,11-L1-5,2019-01-23 16:45:00.0,BerPreFecMax,0.00263,CHCGILDTO6Y
MA6813400180,h_OCHCTP,11-L1-5,2019-01-23 16:45:00.0,PmdMin,0.219,CHCGILDTO6Y
MA6813400180,h_OCHCTP,11-L1-5,2019-01-23 16:45:00.0,SoPmdAve,2545.81,CHCGILDTO6Y
MA6813400180,h_OCHCTP,11-L1-6,2019-01-23 16:15:00.0,Qmin,8.82,CHCGILDTO6Y
MA6813400180,h_OCHCTP,11-L1-6,2019-01-23 16:15:00.0,PhaseCorrectionAve,-0.122,CHCGILDTO6Y
MA6813400180,h_OCHCTP,11-L1-6,2019-01-23 16:15:00.0,BerPreFecMax,0.00288,CHCGILDTO6Y
MA6813400180,h_OCHCTP,11-L1-6,2019-01-23 16:15:00.0,PmdMin,0.522,CHCGILDTO6Y
MA6813400180,h_OCHCTP,11-L1-6,2019-01-23 16:15:00.0,SoPmdAve,2624.58,CHCGILDTO6Y
MA6813400180,h_OCHCTP,11-L1-6,2019-01-23 16:30:00.0,Qmin,8.82,CHCGILDTO6Y
MA6813400180,h_OCHCTP,11-L1-6,2019-01-23 16:30:00.0,PhaseCorrectionAve,-0.061,CHCGILDTO6Y
MA6813400180,h_OCHCTP,11-L1-6,2019-01-23 16:30:00.0,BerPreFecMax,0.00288,CHCGILDTO6Y
MA6813400180,h_OCHCTP,11-L1-6,2019-01-23 16:30:00.0,PmdMin,0.832,CHCGILDTO6Y
MA6813400180,h_OCHCTP,11-L1-6,2019-01-23 16:30:00.0,SoPmdAve,2509.19,CHCGILDTO6Y
MA6813400180,h_OCHCTP,11-L1-6,2019-01-23 16:45:00.0,Qmin,8.81,CHCGILDTO6Y
MA6813400180,h_OCHCTP,11-L1-6,2019-01-23 16:45:00.0,PhaseCorrectionAve,-0.122,CHCGILDTO6Y
MA6813400180,h_OCHCTP,11-L1-6,2019-01-23 16:45:00.0,BerPreFecMax,0.0029,CHCGILDTO6Y
MA6813400180,h_OCHCTP,11-L1-6,2019-01-23 16:45:00.0,PmdMin,0.946,CHCGILDTO6Y
MA6813400180,h_OCHCTP,11-L1-6,2019-01-23 16:45:00.0,SoPmdAve,2549.88,CHCGILDTO6Y
MA6813400180,h_OCHCTP,11-L1-7,2019-01-23 16:15:00.0,Qmin,8.88,CHCGILDTO6Y
MA6813400180,h_OCHCTP,11-L1-7,2019-01-23 16:15:00.0,PhaseCorrectionAve,-0.183,CHCGILDTO6Y
MA6813400180,h_OCHCTP,11-L1-7,2019-01-23 16:15:00.0,BerPreFecMax,0.00272,CHCGILDTO6Y
MA6813400180,h_OCHCTP,11-L1-7,2019-01-23 16:15:00.0,PmdMin,0.532,CHCGILDTO6Y
MA6813400180,h_OCHCTP,11-L1-7,2019-01-23 16:15:00.0,SoPmdAve,3014.07,CHCGILDTO6Y
MA6813400180,h_OCHCTP,11-L1-7,2019-01-23 16:30:00.0,Qmin,8.88,CHCGILDTO6Y
MA6813400180,h_OCHCTP,11-L1-7,2019-01-23 16:30:00.0,PhaseCorrectionAve,-0.061,CHCGILDTO6Y
MA6813400180,h_OCHCTP,11-L1-7,2019-01-23 16:30:00.0,BerPreFecMax,0.00272,CHCGILDTO6Y
MA6813400180,h_OCHCTP,11-L1-7,2019-01-23 16:30:00.0,PmdMin,0.848,CHCGILDTO6Y
MA6813400180,h_OCHCTP,11-L1-7,2019-01-23 16:30:00.0,SoPmdAve,3042.3,CHCGILDTO6Y
MA6813400180,h_OCHCTP,11-L1-7,2019-01-23 16:45:00.0,Qmin,8.86,CHCGILDTO6Y
MA6813400180,h_OCHCTP,11-L1-7,2019-01-23 16:45:00.0,PhaseCorrectionAve,-0.122,CHCGILDTO6Y
MA6813400180,h_OCHCTP,11-L1-7,2019-01-23 16:45:00.0,BerPreFecMax,0.00277,CHCGILDTO6Y
MA6813400180,h_OCHCTP,11-L1-7,2019-01-23 16:45:00.0,PmdMin,0.484,CHCGILDTO6Y
MA6813400180,h_OCHCTP,11-L1-7,2019-01-23 16:45:00.0,SoPmdAve,3018.89,CHCGILDTO6Y
MA6813400180,h_OCHCTP,11-L1-8,2019-01-23 16:15:00.0,Qmin,8.97,CHCGILDTO6Y
MA6813400180,h_OCHCTP,11-L1-8,2019-01-23 16:15:00.0,PhaseCorrectionAve,-0.183,CHCGILDTO6Y
MA6813400180,h_OCHCTP,11-L1-8,2019-01-23 16:15:00.0,BerPreFecMax,0.0025,CHCGILDTO6Y
MA6813400180,h_OCHCTP,11-L1-8,2019-01-23 16:15:00.0,PmdMin,1.1,CHCGILDTO6Y
MA6813400180,h_OCHCTP,11-L1-8,2019-01-23 16:15:00.0,SoPmdAve,3180.36,CHCGILDTO6Y
MA6813400180,h_OCHCTP,11-L1-8,2019-01-23 16:30:00.0,Qmin,8.94,CHCGILDTO6Y
MA6813400180,h_OCHCTP,11-L1-8,2019-01-23 16:30:00.0,PhaseCorrectionAve,-0.061,CHCGILDTO6Y
MA6813400180,h_OCHCTP,11-L1-8,2019-01-23 16:30:00.0,BerPreFecMax,0.00256,CHCGILDTO6Y
MA6813400180,h_OCHCTP,11-L1-8,2019-01-23 16:30:00.0,PmdMin,1.83,CHCGILDTO6Y
MA6813400180,h_OCHCTP,11-L1-8,2019-01-23 16:30:00.0,SoPmdAve,3055.37,CHCGILDTO6Y
MA6813400180,h_OCHCTP,11-L1-8,2019-01-23 16:45:00.0,Qmin,8.94,CHCGILDTO6Y
MA6813400180,h_OCHCTP,11-L1-8,2019-01-23 16:45:00.0,PhaseCorrectionAve,-0.122,CHCGILDTO6Y
MA6813400180,h_OCHCTP,11-L1-8,2019-01-23 16:45:00.0,BerPreFecMax,0.00256,CHCGILDTO6Y
MA6813400180,h_OCHCTP,11-L1-8,2019-01-23 16:45:00.0,PmdMin,0.947,CHCGILDTO6Y
MA6813400180,h_OCHCTP,11-L1-8,2019-01-23 16:45:00.0,SoPmdAve,3058.42,CHCGILDTO6Y
MA6813400180,h_OCHCTP,11-L1-9,2019-01-23 16:15:00.0,Qmin,8.9,CHCGILDTO6Y
MA6813400180,h_OCHCTP,11-L1-9,2019-01-23 16:15:00.0,PhaseCorrectionAve,-0.244,CHCGILDTO6Y
MA6813400180,h_OCHCTP,11-L1-9,2019-01-23 16:15:00.0,BerPreFecMax,0.00267,CHCGILDTO6Y
MA6813400180,h_OCHCTP,11-L1-9,2019-01-23 16:15:00.0,PmdMin,0.561,CHCGILDTO6Y
MA6813400180,h_OCHCTP,11-L1-9,2019-01-23 16:15:00.0,SoPmdAve,3123.85,CHCGILDTO6Y
MA6813400180,h_OCHCTP,11-L1-9,2019-01-23 16:30:00.0,Qmin,8.88,CHCGILDTO6Y
MA6813400180,h_OCHCTP,11-L1-9,2019-01-23 16:30:00.0,PhaseCorrectionAve,-0.061,CHCGILDTO6Y
MA6813400180,h_OCHCTP,11-L1-9,2019-01-23 16:30:00.0,BerPreFecMax,0.00272,CHCGILDTO6Y
MA6813400180,h_OCHCTP,11-L1-9,2019-01-23 16:30:00.0,PmdMin,0.704,CHCGILDTO6Y
MA6813400180,h_OCHCTP,11-L1-9,2019-01-23 16:30:00.0,SoPmdAve,3091.76,CHCGILDTO6Y
MA6813400180,h_OCHCTP,11-L1-9,2019-01-23 16:45:00.0,Qmin,8.86,CHCGILDTO6Y
MA6813400180,h_OCHCTP,11-L1-9,2019-01-23 16:45:00.0,PhaseCorrectionAve,-0.122,CHCGILDTO6Y
MA6813400180,h_OCHCTP,11-L1-9,2019-01-23 16:45:00.0,BerPreFecMax,0.00278,CHCGILDTO6Y
MA6813400180,h_OCHCTP,11-L1-9,2019-01-23 16:45:00.0,PmdMin,0.478,CHCGILDTO6Y
MA6813400180,h_OCHCTP,11-L1-9,2019-01-23 16:45:00.0,SoPmdAve,3107.99,CHCGILDTO6Y
MA6813400180,h_OCHCTP,11-L1-10,2019-01-23 16:15:00.0,Qmin,9.01,CHCGILDTO6Y
MA6813400180,h_OCHCTP,11-L1-10,2019-01-23 16:15:00.0,PhaseCorrectionAve,-0.305,CHCGILDTO6Y
MA6813400180,h_OCHCTP,11-L1-10,2019-01-23 16:15:00.0,BerPreFecMax,0.00238,CHCGILDTO6Y
MA6813400180,h_OCHCTP,11-L1-10,2019-01-23 16:15:00.0,PmdMin,0.837,CHCGILDTO6Y
MA6813400180,h_OCHCTP,11-L1-10,2019-01-23 16:15:00.0,SoPmdAve,3096.62,CHCGILDTO6Y
MA6813400180,h_OCHCTP,11-L1-10,2019-01-23 16:30:00.0,Qmin,9.0,CHCGILDTO6Y
MA6813400180,h_OCHCTP,11-L1-10,2019-01-23 16:30:00.0,PhaseCorrectionAve,-0.061,CHCGILDTO6Y
MA6813400180,h_OCHCTP,11-L1-10,2019-01-23 16:30:00.0,BerPreFecMax,0.00242,CHCGILDTO6Y
MA6813400180,h_OCHCTP,11-L1-10,2019-01-23 16:30:00.0,PmdMin,0.412,CHCGILDTO6Y
MA6813400180,h_OCHCTP,11-L1-10,2019-01-23 16:30:00.0,SoPmdAve,3072.15,CHCGILDTO6Y
MA6813400180,h_OCHCTP,11-L1-10,2019-01-23 16:45:00.0,Qmin,8.99,CHCGILDTO6Y
MA6813400180,h_OCHCTP,11-L1-10,2019-01-23 16:45:00.0,PhaseCorrectionAve,-0.122,CHCGILDTO6Y
MA6813400180,h_OCHCTP,11-L1-10,2019-01-23 16:45:00.0,BerPreFecMax,0.00244,CHCGILDTO6Y
MA6813400180,h_OCHCTP,11-L1-10,2019-01-23 16:45:00.0,PmdMin,1.17,CHCGILDTO6Y
MA6813400180,h_OCHCTP,11-L1-10,2019-01-23 16:45:00.0,SoPmdAve,3062.03,CHCGILDTO6Y
MA6813400180,h_OCHCTP,10-L1-1,2019-01-23 16:15:00.0,Qmin,9.52,CHCGILDTO6Y
MA6813400180,h_OCHCTP,10-L1-1,2019-01-23 16:15:00.0,PhaseCorrectionAve,5.89e-07,CHCGILDTO6Y
MA6813400180,h_OCHCTP,10-L1-1,2019-01-23 16:15:00.0,BerPreFecMax,0.00138,CHCGILDTO6Y
MA6813400180,h_OCHCTP,10-L1-1,2019-01-23 16:15:00.0,PmdMin,1.9,CHCGILDTO6Y
MA6813400180,h_OCHCTP,10-L1-1,2019-01-23 16:15:00.0,SoPmdAve,3377.64,CHCGILDTO6Y
MA6813400180,h_OCHCTP,10-L1-1,2019-01-23 16:30:00.0,Qmin,9.52,CHCGILDTO6Y
MA6813400180,h_OCHCTP,10-L1-1,2019-01-23 16:30:00.0,PhaseCorrectionAve,6.27e-07,CHCGILDTO6Y
MA6813400180,h_OCHCTP,10-L1-1,2019-01-23 16:30:00.0,BerPreFecMax,0.00138,CHCGILDTO6Y
MA6813400180,h_OCHCTP,10-L1-1,2019-01-23 16:30:00.0,PmdMin,2.35,CHCGILDTO6Y
MA6813400180,h_OCHCTP,10-L1-1,2019-01-23 16:30:00.0,SoPmdAve,3305.11,CHCGILDTO6Y
MA6813400180,h_OCHCTP,10-L1-1,2019-01-23 16:45:00.0,Qmin,9.52,CHCGILDTO6Y
MA6813400180,h_OCHCTP,10-L1-1,2019-01-23 16:45:00.0,PhaseCorrectionAve,6.34e-07,CHCGILDTO6Y
MA6813400180,h_OCHCTP,10-L1-1,2019-01-23 16:45:00.0,BerPreFecMax,0.00138,CHCGILDTO6Y
MA6813400180,h_OCHCTP,10-L1-1,2019-01-23 16:45:00.0,PmdMin,1.71,CHCGILDTO6Y
MA6813400180,h_OCHCTP,10-L1-1,2019-01-23 16:45:00.0,SoPmdAve,3329.96,CHCGILDTO6Y
MA6813400180,h_OCHCTP,10-L1-2,2019-01-23 16:15:00.0,Qmin,9.25,CHCGILDTO6Y
MA6813400180,h_OCHCTP,10-L1-2,2019-01-23 16:15:00.0,PhaseCorrectionAve,-0.122,CHCGILDTO6Y
MA6813400180,h_OCHCTP,10-L1-2,2019-01-23 16:15:00.0,BerPreFecMax,0.00187,CHCGILDTO6Y
MA6813400180,h_OCHCTP,10-L1-2,2019-01-23 16:15:00.0,PmdMin,1.01,CHCGILDTO6Y
MA6813400180,h_OCHCTP,10-L1-2,2019-01-23 16:15:00.0,SoPmdAve,3418.51,CHCGILDTO6Y
MA6813400180,h_OCHCTP,10-L1-2,2019-01-23 16:30:00.0,Qmin,9.25,CHCGILDTO6Y
MA6813400180,h_OCHCTP,10-L1-2,2019-01-23 16:30:00.0,PhaseCorrectionAve,3.77e-07,CHCGILDTO6Y
MA6813400180,h_OCHCTP,10-L1-2,2019-01-23 16:30:00.0,BerPreFecMax,0.00187,CHCGILDTO6Y
MA6813400180,h_OCHCTP,10-L1-2,2019-01-23 16:30:00.0,PmdMin,1.25,CHCGILDTO6Y
MA6813400180,h_OCHCTP,10-L1-2,2019-01-23 16:30:00.0,SoPmdAve,3477.51,CHCGILDTO6Y
MA6813400180,h_OCHCTP,10-L1-2,2019-01-23 16:45:00.0,Qmin,9.24,CHCGILDTO6Y
MA6813400180,h_OCHCTP,10-L1-2,2019-01-23 16:45:00.0,PhaseCorrectionAve,3.97e-07,CHCGILDTO6Y
MA6813400180,h_OCHCTP,10-L1-2,2019-01-23 16:45:00.0,BerPreFecMax,0.00189,CHCGILDTO6Y
MA6813400180,h_OCHCTP,10-L1-2,2019-01-23 16:45:00.0,PmdMin,1.22,CHCGILDTO6Y
MA6813400180,h_OCHCTP,10-L1-2,2019-01-23 16:45:00.0,SoPmdAve,3360.95,CHCGILDTO6Y
MA6813400180,h_OCHCTP,10-L1-3,2019-01-23 16:15:00.0,Qmin,9.05,CHCGILDTO6Y
MA6813400180,h_OCHCTP,10-L1-3,2019-01-23 16:15:00.0,PhaseCorrectionAve,-0.122,CHCGILDTO6Y
MA6813400180,h_OCHCTP,10-L1-3,2019-01-23 16:15:00.0,BerPreFecMax,0.00229,CHCGILDTO6Y
MA6813400180,h_OCHCTP,10-L1-3,2019-01-23 16:15:00.0,PmdMin,1.43,CHCGILDTO6Y
MA6813400180,h_OCHCTP,10-L1-3,2019-01-23 16:15:00.0,SoPmdAve,2794.65,CHCGILDTO6Y
MA6813400180,h_OCHCTP,10-L1-3,2019-01-23 16:30:00.0,Qmin,9.05,CHCGILDTO6Y
MA6813400180,h_OCHCTP,10-L1-3,2019-01-23 16:30:00.0,PhaseCorrectionAve,5.02e-07,CHCGILDTO6Y
MA6813400180,h_OCHCTP,10-L1-3,2019-01-23 16:30:00.0,BerPreFecMax,0.00229,CHCGILDTO6Y
MA6813400180,h_OCHCTP,10-L1-3,2019-01-23 16:30:00.0,PmdMin,0.703,CHCGILDTO6Y
MA6813400180,h_OCHCTP,10-L1-3,2019-01-23 16:30:00.0,SoPmdAve,2806.74,CHCGILDTO6Y
MA6813400180,h_OCHCTP,10-L1-3,2019-01-23 16:45:00.0,Qmin,9.05,CHCGILDTO6Y
MA6813400180,h_OCHCTP,10-L1-3,2019-01-23 16:45:00.0,PhaseCorrectionAve,-0.061,CHCGILDTO6Y
MA6813400180,h_OCHCTP,10-L1-3,2019-01-23 16:45:00.0,BerPreFecMax,0.00229,CHCGILDTO6Y
MA6813400180,h_OCHCTP,10-L1-3,2019-01-23 16:45:00.0,PmdMin,2.32,CHCGILDTO6Y
MA6813400180,h_OCHCTP,10-L1-3,2019-01-23 16:45:00.0,SoPmdAve,2865.36,CHCGILDTO6Y
MA6813400180,h_OCHCTP,10-L1-4,2019-01-23 16:15:00.0,Qmin,8.54,CHCGILDTO6Y
MA6813400180,h_OCHCTP,10-L1-4,2019-01-23 16:15:00.0,PhaseCorrectionAve,-0.122,CHCGILDTO6Y
MA6813400180,h_OCHCTP,10-L1-4,2019-01-23 16:15:00.0,BerPreFecMax,0.00375,CHCGILDTO6Y
MA6813400180,h_OCHCTP,10-L1-4,2019-01-23 16:15:00.0,PmdMin,7.44,CHCGILDTO6Y
MA6813400180,h_OCHCTP,10-L1-4,2019-01-23 16:15:00.0,SoPmdAve,3033.82,CHCGILDTO6Y
MA6813400180,h_OCHCTP,10-L1-4,2019-01-23 16:30:00.0,Qmin,8.56,CHCGILDTO6Y
MA6813400180,h_OCHCTP,10-L1-4,2019-01-23 16:30:00.0,PhaseCorrectionAve,1.41e-06,CHCGILDTO6Y
MA6813400180,h_OCHCTP,10-L1-4,2019-01-23 16:30:00.0,BerPreFecMax,0.00371,CHCGILDTO6Y
MA6813400180,h_OCHCTP,10-L1-4,2019-01-23 16:30:00.0,PmdMin,6.84,CHCGILDTO6Y
MA6813400180,h_OCHCTP,10-L1-4,2019-01-23 16:30:00.0,SoPmdAve,3011.77,CHCGILDTO6Y
MA6813400180,h_OCHCTP,10-L1-4,2019-01-23 16:45:00.0,Qmin,8.55,CHCGILDTO6Y
MA6813400180,h_OCHCTP,10-L1-4,2019-01-23 16:45:00.0,PhaseCorrectionAve,-0.183,CHCGILDTO6Y
MA6813400180,h_OCHCTP,10-L1-4,2019-01-23 16:45:00.0,BerPreFecMax,0.00371,CHCGILDTO6Y
MA6813400180,h_OCHCTP,10-L1-4,2019-01-23 16:45:00.0,PmdMin,7.83,CHCGILDTO6Y
MA6813400180,h_OCHCTP,10-L1-4,2019-01-23 16:45:00.0,SoPmdAve,3031.63,CHCGILDTO6Y
MA6813400180,h_OCHCTP,10-L1-5,2019-01-23 16:15:00.0,Qmin,8.71,CHCGILDTO6Y
MA6813400180,h_OCHCTP,10-L1-5,2019-01-23 16:15:00.0,PhaseCorrectionAve,-0.122,CHCGILDTO6Y
MA6813400180,h_OCHCTP,10-L1-5,2019-01-23 16:15:00.0,BerPreFecMax,0.00321,CHCGILDTO6Y
MA6813400180,h_OCHCTP,10-L1-5,2019-01-23 16:15:00.0,PmdMin,2.69,CHCGILDTO6Y
MA6813400180,h_OCHCTP,10-L1-5,2019-01-23 16:15:00.0,SoPmdAve,2819.45,CHCGILDTO6Y
MA6813400180,h_OCHCTP,10-L1-5,2019-01-23 16:30:00.0,Qmin,8.72,CHCGILDTO6Y
MA6813400180,h_OCHCTP,10-L1-5,2019-01-23 16:30:00.0,PhaseCorrectionAve,-0.061,CHCGILDTO6Y
MA6813400180,h_OCHCTP,10-L1-5,2019-01-23 16:30:00.0,BerPreFecMax,0.00317,CHCGILDTO6Y
MA6813400180,h_OCHCTP,10-L1-5,2019-01-23 16:30:00.0,PmdMin,3.68,CHCGILDTO6Y
MA6813400180,h_OCHCTP,10-L1-5,2019-01-23 16:30:00.0,SoPmdAve,2865.83,CHCGILDTO6Y
MA6813400180,h_OCHCTP,10-L1-5,2019-01-23 16:45:00.0,Qmin,8.72,CHCGILDTO6Y
MA6813400180,h_OCHCTP,10-L1-5,2019-01-23 16:45:00.0,PhaseCorrectionAve,-0.183,CHCGILDTO6Y
MA6813400180,h_OCHCTP,10-L1-5,2019-01-23 16:45:00.0,BerPreFecMax,0.00317,CHCGILDTO6Y
MA6813400180,h_OCHCTP,10-L1-5,2019-01-23 16:45:00.0,PmdMin,4.82,CHCGILDTO6Y
MA6813400180,h_OCHCTP,10-L1-5,2019-01-23 16:45:00.0,SoPmdAve,2796.52,CHCGILDTO6Y
MA6813400180,h_OCHCTP,10-L1-6,2019-01-23 16:15:00.0,Qmin,8.88,CHCGILDTO6Y
MA6813400180,h_OCHCTP,10-L1-6,2019-01-23 16:15:00.0,PhaseCorrectionAve,-0.122,CHCGILDTO6Y
MA6813400180,h_OCHCTP,10-L1-6,2019-01-23 16:15:00.0,BerPreFecMax,0.00273,CHCGILDTO6Y
MA6813400180,h_OCHCTP,10-L1-6,2019-01-23 16:15:00.0,PmdMin,1.66,CHCGILDTO6Y
MA6813400180,h_OCHCTP,10-L1-6,2019-01-23 16:15:00.0,SoPmdAve,2917.19,CHCGILDTO6Y
MA6813400180,h_OCHCTP,10-L1-6,2019-01-23 16:30:00.0,Qmin,8.9,CHCGILDTO6Y
MA6813400180,h_OCHCTP,10-L1-6,2019-01-23 16:30:00.0,PhaseCorrectionAve,-0.061,CHCGILDTO6Y
MA6813400180,h_OCHCTP,10-L1-6,2019-01-23 16:30:00.0,BerPreFecMax,0.00267,CHCGILDTO6Y
MA6813400180,h_OCHCTP,10-L1-6,2019-01-23 16:30:00.0,PmdMin,1.18,CHCGILDTO6Y
MA6813400180,h_OCHCTP,10-L1-6,2019-01-23 16:30:00.0,SoPmdAve,2800.77,CHCGILDTO6Y
MA6813400180,h_OCHCTP,10-L1-6,2019-01-23 16:45:00.0,Qmin,8.91,CHCGILDTO6Y
MA6813400180,h_OCHCTP,10-L1-6,2019-01-23 16:45:00.0,PhaseCorrectionAve,-0.183,CHCGILDTO6Y
MA6813400180,h_OCHCTP,10-L1-6,2019-01-23 16:45:00.0,BerPreFecMax,0.00264,CHCGILDTO6Y
MA6813400180,h_OCHCTP,10-L1-6,2019-01-23 16:45:00.0,PmdMin,1.34,CHCGILDTO6Y
MA6813400180,h_OCHCTP,10-L1-6,2019-01-23 16:45:00.0,SoPmdAve,2744.7,CHCGILDTO6Y
MA6813400180,h_OCHCTP,10-L1-7,2019-01-23 16:15:00.0,Qmin,8.96,CHCGILDTO6Y
MA6813400180,h_OCHCTP,10-L1-7,2019-01-23 16:15:00.0,PhaseCorrectionAve,-0.122,CHCGILDTO6Y
MA6813400180,h_OCHCTP,10-L1-7,2019-01-23 16:15:00.0,BerPreFecMax,0.00252,CHCGILDTO6Y
MA6813400180,h_OCHCTP,10-L1-7,2019-01-23 16:15:00.0,PmdMin,1.95,CHCGILDTO6Y
MA6813400180,h_OCHCTP,10-L1-7,2019-01-23 16:15:00.0,SoPmdAve,3436.88,CHCGILDTO6Y
MA6813400180,h_OCHCTP,10-L1-7,2019-01-23 16:30:00.0,Qmin,8.97,CHCGILDTO6Y
MA6813400180,h_OCHCTP,10-L1-7,2019-01-23 16:30:00.0,PhaseCorrectionAve,-0.061,CHCGILDTO6Y
MA6813400180,h_OCHCTP,10-L1-7,2019-01-23 16:30:00.0,BerPreFecMax,0.0025,CHCGILDTO6Y
MA6813400180,h_OCHCTP,10-L1-7,2019-01-23 16:30:00.0,PmdMin,1.91,CHCGILDTO6Y
MA6813400180,h_OCHCTP,10-L1-7,2019-01-23 16:30:00.0,SoPmdAve,3353.92,CHCGILDTO6Y
MA6813400180,h_OCHCTP,10-L1-7,2019-01-23 16:45:00.0,Qmin,8.97,CHCGILDTO6Y
MA6813400180,h_OCHCTP,10-L1-7,2019-01-23 16:45:00.0,PhaseCorrectionAve,-0.183,CHCGILDTO6Y
MA6813400180,h_OCHCTP,10-L1-7,2019-01-23 16:45:00.0,BerPreFecMax,0.0025,CHCGILDTO6Y
MA6813400180,h_OCHCTP,10-L1-7,2019-01-23 16:45:00.0,PmdMin,1.7,CHCGILDTO6Y
MA6813400180,h_OCHCTP,10-L1-7,2019-01-23 16:45:00.0,SoPmdAve,3450.01,CHCGILDTO6Y
MA6813400180,h_OCHCTP,10-L1-8,2019-01-23 16:15:00.0,Qmin,9.32,CHCGILDTO6Y
MA6813400180,h_OCHCTP,10-L1-8,2019-01-23 16:15:00.0,PhaseCorrectionAve,-0.122,CHCGILDTO6Y
MA6813400180,h_OCHCTP,10-L1-8,2019-01-23 16:15:00.0,BerPreFecMax,0.00172,CHCGILDTO6Y
MA6813400180,h_OCHCTP,10-L1-8,2019-01-23 16:15:00.0,PmdMin,2.16,CHCGILDTO6Y
MA6813400180,h_OCHCTP,10-L1-8,2019-01-23 16:15:00.0,SoPmdAve,3442.47,CHCGILDTO6Y
MA6813400180,h_OCHCTP,10-L1-8,2019-01-23 16:30:00.0,Qmin,9.33,CHCGILDTO6Y
MA6813400180,h_OCHCTP,10-L1-8,2019-01-23 16:30:00.0,PhaseCorrectionAve,-0.122,CHCGILDTO6Y
MA6813400180,h_OCHCTP,10-L1-8,2019-01-23 16:30:00.0,BerPreFecMax,0.00171,CHCGILDTO6Y
MA6813400180,h_OCHCTP,10-L1-8,2019-01-23 16:30:00.0,PmdMin,1.14,CHCGILDTO6Y
MA6813400180,h_OCHCTP,10-L1-8,2019-01-23 16:30:00.0,SoPmdAve,3523.34,CHCGILDTO6Y
MA6813400180,h_OCHCTP,10-L1-8,2019-01-23 16:45:00.0,Qmin,9.32,CHCGILDTO6Y
MA6813400180,h_OCHCTP,10-L1-8,2019-01-23 16:45:00.0,PhaseCorrectionAve,-0.183,CHCGILDTO6Y
MA6813400180,h_OCHCTP,10-L1-8,2019-01-23 16:45:00.0,BerPreFecMax,0.00172,CHCGILDTO6Y
MA6813400180,h_OCHCTP,10-L1-8,2019-01-23 16:45:00.0,PmdMin,1.53,CHCGILDTO6Y
MA6813400180,h_OCHCTP,10-L1-8,2019-01-23 16:45:00.0,SoPmdAve,3467.05,CHCGILDTO6Y
MA6813400180,h_OCHCTP,10-L1-9,2019-01-23 16:15:00.0,Qmin,9.32,CHCGILDTO6Y
MA6813400180,h_OCHCTP,10-L1-9,2019-01-23 16:15:00.0,PhaseCorrectionAve,-0.122,CHCGILDTO6Y
MA6813400180,h_OCHCTP,10-L1-9,2019-01-23 16:15:00.0,BerPreFecMax,0.00173,CHCGILDTO6Y
MA6813400180,h_OCHCTP,10-L1-9,2019-01-23 16:15:00.0,PmdMin,0.921,CHCGILDTO6Y
MA6813400180,h_OCHCTP,10-L1-9,2019-01-23 16:15:00.0,SoPmdAve,3429.09,CHCGILDTO6Y
MA6813400180,h_OCHCTP,10-L1-9,2019-01-23 16:30:00.0,Qmin,9.32,CHCGILDTO6Y
MA6813400180,h_OCHCTP,10-L1-9,2019-01-23 16:30:00.0,PhaseCorrectionAve,-0.122,CHCGILDTO6Y
MA6813400180,h_OCHCTP,10-L1-9,2019-01-23 16:30:00.0,BerPreFecMax,0.00173,CHCGILDTO6Y
MA6813400180,h_OCHCTP,10-L1-9,2019-01-23 16:30:00.0,PmdMin,1.02,CHCGILDTO6Y
MA6813400180,h_OCHCTP,10-L1-9,2019-01-23 16:30:00.0,SoPmdAve,3441.93,CHCGILDTO6Y
MA6813400180,h_OCHCTP,10-L1-9,2019-01-23 16:45:00.0,Qmin,9.31,CHCGILDTO6Y
MA6813400180,h_OCHCTP,10-L1-9,2019-01-23 16:45:00.0,PhaseCorrectionAve,-0.244,CHCGILDTO6Y
MA6813400180,h_OCHCTP,10-L1-9,2019-01-23 16:45:00.0,BerPreFecMax,0.00174,CHCGILDTO6Y
MA6813400180,h_OCHCTP,10-L1-9,2019-01-23 16:45:00.0,PmdMin,1.05,CHCGILDTO6Y
MA6813400180,h_OCHCTP,10-L1-9,2019-01-23 16:45:00.0,SoPmdAve,3490.39,CHCGILDTO6Y
MA6813400180,h_OCHCTP,10-L1-10,2019-01-23 16:15:00.0,Qmin,9.36,CHCGILDTO6Y
MA6813400180,h_OCHCTP,10-L1-10,2019-01-23 16:15:00.0,PhaseCorrectionAve,-0.183,CHCGILDTO6Y
MA6813400180,h_OCHCTP,10-L1-10,2019-01-23 16:15:00.0,BerPreFecMax,0.00165,CHCGILDTO6Y
MA6813400180,h_OCHCTP,10-L1-10,2019-01-23 16:15:00.0,PmdMin,6.56,CHCGILDTO6Y
MA6813400180,h_OCHCTP,10-L1-10,2019-01-23 16:15:00.0,SoPmdAve,3316.2,CHCGILDTO6Y
MA6813400180,h_OCHCTP,10-L1-10,2019-01-23 16:30:00.0,Qmin,9.35,CHCGILDTO6Y
MA6813400180,h_OCHCTP,10-L1-10,2019-01-23 16:30:00.0,PhaseCorrectionAve,-0.183,CHCGILDTO6Y
MA6813400180,h_OCHCTP,10-L1-10,2019-01-23 16:30:00.0,BerPreFecMax,0.00166,CHCGILDTO6Y
MA6813400180,h_OCHCTP,10-L1-10,2019-01-23 16:30:00.0,PmdMin,7.52,CHCGILDTO6Y
MA6813400180,h_OCHCTP,10-L1-10,2019-01-23 16:30:00.0,SoPmdAve,3381.04,CHCGILDTO6Y
MA6813400180,h_OCHCTP,10-L1-10,2019-01-23 16:45:00.0,Qmin,9.35,CHCGILDTO6Y
MA6813400180,h_OCHCTP,10-L1-10,2019-01-23 16:45:00.0,PhaseCorrectionAve,-0.244,CHCGILDTO6Y
MA6813400180,h_OCHCTP,10-L1-10,2019-01-23 16:45:00.0,BerPreFecMax,0.00167,CHCGILDTO6Y
MA6813400180,h_OCHCTP,10-L1-10,2019-01-23 16:45:00.0,PmdMin,8.67,CHCGILDTO6Y
MA6813400180,h_OCHCTP,10-L1-10,2019-01-23 16:45:00.0,SoPmdAve,3328.0,CHCGILDTO6Y
MA6813400180,h_OCHCTP,13-L1-1,2019-01-23 16:15:00.0,Qmin,9.19,CHCGILDTO6Y
MA6813400180,h_OCHCTP,13-L1-1,2019-01-23 16:15:00.0,PhaseCorrectionAve,2.83e-07,CHCGILDTO6Y
MA6813400180,h_OCHCTP,13-L1-1,2019-01-23 16:15:00.0,BerPreFecMax,0.00199,CHCGILDTO6Y
MA6813400180,h_OCHCTP,13-L1-1,2019-01-23 16:15:00.0,PmdMin,0.586,CHCGILDTO6Y
MA6813400180,h_OCHCTP,13-L1-1,2019-01-23 16:15:00.0,SoPmdAve,3573.55,CHCGILDTO6Y
MA6813400180,h_OCHCTP,13-L1-1,2019-01-23 16:30:00.0,Qmin,9.18,CHCGILDTO6Y
MA6813400180,h_OCHCTP,13-L1-1,2019-01-23 16:30:00.0,PhaseCorrectionAve,2.83e-07,CHCGILDTO6Y
MA6813400180,h_OCHCTP,13-L1-1,2019-01-23 16:30:00.0,BerPreFecMax,0.00201,CHCGILDTO6Y
MA6813400180,h_OCHCTP,13-L1-1,2019-01-23 16:30:00.0,PmdMin,0.603,CHCGILDTO6Y
MA6813400180,h_OCHCTP,13-L1-1,2019-01-23 16:30:00.0,SoPmdAve,3498.45,CHCGILDTO6Y
MA6813400180,h_OCHCTP,13-L1-1,2019-01-23 16:45:00.0,Qmin,9.2,CHCGILDTO6Y
MA6813400180,h_OCHCTP,13-L1-1,2019-01-23 16:45:00.0,PhaseCorrectionAve,2.83e-07,CHCGILDTO6Y
MA6813400180,h_OCHCTP,13-L1-1,2019-01-23 16:45:00.0,BerPreFecMax,0.00197,CHCGILDTO6Y
MA6813400180,h_OCHCTP,13-L1-1,2019-01-23 16:45:00.0,PmdMin,1.52,CHCGILDTO6Y
MA6813400180,h_OCHCTP,13-L1-1,2019-01-23 16:45:00.0,SoPmdAve,3522.64,CHCGILDTO6Y
MA6813400180,h_OCHCTP,13-L1-2,2019-01-23 16:15:00.0,Qmin,9.17,CHCGILDTO6Y
MA6813400180,h_OCHCTP,13-L1-2,2019-01-23 16:15:00.0,PhaseCorrectionAve,-0.061,CHCGILDTO6Y
MA6813400180,h_OCHCTP,13-L1-2,2019-01-23 16:15:00.0,BerPreFecMax,0.00203,CHCGILDTO6Y
MA6813400180,h_OCHCTP,13-L1-2,2019-01-23 16:15:00.0,PmdMin,0.767,CHCGILDTO6Y
MA6813400180,h_OCHCTP,13-L1-2,2019-01-23 16:15:00.0,SoPmdAve,3526.59,CHCGILDTO6Y
MA6813400180,h_OCHCTP,13-L1-2,2019-01-23 16:30:00.0,Qmin,9.14,CHCGILDTO6Y
MA6813400180,h_OCHCTP,13-L1-2,2019-01-23 16:30:00.0,PhaseCorrectionAve,-0.061,CHCGILDTO6Y
MA6813400180,h_OCHCTP,13-L1-2,2019-01-23 16:30:00.0,BerPreFecMax,0.00208,CHCGILDTO6Y
MA6813400180,h_OCHCTP,13-L1-2,2019-01-23 16:30:00.0,PmdMin,1.07,CHCGILDTO6Y
MA6813400180,h_OCHCTP,13-L1-2,2019-01-23 16:30:00.0,SoPmdAve,3551.15,CHCGILDTO6Y
MA6813400180,h_OCHCTP,13-L1-2,2019-01-23 16:45:00.0,Qmin,9.18,CHCGILDTO6Y
MA6813400180,h_OCHCTP,13-L1-2,2019-01-23 16:45:00.0,PhaseCorrectionAve,-0.0611,CHCGILDTO6Y
MA6813400180,h_OCHCTP,13-L1-2,2019-01-23 16:45:00.0,BerPreFecMax,0.00201,CHCGILDTO6Y
MA6813400180,h_OCHCTP,13-L1-2,2019-01-23 16:45:00.0,PmdMin,0.93,CHCGILDTO6Y
MA6813400180,h_OCHCTP,13-L1-2,2019-01-23 16:45:00.0,SoPmdAve,3459.53,CHCGILDTO6Y
MA6813400180,h_OCHCTP,13-L1-3,2019-01-23 16:15:00.0,Qmin,9.01,CHCGILDTO6Y
MA6813400180,h_OCHCTP,13-L1-3,2019-01-23 16:15:00.0,PhaseCorrectionAve,-0.122,CHCGILDTO6Y
MA6813400180,h_OCHCTP,13-L1-3,2019-01-23 16:15:00.0,BerPreFecMax,0.0024,CHCGILDTO6Y
MA6813400180,h_OCHCTP,13-L1-3,2019-01-23 16:15:00.0,PmdMin,0.754,CHCGILDTO6Y
MA6813400180,h_OCHCTP,13-L1-3,2019-01-23 16:15:00.0,SoPmdAve,3002.96,CHCGILDTO6Y
MA6813400180,h_OCHCTP,13-L1-3,2019-01-23 16:30:00.0,Qmin,8.99,CHCGILDTO6Y
MA6813400180,h_OCHCTP,13-L1-3,2019-01-23 16:30:00.0,PhaseCorrectionAve,-0.061,CHCGILDTO6Y
MA6813400180,h_OCHCTP,13-L1-3,2019-01-23 16:30:00.0,BerPreFecMax,0.00242,CHCGILDTO6Y
MA6813400180,h_OCHCTP,13-L1-3,2019-01-23 16:30:00.0,PmdMin,0.738,CHCGILDTO6Y
MA6813400180,h_OCHCTP,13-L1-3,2019-01-23 16:30:00.0,SoPmdAve,2990.05,CHCGILDTO6Y
MA6813400180,h_OCHCTP,13-L1-3,2019-01-23 16:45:00.0,Qmin,9.01,CHCGILDTO6Y
MA6813400180,h_OCHCTP,13-L1-3,2019-01-23 16:45:00.0,PhaseCorrectionAve,-0.0611,CHCGILDTO6Y
MA6813400180,h_OCHCTP,13-L1-3,2019-01-23 16:45:00.0,BerPreFecMax,0.00238,CHCGILDTO6Y
MA6813400180,h_OCHCTP,13-L1-3,2019-01-23 16:45:00.0,PmdMin,0.712,CHCGILDTO6Y
MA6813400180,h_OCHCTP,13-L1-3,2019-01-23 16:45:00.0,SoPmdAve,3014.05,CHCGILDTO6Y
MA6813400180,h_OCHCTP,13-L1-4,2019-01-23 16:15:00.0,Qmin,8.8,CHCGILDTO6Y
MA6813400180,h_OCHCTP,13-L1-4,2019-01-23 16:15:00.0,PhaseCorrectionAve,-0.122,CHCGILDTO6Y
MA6813400180,h_OCHCTP,13-L1-4,2019-01-23 16:15:00.0,BerPreFecMax,0.00295,CHCGILDTO6Y
MA6813400180,h_OCHCTP,13-L1-4,2019-01-23 16:15:00.0,PmdMin,0.7,CHCGILDTO6Y
MA6813400180,h_OCHCTP,13-L1-4,2019-01-23 16:15:00.0,SoPmdAve,3422.61,CHCGILDTO6Y
MA6813400180,h_OCHCTP,13-L1-4,2019-01-23 16:30:00.0,Qmin,8.78,CHCGILDTO6Y
MA6813400180,h_OCHCTP,13-L1-4,2019-01-23 16:30:00.0,PhaseCorrectionAve,-0.061,CHCGILDTO6Y
MA6813400180,h_OCHCTP,13-L1-4,2019-01-23 16:30:00.0,BerPreFecMax,0.003,CHCGILDTO6Y
MA6813400180,h_OCHCTP,13-L1-4,2019-01-23 16:30:00.0,PmdMin,0.567,CHCGILDTO6Y
MA6813400180,h_OCHCTP,13-L1-4,2019-01-23 16:30:00.0,SoPmdAve,3284.74,CHCGILDTO6Y
MA6813400180,h_OCHCTP,13-L1-4,2019-01-23 16:45:00.0,Qmin,8.78,CHCGILDTO6Y
MA6813400180,h_OCHCTP,13-L1-4,2019-01-23 16:45:00.0,PhaseCorrectionAve,-0.183,CHCGILDTO6Y
MA6813400180,h_OCHCTP,13-L1-4,2019-01-23 16:45:00.0,BerPreFecMax,0.00299,CHCGILDTO6Y
MA6813400180,h_OCHCTP,13-L1-4,2019-01-23 16:45:00.0,PmdMin,0.922,CHCGILDTO6Y
MA6813400180,h_OCHCTP,13-L1-4,2019-01-23 16:45:00.0,SoPmdAve,3489.81,CHCGILDTO6Y
MA6813400180,h_OCHCTP,13-L1-5,2019-01-23 16:15:00.0,Qmin,8.78,CHCGILDTO6Y
MA6813400180,h_OCHCTP,13-L1-5,2019-01-23 16:15:00.0,PhaseCorrectionAve,-0.122,CHCGILDTO6Y
MA6813400180,h_OCHCTP,13-L1-5,2019-01-23 16:15:00.0,BerPreFecMax,0.00299,CHCGILDTO6Y
MA6813400180,h_OCHCTP,13-L1-5,2019-01-23 16:15:00.0,PmdMin,1.2,CHCGILDTO6Y
MA6813400180,h_OCHCTP,13-L1-5,2019-01-23 16:15:00.0,SoPmdAve,2918.87,CHCGILDTO6Y
MA6813400180,h_OCHCTP,13-L1-5,2019-01-23 16:30:00.0,Qmin,8.76,CHCGILDTO6Y
MA6813400180,h_OCHCTP,13-L1-5,2019-01-23 16:30:00.0,PhaseCorrectionAve,-0.061,CHCGILDTO6Y
MA6813400180,h_OCHCTP,13-L1-5,2019-01-23 16:30:00.0,BerPreFecMax,0.00306,CHCGILDTO6Y
MA6813400180,h_OCHCTP,13-L1-5,2019-01-23 16:30:00.0,PmdMin,0.754,CHCGILDTO6Y
MA6813400180,h_OCHCTP,13-L1-5,2019-01-23 16:30:00.0,SoPmdAve,2850.66,CHCGILDTO6Y
MA6813400180,h_OCHCTP,13-L1-5,2019-01-23 16:45:00.0,Qmin,8.79,CHCGILDTO6Y
MA6813400180,h_OCHCTP,13-L1-5,2019-01-23 16:45:00.0,PhaseCorrectionAve,-0.183,CHCGILDTO6Y
MA6813400180,h_OCHCTP,13-L1-5,2019-01-23 16:45:00.0,BerPreFecMax,0.00298,CHCGILDTO6Y
MA6813400180,h_OCHCTP,13-L1-5,2019-01-23 16:45:00.0,PmdMin,0.894,CHCGILDTO6Y
MA6813400180,h_OCHCTP,13-L1-5,2019-01-23 16:45:00.0,SoPmdAve,2816.47,CHCGILDTO6Y
MA6813400180,h_OCHCTP,13-L1-6,2019-01-23 16:15:00.0,Qmin,8.82,CHCGILDTO6Y
MA6813400180,h_OCHCTP,13-L1-6,2019-01-23 16:15:00.0,PhaseCorrectionAve,-0.122,CHCGILDTO6Y
MA6813400180,h_OCHCTP,13-L1-6,2019-01-23 16:15:00.0,BerPreFecMax,0.00288,CHCGILDTO6Y
MA6813400180,h_OCHCTP,13-L1-6,2019-01-23 16:15:00.0,PmdMin,0.606,CHCGILDTO6Y
MA6813400180,h_OCHCTP,13-L1-6,2019-01-23 16:15:00.0,SoPmdAve,3080.75,CHCGILDTO6Y
MA6813400180,h_OCHCTP,13-L1-6,2019-01-23 16:30:00.0,Qmin,8.82,CHCGILDTO6Y
MA6813400180,h_OCHCTP,13-L1-6,2019-01-23 16:30:00.0,PhaseCorrectionAve,-0.061,CHCGILDTO6Y
MA6813400180,h_OCHCTP,13-L1-6,2019-01-23 16:30:00.0,BerPreFecMax,0.00287,CHCGILDTO6Y
MA6813400180,h_OCHCTP,13-L1-6,2019-01-23 16:30:00.0,PmdMin,1.06,CHCGILDTO6Y
MA6813400180,h_OCHCTP,13-L1-6,2019-01-23 16:30:00.0,SoPmdAve,3004.62,CHCGILDTO6Y
MA6813400180,h_OCHCTP,13-L1-6,2019-01-23 16:45:00.0,Qmin,8.82,CHCGILDTO6Y
MA6813400180,h_OCHCTP,13-L1-6,2019-01-23 16:45:00.0,PhaseCorrectionAve,-0.183,CHCGILDTO6Y
MA6813400180,h_OCHCTP,13-L1-6,2019-01-23 16:45:00.0,BerPreFecMax,0.00287,CHCGILDTO6Y
MA6813400180,h_OCHCTP,13-L1-6,2019-01-23 16:45:00.0,PmdMin,0.801,CHCGILDTO6Y
MA6813400180,h_OCHCTP,13-L1-6,2019-01-23 16:45:00.0,SoPmdAve,3020.75,CHCGILDTO6Y
MA6813400180,h_OCHCTP,13-L1-7,2019-01-23 16:15:00.0,Qmin,8.81,CHCGILDTO6Y
MA6813400180,h_OCHCTP,13-L1-7,2019-01-23 16:15:00.0,PhaseCorrectionAve,-0.122,CHCGILDTO6Y
MA6813400180,h_OCHCTP,13-L1-7,2019-01-23 16:15:00.0,BerPreFecMax,0.00291,CHCGILDTO6Y
MA6813400180,h_OCHCTP,13-L1-7,2019-01-23 16:15:00.0,PmdMin,0.762,CHCGILDTO6Y
MA6813400180,h_OCHCTP,13-L1-7,2019-01-23 16:15:00.0,SoPmdAve,3696.01,CHCGILDTO6Y
MA6813400180,h_OCHCTP,13-L1-7,2019-01-23 16:30:00.0,Qmin,8.81,CHCGILDTO6Y
MA6813400180,h_OCHCTP,13-L1-7,2019-01-23 16:30:00.0,PhaseCorrectionAve,-0.061,CHCGILDTO6Y
MA6813400180,h_OCHCTP,13-L1-7,2019-01-23 16:30:00.0,BerPreFecMax,0.0029,CHCGILDTO6Y
MA6813400180,h_OCHCTP,13-L1-7,2019-01-23 16:30:00.0,PmdMin,0.998,CHCGILDTO6Y
MA6813400180,h_OCHCTP,13-L1-7,2019-01-23 16:30:00.0,SoPmdAve,3730.29,CHCGILDTO6Y
MA6813400180,h_OCHCTP,13-L1-7,2019-01-23 16:45:00.0,Qmin,8.8,CHCGILDTO6Y
MA6813400180,h_OCHCTP,13-L1-7,2019-01-23 16:45:00.0,PhaseCorrectionAve,-0.244,CHCGILDTO6Y
MA6813400180,h_OCHCTP,13-L1-7,2019-01-23 16:45:00.0,BerPreFecMax,0.00293,CHCGILDTO6Y
MA6813400180,h_OCHCTP,13-L1-7,2019-01-23 16:45:00.0,PmdMin,0.959,CHCGILDTO6Y
MA6813400180,h_OCHCTP,13-L1-7,2019-01-23 16:45:00.0,SoPmdAve,3693.33,CHCGILDTO6Y
MA6813400180,h_OCHCTP,13-L1-8,2019-01-23 16:15:00.0,Qmin,8.91,CHCGILDTO6Y
MA6813400180,h_OCHCTP,13-L1-8,2019-01-23 16:15:00.0,PhaseCorrectionAve,-0.183,CHCGILDTO6Y
MA6813400180,h_OCHCTP,13-L1-8,2019-01-23 16:15:00.0,BerPreFecMax,0.00265,CHCGILDTO6Y
MA6813400180,h_OCHCTP,13-L1-8,2019-01-23 16:15:00.0,PmdMin,0.582,CHCGILDTO6Y
MA6813400180,h_OCHCTP,13-L1-8,2019-01-23 16:15:00.0,SoPmdAve,3971.15,CHCGILDTO6Y
MA6813400180,h_OCHCTP,13-L1-8,2019-01-23 16:30:00.0,Qmin,8.91,CHCGILDTO6Y
MA6813400180,h_OCHCTP,13-L1-8,2019-01-23 16:30:00.0,PhaseCorrectionAve,-0.061,CHCGILDTO6Y
MA6813400180,h_OCHCTP,13-L1-8,2019-01-23 16:30:00.0,BerPreFecMax,0.00264,CHCGILDTO6Y
MA6813400180,h_OCHCTP,13-L1-8,2019-01-23 16:30:00.0,PmdMin,1.06,CHCGILDTO6Y
MA6813400180,h_OCHCTP,13-L1-8,2019-01-23 16:30:00.0,SoPmdAve,3978.95,CHCGILDTO6Y
MA6813400180,h_OCHCTP,13-L1-8,2019-01-23 16:45:00.0,Qmin,8.9,CHCGILDTO6Y
MA6813400180,h_OCHCTP,13-L1-8,2019-01-23 16:45:00.0,PhaseCorrectionAve,-0.244,CHCGILDTO6Y
MA6813400180,h_OCHCTP,13-L1-8,2019-01-23 16:45:00.0,BerPreFecMax,0.00266,CHCGILDTO6Y
MA6813400180,h_OCHCTP,13-L1-8,2019-01-23 16:45:00.0,PmdMin,0.663,CHCGILDTO6Y
MA6813400180,h_OCHCTP,13-L1-8,2019-01-23 16:45:00.0,SoPmdAve,4029.7,CHCGILDTO6Y
MA6813400180,h_OCHCTP,13-L1-9,2019-01-23 16:15:00.0,Qmin,8.87,CHCGILDTO6Y
MA6813400180,h_OCHCTP,13-L1-9,2019-01-23 16:15:00.0,PhaseCorrectionAve,-0.183,CHCGILDTO6Y
MA6813400180,h_OCHCTP,13-L1-9,2019-01-23 16:15:00.0,BerPreFecMax,0.00274,CHCGILDTO6Y
MA6813400180,h_OCHCTP,13-L1-9,2019-01-23 16:15:00.0,PmdMin,1.25,CHCGILDTO6Y
MA6813400180,h_OCHCTP,13-L1-9,2019-01-23 16:15:00.0,SoPmdAve,3533.52,CHCGILDTO6Y
MA6813400180,h_OCHCTP,13-L1-9,2019-01-23 16:30:00.0,Qmin,8.88,CHCGILDTO6Y
MA6813400180,h_OCHCTP,13-L1-9,2019-01-23 16:30:00.0,PhaseCorrectionAve,-0.061,CHCGILDTO6Y
MA6813400180,h_OCHCTP,13-L1-9,2019-01-23 16:30:00.0,BerPreFecMax,0.00273,CHCGILDTO6Y
MA6813400180,h_OCHCTP,13-L1-9,2019-01-23 16:30:00.0,PmdMin,0.333,CHCGILDTO6Y
MA6813400180,h_OCHCTP,13-L1-9,2019-01-23 16:30:00.0,SoPmdAve,3628.84,CHCGILDTO6Y
MA6813400180,h_OCHCTP,13-L1-9,2019-01-23 16:45:00.0,Qmin,8.85,CHCGILDTO6Y
MA6813400180,h_OCHCTP,13-L1-9,2019-01-23 16:45:00.0,PhaseCorrectionAve,-0.244,CHCGILDTO6Y
MA6813400180,h_OCHCTP,13-L1-9,2019-01-23 16:45:00.0,BerPreFecMax,0.00281,CHCGILDTO6Y
MA6813400180,h_OCHCTP,13-L1-9,2019-01-23 16:45:00.0,PmdMin,0.825,CHCGILDTO6Y
MA6813400180,h_OCHCTP,13-L1-9,2019-01-23 16:45:00.0,SoPmdAve,3515.34,CHCGILDTO6Y
MA6813400180,h_OCHCTP,13-L1-10,2019-01-23 16:15:00.0,Qmin,8.75,CHCGILDTO6Y
MA6813400180,h_OCHCTP,13-L1-10,2019-01-23 16:15:00.0,PhaseCorrectionAve,-0.183,CHCGILDTO6Y
MA6813400180,h_OCHCTP,13-L1-10,2019-01-23 16:15:00.0,BerPreFecMax,0.00308,CHCGILDTO6Y
MA6813400180,h_OCHCTP,13-L1-10,2019-01-23 16:15:00.0,PmdMin,0.573,CHCGILDTO6Y
MA6813400180,h_OCHCTP,13-L1-10,2019-01-23 16:15:00.0,SoPmdAve,3679.68,CHCGILDTO6Y
MA6813400180,h_OCHCTP,13-L1-10,2019-01-23 16:30:00.0,Qmin,8.75,CHCGILDTO6Y
MA6813400180,h_OCHCTP,13-L1-10,2019-01-23 16:30:00.0,PhaseCorrectionAve,-0.061,CHCGILDTO6Y
MA6813400180,h_OCHCTP,13-L1-10,2019-01-23 16:30:00.0,BerPreFecMax,0.00309,CHCGILDTO6Y
MA6813400180,h_OCHCTP,13-L1-10,2019-01-23 16:30:00.0,PmdMin,0.755,CHCGILDTO6Y
MA6813400180,h_OCHCTP,13-L1-10,2019-01-23 16:30:00.0,SoPmdAve,3843.07,CHCGILDTO6Y
MA6813400180,h_OCHCTP,13-L1-10,2019-01-23 16:45:00.0,Qmin,8.77,CHCGILDTO6Y
MA6813400180,h_OCHCTP,13-L1-10,2019-01-23 16:45:00.0,PhaseCorrectionAve,-0.244,CHCGILDTO6Y
MA6813400180,h_OCHCTP,13-L1-10,2019-01-23 16:45:00.0,BerPreFecMax,0.00304,CHCGILDTO6Y
MA6813400180,h_OCHCTP,13-L1-10,2019-01-23 16:45:00.0,PmdMin,0.788,CHCGILDTO6Y
MA6813400180,h_OCHCTP,13-L1-10,2019-01-23 16:45:00.0,SoPmdAve,3830.87,CHCGILDTO6Y
