MA6813400180,h_OCHCTP,10-L1-1,2019-02-05 03:15:00.0,Qmin,9.45,CHCGILDTO6Y
MA6813400180,h_OCHCTP,10-L1-1,2019-02-05 03:15:00.0,PhaseCorrectionAve,-0.122,CHCGILDTO6Y
MA6813400180,h_OCHCTP,10-L1-1,2019-02-05 03:15:00.0,BerPreFecMax,0.0015,CHCGILDTO6Y
MA6813400180,h_OCHCTP,10-L1-1,2019-02-05 03:15:00.0,PmdMin,1.32,CHCGILDTO6Y
MA6813400180,h_OCHCTP,10-L1-1,2019-02-05 03:15:00.0,SoPmdAve,3636.01,CHCGILDTO6Y
MA6813400180,h_OCHCTP,10-L1-1,2019-02-05 03:30:00.0,Qmin,9.45,CHCGILDTO6Y
MA6813400180,h_OCHCTP,10-L1-1,2019-02-05 03:30:00.0,PhaseCorrectionAve,3.96e-07,CHCGILDTO6Y
MA6813400180,h_OCHCTP,10-L1-1,2019-02-05 03:30:00.0,BerPreFecMax,0.0015,CHCGILDTO6Y
MA6813400180,h_OCHCTP,10-L1-1,2019-02-05 03:30:00.0,PmdMin,0.184,CHCGILDTO6Y
MA6813400180,h_OCHCTP,10-L1-1,2019-02-05 03:30:00.0,SoPmdAve,3658.1,CHCGILDTO6Y
MA6813400180,h_OCHCTP,10-L1-1,2019-02-05 03:45:00.0,Qmin,9.45,CHCGILDTO6Y
MA6813400180,h_OCHCTP,10-L1-1,2019-02-05 03:45:00.0,PhaseCorrectionAve,4.06e-07,CHCGILDTO6Y
MA6813400180,h_OCHCTP,10-L1-1,2019-02-05 03:45:00.0,BerPreFecMax,0.0015,CHCGILDTO6Y
MA6813400180,h_OCHCTP,10-L1-1,2019-02-05 03:45:00.0,PmdMin,0.816,CHCGILDTO6Y
MA6813400180,h_OCHCTP,10-L1-1,2019-02-05 03:45:00.0,SoPmdAve,3641.07,CHCGILDTO6Y
MA6813400180,h_OCHCTP,10-L1-2,2019-02-05 03:15:00.0,Qmin,9.14,CHCGILDTO6Y
MA6813400180,h_OCHCTP,10-L1-2,2019-02-05 03:15:00.0,PhaseCorrectionAve,-0.122,CHCGILDTO6Y
MA6813400180,h_OCHCTP,10-L1-2,2019-02-05 03:15:00.0,BerPreFecMax,0.00209,CHCGILDTO6Y
MA6813400180,h_OCHCTP,10-L1-2,2019-02-05 03:15:00.0,PmdMin,1.13,CHCGILDTO6Y
MA6813400180,h_OCHCTP,10-L1-2,2019-02-05 03:15:00.0,SoPmdAve,3326.83,CHCGILDTO6Y
MA6813400180,h_OCHCTP,10-L1-2,2019-02-05 03:30:00.0,Qmin,9.15,CHCGILDTO6Y
MA6813400180,h_OCHCTP,10-L1-2,2019-02-05 03:30:00.0,PhaseCorrectionAve,3.51e-07,CHCGILDTO6Y
MA6813400180,h_OCHCTP,10-L1-2,2019-02-05 03:30:00.0,BerPreFecMax,0.00208,CHCGILDTO6Y
MA6813400180,h_OCHCTP,10-L1-2,2019-02-05 03:30:00.0,PmdMin,2.82,CHCGILDTO6Y
MA6813400180,h_OCHCTP,10-L1-2,2019-02-05 03:30:00.0,SoPmdAve,3393.66,CHCGILDTO6Y
MA6813400180,h_OCHCTP,10-L1-2,2019-02-05 03:45:00.0,Qmin,9.15,CHCGILDTO6Y
MA6813400180,h_OCHCTP,10-L1-2,2019-02-05 03:45:00.0,PhaseCorrectionAve,3.28e-07,CHCGILDTO6Y
MA6813400180,h_OCHCTP,10-L1-2,2019-02-05 03:45:00.0,BerPreFecMax,0.00208,CHCGILDTO6Y
MA6813400180,h_OCHCTP,10-L1-2,2019-02-05 03:45:00.0,PmdMin,3.11,CHCGILDTO6Y
MA6813400180,h_OCHCTP,10-L1-2,2019-02-05 03:45:00.0,SoPmdAve,3372.4,CHCGILDTO6Y
MA6813400180,h_OCHCTP,10-L1-3,2019-02-05 03:15:00.0,Qmin,8.83,CHCGILDTO6Y
MA6813400180,h_OCHCTP,10-L1-3,2019-02-05 03:15:00.0,PhaseCorrectionAve,-0.122,CHCGILDTO6Y
MA6813400180,h_OCHCTP,10-L1-3,2019-02-05 03:15:00.0,BerPreFecMax,0.00285,CHCGILDTO6Y
MA6813400180,h_OCHCTP,10-L1-3,2019-02-05 03:15:00.0,PmdMin,6.04,CHCGILDTO6Y
MA6813400180,h_OCHCTP,10-L1-3,2019-02-05 03:15:00.0,SoPmdAve,2900.27,CHCGILDTO6Y
MA6813400180,h_OCHCTP,10-L1-3,2019-02-05 03:30:00.0,Qmin,8.86,CHCGILDTO6Y
MA6813400180,h_OCHCTP,10-L1-3,2019-02-05 03:30:00.0,PhaseCorrectionAve,6.17e-07,CHCGILDTO6Y
MA6813400180,h_OCHCTP,10-L1-3,2019-02-05 03:30:00.0,BerPreFecMax,0.00277,CHCGILDTO6Y
MA6813400180,h_OCHCTP,10-L1-3,2019-02-05 03:30:00.0,PmdMin,3.56,CHCGILDTO6Y
MA6813400180,h_OCHCTP,10-L1-3,2019-02-05 03:30:00.0,SoPmdAve,2851.84,CHCGILDTO6Y
MA6813400180,h_OCHCTP,10-L1-3,2019-02-05 03:45:00.0,Qmin,8.88,CHCGILDTO6Y
MA6813400180,h_OCHCTP,10-L1-3,2019-02-05 03:45:00.0,PhaseCorrectionAve,5.89e-07,CHCGILDTO6Y
MA6813400180,h_OCHCTP,10-L1-3,2019-02-05 03:45:00.0,BerPreFecMax,0.00272,CHCGILDTO6Y
MA6813400180,h_OCHCTP,10-L1-3,2019-02-05 03:45:00.0,PmdMin,4.24,CHCGILDTO6Y
MA6813400180,h_OCHCTP,10-L1-3,2019-02-05 03:45:00.0,SoPmdAve,2928.11,CHCGILDTO6Y
MA6813400180,h_OCHCTP,10-L1-4,2019-02-05 03:15:00.0,Qmin,8.27,CHCGILDTO6Y
MA6813400180,h_OCHCTP,10-L1-4,2019-02-05 03:15:00.0,PhaseCorrectionAve,-0.122,CHCGILDTO6Y
MA6813400180,h_OCHCTP,10-L1-4,2019-02-05 03:15:00.0,BerPreFecMax,0.00476,CHCGILDTO6Y
MA6813400180,h_OCHCTP,10-L1-4,2019-02-05 03:15:00.0,PmdMin,0.527,CHCGILDTO6Y
MA6813400180,h_OCHCTP,10-L1-4,2019-02-05 03:15:00.0,SoPmdAve,3097.8,CHCGILDTO6Y
MA6813400180,h_OCHCTP,10-L1-4,2019-02-05 03:30:00.0,Qmin,8.28,CHCGILDTO6Y
MA6813400180,h_OCHCTP,10-L1-4,2019-02-05 03:30:00.0,PhaseCorrectionAve,2.96e-06,CHCGILDTO6Y
MA6813400180,h_OCHCTP,10-L1-4,2019-02-05 03:30:00.0,BerPreFecMax,0.00473,CHCGILDTO6Y
MA6813400180,h_OCHCTP,10-L1-4,2019-02-05 03:30:00.0,PmdMin,0.957,CHCGILDTO6Y
MA6813400180,h_OCHCTP,10-L1-4,2019-02-05 03:30:00.0,SoPmdAve,3204.08,CHCGILDTO6Y
MA6813400180,h_OCHCTP,10-L1-4,2019-02-05 03:45:00.0,Qmin,8.29,CHCGILDTO6Y
MA6813400180,h_OCHCTP,10-L1-4,2019-02-05 03:45:00.0,PhaseCorrectionAve,2.77e-06,CHCGILDTO6Y
MA6813400180,h_OCHCTP,10-L1-4,2019-02-05 03:45:00.0,BerPreFecMax,0.00471,CHCGILDTO6Y
MA6813400180,h_OCHCTP,10-L1-4,2019-02-05 03:45:00.0,PmdMin,1.39,CHCGILDTO6Y
MA6813400180,h_OCHCTP,10-L1-4,2019-02-05 03:45:00.0,SoPmdAve,3071.14,CHCGILDTO6Y
MA6813400180,h_OCHCTP,10-L1-5,2019-02-05 03:15:00.0,Qmin,8.48,CHCGILDTO6Y
MA6813400180,h_OCHCTP,10-L1-5,2019-02-05 03:15:00.0,PhaseCorrectionAve,-0.244,CHCGILDTO6Y
MA6813400180,h_OCHCTP,10-L1-5,2019-02-05 03:15:00.0,BerPreFecMax,0.00397,CHCGILDTO6Y
MA6813400180,h_OCHCTP,10-L1-5,2019-02-05 03:15:00.0,PmdMin,0.73,CHCGILDTO6Y
MA6813400180,h_OCHCTP,10-L1-5,2019-02-05 03:15:00.0,SoPmdAve,2799.09,CHCGILDTO6Y
MA6813400180,h_OCHCTP,10-L1-5,2019-02-05 03:30:00.0,Qmin,8.48,CHCGILDTO6Y
MA6813400180,h_OCHCTP,10-L1-5,2019-02-05 03:30:00.0,PhaseCorrectionAve,-0.061,CHCGILDTO6Y
MA6813400180,h_OCHCTP,10-L1-5,2019-02-05 03:30:00.0,BerPreFecMax,0.00396,CHCGILDTO6Y
MA6813400180,h_OCHCTP,10-L1-5,2019-02-05 03:30:00.0,PmdMin,1.38,CHCGILDTO6Y
MA6813400180,h_OCHCTP,10-L1-5,2019-02-05 03:30:00.0,SoPmdAve,2840.24,CHCGILDTO6Y
MA6813400180,h_OCHCTP,10-L1-5,2019-02-05 03:45:00.0,Qmin,8.5,CHCGILDTO6Y
MA6813400180,h_OCHCTP,10-L1-5,2019-02-05 03:45:00.0,PhaseCorrectionAve,1.68e-06,CHCGILDTO6Y
MA6813400180,h_OCHCTP,10-L1-5,2019-02-05 03:45:00.0,BerPreFecMax,0.00389,CHCGILDTO6Y
MA6813400180,h_OCHCTP,10-L1-5,2019-02-05 03:45:00.0,PmdMin,1.34,CHCGILDTO6Y
MA6813400180,h_OCHCTP,10-L1-5,2019-02-05 03:45:00.0,SoPmdAve,2859.17,CHCGILDTO6Y
MA6813400180,h_OCHCTP,10-L1-6,2019-02-05 03:15:00.0,Qmin,8.71,CHCGILDTO6Y
MA6813400180,h_OCHCTP,10-L1-6,2019-02-05 03:15:00.0,PhaseCorrectionAve,-0.244,CHCGILDTO6Y
MA6813400180,h_OCHCTP,10-L1-6,2019-02-05 03:15:00.0,BerPreFecMax,0.0032,CHCGILDTO6Y
MA6813400180,h_OCHCTP,10-L1-6,2019-02-05 03:15:00.0,PmdMin,1.69,CHCGILDTO6Y
MA6813400180,h_OCHCTP,10-L1-6,2019-02-05 03:15:00.0,SoPmdAve,2747.98,CHCGILDTO6Y
MA6813400180,h_OCHCTP,10-L1-6,2019-02-05 03:30:00.0,Qmin,8.71,CHCGILDTO6Y
MA6813400180,h_OCHCTP,10-L1-6,2019-02-05 03:30:00.0,PhaseCorrectionAve,-0.061,CHCGILDTO6Y
MA6813400180,h_OCHCTP,10-L1-6,2019-02-05 03:30:00.0,BerPreFecMax,0.0032,CHCGILDTO6Y
MA6813400180,h_OCHCTP,10-L1-6,2019-02-05 03:30:00.0,PmdMin,2.01,CHCGILDTO6Y
MA6813400180,h_OCHCTP,10-L1-6,2019-02-05 03:30:00.0,SoPmdAve,2804.83,CHCGILDTO6Y
MA6813400180,h_OCHCTP,10-L1-6,2019-02-05 03:45:00.0,Qmin,8.73,CHCGILDTO6Y
MA6813400180,h_OCHCTP,10-L1-6,2019-02-05 03:45:00.0,PhaseCorrectionAve,9.11e-07,CHCGILDTO6Y
MA6813400180,h_OCHCTP,10-L1-6,2019-02-05 03:45:00.0,BerPreFecMax,0.00316,CHCGILDTO6Y
MA6813400180,h_OCHCTP,10-L1-6,2019-02-05 03:45:00.0,PmdMin,1.69,CHCGILDTO6Y
MA6813400180,h_OCHCTP,10-L1-6,2019-02-05 03:45:00.0,SoPmdAve,2740.48,CHCGILDTO6Y
MA6813400180,h_OCHCTP,10-L1-7,2019-02-05 03:15:00.0,Qmin,8.82,CHCGILDTO6Y
MA6813400180,h_OCHCTP,10-L1-7,2019-02-05 03:15:00.0,PhaseCorrectionAve,-0.305,CHCGILDTO6Y
MA6813400180,h_OCHCTP,10-L1-7,2019-02-05 03:15:00.0,BerPreFecMax,0.00289,CHCGILDTO6Y
MA6813400180,h_OCHCTP,10-L1-7,2019-02-05 03:15:00.0,PmdMin,0.974,CHCGILDTO6Y
MA6813400180,h_OCHCTP,10-L1-7,2019-02-05 03:15:00.0,SoPmdAve,3471.74,CHCGILDTO6Y
MA6813400180,h_OCHCTP,10-L1-7,2019-02-05 03:30:00.0,Qmin,8.81,CHCGILDTO6Y
MA6813400180,h_OCHCTP,10-L1-7,2019-02-05 03:30:00.0,PhaseCorrectionAve,-0.061,CHCGILDTO6Y
MA6813400180,h_OCHCTP,10-L1-7,2019-02-05 03:30:00.0,BerPreFecMax,0.00291,CHCGILDTO6Y
MA6813400180,h_OCHCTP,10-L1-7,2019-02-05 03:30:00.0,PmdMin,1.41,CHCGILDTO6Y
MA6813400180,h_OCHCTP,10-L1-7,2019-02-05 03:30:00.0,SoPmdAve,3478.63,CHCGILDTO6Y
MA6813400180,h_OCHCTP,10-L1-7,2019-02-05 03:45:00.0,Qmin,8.82,CHCGILDTO6Y
MA6813400180,h_OCHCTP,10-L1-7,2019-02-05 03:45:00.0,PhaseCorrectionAve,6.04e-07,CHCGILDTO6Y
MA6813400180,h_OCHCTP,10-L1-7,2019-02-05 03:45:00.0,BerPreFecMax,0.00288,CHCGILDTO6Y
MA6813400180,h_OCHCTP,10-L1-7,2019-02-05 03:45:00.0,PmdMin,1.94,CHCGILDTO6Y
MA6813400180,h_OCHCTP,10-L1-7,2019-02-05 03:45:00.0,SoPmdAve,3439.84,CHCGILDTO6Y
MA6813400180,h_OCHCTP,10-L1-8,2019-02-05 03:15:00.0,Qmin,9.32,CHCGILDTO6Y
MA6813400180,h_OCHCTP,10-L1-8,2019-02-05 03:15:00.0,PhaseCorrectionAve,-0.305,CHCGILDTO6Y
MA6813400180,h_OCHCTP,10-L1-8,2019-02-05 03:15:00.0,BerPreFecMax,0.00173,CHCGILDTO6Y
MA6813400180,h_OCHCTP,10-L1-8,2019-02-05 03:15:00.0,PmdMin,1.56,CHCGILDTO6Y
MA6813400180,h_OCHCTP,10-L1-8,2019-02-05 03:15:00.0,SoPmdAve,3362.6,CHCGILDTO6Y
MA6813400180,h_OCHCTP,10-L1-8,2019-02-05 03:30:00.0,Qmin,9.32,CHCGILDTO6Y
MA6813400180,h_OCHCTP,10-L1-8,2019-02-05 03:30:00.0,PhaseCorrectionAve,-0.061,CHCGILDTO6Y
MA6813400180,h_OCHCTP,10-L1-8,2019-02-05 03:30:00.0,BerPreFecMax,0.00172,CHCGILDTO6Y
MA6813400180,h_OCHCTP,10-L1-8,2019-02-05 03:30:00.0,PmdMin,0.979,CHCGILDTO6Y
MA6813400180,h_OCHCTP,10-L1-8,2019-02-05 03:30:00.0,SoPmdAve,3349.87,CHCGILDTO6Y
MA6813400180,h_OCHCTP,10-L1-8,2019-02-05 03:45:00.0,Qmin,9.33,CHCGILDTO6Y
MA6813400180,h_OCHCTP,10-L1-8,2019-02-05 03:45:00.0,PhaseCorrectionAve,1.18e-06,CHCGILDTO6Y
MA6813400180,h_OCHCTP,10-L1-8,2019-02-05 03:45:00.0,BerPreFecMax,0.00171,CHCGILDTO6Y
MA6813400180,h_OCHCTP,10-L1-8,2019-02-05 03:45:00.0,PmdMin,1.08,CHCGILDTO6Y
MA6813400180,h_OCHCTP,10-L1-8,2019-02-05 03:45:00.0,SoPmdAve,3306.95,CHCGILDTO6Y
MA6813400180,h_OCHCTP,10-L1-9,2019-02-05 03:15:00.0,Qmin,9.35,CHCGILDTO6Y
MA6813400180,h_OCHCTP,10-L1-9,2019-02-05 03:15:00.0,PhaseCorrectionAve,-0.365,CHCGILDTO6Y
MA6813400180,h_OCHCTP,10-L1-9,2019-02-05 03:15:00.0,BerPreFecMax,0.00168,CHCGILDTO6Y
MA6813400180,h_OCHCTP,10-L1-9,2019-02-05 03:15:00.0,PmdMin,3.62,CHCGILDTO6Y
MA6813400180,h_OCHCTP,10-L1-9,2019-02-05 03:15:00.0,SoPmdAve,3231.88,CHCGILDTO6Y
MA6813400180,h_OCHCTP,10-L1-9,2019-02-05 03:30:00.0,Qmin,9.35,CHCGILDTO6Y
MA6813400180,h_OCHCTP,10-L1-9,2019-02-05 03:30:00.0,PhaseCorrectionAve,-0.061,CHCGILDTO6Y
MA6813400180,h_OCHCTP,10-L1-9,2019-02-05 03:30:00.0,BerPreFecMax,0.00167,CHCGILDTO6Y
MA6813400180,h_OCHCTP,10-L1-9,2019-02-05 03:30:00.0,PmdMin,4.67,CHCGILDTO6Y
MA6813400180,h_OCHCTP,10-L1-9,2019-02-05 03:30:00.0,SoPmdAve,3204.84,CHCGILDTO6Y
MA6813400180,h_OCHCTP,10-L1-9,2019-02-05 03:45:00.0,Qmin,9.34,CHCGILDTO6Y
MA6813400180,h_OCHCTP,10-L1-9,2019-02-05 03:45:00.0,PhaseCorrectionAve,1.78e-06,CHCGILDTO6Y
MA6813400180,h_OCHCTP,10-L1-9,2019-02-05 03:45:00.0,BerPreFecMax,0.00169,CHCGILDTO6Y
MA6813400180,h_OCHCTP,10-L1-9,2019-02-05 03:45:00.0,PmdMin,0.882,CHCGILDTO6Y
MA6813400180,h_OCHCTP,10-L1-9,2019-02-05 03:45:00.0,SoPmdAve,3325.76,CHCGILDTO6Y
MA6813400180,h_OCHCTP,10-L1-10,2019-02-05 03:15:00.0,Qmin,9.37,CHCGILDTO6Y
MA6813400180,h_OCHCTP,10-L1-10,2019-02-05 03:15:00.0,PhaseCorrectionAve,-0.426,CHCGILDTO6Y
MA6813400180,h_OCHCTP,10-L1-10,2019-02-05 03:15:00.0,BerPreFecMax,0.00163,CHCGILDTO6Y
MA6813400180,h_OCHCTP,10-L1-10,2019-02-05 03:15:00.0,PmdMin,9.85,CHCGILDTO6Y
MA6813400180,h_OCHCTP,10-L1-10,2019-02-05 03:15:00.0,SoPmdAve,3172.31,CHCGILDTO6Y
MA6813400180,h_OCHCTP,10-L1-10,2019-02-05 03:30:00.0,Qmin,9.36,CHCGILDTO6Y
MA6813400180,h_OCHCTP,10-L1-10,2019-02-05 03:30:00.0,PhaseCorrectionAve,-0.061,CHCGILDTO6Y
MA6813400180,h_OCHCTP,10-L1-10,2019-02-05 03:30:00.0,BerPreFecMax,0.00166,CHCGILDTO6Y
MA6813400180,h_OCHCTP,10-L1-10,2019-02-05 03:30:00.0,PmdMin,10.34,CHCGILDTO6Y
MA6813400180,h_OCHCTP,10-L1-10,2019-02-05 03:30:00.0,SoPmdAve,3234.4,CHCGILDTO6Y
MA6813400180,h_OCHCTP,10-L1-10,2019-02-05 03:45:00.0,Qmin,9.37,CHCGILDTO6Y
MA6813400180,h_OCHCTP,10-L1-10,2019-02-05 03:45:00.0,PhaseCorrectionAve,1.46e-06,CHCGILDTO6Y
MA6813400180,h_OCHCTP,10-L1-10,2019-02-05 03:45:00.0,BerPreFecMax,0.00163,CHCGILDTO6Y
MA6813400180,h_OCHCTP,10-L1-10,2019-02-05 03:45:00.0,PmdMin,5.94,CHCGILDTO6Y
MA6813400180,h_OCHCTP,10-L1-10,2019-02-05 03:45:00.0,SoPmdAve,3317.95,CHCGILDTO6Y
MA6813400180,h_OCHCTP,13-L1-1,2019-02-05 03:15:00.0,Qmin,9.18,CHCGILDTO6Y
MA6813400180,h_OCHCTP,13-L1-1,2019-02-05 03:15:00.0,PhaseCorrectionAve,2.54e-07,CHCGILDTO6Y
MA6813400180,h_OCHCTP,13-L1-1,2019-02-05 03:15:00.0,BerPreFecMax,0.00201,CHCGILDTO6Y
MA6813400180,h_OCHCTP,13-L1-1,2019-02-05 03:15:00.0,PmdMin,1.88,CHCGILDTO6Y
MA6813400180,h_OCHCTP,13-L1-1,2019-02-05 03:15:00.0,SoPmdAve,3620.8,CHCGILDTO6Y
MA6813400180,h_OCHCTP,13-L1-1,2019-02-05 03:30:00.0,Qmin,9.19,CHCGILDTO6Y
MA6813400180,h_OCHCTP,13-L1-1,2019-02-05 03:30:00.0,PhaseCorrectionAve,2.66e-07,CHCGILDTO6Y
MA6813400180,h_OCHCTP,13-L1-1,2019-02-05 03:30:00.0,BerPreFecMax,0.00198,CHCGILDTO6Y
MA6813400180,h_OCHCTP,13-L1-1,2019-02-05 03:30:00.0,PmdMin,0.391,CHCGILDTO6Y
MA6813400180,h_OCHCTP,13-L1-1,2019-02-05 03:30:00.0,SoPmdAve,3522.34,CHCGILDTO6Y
MA6813400180,h_OCHCTP,13-L1-1,2019-02-05 03:45:00.0,Qmin,9.18,CHCGILDTO6Y
MA6813400180,h_OCHCTP,13-L1-1,2019-02-05 03:45:00.0,PhaseCorrectionAve,2.42e-07,CHCGILDTO6Y
MA6813400180,h_OCHCTP,13-L1-1,2019-02-05 03:45:00.0,BerPreFecMax,0.00201,CHCGILDTO6Y
MA6813400180,h_OCHCTP,13-L1-1,2019-02-05 03:45:00.0,PmdMin,0.939,CHCGILDTO6Y
MA6813400180,h_OCHCTP,13-L1-1,2019-02-05 03:45:00.0,SoPmdAve,3585.07,CHCGILDTO6Y
MA6813400180,h_OCHCTP,13-L1-2,2019-02-05 03:15:00.0,Qmin,9.21,CHCGILDTO6Y
MA6813400180,h_OCHCTP,13-L1-2,2019-02-05 03:15:00.0,PhaseCorrectionAve,3.44e-07,CHCGILDTO6Y
MA6813400180,h_OCHCTP,13-L1-2,2019-02-05 03:15:00.0,BerPreFecMax,0.00194,CHCGILDTO6Y
MA6813400180,h_OCHCTP,13-L1-2,2019-02-05 03:15:00.0,PmdMin,1.25,CHCGILDTO6Y
MA6813400180,h_OCHCTP,13-L1-2,2019-02-05 03:15:00.0,SoPmdAve,3480.64,CHCGILDTO6Y
MA6813400180,h_OCHCTP,13-L1-2,2019-02-05 03:30:00.0,Qmin,9.22,CHCGILDTO6Y
MA6813400180,h_OCHCTP,13-L1-2,2019-02-05 03:30:00.0,PhaseCorrectionAve,-0.061,CHCGILDTO6Y
MA6813400180,h_OCHCTP,13-L1-2,2019-02-05 03:30:00.0,BerPreFecMax,0.00192,CHCGILDTO6Y
MA6813400180,h_OCHCTP,13-L1-2,2019-02-05 03:30:00.0,PmdMin,0.889,CHCGILDTO6Y
MA6813400180,h_OCHCTP,13-L1-2,2019-02-05 03:30:00.0,SoPmdAve,3576.51,CHCGILDTO6Y
MA6813400180,h_OCHCTP,13-L1-2,2019-02-05 03:45:00.0,Qmin,9.2,CHCGILDTO6Y
MA6813400180,h_OCHCTP,13-L1-2,2019-02-05 03:45:00.0,PhaseCorrectionAve,3.12e-07,CHCGILDTO6Y
MA6813400180,h_OCHCTP,13-L1-2,2019-02-05 03:45:00.0,BerPreFecMax,0.00196,CHCGILDTO6Y
MA6813400180,h_OCHCTP,13-L1-2,2019-02-05 03:45:00.0,PmdMin,0.787,CHCGILDTO6Y
MA6813400180,h_OCHCTP,13-L1-2,2019-02-05 03:45:00.0,SoPmdAve,3500.07,CHCGILDTO6Y
MA6813400180,h_OCHCTP,13-L1-3,2019-02-05 03:15:00.0,Qmin,8.99,CHCGILDTO6Y
MA6813400180,h_OCHCTP,13-L1-3,2019-02-05 03:15:00.0,PhaseCorrectionAve,5.36e-07,CHCGILDTO6Y
MA6813400180,h_OCHCTP,13-L1-3,2019-02-05 03:15:00.0,BerPreFecMax,0.00244,CHCGILDTO6Y
MA6813400180,h_OCHCTP,13-L1-3,2019-02-05 03:15:00.0,PmdMin,0.56,CHCGILDTO6Y
MA6813400180,h_OCHCTP,13-L1-3,2019-02-05 03:15:00.0,SoPmdAve,2832.25,CHCGILDTO6Y
MA6813400180,h_OCHCTP,13-L1-3,2019-02-05 03:30:00.0,Qmin,8.84,CHCGILDTO6Y
MA6813400180,h_OCHCTP,13-L1-3,2019-02-05 03:30:00.0,PhaseCorrectionAve,-0.061,CHCGILDTO6Y
MA6813400180,h_OCHCTP,13-L1-3,2019-02-05 03:30:00.0,BerPreFecMax,0.00284,CHCGILDTO6Y
MA6813400180,h_OCHCTP,13-L1-3,2019-02-05 03:30:00.0,PmdMin,0.709,CHCGILDTO6Y
MA6813400180,h_OCHCTP,13-L1-3,2019-02-05 03:30:00.0,SoPmdAve,2918.93,CHCGILDTO6Y
MA6813400180,h_OCHCTP,13-L1-3,2019-02-05 03:45:00.0,Qmin,8.88,CHCGILDTO6Y
MA6813400180,h_OCHCTP,13-L1-3,2019-02-05 03:45:00.0,PhaseCorrectionAve,5.51e-07,CHCGILDTO6Y
MA6813400180,h_OCHCTP,13-L1-3,2019-02-05 03:45:00.0,BerPreFecMax,0.00273,CHCGILDTO6Y
MA6813400180,h_OCHCTP,13-L1-3,2019-02-05 03:45:00.0,PmdMin,1.79,CHCGILDTO6Y
MA6813400180,h_OCHCTP,13-L1-3,2019-02-05 03:45:00.0,SoPmdAve,2924.03,CHCGILDTO6Y
MA6813400180,h_OCHCTP,13-L1-4,2019-02-05 03:15:00.0,Qmin,8.69,CHCGILDTO6Y
MA6813400180,h_OCHCTP,13-L1-4,2019-02-05 03:15:00.0,PhaseCorrectionAve,6.71e-07,CHCGILDTO6Y
MA6813400180,h_OCHCTP,13-L1-4,2019-02-05 03:15:00.0,BerPreFecMax,0.00326,CHCGILDTO6Y
MA6813400180,h_OCHCTP,13-L1-4,2019-02-05 03:15:00.0,PmdMin,0.852,CHCGILDTO6Y
MA6813400180,h_OCHCTP,13-L1-4,2019-02-05 03:15:00.0,SoPmdAve,3370.38,CHCGILDTO6Y
MA6813400180,h_OCHCTP,13-L1-4,2019-02-05 03:30:00.0,Qmin,8.7,CHCGILDTO6Y
MA6813400180,h_OCHCTP,13-L1-4,2019-02-05 03:30:00.0,PhaseCorrectionAve,-0.061,CHCGILDTO6Y
MA6813400180,h_OCHCTP,13-L1-4,2019-02-05 03:30:00.0,BerPreFecMax,0.00323,CHCGILDTO6Y
MA6813400180,h_OCHCTP,13-L1-4,2019-02-05 03:30:00.0,PmdMin,0.404,CHCGILDTO6Y
MA6813400180,h_OCHCTP,13-L1-4,2019-02-05 03:30:00.0,SoPmdAve,3391.97,CHCGILDTO6Y
MA6813400180,h_OCHCTP,13-L1-4,2019-02-05 03:45:00.0,Qmin,8.66,CHCGILDTO6Y
MA6813400180,h_OCHCTP,13-L1-4,2019-02-05 03:45:00.0,PhaseCorrectionAve,6.99e-07,CHCGILDTO6Y
MA6813400180,h_OCHCTP,13-L1-4,2019-02-05 03:45:00.0,BerPreFecMax,0.00337,CHCGILDTO6Y
MA6813400180,h_OCHCTP,13-L1-4,2019-02-05 03:45:00.0,PmdMin,1.52,CHCGILDTO6Y
MA6813400180,h_OCHCTP,13-L1-4,2019-02-05 03:45:00.0,SoPmdAve,3443.26,CHCGILDTO6Y
MA6813400180,h_OCHCTP,13-L1-5,2019-02-05 03:15:00.0,Qmin,8.73,CHCGILDTO6Y
MA6813400180,h_OCHCTP,13-L1-5,2019-02-05 03:15:00.0,PhaseCorrectionAve,3.93e-07,CHCGILDTO6Y
MA6813400180,h_OCHCTP,13-L1-5,2019-02-05 03:15:00.0,BerPreFecMax,0.00314,CHCGILDTO6Y
MA6813400180,h_OCHCTP,13-L1-5,2019-02-05 03:15:00.0,PmdMin,0.731,CHCGILDTO6Y
MA6813400180,h_OCHCTP,13-L1-5,2019-02-05 03:15:00.0,SoPmdAve,2843.1,CHCGILDTO6Y
MA6813400180,h_OCHCTP,13-L1-5,2019-02-05 03:30:00.0,Qmin,8.74,CHCGILDTO6Y
MA6813400180,h_OCHCTP,13-L1-5,2019-02-05 03:30:00.0,PhaseCorrectionAve,-0.244,CHCGILDTO6Y
MA6813400180,h_OCHCTP,13-L1-5,2019-02-05 03:30:00.0,BerPreFecMax,0.00311,CHCGILDTO6Y
MA6813400180,h_OCHCTP,13-L1-5,2019-02-05 03:30:00.0,PmdMin,0.877,CHCGILDTO6Y
MA6813400180,h_OCHCTP,13-L1-5,2019-02-05 03:30:00.0,SoPmdAve,2784.88,CHCGILDTO6Y
MA6813400180,h_OCHCTP,13-L1-5,2019-02-05 03:45:00.0,Qmin,8.68,CHCGILDTO6Y
MA6813400180,h_OCHCTP,13-L1-5,2019-02-05 03:45:00.0,PhaseCorrectionAve,4.91e-07,CHCGILDTO6Y
MA6813400180,h_OCHCTP,13-L1-5,2019-02-05 03:45:00.0,BerPreFecMax,0.00329,CHCGILDTO6Y
MA6813400180,h_OCHCTP,13-L1-5,2019-02-05 03:45:00.0,PmdMin,1.07,CHCGILDTO6Y
MA6813400180,h_OCHCTP,13-L1-5,2019-02-05 03:45:00.0,SoPmdAve,2828.44,CHCGILDTO6Y
MA6813400180,h_OCHCTP,13-L1-6,2019-02-05 03:15:00.0,Qmin,8.8,CHCGILDTO6Y
MA6813400180,h_OCHCTP,13-L1-6,2019-02-05 03:15:00.0,PhaseCorrectionAve,-0.061,CHCGILDTO6Y
MA6813400180,h_OCHCTP,13-L1-6,2019-02-05 03:15:00.0,BerPreFecMax,0.00294,CHCGILDTO6Y
MA6813400180,h_OCHCTP,13-L1-6,2019-02-05 03:15:00.0,PmdMin,0.292,CHCGILDTO6Y
MA6813400180,h_OCHCTP,13-L1-6,2019-02-05 03:15:00.0,SoPmdAve,3047.44,CHCGILDTO6Y
MA6813400180,h_OCHCTP,13-L1-6,2019-02-05 03:30:00.0,Qmin,8.8,CHCGILDTO6Y
MA6813400180,h_OCHCTP,13-L1-6,2019-02-05 03:30:00.0,PhaseCorrectionAve,-0.244,CHCGILDTO6Y
MA6813400180,h_OCHCTP,13-L1-6,2019-02-05 03:30:00.0,BerPreFecMax,0.00295,CHCGILDTO6Y
MA6813400180,h_OCHCTP,13-L1-6,2019-02-05 03:30:00.0,PmdMin,0.468,CHCGILDTO6Y
MA6813400180,h_OCHCTP,13-L1-6,2019-02-05 03:30:00.0,SoPmdAve,3001.22,CHCGILDTO6Y
MA6813400180,h_OCHCTP,13-L1-6,2019-02-05 03:45:00.0,Qmin,8.79,CHCGILDTO6Y
MA6813400180,h_OCHCTP,13-L1-6,2019-02-05 03:45:00.0,PhaseCorrectionAve,4.96e-07,CHCGILDTO6Y
MA6813400180,h_OCHCTP,13-L1-6,2019-02-05 03:45:00.0,BerPreFecMax,0.00297,CHCGILDTO6Y
MA6813400180,h_OCHCTP,13-L1-6,2019-02-05 03:45:00.0,PmdMin,0.478,CHCGILDTO6Y
MA6813400180,h_OCHCTP,13-L1-6,2019-02-05 03:45:00.0,SoPmdAve,3154.47,CHCGILDTO6Y
MA6813400180,h_OCHCTP,13-L1-7,2019-02-05 03:15:00.0,Qmin,8.65,CHCGILDTO6Y
MA6813400180,h_OCHCTP,13-L1-7,2019-02-05 03:15:00.0,PhaseCorrectionAve,-0.061,CHCGILDTO6Y
MA6813400180,h_OCHCTP,13-L1-7,2019-02-05 03:15:00.0,BerPreFecMax,0.0034,CHCGILDTO6Y
MA6813400180,h_OCHCTP,13-L1-7,2019-02-05 03:15:00.0,PmdMin,1.14,CHCGILDTO6Y
MA6813400180,h_OCHCTP,13-L1-7,2019-02-05 03:15:00.0,SoPmdAve,3697.97,CHCGILDTO6Y
MA6813400180,h_OCHCTP,13-L1-7,2019-02-05 03:30:00.0,Qmin,8.69,CHCGILDTO6Y
MA6813400180,h_OCHCTP,13-L1-7,2019-02-05 03:30:00.0,PhaseCorrectionAve,-0.305,CHCGILDTO6Y
MA6813400180,h_OCHCTP,13-L1-7,2019-02-05 03:30:00.0,BerPreFecMax,0.00327,CHCGILDTO6Y
MA6813400180,h_OCHCTP,13-L1-7,2019-02-05 03:30:00.0,PmdMin,0.944,CHCGILDTO6Y
MA6813400180,h_OCHCTP,13-L1-7,2019-02-05 03:30:00.0,SoPmdAve,3710.39,CHCGILDTO6Y
MA6813400180,h_OCHCTP,13-L1-7,2019-02-05 03:45:00.0,Qmin,8.6,CHCGILDTO6Y
MA6813400180,h_OCHCTP,13-L1-7,2019-02-05 03:45:00.0,PhaseCorrectionAve,5.2e-07,CHCGILDTO6Y
MA6813400180,h_OCHCTP,13-L1-7,2019-02-05 03:45:00.0,BerPreFecMax,0.00356,CHCGILDTO6Y
MA6813400180,h_OCHCTP,13-L1-7,2019-02-05 03:45:00.0,PmdMin,0.978,CHCGILDTO6Y
MA6813400180,h_OCHCTP,13-L1-7,2019-02-05 03:45:00.0,SoPmdAve,3810.99,CHCGILDTO6Y
MA6813400180,h_OCHCTP,13-L1-8,2019-02-05 03:15:00.0,Qmin,8.83,CHCGILDTO6Y
MA6813400180,h_OCHCTP,13-L1-8,2019-02-05 03:15:00.0,PhaseCorrectionAve,-0.122,CHCGILDTO6Y
MA6813400180,h_OCHCTP,13-L1-8,2019-02-05 03:15:00.0,BerPreFecMax,0.00285,CHCGILDTO6Y
MA6813400180,h_OCHCTP,13-L1-8,2019-02-05 03:15:00.0,PmdMin,1.63,CHCGILDTO6Y
MA6813400180,h_OCHCTP,13-L1-8,2019-02-05 03:15:00.0,SoPmdAve,3889.81,CHCGILDTO6Y
MA6813400180,h_OCHCTP,13-L1-8,2019-02-05 03:30:00.0,Qmin,8.83,CHCGILDTO6Y
MA6813400180,h_OCHCTP,13-L1-8,2019-02-05 03:30:00.0,PhaseCorrectionAve,-0.305,CHCGILDTO6Y
MA6813400180,h_OCHCTP,13-L1-8,2019-02-05 03:30:00.0,BerPreFecMax,0.00284,CHCGILDTO6Y
MA6813400180,h_OCHCTP,13-L1-8,2019-02-05 03:30:00.0,PmdMin,1.42,CHCGILDTO6Y
MA6813400180,h_OCHCTP,13-L1-8,2019-02-05 03:30:00.0,SoPmdAve,3701.04,CHCGILDTO6Y
MA6813400180,h_OCHCTP,13-L1-8,2019-02-05 03:45:00.0,Qmin,8.83,CHCGILDTO6Y
MA6813400180,h_OCHCTP,13-L1-8,2019-02-05 03:45:00.0,PhaseCorrectionAve,8.01e-07,CHCGILDTO6Y
MA6813400180,h_OCHCTP,13-L1-8,2019-02-05 03:45:00.0,BerPreFecMax,0.00287,CHCGILDTO6Y
MA6813400180,h_OCHCTP,13-L1-8,2019-02-05 03:45:00.0,PmdMin,0.847,CHCGILDTO6Y
MA6813400180,h_OCHCTP,13-L1-8,2019-02-05 03:45:00.0,SoPmdAve,3802.12,CHCGILDTO6Y
MA6813400180,h_OCHCTP,13-L1-9,2019-02-05 03:15:00.0,Qmin,8.71,CHCGILDTO6Y
MA6813400180,h_OCHCTP,13-L1-9,2019-02-05 03:15:00.0,PhaseCorrectionAve,-0.122,CHCGILDTO6Y
MA6813400180,h_OCHCTP,13-L1-9,2019-02-05 03:15:00.0,BerPreFecMax,0.0032,CHCGILDTO6Y
MA6813400180,h_OCHCTP,13-L1-9,2019-02-05 03:15:00.0,PmdMin,1.06,CHCGILDTO6Y
MA6813400180,h_OCHCTP,13-L1-9,2019-02-05 03:15:00.0,SoPmdAve,3511.51,CHCGILDTO6Y
MA6813400180,h_OCHCTP,13-L1-9,2019-02-05 03:30:00.0,Qmin,8.78,CHCGILDTO6Y
MA6813400180,h_OCHCTP,13-L1-9,2019-02-05 03:30:00.0,PhaseCorrectionAve,-0.305,CHCGILDTO6Y
MA6813400180,h_OCHCTP,13-L1-9,2019-02-05 03:30:00.0,BerPreFecMax,0.003,CHCGILDTO6Y
MA6813400180,h_OCHCTP,13-L1-9,2019-02-05 03:30:00.0,PmdMin,0.828,CHCGILDTO6Y
MA6813400180,h_OCHCTP,13-L1-9,2019-02-05 03:30:00.0,SoPmdAve,3523.33,CHCGILDTO6Y
MA6813400180,h_OCHCTP,13-L1-9,2019-02-05 03:45:00.0,Qmin,8.79,CHCGILDTO6Y
MA6813400180,h_OCHCTP,13-L1-9,2019-02-05 03:45:00.0,PhaseCorrectionAve,2.84e-06,CHCGILDTO6Y
MA6813400180,h_OCHCTP,13-L1-9,2019-02-05 03:45:00.0,BerPreFecMax,0.00297,CHCGILDTO6Y
MA6813400180,h_OCHCTP,13-L1-9,2019-02-05 03:45:00.0,PmdMin,1.14,CHCGILDTO6Y
MA6813400180,h_OCHCTP,13-L1-9,2019-02-05 03:45:00.0,SoPmdAve,3635.18,CHCGILDTO6Y
MA6813400180,h_OCHCTP,13-L1-10,2019-02-05 03:15:00.0,Qmin,8.63,CHCGILDTO6Y
MA6813400180,h_OCHCTP,13-L1-10,2019-02-05 03:15:00.0,PhaseCorrectionAve,-0.183,CHCGILDTO6Y
MA6813400180,h_OCHCTP,13-L1-10,2019-02-05 03:15:00.0,BerPreFecMax,0.00346,CHCGILDTO6Y
MA6813400180,h_OCHCTP,13-L1-10,2019-02-05 03:15:00.0,PmdMin,0.901,CHCGILDTO6Y
MA6813400180,h_OCHCTP,13-L1-10,2019-02-05 03:15:00.0,SoPmdAve,3843.89,CHCGILDTO6Y
MA6813400180,h_OCHCTP,13-L1-10,2019-02-05 03:30:00.0,Qmin,8.64,CHCGILDTO6Y
MA6813400180,h_OCHCTP,13-L1-10,2019-02-05 03:30:00.0,PhaseCorrectionAve,-0.305,CHCGILDTO6Y
MA6813400180,h_OCHCTP,13-L1-10,2019-02-05 03:30:00.0,BerPreFecMax,0.00343,CHCGILDTO6Y
MA6813400180,h_OCHCTP,13-L1-10,2019-02-05 03:30:00.0,PmdMin,1.32,CHCGILDTO6Y
MA6813400180,h_OCHCTP,13-L1-10,2019-02-05 03:30:00.0,SoPmdAve,3915.82,CHCGILDTO6Y
MA6813400180,h_OCHCTP,13-L1-10,2019-02-05 03:45:00.0,Qmin,8.66,CHCGILDTO6Y
MA6813400180,h_OCHCTP,13-L1-10,2019-02-05 03:45:00.0,PhaseCorrectionAve,2.65e-06,CHCGILDTO6Y
MA6813400180,h_OCHCTP,13-L1-10,2019-02-05 03:45:00.0,BerPreFecMax,0.00336,CHCGILDTO6Y
MA6813400180,h_OCHCTP,13-L1-10,2019-02-05 03:45:00.0,PmdMin,0.634,CHCGILDTO6Y
MA6813400180,h_OCHCTP,13-L1-10,2019-02-05 03:45:00.0,SoPmdAve,3843.01,CHCGILDTO6Y
MA6813400180,h_OCHCTP,11-L1-1,2019-02-05 03:15:00.0,Qmin,9.13,CHCGILDTO6Y
MA6813400180,h_OCHCTP,11-L1-1,2019-02-05 03:15:00.0,PhaseCorrectionAve,1.63e-07,CHCGILDTO6Y
MA6813400180,h_OCHCTP,11-L1-1,2019-02-05 03:15:00.0,BerPreFecMax,0.00212,CHCGILDTO6Y
MA6813400180,h_OCHCTP,11-L1-1,2019-02-05 03:15:00.0,PmdMin,0.103,CHCGILDTO6Y
MA6813400180,h_OCHCTP,11-L1-1,2019-02-05 03:15:00.0,SoPmdAve,3354.46,CHCGILDTO6Y
MA6813400180,h_OCHCTP,11-L1-1,2019-02-05 03:30:00.0,Qmin,9.19,CHCGILDTO6Y
MA6813400180,h_OCHCTP,11-L1-1,2019-02-05 03:30:00.0,PhaseCorrectionAve,1.42e-07,CHCGILDTO6Y
MA6813400180,h_OCHCTP,11-L1-1,2019-02-05 03:30:00.0,BerPreFecMax,0.00198,CHCGILDTO6Y
MA6813400180,h_OCHCTP,11-L1-1,2019-02-05 03:30:00.0,PmdMin,1.01,CHCGILDTO6Y
MA6813400180,h_OCHCTP,11-L1-1,2019-02-05 03:30:00.0,SoPmdAve,3327.07,CHCGILDTO6Y
MA6813400180,h_OCHCTP,11-L1-1,2019-02-05 03:45:00.0,Qmin,9.17,CHCGILDTO6Y
MA6813400180,h_OCHCTP,11-L1-1,2019-02-05 03:45:00.0,PhaseCorrectionAve,1.45e-07,CHCGILDTO6Y
MA6813400180,h_OCHCTP,11-L1-1,2019-02-05 03:45:00.0,BerPreFecMax,0.00202,CHCGILDTO6Y
MA6813400180,h_OCHCTP,11-L1-1,2019-02-05 03:45:00.0,PmdMin,1.02,CHCGILDTO6Y
MA6813400180,h_OCHCTP,11-L1-1,2019-02-05 03:45:00.0,SoPmdAve,3406.09,CHCGILDTO6Y
MA6813400180,h_OCHCTP,11-L1-2,2019-02-05 03:15:00.0,Qmin,9.15,CHCGILDTO6Y
MA6813400180,h_OCHCTP,11-L1-2,2019-02-05 03:15:00.0,PhaseCorrectionAve,-0.061,CHCGILDTO6Y
MA6813400180,h_OCHCTP,11-L1-2,2019-02-05 03:15:00.0,BerPreFecMax,0.00207,CHCGILDTO6Y
MA6813400180,h_OCHCTP,11-L1-2,2019-02-05 03:15:00.0,PmdMin,0.69,CHCGILDTO6Y
MA6813400180,h_OCHCTP,11-L1-2,2019-02-05 03:15:00.0,SoPmdAve,3142.82,CHCGILDTO6Y
MA6813400180,h_OCHCTP,11-L1-2,2019-02-05 03:30:00.0,Qmin,9.12,CHCGILDTO6Y
MA6813400180,h_OCHCTP,11-L1-2,2019-02-05 03:30:00.0,PhaseCorrectionAve,-0.061,CHCGILDTO6Y
MA6813400180,h_OCHCTP,11-L1-2,2019-02-05 03:30:00.0,BerPreFecMax,0.00214,CHCGILDTO6Y
MA6813400180,h_OCHCTP,11-L1-2,2019-02-05 03:30:00.0,PmdMin,0.74,CHCGILDTO6Y
MA6813400180,h_OCHCTP,11-L1-2,2019-02-05 03:30:00.0,SoPmdAve,3197.28,CHCGILDTO6Y
MA6813400180,h_OCHCTP,11-L1-2,2019-02-05 03:45:00.0,Qmin,9.11,CHCGILDTO6Y
MA6813400180,h_OCHCTP,11-L1-2,2019-02-05 03:45:00.0,PhaseCorrectionAve,4.6e-07,CHCGILDTO6Y
MA6813400180,h_OCHCTP,11-L1-2,2019-02-05 03:45:00.0,BerPreFecMax,0.00216,CHCGILDTO6Y
MA6813400180,h_OCHCTP,11-L1-2,2019-02-05 03:45:00.0,PmdMin,1.17,CHCGILDTO6Y
MA6813400180,h_OCHCTP,11-L1-2,2019-02-05 03:45:00.0,SoPmdAve,3195.01,CHCGILDTO6Y
MA6813400180,h_OCHCTP,11-L1-3,2019-02-05 03:15:00.0,Qmin,8.99,CHCGILDTO6Y
MA6813400180,h_OCHCTP,11-L1-3,2019-02-05 03:15:00.0,PhaseCorrectionAve,-0.061,CHCGILDTO6Y
MA6813400180,h_OCHCTP,11-L1-3,2019-02-05 03:15:00.0,BerPreFecMax,0.00245,CHCGILDTO6Y
MA6813400180,h_OCHCTP,11-L1-3,2019-02-05 03:15:00.0,PmdMin,0.952,CHCGILDTO6Y
MA6813400180,h_OCHCTP,11-L1-3,2019-02-05 03:15:00.0,SoPmdAve,2730.99,CHCGILDTO6Y
MA6813400180,h_OCHCTP,11-L1-3,2019-02-05 03:30:00.0,Qmin,8.87,CHCGILDTO6Y
MA6813400180,h_OCHCTP,11-L1-3,2019-02-05 03:30:00.0,PhaseCorrectionAve,-0.061,CHCGILDTO6Y
MA6813400180,h_OCHCTP,11-L1-3,2019-02-05 03:30:00.0,BerPreFecMax,0.00274,CHCGILDTO6Y
MA6813400180,h_OCHCTP,11-L1-3,2019-02-05 03:30:00.0,PmdMin,1.07,CHCGILDTO6Y
MA6813400180,h_OCHCTP,11-L1-3,2019-02-05 03:30:00.0,SoPmdAve,2699.91,CHCGILDTO6Y
MA6813400180,h_OCHCTP,11-L1-3,2019-02-05 03:45:00.0,Qmin,8.85,CHCGILDTO6Y
MA6813400180,h_OCHCTP,11-L1-3,2019-02-05 03:45:00.0,PhaseCorrectionAve,-0.0611,CHCGILDTO6Y
MA6813400180,h_OCHCTP,11-L1-3,2019-02-05 03:45:00.0,BerPreFecMax,0.00279,CHCGILDTO6Y
MA6813400180,h_OCHCTP,11-L1-3,2019-02-05 03:45:00.0,PmdMin,1.0,CHCGILDTO6Y
MA6813400180,h_OCHCTP,11-L1-3,2019-02-05 03:45:00.0,SoPmdAve,2730.25,CHCGILDTO6Y
MA6813400180,h_OCHCTP,11-L1-4,2019-02-05 03:15:00.0,Qmin,8.72,CHCGILDTO6Y
MA6813400180,h_OCHCTP,11-L1-4,2019-02-05 03:15:00.0,PhaseCorrectionAve,-0.122,CHCGILDTO6Y
MA6813400180,h_OCHCTP,11-L1-4,2019-02-05 03:15:00.0,BerPreFecMax,0.00318,CHCGILDTO6Y
MA6813400180,h_OCHCTP,11-L1-4,2019-02-05 03:15:00.0,PmdMin,0.669,CHCGILDTO6Y
MA6813400180,h_OCHCTP,11-L1-4,2019-02-05 03:15:00.0,SoPmdAve,3004.05,CHCGILDTO6Y
MA6813400180,h_OCHCTP,11-L1-4,2019-02-05 03:30:00.0,Qmin,8.72,CHCGILDTO6Y
MA6813400180,h_OCHCTP,11-L1-4,2019-02-05 03:30:00.0,PhaseCorrectionAve,-0.122,CHCGILDTO6Y
MA6813400180,h_OCHCTP,11-L1-4,2019-02-05 03:30:00.0,BerPreFecMax,0.00319,CHCGILDTO6Y
MA6813400180,h_OCHCTP,11-L1-4,2019-02-05 03:30:00.0,PmdMin,1.72,CHCGILDTO6Y
MA6813400180,h_OCHCTP,11-L1-4,2019-02-05 03:30:00.0,SoPmdAve,2964.59,CHCGILDTO6Y
MA6813400180,h_OCHCTP,11-L1-4,2019-02-05 03:45:00.0,Qmin,8.66,CHCGILDTO6Y
MA6813400180,h_OCHCTP,11-L1-4,2019-02-05 03:45:00.0,PhaseCorrectionAve,-0.0611,CHCGILDTO6Y
MA6813400180,h_OCHCTP,11-L1-4,2019-02-05 03:45:00.0,BerPreFecMax,0.00336,CHCGILDTO6Y
MA6813400180,h_OCHCTP,11-L1-4,2019-02-05 03:45:00.0,PmdMin,1.0,CHCGILDTO6Y
MA6813400180,h_OCHCTP,11-L1-4,2019-02-05 03:45:00.0,SoPmdAve,2943.58,CHCGILDTO6Y
MA6813400180,h_OCHCTP,11-L1-5,2019-02-05 03:15:00.0,Qmin,8.83,CHCGILDTO6Y
MA6813400180,h_OCHCTP,11-L1-5,2019-02-05 03:15:00.0,PhaseCorrectionAve,-0.122,CHCGILDTO6Y
MA6813400180,h_OCHCTP,11-L1-5,2019-02-05 03:15:00.0,BerPreFecMax,0.00285,CHCGILDTO6Y
MA6813400180,h_OCHCTP,11-L1-5,2019-02-05 03:15:00.0,PmdMin,0.956,CHCGILDTO6Y
MA6813400180,h_OCHCTP,11-L1-5,2019-02-05 03:15:00.0,SoPmdAve,2556.06,CHCGILDTO6Y
MA6813400180,h_OCHCTP,11-L1-5,2019-02-05 03:30:00.0,Qmin,8.86,CHCGILDTO6Y
MA6813400180,h_OCHCTP,11-L1-5,2019-02-05 03:30:00.0,PhaseCorrectionAve,-0.122,CHCGILDTO6Y
MA6813400180,h_OCHCTP,11-L1-5,2019-02-05 03:30:00.0,BerPreFecMax,0.00276,CHCGILDTO6Y
MA6813400180,h_OCHCTP,11-L1-5,2019-02-05 03:30:00.0,PmdMin,0.618,CHCGILDTO6Y
MA6813400180,h_OCHCTP,11-L1-5,2019-02-05 03:30:00.0,SoPmdAve,2600.16,CHCGILDTO6Y
MA6813400180,h_OCHCTP,11-L1-5,2019-02-05 03:45:00.0,Qmin,8.73,CHCGILDTO6Y
MA6813400180,h_OCHCTP,11-L1-5,2019-02-05 03:45:00.0,PhaseCorrectionAve,-0.0611,CHCGILDTO6Y
MA6813400180,h_OCHCTP,11-L1-5,2019-02-05 03:45:00.0,BerPreFecMax,0.00316,CHCGILDTO6Y
MA6813400180,h_OCHCTP,11-L1-5,2019-02-05 03:45:00.0,PmdMin,0.724,CHCGILDTO6Y
MA6813400180,h_OCHCTP,11-L1-5,2019-02-05 03:45:00.0,SoPmdAve,2567.01,CHCGILDTO6Y
MA6813400180,h_OCHCTP,11-L1-6,2019-02-05 03:15:00.0,Qmin,8.78,CHCGILDTO6Y
MA6813400180,h_OCHCTP,11-L1-6,2019-02-05 03:15:00.0,PhaseCorrectionAve,-0.122,CHCGILDTO6Y
MA6813400180,h_OCHCTP,11-L1-6,2019-02-05 03:15:00.0,BerPreFecMax,0.00301,CHCGILDTO6Y
MA6813400180,h_OCHCTP,11-L1-6,2019-02-05 03:15:00.0,PmdMin,0.239,CHCGILDTO6Y
MA6813400180,h_OCHCTP,11-L1-6,2019-02-05 03:15:00.0,SoPmdAve,2539.01,CHCGILDTO6Y
MA6813400180,h_OCHCTP,11-L1-6,2019-02-05 03:30:00.0,Qmin,8.79,CHCGILDTO6Y
MA6813400180,h_OCHCTP,11-L1-6,2019-02-05 03:30:00.0,PhaseCorrectionAve,-0.122,CHCGILDTO6Y
MA6813400180,h_OCHCTP,11-L1-6,2019-02-05 03:30:00.0,BerPreFecMax,0.00297,CHCGILDTO6Y
MA6813400180,h_OCHCTP,11-L1-6,2019-02-05 03:30:00.0,PmdMin,0.584,CHCGILDTO6Y
MA6813400180,h_OCHCTP,11-L1-6,2019-02-05 03:30:00.0,SoPmdAve,2502.38,CHCGILDTO6Y
MA6813400180,h_OCHCTP,11-L1-6,2019-02-05 03:45:00.0,Qmin,8.8,CHCGILDTO6Y
MA6813400180,h_OCHCTP,11-L1-6,2019-02-05 03:45:00.0,PhaseCorrectionAve,-0.122,CHCGILDTO6Y
MA6813400180,h_OCHCTP,11-L1-6,2019-02-05 03:45:00.0,BerPreFecMax,0.00295,CHCGILDTO6Y
MA6813400180,h_OCHCTP,11-L1-6,2019-02-05 03:45:00.0,PmdMin,0.679,CHCGILDTO6Y
MA6813400180,h_OCHCTP,11-L1-6,2019-02-05 03:45:00.0,SoPmdAve,2438.31,CHCGILDTO6Y
MA6813400180,h_OCHCTP,11-L1-7,2019-02-05 03:15:00.0,Qmin,8.75,CHCGILDTO6Y
MA6813400180,h_OCHCTP,11-L1-7,2019-02-05 03:15:00.0,PhaseCorrectionAve,-0.183,CHCGILDTO6Y
MA6813400180,h_OCHCTP,11-L1-7,2019-02-05 03:15:00.0,BerPreFecMax,0.00308,CHCGILDTO6Y
MA6813400180,h_OCHCTP,11-L1-7,2019-02-05 03:15:00.0,PmdMin,0.467,CHCGILDTO6Y
MA6813400180,h_OCHCTP,11-L1-7,2019-02-05 03:15:00.0,SoPmdAve,3043.86,CHCGILDTO6Y
MA6813400180,h_OCHCTP,11-L1-7,2019-02-05 03:30:00.0,Qmin,8.81,CHCGILDTO6Y
MA6813400180,h_OCHCTP,11-L1-7,2019-02-05 03:30:00.0,PhaseCorrectionAve,-0.122,CHCGILDTO6Y
MA6813400180,h_OCHCTP,11-L1-7,2019-02-05 03:30:00.0,BerPreFecMax,0.00292,CHCGILDTO6Y
MA6813400180,h_OCHCTP,11-L1-7,2019-02-05 03:30:00.0,PmdMin,1.18,CHCGILDTO6Y
MA6813400180,h_OCHCTP,11-L1-7,2019-02-05 03:30:00.0,SoPmdAve,2986.94,CHCGILDTO6Y
MA6813400180,h_OCHCTP,11-L1-7,2019-02-05 03:45:00.0,Qmin,8.76,CHCGILDTO6Y
MA6813400180,h_OCHCTP,11-L1-7,2019-02-05 03:45:00.0,PhaseCorrectionAve,-0.122,CHCGILDTO6Y
MA6813400180,h_OCHCTP,11-L1-7,2019-02-05 03:45:00.0,BerPreFecMax,0.00305,CHCGILDTO6Y
MA6813400180,h_OCHCTP,11-L1-7,2019-02-05 03:45:00.0,PmdMin,1.12,CHCGILDTO6Y
MA6813400180,h_OCHCTP,11-L1-7,2019-02-05 03:45:00.0,SoPmdAve,3102.55,CHCGILDTO6Y
MA6813400180,h_OCHCTP,11-L1-8,2019-02-05 03:15:00.0,Qmin,8.92,CHCGILDTO6Y
MA6813400180,h_OCHCTP,11-L1-8,2019-02-05 03:15:00.0,PhaseCorrectionAve,-0.183,CHCGILDTO6Y
MA6813400180,h_OCHCTP,11-L1-8,2019-02-05 03:15:00.0,BerPreFecMax,0.0026,CHCGILDTO6Y
MA6813400180,h_OCHCTP,11-L1-8,2019-02-05 03:15:00.0,PmdMin,1.26,CHCGILDTO6Y
MA6813400180,h_OCHCTP,11-L1-8,2019-02-05 03:15:00.0,SoPmdAve,3074.96,CHCGILDTO6Y
MA6813400180,h_OCHCTP,11-L1-8,2019-02-05 03:30:00.0,Qmin,8.97,CHCGILDTO6Y
MA6813400180,h_OCHCTP,11-L1-8,2019-02-05 03:30:00.0,PhaseCorrectionAve,-0.122,CHCGILDTO6Y
MA6813400180,h_OCHCTP,11-L1-8,2019-02-05 03:30:00.0,BerPreFecMax,0.00248,CHCGILDTO6Y
MA6813400180,h_OCHCTP,11-L1-8,2019-02-05 03:30:00.0,PmdMin,0.192,CHCGILDTO6Y
MA6813400180,h_OCHCTP,11-L1-8,2019-02-05 03:30:00.0,SoPmdAve,3176.12,CHCGILDTO6Y
MA6813400180,h_OCHCTP,11-L1-8,2019-02-05 03:45:00.0,Qmin,8.94,CHCGILDTO6Y
MA6813400180,h_OCHCTP,11-L1-8,2019-02-05 03:45:00.0,PhaseCorrectionAve,-0.122,CHCGILDTO6Y
MA6813400180,h_OCHCTP,11-L1-8,2019-02-05 03:45:00.0,BerPreFecMax,0.00256,CHCGILDTO6Y
MA6813400180,h_OCHCTP,11-L1-8,2019-02-05 03:45:00.0,PmdMin,1.02,CHCGILDTO6Y
MA6813400180,h_OCHCTP,11-L1-8,2019-02-05 03:45:00.0,SoPmdAve,3144.04,CHCGILDTO6Y
MA6813400180,h_OCHCTP,11-L1-9,2019-02-05 03:15:00.0,Qmin,8.83,CHCGILDTO6Y
MA6813400180,h_OCHCTP,11-L1-9,2019-02-05 03:15:00.0,PhaseCorrectionAve,-0.183,CHCGILDTO6Y
MA6813400180,h_OCHCTP,11-L1-9,2019-02-05 03:15:00.0,BerPreFecMax,0.00287,CHCGILDTO6Y
MA6813400180,h_OCHCTP,11-L1-9,2019-02-05 03:15:00.0,PmdMin,0.521,CHCGILDTO6Y
MA6813400180,h_OCHCTP,11-L1-9,2019-02-05 03:15:00.0,SoPmdAve,2885.67,CHCGILDTO6Y
MA6813400180,h_OCHCTP,11-L1-9,2019-02-05 03:30:00.0,Qmin,8.87,CHCGILDTO6Y
MA6813400180,h_OCHCTP,11-L1-9,2019-02-05 03:30:00.0,PhaseCorrectionAve,-0.122,CHCGILDTO6Y
MA6813400180,h_OCHCTP,11-L1-9,2019-02-05 03:30:00.0,BerPreFecMax,0.00274,CHCGILDTO6Y
MA6813400180,h_OCHCTP,11-L1-9,2019-02-05 03:30:00.0,PmdMin,1.21,CHCGILDTO6Y
MA6813400180,h_OCHCTP,11-L1-9,2019-02-05 03:30:00.0,SoPmdAve,2915.96,CHCGILDTO6Y
MA6813400180,h_OCHCTP,11-L1-9,2019-02-05 03:45:00.0,Qmin,8.89,CHCGILDTO6Y
MA6813400180,h_OCHCTP,11-L1-9,2019-02-05 03:45:00.0,PhaseCorrectionAve,-0.122,CHCGILDTO6Y
MA6813400180,h_OCHCTP,11-L1-9,2019-02-05 03:45:00.0,BerPreFecMax,0.00269,CHCGILDTO6Y
MA6813400180,h_OCHCTP,11-L1-9,2019-02-05 03:45:00.0,PmdMin,0.75,CHCGILDTO6Y
MA6813400180,h_OCHCTP,11-L1-9,2019-02-05 03:45:00.0,SoPmdAve,2989.35,CHCGILDTO6Y
MA6813400180,h_OCHCTP,11-L1-10,2019-02-05 03:15:00.0,Qmin,8.98,CHCGILDTO6Y
MA6813400180,h_OCHCTP,11-L1-10,2019-02-05 03:15:00.0,PhaseCorrectionAve,-0.244,CHCGILDTO6Y
MA6813400180,h_OCHCTP,11-L1-10,2019-02-05 03:15:00.0,BerPreFecMax,0.00245,CHCGILDTO6Y
MA6813400180,h_OCHCTP,11-L1-10,2019-02-05 03:15:00.0,PmdMin,0.786,CHCGILDTO6Y
MA6813400180,h_OCHCTP,11-L1-10,2019-02-05 03:15:00.0,SoPmdAve,3104.21,CHCGILDTO6Y
MA6813400180,h_OCHCTP,11-L1-10,2019-02-05 03:30:00.0,Qmin,8.98,CHCGILDTO6Y
MA6813400180,h_OCHCTP,11-L1-10,2019-02-05 03:30:00.0,PhaseCorrectionAve,-0.122,CHCGILDTO6Y
MA6813400180,h_OCHCTP,11-L1-10,2019-02-05 03:30:00.0,BerPreFecMax,0.00247,CHCGILDTO6Y
MA6813400180,h_OCHCTP,11-L1-10,2019-02-05 03:30:00.0,PmdMin,1.25,CHCGILDTO6Y
MA6813400180,h_OCHCTP,11-L1-10,2019-02-05 03:30:00.0,SoPmdAve,3134.08,CHCGILDTO6Y
MA6813400180,h_OCHCTP,11-L1-10,2019-02-05 03:45:00.0,Qmin,9.0,CHCGILDTO6Y
MA6813400180,h_OCHCTP,11-L1-10,2019-02-05 03:45:00.0,PhaseCorrectionAve,-0.122,CHCGILDTO6Y
MA6813400180,h_OCHCTP,11-L1-10,2019-02-05 03:45:00.0,BerPreFecMax,0.00241,CHCGILDTO6Y
MA6813400180,h_OCHCTP,11-L1-10,2019-02-05 03:45:00.0,PmdMin,0.967,CHCGILDTO6Y
MA6813400180,h_OCHCTP,11-L1-10,2019-02-05 03:45:00.0,SoPmdAve,3101.27,CHCGILDTO6Y
