MA6813400180,h_OCHCTP,11-L1-1,2019-01-21 15:15:00.0,Qmin,9.09,CHCGILDTO6Y
MA6813400180,h_OCHCTP,11-L1-1,2019-01-21 15:15:00.0,PhaseCorrectionAve,1.35e-07,CHCGILDTO6Y
MA6813400180,h_OCHCTP,11-L1-1,2019-01-21 15:15:00.0,BerPreFecMax,0.0022,CHCGILDTO6Y
MA6813400180,h_OCHCTP,11-L1-1,2019-01-21 15:15:00.0,PmdMin,1.25,CHCGILDTO6Y
MA6813400180,h_OCHCTP,11-L1-1,2019-01-21 15:15:00.0,SoPmdAve,3409.86,CHCGILDTO6Y
MA6813400180,h_OCHCTP,11-L1-1,2019-01-21 15:30:00.0,Qmin,9.07,CHCGILDTO6Y
MA6813400180,h_OCHCTP,11-L1-1,2019-01-21 15:30:00.0,PhaseCorrectionAve,-0.061,CHCGILDTO6Y
MA6813400180,h_OCHCTP,11-L1-1,2019-01-21 15:30:00.0,BerPreFecMax,0.00225,CHCGILDTO6Y
MA6813400180,h_OCHCTP,11-L1-1,2019-01-21 15:30:00.0,PmdMin,0.937,CHCGILDTO6Y
MA6813400180,h_OCHCTP,11-L1-1,2019-01-21 15:30:00.0,SoPmdAve,3529.82,CHCGILDTO6Y
MA6813400180,h_OCHCTP,11-L1-1,2019-01-21 15:45:00.0,Qmin,9.04,CHCGILDTO6Y
MA6813400180,h_OCHCTP,11-L1-1,2019-01-21 15:45:00.0,PhaseCorrectionAve,1.79e-07,CHCGILDTO6Y
MA6813400180,h_OCHCTP,11-L1-1,2019-01-21 15:45:00.0,BerPreFecMax,0.00232,CHCGILDTO6Y
MA6813400180,h_OCHCTP,11-L1-1,2019-01-21 15:45:00.0,PmdMin,1.63,CHCGILDTO6Y
MA6813400180,h_OCHCTP,11-L1-1,2019-01-21 15:45:00.0,SoPmdAve,3369.86,CHCGILDTO6Y
MA6813400180,h_OCHCTP,11-L1-2,2019-01-21 15:15:00.0,Qmin,9.05,CHCGILDTO6Y
MA6813400180,h_OCHCTP,11-L1-2,2019-01-21 15:15:00.0,PhaseCorrectionAve,3.43e-07,CHCGILDTO6Y
MA6813400180,h_OCHCTP,11-L1-2,2019-01-21 15:15:00.0,BerPreFecMax,0.0023,CHCGILDTO6Y
MA6813400180,h_OCHCTP,11-L1-2,2019-01-21 15:15:00.0,PmdMin,0.936,CHCGILDTO6Y
MA6813400180,h_OCHCTP,11-L1-2,2019-01-21 15:15:00.0,SoPmdAve,3159.63,CHCGILDTO6Y
MA6813400180,h_OCHCTP,11-L1-2,2019-01-21 15:30:00.0,Qmin,9.0,CHCGILDTO6Y
MA6813400180,h_OCHCTP,11-L1-2,2019-01-21 15:30:00.0,PhaseCorrectionAve,-0.061,CHCGILDTO6Y
MA6813400180,h_OCHCTP,11-L1-2,2019-01-21 15:30:00.0,BerPreFecMax,0.00241,CHCGILDTO6Y
MA6813400180,h_OCHCTP,11-L1-2,2019-01-21 15:30:00.0,PmdMin,1.09,CHCGILDTO6Y
MA6813400180,h_OCHCTP,11-L1-2,2019-01-21 15:30:00.0,SoPmdAve,3218.13,CHCGILDTO6Y
MA6813400180,h_OCHCTP,11-L1-2,2019-01-21 15:45:00.0,Qmin,8.95,CHCGILDTO6Y
MA6813400180,h_OCHCTP,11-L1-2,2019-01-21 15:45:00.0,PhaseCorrectionAve,-0.061,CHCGILDTO6Y
MA6813400180,h_OCHCTP,11-L1-2,2019-01-21 15:45:00.0,BerPreFecMax,0.00253,CHCGILDTO6Y
MA6813400180,h_OCHCTP,11-L1-2,2019-01-21 15:45:00.0,PmdMin,0.418,CHCGILDTO6Y
MA6813400180,h_OCHCTP,11-L1-2,2019-01-21 15:45:00.0,SoPmdAve,3160.93,CHCGILDTO6Y
MA6813400180,h_OCHCTP,11-L1-3,2019-01-21 15:15:00.0,Qmin,8.97,CHCGILDTO6Y
MA6813400180,h_OCHCTP,11-L1-3,2019-01-21 15:15:00.0,PhaseCorrectionAve,-0.061,CHCGILDTO6Y
MA6813400180,h_OCHCTP,11-L1-3,2019-01-21 15:15:00.0,BerPreFecMax,0.00248,CHCGILDTO6Y
MA6813400180,h_OCHCTP,11-L1-3,2019-01-21 15:15:00.0,PmdMin,1.24,CHCGILDTO6Y
MA6813400180,h_OCHCTP,11-L1-3,2019-01-21 15:15:00.0,SoPmdAve,2711.44,CHCGILDTO6Y
MA6813400180,h_OCHCTP,11-L1-3,2019-01-21 15:30:00.0,Qmin,8.92,CHCGILDTO6Y
MA6813400180,h_OCHCTP,11-L1-3,2019-01-21 15:30:00.0,PhaseCorrectionAve,-0.061,CHCGILDTO6Y
MA6813400180,h_OCHCTP,11-L1-3,2019-01-21 15:30:00.0,BerPreFecMax,0.00261,CHCGILDTO6Y
MA6813400180,h_OCHCTP,11-L1-3,2019-01-21 15:30:00.0,PmdMin,0.621,CHCGILDTO6Y
MA6813400180,h_OCHCTP,11-L1-3,2019-01-21 15:30:00.0,SoPmdAve,2669.73,CHCGILDTO6Y
MA6813400180,h_OCHCTP,11-L1-3,2019-01-21 15:45:00.0,Qmin,8.92,CHCGILDTO6Y
MA6813400180,h_OCHCTP,11-L1-3,2019-01-21 15:45:00.0,PhaseCorrectionAve,-0.061,CHCGILDTO6Y
MA6813400180,h_OCHCTP,11-L1-3,2019-01-21 15:45:00.0,BerPreFecMax,0.00262,CHCGILDTO6Y
MA6813400180,h_OCHCTP,11-L1-3,2019-01-21 15:45:00.0,PmdMin,0.746,CHCGILDTO6Y
MA6813400180,h_OCHCTP,11-L1-3,2019-01-21 15:45:00.0,SoPmdAve,2656.15,CHCGILDTO6Y
MA6813400180,h_OCHCTP,11-L1-4,2019-01-21 15:15:00.0,Qmin,8.76,CHCGILDTO6Y
MA6813400180,h_OCHCTP,11-L1-4,2019-01-21 15:15:00.0,PhaseCorrectionAve,-0.122,CHCGILDTO6Y
MA6813400180,h_OCHCTP,11-L1-4,2019-01-21 15:15:00.0,BerPreFecMax,0.00305,CHCGILDTO6Y
MA6813400180,h_OCHCTP,11-L1-4,2019-01-21 15:15:00.0,PmdMin,0.963,CHCGILDTO6Y
MA6813400180,h_OCHCTP,11-L1-4,2019-01-21 15:15:00.0,SoPmdAve,2900.88,CHCGILDTO6Y
MA6813400180,h_OCHCTP,11-L1-4,2019-01-21 15:30:00.0,Qmin,8.71,CHCGILDTO6Y
MA6813400180,h_OCHCTP,11-L1-4,2019-01-21 15:30:00.0,PhaseCorrectionAve,-0.122,CHCGILDTO6Y
MA6813400180,h_OCHCTP,11-L1-4,2019-01-21 15:30:00.0,BerPreFecMax,0.0032,CHCGILDTO6Y
MA6813400180,h_OCHCTP,11-L1-4,2019-01-21 15:30:00.0,PmdMin,0.937,CHCGILDTO6Y
MA6813400180,h_OCHCTP,11-L1-4,2019-01-21 15:30:00.0,SoPmdAve,3030.1,CHCGILDTO6Y
MA6813400180,h_OCHCTP,11-L1-4,2019-01-21 15:45:00.0,Qmin,8.73,CHCGILDTO6Y
MA6813400180,h_OCHCTP,11-L1-4,2019-01-21 15:45:00.0,PhaseCorrectionAve,-0.061,CHCGILDTO6Y
MA6813400180,h_OCHCTP,11-L1-4,2019-01-21 15:45:00.0,BerPreFecMax,0.00315,CHCGILDTO6Y
MA6813400180,h_OCHCTP,11-L1-4,2019-01-21 15:45:00.0,PmdMin,0.934,CHCGILDTO6Y
MA6813400180,h_OCHCTP,11-L1-4,2019-01-21 15:45:00.0,SoPmdAve,2985.24,CHCGILDTO6Y
MA6813400180,h_OCHCTP,11-L1-5,2019-01-21 15:15:00.0,Qmin,8.84,CHCGILDTO6Y
MA6813400180,h_OCHCTP,11-L1-5,2019-01-21 15:15:00.0,PhaseCorrectionAve,-0.122,CHCGILDTO6Y
MA6813400180,h_OCHCTP,11-L1-5,2019-01-21 15:15:00.0,BerPreFecMax,0.00283,CHCGILDTO6Y
MA6813400180,h_OCHCTP,11-L1-5,2019-01-21 15:15:00.0,PmdMin,0.595,CHCGILDTO6Y
MA6813400180,h_OCHCTP,11-L1-5,2019-01-21 15:15:00.0,SoPmdAve,2520.82,CHCGILDTO6Y
MA6813400180,h_OCHCTP,11-L1-5,2019-01-21 15:30:00.0,Qmin,8.8,CHCGILDTO6Y
MA6813400180,h_OCHCTP,11-L1-5,2019-01-21 15:30:00.0,PhaseCorrectionAve,-0.122,CHCGILDTO6Y
MA6813400180,h_OCHCTP,11-L1-5,2019-01-21 15:30:00.0,BerPreFecMax,0.00295,CHCGILDTO6Y
MA6813400180,h_OCHCTP,11-L1-5,2019-01-21 15:30:00.0,PmdMin,0.574,CHCGILDTO6Y
MA6813400180,h_OCHCTP,11-L1-5,2019-01-21 15:30:00.0,SoPmdAve,2563.07,CHCGILDTO6Y
MA6813400180,h_OCHCTP,11-L1-5,2019-01-21 15:45:00.0,Qmin,8.79,CHCGILDTO6Y
MA6813400180,h_OCHCTP,11-L1-5,2019-01-21 15:45:00.0,PhaseCorrectionAve,-0.061,CHCGILDTO6Y
MA6813400180,h_OCHCTP,11-L1-5,2019-01-21 15:45:00.0,BerPreFecMax,0.00296,CHCGILDTO6Y
MA6813400180,h_OCHCTP,11-L1-5,2019-01-21 15:45:00.0,PmdMin,0.0775,CHCGILDTO6Y
MA6813400180,h_OCHCTP,11-L1-5,2019-01-21 15:45:00.0,SoPmdAve,2521.18,CHCGILDTO6Y
MA6813400180,h_OCHCTP,11-L1-6,2019-01-21 15:15:00.0,Qmin,8.73,CHCGILDTO6Y
MA6813400180,h_OCHCTP,11-L1-6,2019-01-21 15:15:00.0,PhaseCorrectionAve,-0.122,CHCGILDTO6Y
MA6813400180,h_OCHCTP,11-L1-6,2019-01-21 15:15:00.0,BerPreFecMax,0.00314,CHCGILDTO6Y
MA6813400180,h_OCHCTP,11-L1-6,2019-01-21 15:15:00.0,PmdMin,1.07,CHCGILDTO6Y
MA6813400180,h_OCHCTP,11-L1-6,2019-01-21 15:15:00.0,SoPmdAve,2499.15,CHCGILDTO6Y
MA6813400180,h_OCHCTP,11-L1-6,2019-01-21 15:30:00.0,Qmin,8.7,CHCGILDTO6Y
MA6813400180,h_OCHCTP,11-L1-6,2019-01-21 15:30:00.0,PhaseCorrectionAve,-0.122,CHCGILDTO6Y
MA6813400180,h_OCHCTP,11-L1-6,2019-01-21 15:30:00.0,BerPreFecMax,0.00324,CHCGILDTO6Y
MA6813400180,h_OCHCTP,11-L1-6,2019-01-21 15:30:00.0,PmdMin,1.16,CHCGILDTO6Y
MA6813400180,h_OCHCTP,11-L1-6,2019-01-21 15:30:00.0,SoPmdAve,2568.38,CHCGILDTO6Y
MA6813400180,h_OCHCTP,11-L1-6,2019-01-21 15:45:00.0,Qmin,8.71,CHCGILDTO6Y
MA6813400180,h_OCHCTP,11-L1-6,2019-01-21 15:45:00.0,PhaseCorrectionAve,-0.061,CHCGILDTO6Y
MA6813400180,h_OCHCTP,11-L1-6,2019-01-21 15:45:00.0,BerPreFecMax,0.0032,CHCGILDTO6Y
MA6813400180,h_OCHCTP,11-L1-6,2019-01-21 15:45:00.0,PmdMin,0.504,CHCGILDTO6Y
MA6813400180,h_OCHCTP,11-L1-6,2019-01-21 15:45:00.0,SoPmdAve,2514.6,CHCGILDTO6Y
MA6813400180,h_OCHCTP,11-L1-7,2019-01-21 15:15:00.0,Qmin,8.85,CHCGILDTO6Y
MA6813400180,h_OCHCTP,11-L1-7,2019-01-21 15:15:00.0,PhaseCorrectionAve,-0.122,CHCGILDTO6Y
MA6813400180,h_OCHCTP,11-L1-7,2019-01-21 15:15:00.0,BerPreFecMax,0.00281,CHCGILDTO6Y
MA6813400180,h_OCHCTP,11-L1-7,2019-01-21 15:15:00.0,PmdMin,0.887,CHCGILDTO6Y
MA6813400180,h_OCHCTP,11-L1-7,2019-01-21 15:15:00.0,SoPmdAve,3077.1,CHCGILDTO6Y
MA6813400180,h_OCHCTP,11-L1-7,2019-01-21 15:30:00.0,Qmin,8.84,CHCGILDTO6Y
MA6813400180,h_OCHCTP,11-L1-7,2019-01-21 15:30:00.0,PhaseCorrectionAve,-0.122,CHCGILDTO6Y
MA6813400180,h_OCHCTP,11-L1-7,2019-01-21 15:30:00.0,BerPreFecMax,0.00284,CHCGILDTO6Y
MA6813400180,h_OCHCTP,11-L1-7,2019-01-21 15:30:00.0,PmdMin,1.19,CHCGILDTO6Y
MA6813400180,h_OCHCTP,11-L1-7,2019-01-21 15:30:00.0,SoPmdAve,3034.0,CHCGILDTO6Y
MA6813400180,h_OCHCTP,11-L1-7,2019-01-21 15:45:00.0,Qmin,8.84,CHCGILDTO6Y
MA6813400180,h_OCHCTP,11-L1-7,2019-01-21 15:45:00.0,PhaseCorrectionAve,-0.061,CHCGILDTO6Y
MA6813400180,h_OCHCTP,11-L1-7,2019-01-21 15:45:00.0,BerPreFecMax,0.00284,CHCGILDTO6Y
MA6813400180,h_OCHCTP,11-L1-7,2019-01-21 15:45:00.0,PmdMin,0.8,CHCGILDTO6Y
MA6813400180,h_OCHCTP,11-L1-7,2019-01-21 15:45:00.0,SoPmdAve,2948.32,CHCGILDTO6Y
MA6813400180,h_OCHCTP,11-L1-8,2019-01-21 15:15:00.0,Qmin,8.89,CHCGILDTO6Y
MA6813400180,h_OCHCTP,11-L1-8,2019-01-21 15:15:00.0,PhaseCorrectionAve,-0.244,CHCGILDTO6Y
MA6813400180,h_OCHCTP,11-L1-8,2019-01-21 15:15:00.0,BerPreFecMax,0.0027,CHCGILDTO6Y
MA6813400180,h_OCHCTP,11-L1-8,2019-01-21 15:15:00.0,PmdMin,0.976,CHCGILDTO6Y
MA6813400180,h_OCHCTP,11-L1-8,2019-01-21 15:15:00.0,SoPmdAve,2997.59,CHCGILDTO6Y
MA6813400180,h_OCHCTP,11-L1-8,2019-01-21 15:30:00.0,Qmin,8.89,CHCGILDTO6Y
MA6813400180,h_OCHCTP,11-L1-8,2019-01-21 15:30:00.0,PhaseCorrectionAve,-0.244,CHCGILDTO6Y
MA6813400180,h_OCHCTP,11-L1-8,2019-01-21 15:30:00.0,BerPreFecMax,0.00269,CHCGILDTO6Y
MA6813400180,h_OCHCTP,11-L1-8,2019-01-21 15:30:00.0,PmdMin,0.989,CHCGILDTO6Y
MA6813400180,h_OCHCTP,11-L1-8,2019-01-21 15:30:00.0,SoPmdAve,3112.68,CHCGILDTO6Y
MA6813400180,h_OCHCTP,11-L1-8,2019-01-21 15:45:00.0,Qmin,8.86,CHCGILDTO6Y
MA6813400180,h_OCHCTP,11-L1-8,2019-01-21 15:45:00.0,PhaseCorrectionAve,-0.061,CHCGILDTO6Y
MA6813400180,h_OCHCTP,11-L1-8,2019-01-21 15:45:00.0,BerPreFecMax,0.00277,CHCGILDTO6Y
MA6813400180,h_OCHCTP,11-L1-8,2019-01-21 15:45:00.0,PmdMin,0.443,CHCGILDTO6Y
MA6813400180,h_OCHCTP,11-L1-8,2019-01-21 15:45:00.0,SoPmdAve,3094.27,CHCGILDTO6Y
MA6813400180,h_OCHCTP,11-L1-9,2019-01-21 15:15:00.0,Qmin,8.78,CHCGILDTO6Y
MA6813400180,h_OCHCTP,11-L1-9,2019-01-21 15:15:00.0,PhaseCorrectionAve,-0.244,CHCGILDTO6Y
MA6813400180,h_OCHCTP,11-L1-9,2019-01-21 15:15:00.0,BerPreFecMax,0.00301,CHCGILDTO6Y
MA6813400180,h_OCHCTP,11-L1-9,2019-01-21 15:15:00.0,PmdMin,0.841,CHCGILDTO6Y
MA6813400180,h_OCHCTP,11-L1-9,2019-01-21 15:15:00.0,SoPmdAve,3043.78,CHCGILDTO6Y
MA6813400180,h_OCHCTP,11-L1-9,2019-01-21 15:30:00.0,Qmin,8.76,CHCGILDTO6Y
MA6813400180,h_OCHCTP,11-L1-9,2019-01-21 15:30:00.0,PhaseCorrectionAve,-0.244,CHCGILDTO6Y
MA6813400180,h_OCHCTP,11-L1-9,2019-01-21 15:30:00.0,BerPreFecMax,0.00306,CHCGILDTO6Y
MA6813400180,h_OCHCTP,11-L1-9,2019-01-21 15:30:00.0,PmdMin,0.633,CHCGILDTO6Y
MA6813400180,h_OCHCTP,11-L1-9,2019-01-21 15:30:00.0,SoPmdAve,3096.92,CHCGILDTO6Y
MA6813400180,h_OCHCTP,11-L1-9,2019-01-21 15:45:00.0,Qmin,8.73,CHCGILDTO6Y
MA6813400180,h_OCHCTP,11-L1-9,2019-01-21 15:45:00.0,PhaseCorrectionAve,-0.061,CHCGILDTO6Y
MA6813400180,h_OCHCTP,11-L1-9,2019-01-21 15:45:00.0,BerPreFecMax,0.00313,CHCGILDTO6Y
MA6813400180,h_OCHCTP,11-L1-9,2019-01-21 15:45:00.0,PmdMin,0.884,CHCGILDTO6Y
MA6813400180,h_OCHCTP,11-L1-9,2019-01-21 15:45:00.0,SoPmdAve,3125.98,CHCGILDTO6Y
MA6813400180,h_OCHCTP,11-L1-10,2019-01-21 15:15:00.0,Qmin,8.94,CHCGILDTO6Y
MA6813400180,h_OCHCTP,11-L1-10,2019-01-21 15:15:00.0,PhaseCorrectionAve,-0.244,CHCGILDTO6Y
MA6813400180,h_OCHCTP,11-L1-10,2019-01-21 15:15:00.0,BerPreFecMax,0.00257,CHCGILDTO6Y
MA6813400180,h_OCHCTP,11-L1-10,2019-01-21 15:15:00.0,PmdMin,0.99,CHCGILDTO6Y
MA6813400180,h_OCHCTP,11-L1-10,2019-01-21 15:15:00.0,SoPmdAve,3091.21,CHCGILDTO6Y
MA6813400180,h_OCHCTP,11-L1-10,2019-01-21 15:30:00.0,Qmin,8.9,CHCGILDTO6Y
MA6813400180,h_OCHCTP,11-L1-10,2019-01-21 15:30:00.0,PhaseCorrectionAve,-0.244,CHCGILDTO6Y
MA6813400180,h_OCHCTP,11-L1-10,2019-01-21 15:30:00.0,BerPreFecMax,0.00267,CHCGILDTO6Y
MA6813400180,h_OCHCTP,11-L1-10,2019-01-21 15:30:00.0,PmdMin,1.33,CHCGILDTO6Y
MA6813400180,h_OCHCTP,11-L1-10,2019-01-21 15:30:00.0,SoPmdAve,3038.07,CHCGILDTO6Y
MA6813400180,h_OCHCTP,11-L1-10,2019-01-21 15:45:00.0,Qmin,8.87,CHCGILDTO6Y
MA6813400180,h_OCHCTP,11-L1-10,2019-01-21 15:45:00.0,PhaseCorrectionAve,-0.061,CHCGILDTO6Y
MA6813400180,h_OCHCTP,11-L1-10,2019-01-21 15:45:00.0,BerPreFecMax,0.00274,CHCGILDTO6Y
MA6813400180,h_OCHCTP,11-L1-10,2019-01-21 15:45:00.0,PmdMin,0.712,CHCGILDTO6Y
MA6813400180,h_OCHCTP,11-L1-10,2019-01-21 15:45:00.0,SoPmdAve,3136.52,CHCGILDTO6Y
MA6813400180,h_OCHCTP,13-L1-1,2019-01-21 15:15:00.0,Qmin,9.13,CHCGILDTO6Y
MA6813400180,h_OCHCTP,13-L1-1,2019-01-21 15:15:00.0,PhaseCorrectionAve,2.48e-07,CHCGILDTO6Y
MA6813400180,h_OCHCTP,13-L1-1,2019-01-21 15:15:00.0,BerPreFecMax,0.00211,CHCGILDTO6Y
MA6813400180,h_OCHCTP,13-L1-1,2019-01-21 15:15:00.0,PmdMin,0.932,CHCGILDTO6Y
MA6813400180,h_OCHCTP,13-L1-1,2019-01-21 15:15:00.0,SoPmdAve,3594.8,CHCGILDTO6Y
MA6813400180,h_OCHCTP,13-L1-1,2019-01-21 15:30:00.0,Qmin,9.08,CHCGILDTO6Y
MA6813400180,h_OCHCTP,13-L1-1,2019-01-21 15:30:00.0,PhaseCorrectionAve,2.83e-07,CHCGILDTO6Y
MA6813400180,h_OCHCTP,13-L1-1,2019-01-21 15:30:00.0,BerPreFecMax,0.00223,CHCGILDTO6Y
MA6813400180,h_OCHCTP,13-L1-1,2019-01-21 15:30:00.0,PmdMin,0.946,CHCGILDTO6Y
MA6813400180,h_OCHCTP,13-L1-1,2019-01-21 15:30:00.0,SoPmdAve,3563.11,CHCGILDTO6Y
MA6813400180,h_OCHCTP,13-L1-1,2019-01-21 15:45:00.0,Qmin,9.09,CHCGILDTO6Y
MA6813400180,h_OCHCTP,13-L1-1,2019-01-21 15:45:00.0,PhaseCorrectionAve,3.03e-07,CHCGILDTO6Y
MA6813400180,h_OCHCTP,13-L1-1,2019-01-21 15:45:00.0,BerPreFecMax,0.0022,CHCGILDTO6Y
MA6813400180,h_OCHCTP,13-L1-1,2019-01-21 15:45:00.0,PmdMin,1.36,CHCGILDTO6Y
MA6813400180,h_OCHCTP,13-L1-1,2019-01-21 15:45:00.0,SoPmdAve,3495.56,CHCGILDTO6Y
MA6813400180,h_OCHCTP,13-L1-2,2019-01-21 15:15:00.0,Qmin,9.14,CHCGILDTO6Y
MA6813400180,h_OCHCTP,13-L1-2,2019-01-21 15:15:00.0,PhaseCorrectionAve,-0.061,CHCGILDTO6Y
MA6813400180,h_OCHCTP,13-L1-2,2019-01-21 15:15:00.0,BerPreFecMax,0.00209,CHCGILDTO6Y
MA6813400180,h_OCHCTP,13-L1-2,2019-01-21 15:15:00.0,PmdMin,0.876,CHCGILDTO6Y
MA6813400180,h_OCHCTP,13-L1-2,2019-01-21 15:15:00.0,SoPmdAve,3498.61,CHCGILDTO6Y
MA6813400180,h_OCHCTP,13-L1-2,2019-01-21 15:30:00.0,Qmin,9.09,CHCGILDTO6Y
MA6813400180,h_OCHCTP,13-L1-2,2019-01-21 15:30:00.0,PhaseCorrectionAve,-0.061,CHCGILDTO6Y
MA6813400180,h_OCHCTP,13-L1-2,2019-01-21 15:30:00.0,BerPreFecMax,0.00221,CHCGILDTO6Y
MA6813400180,h_OCHCTP,13-L1-2,2019-01-21 15:30:00.0,PmdMin,0.705,CHCGILDTO6Y
MA6813400180,h_OCHCTP,13-L1-2,2019-01-21 15:30:00.0,SoPmdAve,3524.12,CHCGILDTO6Y
MA6813400180,h_OCHCTP,13-L1-2,2019-01-21 15:45:00.0,Qmin,9.03,CHCGILDTO6Y
MA6813400180,h_OCHCTP,13-L1-2,2019-01-21 15:45:00.0,PhaseCorrectionAve,-0.122,CHCGILDTO6Y
MA6813400180,h_OCHCTP,13-L1-2,2019-01-21 15:45:00.0,BerPreFecMax,0.00234,CHCGILDTO6Y
MA6813400180,h_OCHCTP,13-L1-2,2019-01-21 15:45:00.0,PmdMin,1.19,CHCGILDTO6Y
MA6813400180,h_OCHCTP,13-L1-2,2019-01-21 15:45:00.0,SoPmdAve,3548.85,CHCGILDTO6Y
MA6813400180,h_OCHCTP,13-L1-3,2019-01-21 15:15:00.0,Qmin,8.95,CHCGILDTO6Y
MA6813400180,h_OCHCTP,13-L1-3,2019-01-21 15:15:00.0,PhaseCorrectionAve,-0.061,CHCGILDTO6Y
MA6813400180,h_OCHCTP,13-L1-3,2019-01-21 15:15:00.0,BerPreFecMax,0.00253,CHCGILDTO6Y
MA6813400180,h_OCHCTP,13-L1-3,2019-01-21 15:15:00.0,PmdMin,0.335,CHCGILDTO6Y
MA6813400180,h_OCHCTP,13-L1-3,2019-01-21 15:15:00.0,SoPmdAve,2973.4,CHCGILDTO6Y
MA6813400180,h_OCHCTP,13-L1-3,2019-01-21 15:30:00.0,Qmin,8.91,CHCGILDTO6Y
MA6813400180,h_OCHCTP,13-L1-3,2019-01-21 15:30:00.0,PhaseCorrectionAve,-0.061,CHCGILDTO6Y
MA6813400180,h_OCHCTP,13-L1-3,2019-01-21 15:30:00.0,BerPreFecMax,0.00264,CHCGILDTO6Y
MA6813400180,h_OCHCTP,13-L1-3,2019-01-21 15:30:00.0,PmdMin,0.816,CHCGILDTO6Y
MA6813400180,h_OCHCTP,13-L1-3,2019-01-21 15:30:00.0,SoPmdAve,3031.12,CHCGILDTO6Y
MA6813400180,h_OCHCTP,13-L1-3,2019-01-21 15:45:00.0,Qmin,8.9,CHCGILDTO6Y
MA6813400180,h_OCHCTP,13-L1-3,2019-01-21 15:45:00.0,PhaseCorrectionAve,-0.122,CHCGILDTO6Y
MA6813400180,h_OCHCTP,13-L1-3,2019-01-21 15:45:00.0,BerPreFecMax,0.00267,CHCGILDTO6Y
MA6813400180,h_OCHCTP,13-L1-3,2019-01-21 15:45:00.0,PmdMin,0.694,CHCGILDTO6Y
MA6813400180,h_OCHCTP,13-L1-3,2019-01-21 15:45:00.0,SoPmdAve,3008.9,CHCGILDTO6Y
MA6813400180,h_OCHCTP,13-L1-4,2019-01-21 15:15:00.0,Qmin,8.7,CHCGILDTO6Y
MA6813400180,h_OCHCTP,13-L1-4,2019-01-21 15:15:00.0,PhaseCorrectionAve,-0.061,CHCGILDTO6Y
MA6813400180,h_OCHCTP,13-L1-4,2019-01-21 15:15:00.0,BerPreFecMax,0.00324,CHCGILDTO6Y
MA6813400180,h_OCHCTP,13-L1-4,2019-01-21 15:15:00.0,PmdMin,0.934,CHCGILDTO6Y
MA6813400180,h_OCHCTP,13-L1-4,2019-01-21 15:15:00.0,SoPmdAve,3367.64,CHCGILDTO6Y
MA6813400180,h_OCHCTP,13-L1-4,2019-01-21 15:30:00.0,Qmin,8.68,CHCGILDTO6Y
MA6813400180,h_OCHCTP,13-L1-4,2019-01-21 15:30:00.0,PhaseCorrectionAve,-0.061,CHCGILDTO6Y
MA6813400180,h_OCHCTP,13-L1-4,2019-01-21 15:30:00.0,BerPreFecMax,0.0033,CHCGILDTO6Y
MA6813400180,h_OCHCTP,13-L1-4,2019-01-21 15:30:00.0,PmdMin,0.658,CHCGILDTO6Y
MA6813400180,h_OCHCTP,13-L1-4,2019-01-21 15:30:00.0,SoPmdAve,3371.38,CHCGILDTO6Y
MA6813400180,h_OCHCTP,13-L1-4,2019-01-21 15:45:00.0,Qmin,8.68,CHCGILDTO6Y
MA6813400180,h_OCHCTP,13-L1-4,2019-01-21 15:45:00.0,PhaseCorrectionAve,-0.122,CHCGILDTO6Y
MA6813400180,h_OCHCTP,13-L1-4,2019-01-21 15:45:00.0,BerPreFecMax,0.00328,CHCGILDTO6Y
MA6813400180,h_OCHCTP,13-L1-4,2019-01-21 15:45:00.0,PmdMin,0.331,CHCGILDTO6Y
MA6813400180,h_OCHCTP,13-L1-4,2019-01-21 15:45:00.0,SoPmdAve,3377.69,CHCGILDTO6Y
MA6813400180,h_OCHCTP,13-L1-5,2019-01-21 15:15:00.0,Qmin,8.7,CHCGILDTO6Y
MA6813400180,h_OCHCTP,13-L1-5,2019-01-21 15:15:00.0,PhaseCorrectionAve,-0.183,CHCGILDTO6Y
MA6813400180,h_OCHCTP,13-L1-5,2019-01-21 15:15:00.0,BerPreFecMax,0.00323,CHCGILDTO6Y
MA6813400180,h_OCHCTP,13-L1-5,2019-01-21 15:15:00.0,PmdMin,0.884,CHCGILDTO6Y
MA6813400180,h_OCHCTP,13-L1-5,2019-01-21 15:15:00.0,SoPmdAve,2883.75,CHCGILDTO6Y
MA6813400180,h_OCHCTP,13-L1-5,2019-01-21 15:30:00.0,Qmin,8.68,CHCGILDTO6Y
MA6813400180,h_OCHCTP,13-L1-5,2019-01-21 15:30:00.0,PhaseCorrectionAve,-0.061,CHCGILDTO6Y
MA6813400180,h_OCHCTP,13-L1-5,2019-01-21 15:30:00.0,BerPreFecMax,0.00329,CHCGILDTO6Y
MA6813400180,h_OCHCTP,13-L1-5,2019-01-21 15:30:00.0,PmdMin,0.718,CHCGILDTO6Y
MA6813400180,h_OCHCTP,13-L1-5,2019-01-21 15:30:00.0,SoPmdAve,2798.07,CHCGILDTO6Y
MA6813400180,h_OCHCTP,13-L1-5,2019-01-21 15:45:00.0,Qmin,8.69,CHCGILDTO6Y
MA6813400180,h_OCHCTP,13-L1-5,2019-01-21 15:45:00.0,PhaseCorrectionAve,-0.183,CHCGILDTO6Y
MA6813400180,h_OCHCTP,13-L1-5,2019-01-21 15:45:00.0,BerPreFecMax,0.00326,CHCGILDTO6Y
MA6813400180,h_OCHCTP,13-L1-5,2019-01-21 15:45:00.0,PmdMin,0.731,CHCGILDTO6Y
MA6813400180,h_OCHCTP,13-L1-5,2019-01-21 15:45:00.0,SoPmdAve,2902.39,CHCGILDTO6Y
MA6813400180,h_OCHCTP,13-L1-6,2019-01-21 15:15:00.0,Qmin,8.75,CHCGILDTO6Y
MA6813400180,h_OCHCTP,13-L1-6,2019-01-21 15:15:00.0,PhaseCorrectionAve,-0.183,CHCGILDTO6Y
MA6813400180,h_OCHCTP,13-L1-6,2019-01-21 15:15:00.0,BerPreFecMax,0.00309,CHCGILDTO6Y
MA6813400180,h_OCHCTP,13-L1-6,2019-01-21 15:15:00.0,PmdMin,0.276,CHCGILDTO6Y
MA6813400180,h_OCHCTP,13-L1-6,2019-01-21 15:15:00.0,SoPmdAve,3097.61,CHCGILDTO6Y
MA6813400180,h_OCHCTP,13-L1-6,2019-01-21 15:30:00.0,Qmin,8.68,CHCGILDTO6Y
MA6813400180,h_OCHCTP,13-L1-6,2019-01-21 15:30:00.0,PhaseCorrectionAve,-0.061,CHCGILDTO6Y
MA6813400180,h_OCHCTP,13-L1-6,2019-01-21 15:30:00.0,BerPreFecMax,0.00331,CHCGILDTO6Y
MA6813400180,h_OCHCTP,13-L1-6,2019-01-21 15:30:00.0,PmdMin,0.887,CHCGILDTO6Y
MA6813400180,h_OCHCTP,13-L1-6,2019-01-21 15:30:00.0,SoPmdAve,3127.16,CHCGILDTO6Y
MA6813400180,h_OCHCTP,13-L1-6,2019-01-21 15:45:00.0,Qmin,8.72,CHCGILDTO6Y
MA6813400180,h_OCHCTP,13-L1-6,2019-01-21 15:45:00.0,PhaseCorrectionAve,-0.183,CHCGILDTO6Y
MA6813400180,h_OCHCTP,13-L1-6,2019-01-21 15:45:00.0,BerPreFecMax,0.00319,CHCGILDTO6Y
MA6813400180,h_OCHCTP,13-L1-6,2019-01-21 15:45:00.0,PmdMin,0.822,CHCGILDTO6Y
MA6813400180,h_OCHCTP,13-L1-6,2019-01-21 15:45:00.0,SoPmdAve,3040.87,CHCGILDTO6Y
MA6813400180,h_OCHCTP,13-L1-7,2019-01-21 15:15:00.0,Qmin,8.77,CHCGILDTO6Y
MA6813400180,h_OCHCTP,13-L1-7,2019-01-21 15:15:00.0,PhaseCorrectionAve,-0.183,CHCGILDTO6Y
MA6813400180,h_OCHCTP,13-L1-7,2019-01-21 15:15:00.0,BerPreFecMax,0.00303,CHCGILDTO6Y
MA6813400180,h_OCHCTP,13-L1-7,2019-01-21 15:15:00.0,PmdMin,1.61,CHCGILDTO6Y
MA6813400180,h_OCHCTP,13-L1-7,2019-01-21 15:15:00.0,SoPmdAve,3728.33,CHCGILDTO6Y
MA6813400180,h_OCHCTP,13-L1-7,2019-01-21 15:30:00.0,Qmin,8.76,CHCGILDTO6Y
MA6813400180,h_OCHCTP,13-L1-7,2019-01-21 15:30:00.0,PhaseCorrectionAve,-0.061,CHCGILDTO6Y
MA6813400180,h_OCHCTP,13-L1-7,2019-01-21 15:30:00.0,BerPreFecMax,0.00306,CHCGILDTO6Y
MA6813400180,h_OCHCTP,13-L1-7,2019-01-21 15:30:00.0,PmdMin,0.593,CHCGILDTO6Y
MA6813400180,h_OCHCTP,13-L1-7,2019-01-21 15:30:00.0,SoPmdAve,3711.13,CHCGILDTO6Y
MA6813400180,h_OCHCTP,13-L1-7,2019-01-21 15:45:00.0,Qmin,8.75,CHCGILDTO6Y
MA6813400180,h_OCHCTP,13-L1-7,2019-01-21 15:45:00.0,PhaseCorrectionAve,-0.244,CHCGILDTO6Y
MA6813400180,h_OCHCTP,13-L1-7,2019-01-21 15:45:00.0,BerPreFecMax,0.00309,CHCGILDTO6Y
MA6813400180,h_OCHCTP,13-L1-7,2019-01-21 15:45:00.0,PmdMin,0.737,CHCGILDTO6Y
MA6813400180,h_OCHCTP,13-L1-7,2019-01-21 15:45:00.0,SoPmdAve,3695.94,CHCGILDTO6Y
MA6813400180,h_OCHCTP,13-L1-8,2019-01-21 15:15:00.0,Qmin,8.84,CHCGILDTO6Y
MA6813400180,h_OCHCTP,13-L1-8,2019-01-21 15:15:00.0,PhaseCorrectionAve,-0.244,CHCGILDTO6Y
MA6813400180,h_OCHCTP,13-L1-8,2019-01-21 15:15:00.0,BerPreFecMax,0.00283,CHCGILDTO6Y
MA6813400180,h_OCHCTP,13-L1-8,2019-01-21 15:15:00.0,PmdMin,1.22,CHCGILDTO6Y
MA6813400180,h_OCHCTP,13-L1-8,2019-01-21 15:15:00.0,SoPmdAve,3883.82,CHCGILDTO6Y
MA6813400180,h_OCHCTP,13-L1-8,2019-01-21 15:30:00.0,Qmin,8.84,CHCGILDTO6Y
MA6813400180,h_OCHCTP,13-L1-8,2019-01-21 15:30:00.0,PhaseCorrectionAve,-0.122,CHCGILDTO6Y
MA6813400180,h_OCHCTP,13-L1-8,2019-01-21 15:30:00.0,BerPreFecMax,0.00283,CHCGILDTO6Y
MA6813400180,h_OCHCTP,13-L1-8,2019-01-21 15:30:00.0,PmdMin,1.84,CHCGILDTO6Y
MA6813400180,h_OCHCTP,13-L1-8,2019-01-21 15:30:00.0,SoPmdAve,3957.43,CHCGILDTO6Y
MA6813400180,h_OCHCTP,13-L1-8,2019-01-21 15:45:00.0,Qmin,8.8,CHCGILDTO6Y
MA6813400180,h_OCHCTP,13-L1-8,2019-01-21 15:45:00.0,PhaseCorrectionAve,-0.244,CHCGILDTO6Y
MA6813400180,h_OCHCTP,13-L1-8,2019-01-21 15:45:00.0,BerPreFecMax,0.00294,CHCGILDTO6Y
MA6813400180,h_OCHCTP,13-L1-8,2019-01-21 15:45:00.0,PmdMin,1.76,CHCGILDTO6Y
MA6813400180,h_OCHCTP,13-L1-8,2019-01-21 15:45:00.0,SoPmdAve,3810.19,CHCGILDTO6Y
MA6813400180,h_OCHCTP,13-L1-9,2019-01-21 15:15:00.0,Qmin,8.75,CHCGILDTO6Y
MA6813400180,h_OCHCTP,13-L1-9,2019-01-21 15:15:00.0,PhaseCorrectionAve,-0.305,CHCGILDTO6Y
MA6813400180,h_OCHCTP,13-L1-9,2019-01-21 15:15:00.0,BerPreFecMax,0.00309,CHCGILDTO6Y
MA6813400180,h_OCHCTP,13-L1-9,2019-01-21 15:15:00.0,PmdMin,1.42,CHCGILDTO6Y
MA6813400180,h_OCHCTP,13-L1-9,2019-01-21 15:15:00.0,SoPmdAve,3530.11,CHCGILDTO6Y
MA6813400180,h_OCHCTP,13-L1-9,2019-01-21 15:30:00.0,Qmin,8.71,CHCGILDTO6Y
MA6813400180,h_OCHCTP,13-L1-9,2019-01-21 15:30:00.0,PhaseCorrectionAve,-0.122,CHCGILDTO6Y
MA6813400180,h_OCHCTP,13-L1-9,2019-01-21 15:30:00.0,BerPreFecMax,0.0032,CHCGILDTO6Y
MA6813400180,h_OCHCTP,13-L1-9,2019-01-21 15:30:00.0,PmdMin,0.518,CHCGILDTO6Y
MA6813400180,h_OCHCTP,13-L1-9,2019-01-21 15:30:00.0,SoPmdAve,3529.02,CHCGILDTO6Y
MA6813400180,h_OCHCTP,13-L1-9,2019-01-21 15:45:00.0,Qmin,8.7,CHCGILDTO6Y
MA6813400180,h_OCHCTP,13-L1-9,2019-01-21 15:45:00.0,PhaseCorrectionAve,-0.305,CHCGILDTO6Y
MA6813400180,h_OCHCTP,13-L1-9,2019-01-21 15:45:00.0,BerPreFecMax,0.00324,CHCGILDTO6Y
MA6813400180,h_OCHCTP,13-L1-9,2019-01-21 15:45:00.0,PmdMin,0.932,CHCGILDTO6Y
MA6813400180,h_OCHCTP,13-L1-9,2019-01-21 15:45:00.0,SoPmdAve,3413.53,CHCGILDTO6Y
MA6813400180,h_OCHCTP,13-L1-10,2019-01-21 15:15:00.0,Qmin,8.69,CHCGILDTO6Y
MA6813400180,h_OCHCTP,13-L1-10,2019-01-21 15:15:00.0,PhaseCorrectionAve,-0.305,CHCGILDTO6Y
MA6813400180,h_OCHCTP,13-L1-10,2019-01-21 15:15:00.0,BerPreFecMax,0.00327,CHCGILDTO6Y
MA6813400180,h_OCHCTP,13-L1-10,2019-01-21 15:15:00.0,PmdMin,0.699,CHCGILDTO6Y
MA6813400180,h_OCHCTP,13-L1-10,2019-01-21 15:15:00.0,SoPmdAve,3758.51,CHCGILDTO6Y
MA6813400180,h_OCHCTP,13-L1-10,2019-01-21 15:30:00.0,Qmin,8.66,CHCGILDTO6Y
MA6813400180,h_OCHCTP,13-L1-10,2019-01-21 15:30:00.0,PhaseCorrectionAve,-0.122,CHCGILDTO6Y
MA6813400180,h_OCHCTP,13-L1-10,2019-01-21 15:30:00.0,BerPreFecMax,0.00337,CHCGILDTO6Y
MA6813400180,h_OCHCTP,13-L1-10,2019-01-21 15:30:00.0,PmdMin,0.927,CHCGILDTO6Y
MA6813400180,h_OCHCTP,13-L1-10,2019-01-21 15:30:00.0,SoPmdAve,3764.7,CHCGILDTO6Y
MA6813400180,h_OCHCTP,13-L1-10,2019-01-21 15:45:00.0,Qmin,8.61,CHCGILDTO6Y
MA6813400180,h_OCHCTP,13-L1-10,2019-01-21 15:45:00.0,PhaseCorrectionAve,-0.305,CHCGILDTO6Y
MA6813400180,h_OCHCTP,13-L1-10,2019-01-21 15:45:00.0,BerPreFecMax,0.00353,CHCGILDTO6Y
MA6813400180,h_OCHCTP,13-L1-10,2019-01-21 15:45:00.0,PmdMin,0.766,CHCGILDTO6Y
MA6813400180,h_OCHCTP,13-L1-10,2019-01-21 15:45:00.0,SoPmdAve,3830.93,CHCGILDTO6Y
MA6813400180,h_OCHCTP,10-L1-1,2019-01-21 15:15:00.0,Qmin,9.49,CHCGILDTO6Y
MA6813400180,h_OCHCTP,10-L1-1,2019-01-21 15:15:00.0,PhaseCorrectionAve,5.32e-07,CHCGILDTO6Y
MA6813400180,h_OCHCTP,10-L1-1,2019-01-21 15:15:00.0,BerPreFecMax,0.00143,CHCGILDTO6Y
MA6813400180,h_OCHCTP,10-L1-1,2019-01-21 15:15:00.0,PmdMin,1.42,CHCGILDTO6Y
MA6813400180,h_OCHCTP,10-L1-1,2019-01-21 15:15:00.0,SoPmdAve,3340.58,CHCGILDTO6Y
MA6813400180,h_OCHCTP,10-L1-1,2019-01-21 15:30:00.0,Qmin,9.49,CHCGILDTO6Y
MA6813400180,h_OCHCTP,10-L1-1,2019-01-21 15:30:00.0,PhaseCorrectionAve,5.07e-07,CHCGILDTO6Y
MA6813400180,h_OCHCTP,10-L1-1,2019-01-21 15:30:00.0,BerPreFecMax,0.00144,CHCGILDTO6Y
MA6813400180,h_OCHCTP,10-L1-1,2019-01-21 15:30:00.0,PmdMin,4.19,CHCGILDTO6Y
MA6813400180,h_OCHCTP,10-L1-1,2019-01-21 15:30:00.0,SoPmdAve,3297.16,CHCGILDTO6Y
MA6813400180,h_OCHCTP,10-L1-1,2019-01-21 15:45:00.0,Qmin,9.51,CHCGILDTO6Y
MA6813400180,h_OCHCTP,10-L1-1,2019-01-21 15:45:00.0,PhaseCorrectionAve,4.93e-07,CHCGILDTO6Y
MA6813400180,h_OCHCTP,10-L1-1,2019-01-21 15:45:00.0,BerPreFecMax,0.0014,CHCGILDTO6Y
MA6813400180,h_OCHCTP,10-L1-1,2019-01-21 15:45:00.0,PmdMin,1.38,CHCGILDTO6Y
MA6813400180,h_OCHCTP,10-L1-1,2019-01-21 15:45:00.0,SoPmdAve,3321.58,CHCGILDTO6Y
MA6813400180,h_OCHCTP,10-L1-2,2019-01-21 15:15:00.0,Qmin,9.2,CHCGILDTO6Y
MA6813400180,h_OCHCTP,10-L1-2,2019-01-21 15:15:00.0,PhaseCorrectionAve,-0.122,CHCGILDTO6Y
MA6813400180,h_OCHCTP,10-L1-2,2019-01-21 15:15:00.0,BerPreFecMax,0.00196,CHCGILDTO6Y
MA6813400180,h_OCHCTP,10-L1-2,2019-01-21 15:15:00.0,PmdMin,1.37,CHCGILDTO6Y
MA6813400180,h_OCHCTP,10-L1-2,2019-01-21 15:15:00.0,SoPmdAve,3338.34,CHCGILDTO6Y
MA6813400180,h_OCHCTP,10-L1-2,2019-01-21 15:30:00.0,Qmin,9.2,CHCGILDTO6Y
MA6813400180,h_OCHCTP,10-L1-2,2019-01-21 15:30:00.0,PhaseCorrectionAve,-0.183,CHCGILDTO6Y
MA6813400180,h_OCHCTP,10-L1-2,2019-01-21 15:30:00.0,BerPreFecMax,0.00196,CHCGILDTO6Y
MA6813400180,h_OCHCTP,10-L1-2,2019-01-21 15:30:00.0,PmdMin,2.59,CHCGILDTO6Y
MA6813400180,h_OCHCTP,10-L1-2,2019-01-21 15:30:00.0,SoPmdAve,3288.61,CHCGILDTO6Y
MA6813400180,h_OCHCTP,10-L1-2,2019-01-21 15:45:00.0,Qmin,9.21,CHCGILDTO6Y
MA6813400180,h_OCHCTP,10-L1-2,2019-01-21 15:45:00.0,PhaseCorrectionAve,3.51e-07,CHCGILDTO6Y
MA6813400180,h_OCHCTP,10-L1-2,2019-01-21 15:45:00.0,BerPreFecMax,0.00195,CHCGILDTO6Y
MA6813400180,h_OCHCTP,10-L1-2,2019-01-21 15:45:00.0,PmdMin,2.42,CHCGILDTO6Y
MA6813400180,h_OCHCTP,10-L1-2,2019-01-21 15:45:00.0,SoPmdAve,3312.76,CHCGILDTO6Y
MA6813400180,h_OCHCTP,10-L1-3,2019-01-21 15:15:00.0,Qmin,8.96,CHCGILDTO6Y
MA6813400180,h_OCHCTP,10-L1-3,2019-01-21 15:15:00.0,PhaseCorrectionAve,-0.183,CHCGILDTO6Y
MA6813400180,h_OCHCTP,10-L1-3,2019-01-21 15:15:00.0,BerPreFecMax,0.0025,CHCGILDTO6Y
MA6813400180,h_OCHCTP,10-L1-3,2019-01-21 15:15:00.0,PmdMin,1.49,CHCGILDTO6Y
MA6813400180,h_OCHCTP,10-L1-3,2019-01-21 15:15:00.0,SoPmdAve,2867.69,CHCGILDTO6Y
MA6813400180,h_OCHCTP,10-L1-3,2019-01-21 15:30:00.0,Qmin,8.96,CHCGILDTO6Y
MA6813400180,h_OCHCTP,10-L1-3,2019-01-21 15:30:00.0,PhaseCorrectionAve,-0.183,CHCGILDTO6Y
MA6813400180,h_OCHCTP,10-L1-3,2019-01-21 15:30:00.0,BerPreFecMax,0.00251,CHCGILDTO6Y
MA6813400180,h_OCHCTP,10-L1-3,2019-01-21 15:30:00.0,PmdMin,1.62,CHCGILDTO6Y
MA6813400180,h_OCHCTP,10-L1-3,2019-01-21 15:30:00.0,SoPmdAve,2851.46,CHCGILDTO6Y
MA6813400180,h_OCHCTP,10-L1-3,2019-01-21 15:45:00.0,Qmin,8.98,CHCGILDTO6Y
MA6813400180,h_OCHCTP,10-L1-3,2019-01-21 15:45:00.0,PhaseCorrectionAve,5.27e-07,CHCGILDTO6Y
MA6813400180,h_OCHCTP,10-L1-3,2019-01-21 15:45:00.0,BerPreFecMax,0.00245,CHCGILDTO6Y
MA6813400180,h_OCHCTP,10-L1-3,2019-01-21 15:45:00.0,PmdMin,1.59,CHCGILDTO6Y
MA6813400180,h_OCHCTP,10-L1-3,2019-01-21 15:45:00.0,SoPmdAve,2799.54,CHCGILDTO6Y
MA6813400180,h_OCHCTP,10-L1-4,2019-01-21 15:15:00.0,Qmin,8.47,CHCGILDTO6Y
MA6813400180,h_OCHCTP,10-L1-4,2019-01-21 15:15:00.0,PhaseCorrectionAve,-0.244,CHCGILDTO6Y
MA6813400180,h_OCHCTP,10-L1-4,2019-01-21 15:15:00.0,BerPreFecMax,0.004,CHCGILDTO6Y
MA6813400180,h_OCHCTP,10-L1-4,2019-01-21 15:15:00.0,PmdMin,4.03,CHCGILDTO6Y
MA6813400180,h_OCHCTP,10-L1-4,2019-01-21 15:15:00.0,SoPmdAve,3059.37,CHCGILDTO6Y
MA6813400180,h_OCHCTP,10-L1-4,2019-01-21 15:30:00.0,Qmin,8.45,CHCGILDTO6Y
MA6813400180,h_OCHCTP,10-L1-4,2019-01-21 15:30:00.0,PhaseCorrectionAve,-0.183,CHCGILDTO6Y
MA6813400180,h_OCHCTP,10-L1-4,2019-01-21 15:30:00.0,BerPreFecMax,0.00407,CHCGILDTO6Y
MA6813400180,h_OCHCTP,10-L1-4,2019-01-21 15:30:00.0,PmdMin,6.23,CHCGILDTO6Y
MA6813400180,h_OCHCTP,10-L1-4,2019-01-21 15:30:00.0,SoPmdAve,3019.14,CHCGILDTO6Y
MA6813400180,h_OCHCTP,10-L1-4,2019-01-21 15:45:00.0,Qmin,8.48,CHCGILDTO6Y
MA6813400180,h_OCHCTP,10-L1-4,2019-01-21 15:45:00.0,PhaseCorrectionAve,1.86e-06,CHCGILDTO6Y
MA6813400180,h_OCHCTP,10-L1-4,2019-01-21 15:45:00.0,BerPreFecMax,0.00398,CHCGILDTO6Y
MA6813400180,h_OCHCTP,10-L1-4,2019-01-21 15:45:00.0,PmdMin,7.75,CHCGILDTO6Y
MA6813400180,h_OCHCTP,10-L1-4,2019-01-21 15:45:00.0,SoPmdAve,3045.8,CHCGILDTO6Y
MA6813400180,h_OCHCTP,10-L1-5,2019-01-21 15:15:00.0,Qmin,8.62,CHCGILDTO6Y
MA6813400180,h_OCHCTP,10-L1-5,2019-01-21 15:15:00.0,PhaseCorrectionAve,-0.244,CHCGILDTO6Y
MA6813400180,h_OCHCTP,10-L1-5,2019-01-21 15:15:00.0,BerPreFecMax,0.00349,CHCGILDTO6Y
MA6813400180,h_OCHCTP,10-L1-5,2019-01-21 15:15:00.0,PmdMin,1.72,CHCGILDTO6Y
MA6813400180,h_OCHCTP,10-L1-5,2019-01-21 15:15:00.0,SoPmdAve,2825.08,CHCGILDTO6Y
MA6813400180,h_OCHCTP,10-L1-5,2019-01-21 15:30:00.0,Qmin,8.62,CHCGILDTO6Y
MA6813400180,h_OCHCTP,10-L1-5,2019-01-21 15:30:00.0,PhaseCorrectionAve,-0.183,CHCGILDTO6Y
MA6813400180,h_OCHCTP,10-L1-5,2019-01-21 15:30:00.0,BerPreFecMax,0.0035,CHCGILDTO6Y
MA6813400180,h_OCHCTP,10-L1-5,2019-01-21 15:30:00.0,PmdMin,3.22,CHCGILDTO6Y
MA6813400180,h_OCHCTP,10-L1-5,2019-01-21 15:30:00.0,SoPmdAve,2841.79,CHCGILDTO6Y
MA6813400180,h_OCHCTP,10-L1-5,2019-01-21 15:45:00.0,Qmin,8.64,CHCGILDTO6Y
MA6813400180,h_OCHCTP,10-L1-5,2019-01-21 15:45:00.0,PhaseCorrectionAve,1.05e-06,CHCGILDTO6Y
MA6813400180,h_OCHCTP,10-L1-5,2019-01-21 15:45:00.0,BerPreFecMax,0.00342,CHCGILDTO6Y
MA6813400180,h_OCHCTP,10-L1-5,2019-01-21 15:45:00.0,PmdMin,4.18,CHCGILDTO6Y
MA6813400180,h_OCHCTP,10-L1-5,2019-01-21 15:45:00.0,SoPmdAve,2806.35,CHCGILDTO6Y
MA6813400180,h_OCHCTP,10-L1-6,2019-01-21 15:15:00.0,Qmin,8.82,CHCGILDTO6Y
MA6813400180,h_OCHCTP,10-L1-6,2019-01-21 15:15:00.0,PhaseCorrectionAve,-0.305,CHCGILDTO6Y
MA6813400180,h_OCHCTP,10-L1-6,2019-01-21 15:15:00.0,BerPreFecMax,0.00287,CHCGILDTO6Y
MA6813400180,h_OCHCTP,10-L1-6,2019-01-21 15:15:00.0,PmdMin,3.89,CHCGILDTO6Y
MA6813400180,h_OCHCTP,10-L1-6,2019-01-21 15:15:00.0,SoPmdAve,2849.76,CHCGILDTO6Y
MA6813400180,h_OCHCTP,10-L1-6,2019-01-21 15:30:00.0,Qmin,8.82,CHCGILDTO6Y
MA6813400180,h_OCHCTP,10-L1-6,2019-01-21 15:30:00.0,PhaseCorrectionAve,-0.244,CHCGILDTO6Y
MA6813400180,h_OCHCTP,10-L1-6,2019-01-21 15:30:00.0,BerPreFecMax,0.00289,CHCGILDTO6Y
MA6813400180,h_OCHCTP,10-L1-6,2019-01-21 15:30:00.0,PmdMin,3.22,CHCGILDTO6Y
MA6813400180,h_OCHCTP,10-L1-6,2019-01-21 15:30:00.0,SoPmdAve,2896.64,CHCGILDTO6Y
MA6813400180,h_OCHCTP,10-L1-6,2019-01-21 15:45:00.0,Qmin,8.82,CHCGILDTO6Y
MA6813400180,h_OCHCTP,10-L1-6,2019-01-21 15:45:00.0,PhaseCorrectionAve,-0.061,CHCGILDTO6Y
MA6813400180,h_OCHCTP,10-L1-6,2019-01-21 15:45:00.0,BerPreFecMax,0.00288,CHCGILDTO6Y
MA6813400180,h_OCHCTP,10-L1-6,2019-01-21 15:45:00.0,PmdMin,5.03,CHCGILDTO6Y
MA6813400180,h_OCHCTP,10-L1-6,2019-01-21 15:45:00.0,SoPmdAve,2801.95,CHCGILDTO6Y
MA6813400180,h_OCHCTP,10-L1-7,2019-01-21 15:15:00.0,Qmin,8.9,CHCGILDTO6Y
MA6813400180,h_OCHCTP,10-L1-7,2019-01-21 15:15:00.0,PhaseCorrectionAve,-0.305,CHCGILDTO6Y
MA6813400180,h_OCHCTP,10-L1-7,2019-01-21 15:15:00.0,BerPreFecMax,0.00267,CHCGILDTO6Y
MA6813400180,h_OCHCTP,10-L1-7,2019-01-21 15:15:00.0,PmdMin,2.34,CHCGILDTO6Y
MA6813400180,h_OCHCTP,10-L1-7,2019-01-21 15:15:00.0,SoPmdAve,3390.83,CHCGILDTO6Y
MA6813400180,h_OCHCTP,10-L1-7,2019-01-21 15:30:00.0,Qmin,8.89,CHCGILDTO6Y
MA6813400180,h_OCHCTP,10-L1-7,2019-01-21 15:30:00.0,PhaseCorrectionAve,-0.305,CHCGILDTO6Y
MA6813400180,h_OCHCTP,10-L1-7,2019-01-21 15:30:00.0,BerPreFecMax,0.00268,CHCGILDTO6Y
MA6813400180,h_OCHCTP,10-L1-7,2019-01-21 15:30:00.0,PmdMin,3.11,CHCGILDTO6Y
MA6813400180,h_OCHCTP,10-L1-7,2019-01-21 15:30:00.0,SoPmdAve,3472.39,CHCGILDTO6Y
MA6813400180,h_OCHCTP,10-L1-7,2019-01-21 15:45:00.0,Qmin,8.9,CHCGILDTO6Y
MA6813400180,h_OCHCTP,10-L1-7,2019-01-21 15:45:00.0,PhaseCorrectionAve,-0.122,CHCGILDTO6Y
MA6813400180,h_OCHCTP,10-L1-7,2019-01-21 15:45:00.0,BerPreFecMax,0.00267,CHCGILDTO6Y
MA6813400180,h_OCHCTP,10-L1-7,2019-01-21 15:45:00.0,PmdMin,2.68,CHCGILDTO6Y
MA6813400180,h_OCHCTP,10-L1-7,2019-01-21 15:45:00.0,SoPmdAve,3357.37,CHCGILDTO6Y
MA6813400180,h_OCHCTP,10-L1-8,2019-01-21 15:15:00.0,Qmin,9.29,CHCGILDTO6Y
MA6813400180,h_OCHCTP,10-L1-8,2019-01-21 15:15:00.0,PhaseCorrectionAve,-0.305,CHCGILDTO6Y
MA6813400180,h_OCHCTP,10-L1-8,2019-01-21 15:15:00.0,BerPreFecMax,0.00179,CHCGILDTO6Y
MA6813400180,h_OCHCTP,10-L1-8,2019-01-21 15:15:00.0,PmdMin,1.02,CHCGILDTO6Y
MA6813400180,h_OCHCTP,10-L1-8,2019-01-21 15:15:00.0,SoPmdAve,3455.67,CHCGILDTO6Y
MA6813400180,h_OCHCTP,10-L1-8,2019-01-21 15:30:00.0,Qmin,9.29,CHCGILDTO6Y
MA6813400180,h_OCHCTP,10-L1-8,2019-01-21 15:30:00.0,PhaseCorrectionAve,-0.305,CHCGILDTO6Y
MA6813400180,h_OCHCTP,10-L1-8,2019-01-21 15:30:00.0,BerPreFecMax,0.00178,CHCGILDTO6Y
MA6813400180,h_OCHCTP,10-L1-8,2019-01-21 15:30:00.0,PmdMin,0.876,CHCGILDTO6Y
MA6813400180,h_OCHCTP,10-L1-8,2019-01-21 15:30:00.0,SoPmdAve,3453.04,CHCGILDTO6Y
MA6813400180,h_OCHCTP,10-L1-8,2019-01-21 15:45:00.0,Qmin,9.27,CHCGILDTO6Y
MA6813400180,h_OCHCTP,10-L1-8,2019-01-21 15:45:00.0,PhaseCorrectionAve,-0.122,CHCGILDTO6Y
MA6813400180,h_OCHCTP,10-L1-8,2019-01-21 15:45:00.0,BerPreFecMax,0.00182,CHCGILDTO6Y
MA6813400180,h_OCHCTP,10-L1-8,2019-01-21 15:45:00.0,PmdMin,2.26,CHCGILDTO6Y
MA6813400180,h_OCHCTP,10-L1-8,2019-01-21 15:45:00.0,SoPmdAve,3346.02,CHCGILDTO6Y
MA6813400180,h_OCHCTP,10-L1-9,2019-01-21 15:15:00.0,Qmin,9.28,CHCGILDTO6Y
MA6813400180,h_OCHCTP,10-L1-9,2019-01-21 15:15:00.0,PhaseCorrectionAve,-0.427,CHCGILDTO6Y
MA6813400180,h_OCHCTP,10-L1-9,2019-01-21 15:15:00.0,BerPreFecMax,0.0018,CHCGILDTO6Y
MA6813400180,h_OCHCTP,10-L1-9,2019-01-21 15:15:00.0,PmdMin,0.829,CHCGILDTO6Y
MA6813400180,h_OCHCTP,10-L1-9,2019-01-21 15:15:00.0,SoPmdAve,3438.78,CHCGILDTO6Y
MA6813400180,h_OCHCTP,10-L1-9,2019-01-21 15:30:00.0,Qmin,9.28,CHCGILDTO6Y
MA6813400180,h_OCHCTP,10-L1-9,2019-01-21 15:30:00.0,PhaseCorrectionAve,-0.305,CHCGILDTO6Y
MA6813400180,h_OCHCTP,10-L1-9,2019-01-21 15:30:00.0,BerPreFecMax,0.00181,CHCGILDTO6Y
MA6813400180,h_OCHCTP,10-L1-9,2019-01-21 15:30:00.0,PmdMin,1.03,CHCGILDTO6Y
MA6813400180,h_OCHCTP,10-L1-9,2019-01-21 15:30:00.0,SoPmdAve,3552.96,CHCGILDTO6Y
MA6813400180,h_OCHCTP,10-L1-9,2019-01-21 15:45:00.0,Qmin,9.27,CHCGILDTO6Y
MA6813400180,h_OCHCTP,10-L1-9,2019-01-21 15:45:00.0,PhaseCorrectionAve,-0.122,CHCGILDTO6Y
MA6813400180,h_OCHCTP,10-L1-9,2019-01-21 15:45:00.0,BerPreFecMax,0.00183,CHCGILDTO6Y
MA6813400180,h_OCHCTP,10-L1-9,2019-01-21 15:45:00.0,PmdMin,0.273,CHCGILDTO6Y
MA6813400180,h_OCHCTP,10-L1-9,2019-01-21 15:45:00.0,SoPmdAve,3514.28,CHCGILDTO6Y
MA6813400180,h_OCHCTP,10-L1-10,2019-01-21 15:15:00.0,Qmin,9.31,CHCGILDTO6Y
MA6813400180,h_OCHCTP,10-L1-10,2019-01-21 15:15:00.0,PhaseCorrectionAve,-0.427,CHCGILDTO6Y
MA6813400180,h_OCHCTP,10-L1-10,2019-01-21 15:15:00.0,BerPreFecMax,0.00175,CHCGILDTO6Y
MA6813400180,h_OCHCTP,10-L1-10,2019-01-21 15:15:00.0,PmdMin,2.07,CHCGILDTO6Y
MA6813400180,h_OCHCTP,10-L1-10,2019-01-21 15:15:00.0,SoPmdAve,3288.68,CHCGILDTO6Y
MA6813400180,h_OCHCTP,10-L1-10,2019-01-21 15:30:00.0,Qmin,9.31,CHCGILDTO6Y
MA6813400180,h_OCHCTP,10-L1-10,2019-01-21 15:30:00.0,PhaseCorrectionAve,-0.305,CHCGILDTO6Y
MA6813400180,h_OCHCTP,10-L1-10,2019-01-21 15:30:00.0,BerPreFecMax,0.00174,CHCGILDTO6Y
MA6813400180,h_OCHCTP,10-L1-10,2019-01-21 15:30:00.0,PmdMin,2.23,CHCGILDTO6Y
MA6813400180,h_OCHCTP,10-L1-10,2019-01-21 15:30:00.0,SoPmdAve,3308.61,CHCGILDTO6Y
MA6813400180,h_OCHCTP,10-L1-10,2019-01-21 15:45:00.0,Qmin,9.31,CHCGILDTO6Y
MA6813400180,h_OCHCTP,10-L1-10,2019-01-21 15:45:00.0,PhaseCorrectionAve,-0.122,CHCGILDTO6Y
MA6813400180,h_OCHCTP,10-L1-10,2019-01-21 15:45:00.0,BerPreFecMax,0.00175,CHCGILDTO6Y
MA6813400180,h_OCHCTP,10-L1-10,2019-01-21 15:45:00.0,PmdMin,4.07,CHCGILDTO6Y
MA6813400180,h_OCHCTP,10-L1-10,2019-01-21 15:45:00.0,SoPmdAve,3315.62,CHCGILDTO6Y
