MA6813400180,h_OCHCTP,11-L1-1,2019-02-04 16:15:00.0,Qmin,9.11,CHCGILDTO6Y
MA6813400180,h_OCHCTP,11-L1-1,2019-02-04 16:15:00.0,PhaseCorrectionAve,1.3e-07,CHCGILDTO6Y
MA6813400180,h_OCHCTP,11-L1-1,2019-02-04 16:15:00.0,BerPreFecMax,0.00215,CHCGILDTO6Y
MA6813400180,h_OCHCTP,11-L1-1,2019-02-04 16:15:00.0,PmdMin,0.957,CHCGILDTO6Y
MA6813400180,h_OCHCTP,11-L1-1,2019-02-04 16:15:00.0,SoPmdAve,3319.97,CHCGILDTO6Y
MA6813400180,h_OCHCTP,11-L1-1,2019-02-04 16:30:00.0,Qmin,9.14,CHCGILDTO6Y
MA6813400180,h_OCHCTP,11-L1-1,2019-02-04 16:30:00.0,PhaseCorrectionAve,1.4e-07,CHCGILDTO6Y
MA6813400180,h_OCHCTP,11-L1-1,2019-02-04 16:30:00.0,BerPreFecMax,0.0021,CHCGILDTO6Y
MA6813400180,h_OCHCTP,11-L1-1,2019-02-04 16:30:00.0,PmdMin,0.859,CHCGILDTO6Y
MA6813400180,h_OCHCTP,11-L1-1,2019-02-04 16:30:00.0,SoPmdAve,3381.31,CHCGILDTO6Y
MA6813400180,h_OCHCTP,11-L1-1,2019-02-04 16:45:00.0,Qmin,9.1,CHCGILDTO6Y
MA6813400180,h_OCHCTP,11-L1-1,2019-02-04 16:45:00.0,PhaseCorrectionAve,1.54e-07,CHCGILDTO6Y
MA6813400180,h_OCHCTP,11-L1-1,2019-02-04 16:45:00.0,BerPreFecMax,0.00218,CHCGILDTO6Y
MA6813400180,h_OCHCTP,11-L1-1,2019-02-04 16:45:00.0,PmdMin,1.47,CHCGILDTO6Y
MA6813400180,h_OCHCTP,11-L1-1,2019-02-04 16:45:00.0,SoPmdAve,3307.38,CHCGILDTO6Y
MA6813400180,h_OCHCTP,11-L1-2,2019-02-04 16:15:00.0,Qmin,9.04,CHCGILDTO6Y
MA6813400180,h_OCHCTP,11-L1-2,2019-02-04 16:15:00.0,PhaseCorrectionAve,3.7e-07,CHCGILDTO6Y
MA6813400180,h_OCHCTP,11-L1-2,2019-02-04 16:15:00.0,BerPreFecMax,0.00232,CHCGILDTO6Y
MA6813400180,h_OCHCTP,11-L1-2,2019-02-04 16:15:00.0,PmdMin,1.43,CHCGILDTO6Y
MA6813400180,h_OCHCTP,11-L1-2,2019-02-04 16:15:00.0,SoPmdAve,3218.57,CHCGILDTO6Y
MA6813400180,h_OCHCTP,11-L1-2,2019-02-04 16:30:00.0,Qmin,9.07,CHCGILDTO6Y
MA6813400180,h_OCHCTP,11-L1-2,2019-02-04 16:30:00.0,PhaseCorrectionAve,3.76e-07,CHCGILDTO6Y
MA6813400180,h_OCHCTP,11-L1-2,2019-02-04 16:30:00.0,BerPreFecMax,0.00224,CHCGILDTO6Y
MA6813400180,h_OCHCTP,11-L1-2,2019-02-04 16:30:00.0,PmdMin,0.924,CHCGILDTO6Y
MA6813400180,h_OCHCTP,11-L1-2,2019-02-04 16:30:00.0,SoPmdAve,3080.29,CHCGILDTO6Y
MA6813400180,h_OCHCTP,11-L1-2,2019-02-04 16:45:00.0,Qmin,8.99,CHCGILDTO6Y
MA6813400180,h_OCHCTP,11-L1-2,2019-02-04 16:45:00.0,PhaseCorrectionAve,4.4e-07,CHCGILDTO6Y
MA6813400180,h_OCHCTP,11-L1-2,2019-02-04 16:45:00.0,BerPreFecMax,0.00242,CHCGILDTO6Y
MA6813400180,h_OCHCTP,11-L1-2,2019-02-04 16:45:00.0,PmdMin,0.508,CHCGILDTO6Y
MA6813400180,h_OCHCTP,11-L1-2,2019-02-04 16:45:00.0,SoPmdAve,3065.21,CHCGILDTO6Y
MA6813400180,h_OCHCTP,11-L1-3,2019-02-04 16:15:00.0,Qmin,8.93,CHCGILDTO6Y
MA6813400180,h_OCHCTP,11-L1-3,2019-02-04 16:15:00.0,PhaseCorrectionAve,-0.061,CHCGILDTO6Y
MA6813400180,h_OCHCTP,11-L1-3,2019-02-04 16:15:00.0,BerPreFecMax,0.0026,CHCGILDTO6Y
MA6813400180,h_OCHCTP,11-L1-3,2019-02-04 16:15:00.0,PmdMin,0.695,CHCGILDTO6Y
MA6813400180,h_OCHCTP,11-L1-3,2019-02-04 16:15:00.0,SoPmdAve,2722.48,CHCGILDTO6Y
MA6813400180,h_OCHCTP,11-L1-3,2019-02-04 16:30:00.0,Qmin,8.96,CHCGILDTO6Y
MA6813400180,h_OCHCTP,11-L1-3,2019-02-04 16:30:00.0,PhaseCorrectionAve,3.73e-07,CHCGILDTO6Y
MA6813400180,h_OCHCTP,11-L1-3,2019-02-04 16:30:00.0,BerPreFecMax,0.00252,CHCGILDTO6Y
MA6813400180,h_OCHCTP,11-L1-3,2019-02-04 16:30:00.0,PmdMin,0.733,CHCGILDTO6Y
MA6813400180,h_OCHCTP,11-L1-3,2019-02-04 16:30:00.0,SoPmdAve,2747.75,CHCGILDTO6Y
MA6813400180,h_OCHCTP,11-L1-3,2019-02-04 16:45:00.0,Qmin,8.89,CHCGILDTO6Y
MA6813400180,h_OCHCTP,11-L1-3,2019-02-04 16:45:00.0,PhaseCorrectionAve,3.98e-07,CHCGILDTO6Y
MA6813400180,h_OCHCTP,11-L1-3,2019-02-04 16:45:00.0,BerPreFecMax,0.0027,CHCGILDTO6Y
MA6813400180,h_OCHCTP,11-L1-3,2019-02-04 16:45:00.0,PmdMin,0.921,CHCGILDTO6Y
MA6813400180,h_OCHCTP,11-L1-3,2019-02-04 16:45:00.0,SoPmdAve,2800.64,CHCGILDTO6Y
MA6813400180,h_OCHCTP,11-L1-4,2019-02-04 16:15:00.0,Qmin,8.69,CHCGILDTO6Y
MA6813400180,h_OCHCTP,11-L1-4,2019-02-04 16:15:00.0,PhaseCorrectionAve,-0.061,CHCGILDTO6Y
MA6813400180,h_OCHCTP,11-L1-4,2019-02-04 16:15:00.0,BerPreFecMax,0.00327,CHCGILDTO6Y
MA6813400180,h_OCHCTP,11-L1-4,2019-02-04 16:15:00.0,PmdMin,1.57,CHCGILDTO6Y
MA6813400180,h_OCHCTP,11-L1-4,2019-02-04 16:15:00.0,SoPmdAve,2926.76,CHCGILDTO6Y
MA6813400180,h_OCHCTP,11-L1-4,2019-02-04 16:30:00.0,Qmin,8.71,CHCGILDTO6Y
MA6813400180,h_OCHCTP,11-L1-4,2019-02-04 16:30:00.0,PhaseCorrectionAve,5.64e-07,CHCGILDTO6Y
MA6813400180,h_OCHCTP,11-L1-4,2019-02-04 16:30:00.0,BerPreFecMax,0.00321,CHCGILDTO6Y
MA6813400180,h_OCHCTP,11-L1-4,2019-02-04 16:30:00.0,PmdMin,0.596,CHCGILDTO6Y
MA6813400180,h_OCHCTP,11-L1-4,2019-02-04 16:30:00.0,SoPmdAve,2948.35,CHCGILDTO6Y
MA6813400180,h_OCHCTP,11-L1-4,2019-02-04 16:45:00.0,Qmin,8.72,CHCGILDTO6Y
MA6813400180,h_OCHCTP,11-L1-4,2019-02-04 16:45:00.0,PhaseCorrectionAve,5.55e-07,CHCGILDTO6Y
MA6813400180,h_OCHCTP,11-L1-4,2019-02-04 16:45:00.0,BerPreFecMax,0.00317,CHCGILDTO6Y
MA6813400180,h_OCHCTP,11-L1-4,2019-02-04 16:45:00.0,PmdMin,0.465,CHCGILDTO6Y
MA6813400180,h_OCHCTP,11-L1-4,2019-02-04 16:45:00.0,SoPmdAve,3073.98,CHCGILDTO6Y
MA6813400180,h_OCHCTP,11-L1-5,2019-02-04 16:15:00.0,Qmin,8.81,CHCGILDTO6Y
MA6813400180,h_OCHCTP,11-L1-5,2019-02-04 16:15:00.0,PhaseCorrectionAve,-0.122,CHCGILDTO6Y
MA6813400180,h_OCHCTP,11-L1-5,2019-02-04 16:15:00.0,BerPreFecMax,0.0029,CHCGILDTO6Y
MA6813400180,h_OCHCTP,11-L1-5,2019-02-04 16:15:00.0,PmdMin,0.941,CHCGILDTO6Y
MA6813400180,h_OCHCTP,11-L1-5,2019-02-04 16:15:00.0,SoPmdAve,2585.07,CHCGILDTO6Y
MA6813400180,h_OCHCTP,11-L1-5,2019-02-04 16:30:00.0,Qmin,8.8,CHCGILDTO6Y
MA6813400180,h_OCHCTP,11-L1-5,2019-02-04 16:30:00.0,PhaseCorrectionAve,1.93e-07,CHCGILDTO6Y
MA6813400180,h_OCHCTP,11-L1-5,2019-02-04 16:30:00.0,BerPreFecMax,0.00295,CHCGILDTO6Y
MA6813400180,h_OCHCTP,11-L1-5,2019-02-04 16:30:00.0,PmdMin,0.791,CHCGILDTO6Y
MA6813400180,h_OCHCTP,11-L1-5,2019-02-04 16:30:00.0,SoPmdAve,2638.91,CHCGILDTO6Y
MA6813400180,h_OCHCTP,11-L1-5,2019-02-04 16:45:00.0,Qmin,8.78,CHCGILDTO6Y
MA6813400180,h_OCHCTP,11-L1-5,2019-02-04 16:45:00.0,PhaseCorrectionAve,2.15e-07,CHCGILDTO6Y
MA6813400180,h_OCHCTP,11-L1-5,2019-02-04 16:45:00.0,BerPreFecMax,0.00301,CHCGILDTO6Y
MA6813400180,h_OCHCTP,11-L1-5,2019-02-04 16:45:00.0,PmdMin,0.573,CHCGILDTO6Y
MA6813400180,h_OCHCTP,11-L1-5,2019-02-04 16:45:00.0,SoPmdAve,2620.49,CHCGILDTO6Y
MA6813400180,h_OCHCTP,11-L1-6,2019-02-04 16:15:00.0,Qmin,8.72,CHCGILDTO6Y
MA6813400180,h_OCHCTP,11-L1-6,2019-02-04 16:15:00.0,PhaseCorrectionAve,-0.183,CHCGILDTO6Y
MA6813400180,h_OCHCTP,11-L1-6,2019-02-04 16:15:00.0,BerPreFecMax,0.00318,CHCGILDTO6Y
MA6813400180,h_OCHCTP,11-L1-6,2019-02-04 16:15:00.0,PmdMin,0.342,CHCGILDTO6Y
MA6813400180,h_OCHCTP,11-L1-6,2019-02-04 16:15:00.0,SoPmdAve,2533.19,CHCGILDTO6Y
MA6813400180,h_OCHCTP,11-L1-6,2019-02-04 16:30:00.0,Qmin,8.67,CHCGILDTO6Y
MA6813400180,h_OCHCTP,11-L1-6,2019-02-04 16:30:00.0,PhaseCorrectionAve,4.95e-07,CHCGILDTO6Y
MA6813400180,h_OCHCTP,11-L1-6,2019-02-04 16:30:00.0,BerPreFecMax,0.00332,CHCGILDTO6Y
MA6813400180,h_OCHCTP,11-L1-6,2019-02-04 16:30:00.0,PmdMin,0.744,CHCGILDTO6Y
MA6813400180,h_OCHCTP,11-L1-6,2019-02-04 16:30:00.0,SoPmdAve,2426.69,CHCGILDTO6Y
MA6813400180,h_OCHCTP,11-L1-6,2019-02-04 16:45:00.0,Qmin,8.73,CHCGILDTO6Y
MA6813400180,h_OCHCTP,11-L1-6,2019-02-04 16:45:00.0,PhaseCorrectionAve,4.55e-07,CHCGILDTO6Y
MA6813400180,h_OCHCTP,11-L1-6,2019-02-04 16:45:00.0,BerPreFecMax,0.00313,CHCGILDTO6Y
MA6813400180,h_OCHCTP,11-L1-6,2019-02-04 16:45:00.0,PmdMin,0.89,CHCGILDTO6Y
MA6813400180,h_OCHCTP,11-L1-6,2019-02-04 16:45:00.0,SoPmdAve,2467.24,CHCGILDTO6Y
MA6813400180,h_OCHCTP,11-L1-7,2019-02-04 16:15:00.0,Qmin,8.73,CHCGILDTO6Y
MA6813400180,h_OCHCTP,11-L1-7,2019-02-04 16:15:00.0,PhaseCorrectionAve,-0.183,CHCGILDTO6Y
MA6813400180,h_OCHCTP,11-L1-7,2019-02-04 16:15:00.0,BerPreFecMax,0.00313,CHCGILDTO6Y
MA6813400180,h_OCHCTP,11-L1-7,2019-02-04 16:15:00.0,PmdMin,1.09,CHCGILDTO6Y
MA6813400180,h_OCHCTP,11-L1-7,2019-02-04 16:15:00.0,SoPmdAve,3061.86,CHCGILDTO6Y
MA6813400180,h_OCHCTP,11-L1-7,2019-02-04 16:30:00.0,Qmin,8.74,CHCGILDTO6Y
MA6813400180,h_OCHCTP,11-L1-7,2019-02-04 16:30:00.0,PhaseCorrectionAve,2.86e-07,CHCGILDTO6Y
MA6813400180,h_OCHCTP,11-L1-7,2019-02-04 16:30:00.0,BerPreFecMax,0.00312,CHCGILDTO6Y
MA6813400180,h_OCHCTP,11-L1-7,2019-02-04 16:30:00.0,PmdMin,0.856,CHCGILDTO6Y
MA6813400180,h_OCHCTP,11-L1-7,2019-02-04 16:30:00.0,SoPmdAve,2942.04,CHCGILDTO6Y
MA6813400180,h_OCHCTP,11-L1-7,2019-02-04 16:45:00.0,Qmin,8.78,CHCGILDTO6Y
MA6813400180,h_OCHCTP,11-L1-7,2019-02-04 16:45:00.0,PhaseCorrectionAve,-0.122,CHCGILDTO6Y
MA6813400180,h_OCHCTP,11-L1-7,2019-02-04 16:45:00.0,BerPreFecMax,0.00298,CHCGILDTO6Y
MA6813400180,h_OCHCTP,11-L1-7,2019-02-04 16:45:00.0,PmdMin,0.996,CHCGILDTO6Y
MA6813400180,h_OCHCTP,11-L1-7,2019-02-04 16:45:00.0,SoPmdAve,2955.86,CHCGILDTO6Y
MA6813400180,h_OCHCTP,11-L1-8,2019-02-04 16:15:00.0,Qmin,8.85,CHCGILDTO6Y
MA6813400180,h_OCHCTP,11-L1-8,2019-02-04 16:15:00.0,PhaseCorrectionAve,-0.183,CHCGILDTO6Y
MA6813400180,h_OCHCTP,11-L1-8,2019-02-04 16:15:00.0,BerPreFecMax,0.00279,CHCGILDTO6Y
MA6813400180,h_OCHCTP,11-L1-8,2019-02-04 16:15:00.0,PmdMin,0.762,CHCGILDTO6Y
MA6813400180,h_OCHCTP,11-L1-8,2019-02-04 16:15:00.0,SoPmdAve,3063.1,CHCGILDTO6Y
MA6813400180,h_OCHCTP,11-L1-8,2019-02-04 16:30:00.0,Qmin,8.88,CHCGILDTO6Y
MA6813400180,h_OCHCTP,11-L1-8,2019-02-04 16:30:00.0,PhaseCorrectionAve,7.64e-07,CHCGILDTO6Y
MA6813400180,h_OCHCTP,11-L1-8,2019-02-04 16:30:00.0,BerPreFecMax,0.00271,CHCGILDTO6Y
MA6813400180,h_OCHCTP,11-L1-8,2019-02-04 16:30:00.0,PmdMin,0.525,CHCGILDTO6Y
MA6813400180,h_OCHCTP,11-L1-8,2019-02-04 16:30:00.0,SoPmdAve,3093.36,CHCGILDTO6Y
MA6813400180,h_OCHCTP,11-L1-8,2019-02-04 16:45:00.0,Qmin,8.91,CHCGILDTO6Y
MA6813400180,h_OCHCTP,11-L1-8,2019-02-04 16:45:00.0,PhaseCorrectionAve,-0.122,CHCGILDTO6Y
MA6813400180,h_OCHCTP,11-L1-8,2019-02-04 16:45:00.0,BerPreFecMax,0.00264,CHCGILDTO6Y
MA6813400180,h_OCHCTP,11-L1-8,2019-02-04 16:45:00.0,PmdMin,0.762,CHCGILDTO6Y
MA6813400180,h_OCHCTP,11-L1-8,2019-02-04 16:45:00.0,SoPmdAve,3106.86,CHCGILDTO6Y
MA6813400180,h_OCHCTP,11-L1-9,2019-02-04 16:15:00.0,Qmin,8.81,CHCGILDTO6Y
MA6813400180,h_OCHCTP,11-L1-9,2019-02-04 16:15:00.0,PhaseCorrectionAve,-0.183,CHCGILDTO6Y
MA6813400180,h_OCHCTP,11-L1-9,2019-02-04 16:15:00.0,BerPreFecMax,0.0029,CHCGILDTO6Y
MA6813400180,h_OCHCTP,11-L1-9,2019-02-04 16:15:00.0,PmdMin,0.702,CHCGILDTO6Y
MA6813400180,h_OCHCTP,11-L1-9,2019-02-04 16:15:00.0,SoPmdAve,3089.98,CHCGILDTO6Y
MA6813400180,h_OCHCTP,11-L1-9,2019-02-04 16:30:00.0,Qmin,8.82,CHCGILDTO6Y
MA6813400180,h_OCHCTP,11-L1-9,2019-02-04 16:30:00.0,PhaseCorrectionAve,1.26e-06,CHCGILDTO6Y
MA6813400180,h_OCHCTP,11-L1-9,2019-02-04 16:30:00.0,BerPreFecMax,0.00288,CHCGILDTO6Y
MA6813400180,h_OCHCTP,11-L1-9,2019-02-04 16:30:00.0,PmdMin,1.21,CHCGILDTO6Y
MA6813400180,h_OCHCTP,11-L1-9,2019-02-04 16:30:00.0,SoPmdAve,2960.68,CHCGILDTO6Y
MA6813400180,h_OCHCTP,11-L1-9,2019-02-04 16:45:00.0,Qmin,8.78,CHCGILDTO6Y
MA6813400180,h_OCHCTP,11-L1-9,2019-02-04 16:45:00.0,PhaseCorrectionAve,-0.122,CHCGILDTO6Y
MA6813400180,h_OCHCTP,11-L1-9,2019-02-04 16:45:00.0,BerPreFecMax,0.00299,CHCGILDTO6Y
MA6813400180,h_OCHCTP,11-L1-9,2019-02-04 16:45:00.0,PmdMin,1.13,CHCGILDTO6Y
MA6813400180,h_OCHCTP,11-L1-9,2019-02-04 16:45:00.0,SoPmdAve,2917.83,CHCGILDTO6Y
MA6813400180,h_OCHCTP,11-L1-10,2019-02-04 16:15:00.0,Qmin,8.92,CHCGILDTO6Y
MA6813400180,h_OCHCTP,11-L1-10,2019-02-04 16:15:00.0,PhaseCorrectionAve,-0.183,CHCGILDTO6Y
MA6813400180,h_OCHCTP,11-L1-10,2019-02-04 16:15:00.0,BerPreFecMax,0.0026,CHCGILDTO6Y
MA6813400180,h_OCHCTP,11-L1-10,2019-02-04 16:15:00.0,PmdMin,0.497,CHCGILDTO6Y
MA6813400180,h_OCHCTP,11-L1-10,2019-02-04 16:15:00.0,SoPmdAve,3111.28,CHCGILDTO6Y
MA6813400180,h_OCHCTP,11-L1-10,2019-02-04 16:30:00.0,Qmin,8.98,CHCGILDTO6Y
MA6813400180,h_OCHCTP,11-L1-10,2019-02-04 16:30:00.0,PhaseCorrectionAve,1.57e-06,CHCGILDTO6Y
MA6813400180,h_OCHCTP,11-L1-10,2019-02-04 16:30:00.0,BerPreFecMax,0.00247,CHCGILDTO6Y
MA6813400180,h_OCHCTP,11-L1-10,2019-02-04 16:30:00.0,PmdMin,0.185,CHCGILDTO6Y
MA6813400180,h_OCHCTP,11-L1-10,2019-02-04 16:30:00.0,SoPmdAve,3009.5,CHCGILDTO6Y
MA6813400180,h_OCHCTP,11-L1-10,2019-02-04 16:45:00.0,Qmin,8.9,CHCGILDTO6Y
MA6813400180,h_OCHCTP,11-L1-10,2019-02-04 16:45:00.0,PhaseCorrectionAve,-0.122,CHCGILDTO6Y
MA6813400180,h_OCHCTP,11-L1-10,2019-02-04 16:45:00.0,BerPreFecMax,0.00268,CHCGILDTO6Y
MA6813400180,h_OCHCTP,11-L1-10,2019-02-04 16:45:00.0,PmdMin,1.04,CHCGILDTO6Y
MA6813400180,h_OCHCTP,11-L1-10,2019-02-04 16:45:00.0,SoPmdAve,3088.79,CHCGILDTO6Y
MA6813400180,h_OCHCTP,10-L1-1,2019-02-04 16:15:00.0,Qmin,9.45,CHCGILDTO6Y
MA6813400180,h_OCHCTP,10-L1-1,2019-02-04 16:15:00.0,PhaseCorrectionAve,4.51e-07,CHCGILDTO6Y
MA6813400180,h_OCHCTP,10-L1-1,2019-02-04 16:15:00.0,BerPreFecMax,0.00149,CHCGILDTO6Y
MA6813400180,h_OCHCTP,10-L1-1,2019-02-04 16:15:00.0,PmdMin,1.24,CHCGILDTO6Y
MA6813400180,h_OCHCTP,10-L1-1,2019-02-04 16:15:00.0,SoPmdAve,3654.74,CHCGILDTO6Y
MA6813400180,h_OCHCTP,10-L1-1,2019-02-04 16:30:00.0,Qmin,9.45,CHCGILDTO6Y
MA6813400180,h_OCHCTP,10-L1-1,2019-02-04 16:30:00.0,PhaseCorrectionAve,4.56e-07,CHCGILDTO6Y
MA6813400180,h_OCHCTP,10-L1-1,2019-02-04 16:30:00.0,BerPreFecMax,0.0015,CHCGILDTO6Y
MA6813400180,h_OCHCTP,10-L1-1,2019-02-04 16:30:00.0,PmdMin,1.36,CHCGILDTO6Y
MA6813400180,h_OCHCTP,10-L1-1,2019-02-04 16:30:00.0,SoPmdAve,3524.25,CHCGILDTO6Y
MA6813400180,h_OCHCTP,10-L1-1,2019-02-04 16:45:00.0,Qmin,9.46,CHCGILDTO6Y
MA6813400180,h_OCHCTP,10-L1-1,2019-02-04 16:45:00.0,PhaseCorrectionAve,4.61e-07,CHCGILDTO6Y
MA6813400180,h_OCHCTP,10-L1-1,2019-02-04 16:45:00.0,BerPreFecMax,0.00148,CHCGILDTO6Y
MA6813400180,h_OCHCTP,10-L1-1,2019-02-04 16:45:00.0,PmdMin,0.597,CHCGILDTO6Y
MA6813400180,h_OCHCTP,10-L1-1,2019-02-04 16:45:00.0,SoPmdAve,3505.93,CHCGILDTO6Y
MA6813400180,h_OCHCTP,10-L1-2,2019-02-04 16:15:00.0,Qmin,9.17,CHCGILDTO6Y
MA6813400180,h_OCHCTP,10-L1-2,2019-02-04 16:15:00.0,PhaseCorrectionAve,3.46e-07,CHCGILDTO6Y
MA6813400180,h_OCHCTP,10-L1-2,2019-02-04 16:15:00.0,BerPreFecMax,0.00203,CHCGILDTO6Y
MA6813400180,h_OCHCTP,10-L1-2,2019-02-04 16:15:00.0,PmdMin,8.58,CHCGILDTO6Y
MA6813400180,h_OCHCTP,10-L1-2,2019-02-04 16:15:00.0,SoPmdAve,3421.85,CHCGILDTO6Y
MA6813400180,h_OCHCTP,10-L1-2,2019-02-04 16:30:00.0,Qmin,9.17,CHCGILDTO6Y
MA6813400180,h_OCHCTP,10-L1-2,2019-02-04 16:30:00.0,PhaseCorrectionAve,3.46e-07,CHCGILDTO6Y
MA6813400180,h_OCHCTP,10-L1-2,2019-02-04 16:30:00.0,BerPreFecMax,0.00202,CHCGILDTO6Y
MA6813400180,h_OCHCTP,10-L1-2,2019-02-04 16:30:00.0,PmdMin,5.67,CHCGILDTO6Y
MA6813400180,h_OCHCTP,10-L1-2,2019-02-04 16:30:00.0,SoPmdAve,3314.99,CHCGILDTO6Y
MA6813400180,h_OCHCTP,10-L1-2,2019-02-04 16:45:00.0,Qmin,9.18,CHCGILDTO6Y
MA6813400180,h_OCHCTP,10-L1-2,2019-02-04 16:45:00.0,PhaseCorrectionAve,-0.061,CHCGILDTO6Y
MA6813400180,h_OCHCTP,10-L1-2,2019-02-04 16:45:00.0,BerPreFecMax,0.00202,CHCGILDTO6Y
MA6813400180,h_OCHCTP,10-L1-2,2019-02-04 16:45:00.0,PmdMin,5.84,CHCGILDTO6Y
MA6813400180,h_OCHCTP,10-L1-2,2019-02-04 16:45:00.0,SoPmdAve,3417.31,CHCGILDTO6Y
MA6813400180,h_OCHCTP,10-L1-3,2019-02-04 16:15:00.0,Qmin,8.91,CHCGILDTO6Y
MA6813400180,h_OCHCTP,10-L1-3,2019-02-04 16:15:00.0,PhaseCorrectionAve,5.31e-07,CHCGILDTO6Y
MA6813400180,h_OCHCTP,10-L1-3,2019-02-04 16:15:00.0,BerPreFecMax,0.00264,CHCGILDTO6Y
MA6813400180,h_OCHCTP,10-L1-3,2019-02-04 16:15:00.0,PmdMin,2.51,CHCGILDTO6Y
MA6813400180,h_OCHCTP,10-L1-3,2019-02-04 16:15:00.0,SoPmdAve,2940.49,CHCGILDTO6Y
MA6813400180,h_OCHCTP,10-L1-3,2019-02-04 16:30:00.0,Qmin,8.91,CHCGILDTO6Y
MA6813400180,h_OCHCTP,10-L1-3,2019-02-04 16:30:00.0,PhaseCorrectionAve,5.34e-07,CHCGILDTO6Y
MA6813400180,h_OCHCTP,10-L1-3,2019-02-04 16:30:00.0,BerPreFecMax,0.00265,CHCGILDTO6Y
MA6813400180,h_OCHCTP,10-L1-3,2019-02-04 16:30:00.0,PmdMin,2.3,CHCGILDTO6Y
MA6813400180,h_OCHCTP,10-L1-3,2019-02-04 16:30:00.0,SoPmdAve,2899.29,CHCGILDTO6Y
MA6813400180,h_OCHCTP,10-L1-3,2019-02-04 16:45:00.0,Qmin,8.9,CHCGILDTO6Y
MA6813400180,h_OCHCTP,10-L1-3,2019-02-04 16:45:00.0,PhaseCorrectionAve,-0.061,CHCGILDTO6Y
MA6813400180,h_OCHCTP,10-L1-3,2019-02-04 16:45:00.0,BerPreFecMax,0.00265,CHCGILDTO6Y
MA6813400180,h_OCHCTP,10-L1-3,2019-02-04 16:45:00.0,PmdMin,4.23,CHCGILDTO6Y
MA6813400180,h_OCHCTP,10-L1-3,2019-02-04 16:45:00.0,SoPmdAve,2876.72,CHCGILDTO6Y
MA6813400180,h_OCHCTP,10-L1-4,2019-02-04 16:15:00.0,Qmin,8.34,CHCGILDTO6Y
MA6813400180,h_OCHCTP,10-L1-4,2019-02-04 16:15:00.0,PhaseCorrectionAve,2.5e-06,CHCGILDTO6Y
MA6813400180,h_OCHCTP,10-L1-4,2019-02-04 16:15:00.0,BerPreFecMax,0.00449,CHCGILDTO6Y
MA6813400180,h_OCHCTP,10-L1-4,2019-02-04 16:15:00.0,PmdMin,0.903,CHCGILDTO6Y
MA6813400180,h_OCHCTP,10-L1-4,2019-02-04 16:15:00.0,SoPmdAve,3102.18,CHCGILDTO6Y
MA6813400180,h_OCHCTP,10-L1-4,2019-02-04 16:30:00.0,Qmin,8.35,CHCGILDTO6Y
MA6813400180,h_OCHCTP,10-L1-4,2019-02-04 16:30:00.0,PhaseCorrectionAve,2.32e-06,CHCGILDTO6Y
MA6813400180,h_OCHCTP,10-L1-4,2019-02-04 16:30:00.0,BerPreFecMax,0.00444,CHCGILDTO6Y
MA6813400180,h_OCHCTP,10-L1-4,2019-02-04 16:30:00.0,PmdMin,1.47,CHCGILDTO6Y
MA6813400180,h_OCHCTP,10-L1-4,2019-02-04 16:30:00.0,SoPmdAve,3144.81,CHCGILDTO6Y
MA6813400180,h_OCHCTP,10-L1-4,2019-02-04 16:45:00.0,Qmin,8.36,CHCGILDTO6Y
MA6813400180,h_OCHCTP,10-L1-4,2019-02-04 16:45:00.0,PhaseCorrectionAve,-0.122,CHCGILDTO6Y
MA6813400180,h_OCHCTP,10-L1-4,2019-02-04 16:45:00.0,BerPreFecMax,0.00443,CHCGILDTO6Y
MA6813400180,h_OCHCTP,10-L1-4,2019-02-04 16:45:00.0,PmdMin,1.11,CHCGILDTO6Y
MA6813400180,h_OCHCTP,10-L1-4,2019-02-04 16:45:00.0,SoPmdAve,3121.82,CHCGILDTO6Y
MA6813400180,h_OCHCTP,10-L1-5,2019-02-04 16:15:00.0,Qmin,8.56,CHCGILDTO6Y
MA6813400180,h_OCHCTP,10-L1-5,2019-02-04 16:15:00.0,PhaseCorrectionAve,1.42e-06,CHCGILDTO6Y
MA6813400180,h_OCHCTP,10-L1-5,2019-02-04 16:15:00.0,BerPreFecMax,0.00368,CHCGILDTO6Y
MA6813400180,h_OCHCTP,10-L1-5,2019-02-04 16:15:00.0,PmdMin,1.35,CHCGILDTO6Y
MA6813400180,h_OCHCTP,10-L1-5,2019-02-04 16:15:00.0,SoPmdAve,2796.23,CHCGILDTO6Y
MA6813400180,h_OCHCTP,10-L1-5,2019-02-04 16:30:00.0,Qmin,8.55,CHCGILDTO6Y
MA6813400180,h_OCHCTP,10-L1-5,2019-02-04 16:30:00.0,PhaseCorrectionAve,1.48e-06,CHCGILDTO6Y
MA6813400180,h_OCHCTP,10-L1-5,2019-02-04 16:30:00.0,BerPreFecMax,0.00373,CHCGILDTO6Y
MA6813400180,h_OCHCTP,10-L1-5,2019-02-04 16:30:00.0,PmdMin,0.746,CHCGILDTO6Y
MA6813400180,h_OCHCTP,10-L1-5,2019-02-04 16:30:00.0,SoPmdAve,2754.76,CHCGILDTO6Y
MA6813400180,h_OCHCTP,10-L1-5,2019-02-04 16:45:00.0,Qmin,8.54,CHCGILDTO6Y
MA6813400180,h_OCHCTP,10-L1-5,2019-02-04 16:45:00.0,PhaseCorrectionAve,-0.122,CHCGILDTO6Y
MA6813400180,h_OCHCTP,10-L1-5,2019-02-04 16:45:00.0,BerPreFecMax,0.00374,CHCGILDTO6Y
MA6813400180,h_OCHCTP,10-L1-5,2019-02-04 16:45:00.0,PmdMin,1.2,CHCGILDTO6Y
MA6813400180,h_OCHCTP,10-L1-5,2019-02-04 16:45:00.0,SoPmdAve,2842.6,CHCGILDTO6Y
MA6813400180,h_OCHCTP,10-L1-6,2019-02-04 16:15:00.0,Qmin,8.79,CHCGILDTO6Y
MA6813400180,h_OCHCTP,10-L1-6,2019-02-04 16:15:00.0,PhaseCorrectionAve,8.59e-07,CHCGILDTO6Y
MA6813400180,h_OCHCTP,10-L1-6,2019-02-04 16:15:00.0,BerPreFecMax,0.00297,CHCGILDTO6Y
MA6813400180,h_OCHCTP,10-L1-6,2019-02-04 16:15:00.0,PmdMin,1.66,CHCGILDTO6Y
MA6813400180,h_OCHCTP,10-L1-6,2019-02-04 16:15:00.0,SoPmdAve,2782.94,CHCGILDTO6Y
MA6813400180,h_OCHCTP,10-L1-6,2019-02-04 16:30:00.0,Qmin,8.76,CHCGILDTO6Y
MA6813400180,h_OCHCTP,10-L1-6,2019-02-04 16:30:00.0,PhaseCorrectionAve,8.35e-07,CHCGILDTO6Y
MA6813400180,h_OCHCTP,10-L1-6,2019-02-04 16:30:00.0,BerPreFecMax,0.00305,CHCGILDTO6Y
MA6813400180,h_OCHCTP,10-L1-6,2019-02-04 16:30:00.0,PmdMin,1.89,CHCGILDTO6Y
MA6813400180,h_OCHCTP,10-L1-6,2019-02-04 16:30:00.0,SoPmdAve,2806.21,CHCGILDTO6Y
MA6813400180,h_OCHCTP,10-L1-6,2019-02-04 16:45:00.0,Qmin,8.78,CHCGILDTO6Y
MA6813400180,h_OCHCTP,10-L1-6,2019-02-04 16:45:00.0,PhaseCorrectionAve,-0.122,CHCGILDTO6Y
MA6813400180,h_OCHCTP,10-L1-6,2019-02-04 16:45:00.0,BerPreFecMax,0.00299,CHCGILDTO6Y
MA6813400180,h_OCHCTP,10-L1-6,2019-02-04 16:45:00.0,PmdMin,1.31,CHCGILDTO6Y
MA6813400180,h_OCHCTP,10-L1-6,2019-02-04 16:45:00.0,SoPmdAve,2734.25,CHCGILDTO6Y
MA6813400180,h_OCHCTP,10-L1-7,2019-02-04 16:15:00.0,Qmin,8.84,CHCGILDTO6Y
MA6813400180,h_OCHCTP,10-L1-7,2019-02-04 16:15:00.0,PhaseCorrectionAve,-0.061,CHCGILDTO6Y
MA6813400180,h_OCHCTP,10-L1-7,2019-02-04 16:15:00.0,BerPreFecMax,0.00282,CHCGILDTO6Y
MA6813400180,h_OCHCTP,10-L1-7,2019-02-04 16:15:00.0,PmdMin,1.68,CHCGILDTO6Y
MA6813400180,h_OCHCTP,10-L1-7,2019-02-04 16:15:00.0,SoPmdAve,3491.82,CHCGILDTO6Y
MA6813400180,h_OCHCTP,10-L1-7,2019-02-04 16:30:00.0,Qmin,8.87,CHCGILDTO6Y
MA6813400180,h_OCHCTP,10-L1-7,2019-02-04 16:30:00.0,PhaseCorrectionAve,5.45e-07,CHCGILDTO6Y
MA6813400180,h_OCHCTP,10-L1-7,2019-02-04 16:30:00.0,BerPreFecMax,0.00274,CHCGILDTO6Y
MA6813400180,h_OCHCTP,10-L1-7,2019-02-04 16:30:00.0,PmdMin,1.79,CHCGILDTO6Y
MA6813400180,h_OCHCTP,10-L1-7,2019-02-04 16:30:00.0,SoPmdAve,3444.6,CHCGILDTO6Y
MA6813400180,h_OCHCTP,10-L1-7,2019-02-04 16:45:00.0,Qmin,8.86,CHCGILDTO6Y
MA6813400180,h_OCHCTP,10-L1-7,2019-02-04 16:45:00.0,PhaseCorrectionAve,-0.122,CHCGILDTO6Y
MA6813400180,h_OCHCTP,10-L1-7,2019-02-04 16:45:00.0,BerPreFecMax,0.00276,CHCGILDTO6Y
MA6813400180,h_OCHCTP,10-L1-7,2019-02-04 16:45:00.0,PmdMin,1.82,CHCGILDTO6Y
MA6813400180,h_OCHCTP,10-L1-7,2019-02-04 16:45:00.0,SoPmdAve,3565.78,CHCGILDTO6Y
MA6813400180,h_OCHCTP,10-L1-8,2019-02-04 16:15:00.0,Qmin,9.3,CHCGILDTO6Y
MA6813400180,h_OCHCTP,10-L1-8,2019-02-04 16:15:00.0,PhaseCorrectionAve,-0.061,CHCGILDTO6Y
MA6813400180,h_OCHCTP,10-L1-8,2019-02-04 16:15:00.0,BerPreFecMax,0.00177,CHCGILDTO6Y
MA6813400180,h_OCHCTP,10-L1-8,2019-02-04 16:15:00.0,PmdMin,2.02,CHCGILDTO6Y
MA6813400180,h_OCHCTP,10-L1-8,2019-02-04 16:15:00.0,SoPmdAve,3352.54,CHCGILDTO6Y
MA6813400180,h_OCHCTP,10-L1-8,2019-02-04 16:30:00.0,Qmin,9.32,CHCGILDTO6Y
MA6813400180,h_OCHCTP,10-L1-8,2019-02-04 16:30:00.0,PhaseCorrectionAve,1.38e-06,CHCGILDTO6Y
MA6813400180,h_OCHCTP,10-L1-8,2019-02-04 16:30:00.0,BerPreFecMax,0.00173,CHCGILDTO6Y
MA6813400180,h_OCHCTP,10-L1-8,2019-02-04 16:30:00.0,PmdMin,1.87,CHCGILDTO6Y
MA6813400180,h_OCHCTP,10-L1-8,2019-02-04 16:30:00.0,SoPmdAve,3274.99,CHCGILDTO6Y
MA6813400180,h_OCHCTP,10-L1-8,2019-02-04 16:45:00.0,Qmin,9.32,CHCGILDTO6Y
MA6813400180,h_OCHCTP,10-L1-8,2019-02-04 16:45:00.0,PhaseCorrectionAve,-0.122,CHCGILDTO6Y
MA6813400180,h_OCHCTP,10-L1-8,2019-02-04 16:45:00.0,BerPreFecMax,0.00172,CHCGILDTO6Y
MA6813400180,h_OCHCTP,10-L1-8,2019-02-04 16:45:00.0,PmdMin,2.67,CHCGILDTO6Y
MA6813400180,h_OCHCTP,10-L1-8,2019-02-04 16:45:00.0,SoPmdAve,3406.6,CHCGILDTO6Y
MA6813400180,h_OCHCTP,10-L1-9,2019-02-04 16:15:00.0,Qmin,9.31,CHCGILDTO6Y
MA6813400180,h_OCHCTP,10-L1-9,2019-02-04 16:15:00.0,PhaseCorrectionAve,-0.122,CHCGILDTO6Y
MA6813400180,h_OCHCTP,10-L1-9,2019-02-04 16:15:00.0,BerPreFecMax,0.00174,CHCGILDTO6Y
MA6813400180,h_OCHCTP,10-L1-9,2019-02-04 16:15:00.0,PmdMin,4.33,CHCGILDTO6Y
MA6813400180,h_OCHCTP,10-L1-9,2019-02-04 16:15:00.0,SoPmdAve,3325.82,CHCGILDTO6Y
MA6813400180,h_OCHCTP,10-L1-9,2019-02-04 16:30:00.0,Qmin,9.32,CHCGILDTO6Y
MA6813400180,h_OCHCTP,10-L1-9,2019-02-04 16:30:00.0,PhaseCorrectionAve,2.33e-06,CHCGILDTO6Y
MA6813400180,h_OCHCTP,10-L1-9,2019-02-04 16:30:00.0,BerPreFecMax,0.00173,CHCGILDTO6Y
MA6813400180,h_OCHCTP,10-L1-9,2019-02-04 16:30:00.0,PmdMin,3.34,CHCGILDTO6Y
MA6813400180,h_OCHCTP,10-L1-9,2019-02-04 16:30:00.0,SoPmdAve,3206.7,CHCGILDTO6Y
MA6813400180,h_OCHCTP,10-L1-9,2019-02-04 16:45:00.0,Qmin,9.33,CHCGILDTO6Y
MA6813400180,h_OCHCTP,10-L1-9,2019-02-04 16:45:00.0,PhaseCorrectionAve,-0.122,CHCGILDTO6Y
MA6813400180,h_OCHCTP,10-L1-9,2019-02-04 16:45:00.0,BerPreFecMax,0.00171,CHCGILDTO6Y
MA6813400180,h_OCHCTP,10-L1-9,2019-02-04 16:45:00.0,PmdMin,2.88,CHCGILDTO6Y
MA6813400180,h_OCHCTP,10-L1-9,2019-02-04 16:45:00.0,SoPmdAve,3248.63,CHCGILDTO6Y
MA6813400180,h_OCHCTP,10-L1-10,2019-02-04 16:15:00.0,Qmin,9.38,CHCGILDTO6Y
MA6813400180,h_OCHCTP,10-L1-10,2019-02-04 16:15:00.0,PhaseCorrectionAve,-0.122,CHCGILDTO6Y
MA6813400180,h_OCHCTP,10-L1-10,2019-02-04 16:15:00.0,BerPreFecMax,0.00162,CHCGILDTO6Y
MA6813400180,h_OCHCTP,10-L1-10,2019-02-04 16:15:00.0,PmdMin,9.43,CHCGILDTO6Y
MA6813400180,h_OCHCTP,10-L1-10,2019-02-04 16:15:00.0,SoPmdAve,3206.11,CHCGILDTO6Y
MA6813400180,h_OCHCTP,10-L1-10,2019-02-04 16:30:00.0,Qmin,9.38,CHCGILDTO6Y
MA6813400180,h_OCHCTP,10-L1-10,2019-02-04 16:30:00.0,PhaseCorrectionAve,-0.061,CHCGILDTO6Y
MA6813400180,h_OCHCTP,10-L1-10,2019-02-04 16:30:00.0,BerPreFecMax,0.00162,CHCGILDTO6Y
MA6813400180,h_OCHCTP,10-L1-10,2019-02-04 16:30:00.0,PmdMin,9.13,CHCGILDTO6Y
MA6813400180,h_OCHCTP,10-L1-10,2019-02-04 16:30:00.0,SoPmdAve,3217.63,CHCGILDTO6Y
MA6813400180,h_OCHCTP,10-L1-10,2019-02-04 16:45:00.0,Qmin,9.37,CHCGILDTO6Y
MA6813400180,h_OCHCTP,10-L1-10,2019-02-04 16:45:00.0,PhaseCorrectionAve,-0.122,CHCGILDTO6Y
MA6813400180,h_OCHCTP,10-L1-10,2019-02-04 16:45:00.0,BerPreFecMax,0.00163,CHCGILDTO6Y
MA6813400180,h_OCHCTP,10-L1-10,2019-02-04 16:45:00.0,PmdMin,6.11,CHCGILDTO6Y
MA6813400180,h_OCHCTP,10-L1-10,2019-02-04 16:45:00.0,SoPmdAve,3157.74,CHCGILDTO6Y
MA6813400180,h_OCHCTP,13-L1-1,2019-02-04 16:15:00.0,Qmin,9.11,CHCGILDTO6Y
MA6813400180,h_OCHCTP,13-L1-1,2019-02-04 16:15:00.0,PhaseCorrectionAve,2.57e-07,CHCGILDTO6Y
MA6813400180,h_OCHCTP,13-L1-1,2019-02-04 16:15:00.0,BerPreFecMax,0.00216,CHCGILDTO6Y
MA6813400180,h_OCHCTP,13-L1-1,2019-02-04 16:15:00.0,PmdMin,0.721,CHCGILDTO6Y
MA6813400180,h_OCHCTP,13-L1-1,2019-02-04 16:15:00.0,SoPmdAve,3562.09,CHCGILDTO6Y
MA6813400180,h_OCHCTP,13-L1-1,2019-02-04 16:30:00.0,Qmin,9.14,CHCGILDTO6Y
MA6813400180,h_OCHCTP,13-L1-1,2019-02-04 16:30:00.0,PhaseCorrectionAve,2.84e-07,CHCGILDTO6Y
MA6813400180,h_OCHCTP,13-L1-1,2019-02-04 16:30:00.0,BerPreFecMax,0.00209,CHCGILDTO6Y
MA6813400180,h_OCHCTP,13-L1-1,2019-02-04 16:30:00.0,PmdMin,1.19,CHCGILDTO6Y
MA6813400180,h_OCHCTP,13-L1-1,2019-02-04 16:30:00.0,SoPmdAve,3577.65,CHCGILDTO6Y
MA6813400180,h_OCHCTP,13-L1-1,2019-02-04 16:45:00.0,Qmin,9.1,CHCGILDTO6Y
MA6813400180,h_OCHCTP,13-L1-1,2019-02-04 16:45:00.0,PhaseCorrectionAve,3.07e-07,CHCGILDTO6Y
MA6813400180,h_OCHCTP,13-L1-1,2019-02-04 16:45:00.0,BerPreFecMax,0.00217,CHCGILDTO6Y
MA6813400180,h_OCHCTP,13-L1-1,2019-02-04 16:45:00.0,PmdMin,1.63,CHCGILDTO6Y
MA6813400180,h_OCHCTP,13-L1-1,2019-02-04 16:45:00.0,SoPmdAve,3547.79,CHCGILDTO6Y
MA6813400180,h_OCHCTP,13-L1-2,2019-02-04 16:15:00.0,Qmin,9.08,CHCGILDTO6Y
MA6813400180,h_OCHCTP,13-L1-2,2019-02-04 16:15:00.0,PhaseCorrectionAve,3.1e-07,CHCGILDTO6Y
MA6813400180,h_OCHCTP,13-L1-2,2019-02-04 16:15:00.0,BerPreFecMax,0.00222,CHCGILDTO6Y
MA6813400180,h_OCHCTP,13-L1-2,2019-02-04 16:15:00.0,PmdMin,1.01,CHCGILDTO6Y
MA6813400180,h_OCHCTP,13-L1-2,2019-02-04 16:15:00.0,SoPmdAve,3587.33,CHCGILDTO6Y
MA6813400180,h_OCHCTP,13-L1-2,2019-02-04 16:30:00.0,Qmin,9.14,CHCGILDTO6Y
MA6813400180,h_OCHCTP,13-L1-2,2019-02-04 16:30:00.0,PhaseCorrectionAve,3.3e-07,CHCGILDTO6Y
MA6813400180,h_OCHCTP,13-L1-2,2019-02-04 16:30:00.0,BerPreFecMax,0.0021,CHCGILDTO6Y
MA6813400180,h_OCHCTP,13-L1-2,2019-02-04 16:30:00.0,PmdMin,1.02,CHCGILDTO6Y
MA6813400180,h_OCHCTP,13-L1-2,2019-02-04 16:30:00.0,SoPmdAve,3488.1,CHCGILDTO6Y
MA6813400180,h_OCHCTP,13-L1-2,2019-02-04 16:45:00.0,Qmin,9.04,CHCGILDTO6Y
MA6813400180,h_OCHCTP,13-L1-2,2019-02-04 16:45:00.0,PhaseCorrectionAve,3.68e-07,CHCGILDTO6Y
MA6813400180,h_OCHCTP,13-L1-2,2019-02-04 16:45:00.0,BerPreFecMax,0.00231,CHCGILDTO6Y
MA6813400180,h_OCHCTP,13-L1-2,2019-02-04 16:45:00.0,PmdMin,1.41,CHCGILDTO6Y
MA6813400180,h_OCHCTP,13-L1-2,2019-02-04 16:45:00.0,SoPmdAve,3506.71,CHCGILDTO6Y
MA6813400180,h_OCHCTP,13-L1-3,2019-02-04 16:15:00.0,Qmin,8.88,CHCGILDTO6Y
MA6813400180,h_OCHCTP,13-L1-3,2019-02-04 16:15:00.0,PhaseCorrectionAve,4.86e-07,CHCGILDTO6Y
MA6813400180,h_OCHCTP,13-L1-3,2019-02-04 16:15:00.0,BerPreFecMax,0.00271,CHCGILDTO6Y
MA6813400180,h_OCHCTP,13-L1-3,2019-02-04 16:15:00.0,PmdMin,0.756,CHCGILDTO6Y
MA6813400180,h_OCHCTP,13-L1-3,2019-02-04 16:15:00.0,SoPmdAve,2813.78,CHCGILDTO6Y
MA6813400180,h_OCHCTP,13-L1-3,2019-02-04 16:30:00.0,Qmin,8.93,CHCGILDTO6Y
MA6813400180,h_OCHCTP,13-L1-3,2019-02-04 16:30:00.0,PhaseCorrectionAve,5.39e-07,CHCGILDTO6Y
MA6813400180,h_OCHCTP,13-L1-3,2019-02-04 16:30:00.0,BerPreFecMax,0.00259,CHCGILDTO6Y
MA6813400180,h_OCHCTP,13-L1-3,2019-02-04 16:30:00.0,PmdMin,0.528,CHCGILDTO6Y
MA6813400180,h_OCHCTP,13-L1-3,2019-02-04 16:30:00.0,SoPmdAve,2967.13,CHCGILDTO6Y
MA6813400180,h_OCHCTP,13-L1-3,2019-02-04 16:45:00.0,Qmin,8.88,CHCGILDTO6Y
MA6813400180,h_OCHCTP,13-L1-3,2019-02-04 16:45:00.0,PhaseCorrectionAve,5.37e-07,CHCGILDTO6Y
MA6813400180,h_OCHCTP,13-L1-3,2019-02-04 16:45:00.0,BerPreFecMax,0.00271,CHCGILDTO6Y
MA6813400180,h_OCHCTP,13-L1-3,2019-02-04 16:45:00.0,PmdMin,0.817,CHCGILDTO6Y
MA6813400180,h_OCHCTP,13-L1-3,2019-02-04 16:45:00.0,SoPmdAve,2897.7,CHCGILDTO6Y
MA6813400180,h_OCHCTP,13-L1-4,2019-02-04 16:15:00.0,Qmin,8.67,CHCGILDTO6Y
MA6813400180,h_OCHCTP,13-L1-4,2019-02-04 16:15:00.0,PhaseCorrectionAve,5.39e-07,CHCGILDTO6Y
MA6813400180,h_OCHCTP,13-L1-4,2019-02-04 16:15:00.0,BerPreFecMax,0.00333,CHCGILDTO6Y
MA6813400180,h_OCHCTP,13-L1-4,2019-02-04 16:15:00.0,PmdMin,1.02,CHCGILDTO6Y
MA6813400180,h_OCHCTP,13-L1-4,2019-02-04 16:15:00.0,SoPmdAve,3424.93,CHCGILDTO6Y
MA6813400180,h_OCHCTP,13-L1-4,2019-02-04 16:30:00.0,Qmin,8.71,CHCGILDTO6Y
MA6813400180,h_OCHCTP,13-L1-4,2019-02-04 16:30:00.0,PhaseCorrectionAve,5.34e-07,CHCGILDTO6Y
MA6813400180,h_OCHCTP,13-L1-4,2019-02-04 16:30:00.0,BerPreFecMax,0.00321,CHCGILDTO6Y
MA6813400180,h_OCHCTP,13-L1-4,2019-02-04 16:30:00.0,PmdMin,1.2,CHCGILDTO6Y
MA6813400180,h_OCHCTP,13-L1-4,2019-02-04 16:30:00.0,SoPmdAve,3334.57,CHCGILDTO6Y
MA6813400180,h_OCHCTP,13-L1-4,2019-02-04 16:45:00.0,Qmin,8.66,CHCGILDTO6Y
MA6813400180,h_OCHCTP,13-L1-4,2019-02-04 16:45:00.0,PhaseCorrectionAve,5.44e-07,CHCGILDTO6Y
MA6813400180,h_OCHCTP,13-L1-4,2019-02-04 16:45:00.0,BerPreFecMax,0.00337,CHCGILDTO6Y
MA6813400180,h_OCHCTP,13-L1-4,2019-02-04 16:45:00.0,PmdMin,0.987,CHCGILDTO6Y
MA6813400180,h_OCHCTP,13-L1-4,2019-02-04 16:45:00.0,SoPmdAve,3432.65,CHCGILDTO6Y
MA6813400180,h_OCHCTP,13-L1-5,2019-02-04 16:15:00.0,Qmin,8.64,CHCGILDTO6Y
MA6813400180,h_OCHCTP,13-L1-5,2019-02-04 16:15:00.0,PhaseCorrectionAve,3.49e-07,CHCGILDTO6Y
MA6813400180,h_OCHCTP,13-L1-5,2019-02-04 16:15:00.0,BerPreFecMax,0.00342,CHCGILDTO6Y
MA6813400180,h_OCHCTP,13-L1-5,2019-02-04 16:15:00.0,PmdMin,1.47,CHCGILDTO6Y
MA6813400180,h_OCHCTP,13-L1-5,2019-02-04 16:15:00.0,SoPmdAve,2861.63,CHCGILDTO6Y
MA6813400180,h_OCHCTP,13-L1-5,2019-02-04 16:30:00.0,Qmin,8.69,CHCGILDTO6Y
MA6813400180,h_OCHCTP,13-L1-5,2019-02-04 16:30:00.0,PhaseCorrectionAve,4.04e-07,CHCGILDTO6Y
MA6813400180,h_OCHCTP,13-L1-5,2019-02-04 16:30:00.0,BerPreFecMax,0.00326,CHCGILDTO6Y
MA6813400180,h_OCHCTP,13-L1-5,2019-02-04 16:30:00.0,PmdMin,0.828,CHCGILDTO6Y
MA6813400180,h_OCHCTP,13-L1-5,2019-02-04 16:30:00.0,SoPmdAve,2885.08,CHCGILDTO6Y
MA6813400180,h_OCHCTP,13-L1-5,2019-02-04 16:45:00.0,Qmin,8.62,CHCGILDTO6Y
MA6813400180,h_OCHCTP,13-L1-5,2019-02-04 16:45:00.0,PhaseCorrectionAve,3.51e-07,CHCGILDTO6Y
MA6813400180,h_OCHCTP,13-L1-5,2019-02-04 16:45:00.0,BerPreFecMax,0.00348,CHCGILDTO6Y
MA6813400180,h_OCHCTP,13-L1-5,2019-02-04 16:45:00.0,PmdMin,0.693,CHCGILDTO6Y
MA6813400180,h_OCHCTP,13-L1-5,2019-02-04 16:45:00.0,SoPmdAve,2856.45,CHCGILDTO6Y
MA6813400180,h_OCHCTP,13-L1-6,2019-02-04 16:15:00.0,Qmin,8.73,CHCGILDTO6Y
MA6813400180,h_OCHCTP,13-L1-6,2019-02-04 16:15:00.0,PhaseCorrectionAve,5.15e-07,CHCGILDTO6Y
MA6813400180,h_OCHCTP,13-L1-6,2019-02-04 16:15:00.0,BerPreFecMax,0.00314,CHCGILDTO6Y
MA6813400180,h_OCHCTP,13-L1-6,2019-02-04 16:15:00.0,PmdMin,0.959,CHCGILDTO6Y
MA6813400180,h_OCHCTP,13-L1-6,2019-02-04 16:15:00.0,SoPmdAve,3016.1,CHCGILDTO6Y
MA6813400180,h_OCHCTP,13-L1-6,2019-02-04 16:30:00.0,Qmin,8.67,CHCGILDTO6Y
MA6813400180,h_OCHCTP,13-L1-6,2019-02-04 16:30:00.0,PhaseCorrectionAve,-0.061,CHCGILDTO6Y
MA6813400180,h_OCHCTP,13-L1-6,2019-02-04 16:30:00.0,BerPreFecMax,0.00332,CHCGILDTO6Y
MA6813400180,h_OCHCTP,13-L1-6,2019-02-04 16:30:00.0,PmdMin,1.03,CHCGILDTO6Y
MA6813400180,h_OCHCTP,13-L1-6,2019-02-04 16:30:00.0,SoPmdAve,3048.46,CHCGILDTO6Y
MA6813400180,h_OCHCTP,13-L1-6,2019-02-04 16:45:00.0,Qmin,8.75,CHCGILDTO6Y
MA6813400180,h_OCHCTP,13-L1-6,2019-02-04 16:45:00.0,PhaseCorrectionAve,5.06e-07,CHCGILDTO6Y
MA6813400180,h_OCHCTP,13-L1-6,2019-02-04 16:45:00.0,BerPreFecMax,0.00309,CHCGILDTO6Y
MA6813400180,h_OCHCTP,13-L1-6,2019-02-04 16:45:00.0,PmdMin,0.819,CHCGILDTO6Y
MA6813400180,h_OCHCTP,13-L1-6,2019-02-04 16:45:00.0,SoPmdAve,3039.21,CHCGILDTO6Y
MA6813400180,h_OCHCTP,13-L1-7,2019-02-04 16:15:00.0,Qmin,8.67,CHCGILDTO6Y
MA6813400180,h_OCHCTP,13-L1-7,2019-02-04 16:15:00.0,PhaseCorrectionAve,4.49e-07,CHCGILDTO6Y
MA6813400180,h_OCHCTP,13-L1-7,2019-02-04 16:15:00.0,BerPreFecMax,0.00333,CHCGILDTO6Y
MA6813400180,h_OCHCTP,13-L1-7,2019-02-04 16:15:00.0,PmdMin,1.12,CHCGILDTO6Y
MA6813400180,h_OCHCTP,13-L1-7,2019-02-04 16:15:00.0,SoPmdAve,3670.62,CHCGILDTO6Y
MA6813400180,h_OCHCTP,13-L1-7,2019-02-04 16:30:00.0,Qmin,8.67,CHCGILDTO6Y
MA6813400180,h_OCHCTP,13-L1-7,2019-02-04 16:30:00.0,PhaseCorrectionAve,-0.061,CHCGILDTO6Y
MA6813400180,h_OCHCTP,13-L1-7,2019-02-04 16:30:00.0,BerPreFecMax,0.00332,CHCGILDTO6Y
MA6813400180,h_OCHCTP,13-L1-7,2019-02-04 16:30:00.0,PmdMin,1.3,CHCGILDTO6Y
MA6813400180,h_OCHCTP,13-L1-7,2019-02-04 16:30:00.0,SoPmdAve,3676.27,CHCGILDTO6Y
MA6813400180,h_OCHCTP,13-L1-7,2019-02-04 16:45:00.0,Qmin,8.69,CHCGILDTO6Y
MA6813400180,h_OCHCTP,13-L1-7,2019-02-04 16:45:00.0,PhaseCorrectionAve,4.2e-07,CHCGILDTO6Y
MA6813400180,h_OCHCTP,13-L1-7,2019-02-04 16:45:00.0,BerPreFecMax,0.00326,CHCGILDTO6Y
MA6813400180,h_OCHCTP,13-L1-7,2019-02-04 16:45:00.0,PmdMin,0.448,CHCGILDTO6Y
MA6813400180,h_OCHCTP,13-L1-7,2019-02-04 16:45:00.0,SoPmdAve,3716.69,CHCGILDTO6Y
MA6813400180,h_OCHCTP,13-L1-8,2019-02-04 16:15:00.0,Qmin,8.78,CHCGILDTO6Y
MA6813400180,h_OCHCTP,13-L1-8,2019-02-04 16:15:00.0,PhaseCorrectionAve,-0.061,CHCGILDTO6Y
MA6813400180,h_OCHCTP,13-L1-8,2019-02-04 16:15:00.0,BerPreFecMax,0.003,CHCGILDTO6Y
MA6813400180,h_OCHCTP,13-L1-8,2019-02-04 16:15:00.0,PmdMin,1.55,CHCGILDTO6Y
MA6813400180,h_OCHCTP,13-L1-8,2019-02-04 16:15:00.0,SoPmdAve,3837.99,CHCGILDTO6Y
MA6813400180,h_OCHCTP,13-L1-8,2019-02-04 16:30:00.0,Qmin,8.79,CHCGILDTO6Y
MA6813400180,h_OCHCTP,13-L1-8,2019-02-04 16:30:00.0,PhaseCorrectionAve,-0.061,CHCGILDTO6Y
MA6813400180,h_OCHCTP,13-L1-8,2019-02-04 16:30:00.0,BerPreFecMax,0.00298,CHCGILDTO6Y
MA6813400180,h_OCHCTP,13-L1-8,2019-02-04 16:30:00.0,PmdMin,1.36,CHCGILDTO6Y
MA6813400180,h_OCHCTP,13-L1-8,2019-02-04 16:30:00.0,SoPmdAve,3779.44,CHCGILDTO6Y
MA6813400180,h_OCHCTP,13-L1-8,2019-02-04 16:45:00.0,Qmin,8.82,CHCGILDTO6Y
MA6813400180,h_OCHCTP,13-L1-8,2019-02-04 16:45:00.0,PhaseCorrectionAve,-0.061,CHCGILDTO6Y
MA6813400180,h_OCHCTP,13-L1-8,2019-02-04 16:45:00.0,BerPreFecMax,0.00288,CHCGILDTO6Y
MA6813400180,h_OCHCTP,13-L1-8,2019-02-04 16:45:00.0,PmdMin,1.69,CHCGILDTO6Y
MA6813400180,h_OCHCTP,13-L1-8,2019-02-04 16:45:00.0,SoPmdAve,3866.65,CHCGILDTO6Y
MA6813400180,h_OCHCTP,13-L1-9,2019-02-04 16:15:00.0,Qmin,8.76,CHCGILDTO6Y
MA6813400180,h_OCHCTP,13-L1-9,2019-02-04 16:15:00.0,PhaseCorrectionAve,-0.061,CHCGILDTO6Y
MA6813400180,h_OCHCTP,13-L1-9,2019-02-04 16:15:00.0,BerPreFecMax,0.00305,CHCGILDTO6Y
MA6813400180,h_OCHCTP,13-L1-9,2019-02-04 16:15:00.0,PmdMin,0.382,CHCGILDTO6Y
MA6813400180,h_OCHCTP,13-L1-9,2019-02-04 16:15:00.0,SoPmdAve,3601.21,CHCGILDTO6Y
MA6813400180,h_OCHCTP,13-L1-9,2019-02-04 16:30:00.0,Qmin,8.75,CHCGILDTO6Y
MA6813400180,h_OCHCTP,13-L1-9,2019-02-04 16:30:00.0,PhaseCorrectionAve,-0.061,CHCGILDTO6Y
MA6813400180,h_OCHCTP,13-L1-9,2019-02-04 16:30:00.0,BerPreFecMax,0.00308,CHCGILDTO6Y
MA6813400180,h_OCHCTP,13-L1-9,2019-02-04 16:30:00.0,PmdMin,0.879,CHCGILDTO6Y
MA6813400180,h_OCHCTP,13-L1-9,2019-02-04 16:30:00.0,SoPmdAve,3557.71,CHCGILDTO6Y
MA6813400180,h_OCHCTP,13-L1-9,2019-02-04 16:45:00.0,Qmin,8.74,CHCGILDTO6Y
MA6813400180,h_OCHCTP,13-L1-9,2019-02-04 16:45:00.0,PhaseCorrectionAve,-0.061,CHCGILDTO6Y
MA6813400180,h_OCHCTP,13-L1-9,2019-02-04 16:45:00.0,BerPreFecMax,0.00311,CHCGILDTO6Y
MA6813400180,h_OCHCTP,13-L1-9,2019-02-04 16:45:00.0,PmdMin,0.653,CHCGILDTO6Y
MA6813400180,h_OCHCTP,13-L1-9,2019-02-04 16:45:00.0,SoPmdAve,3527.13,CHCGILDTO6Y
MA6813400180,h_OCHCTP,13-L1-10,2019-02-04 16:15:00.0,Qmin,8.58,CHCGILDTO6Y
MA6813400180,h_OCHCTP,13-L1-10,2019-02-04 16:15:00.0,PhaseCorrectionAve,-0.061,CHCGILDTO6Y
MA6813400180,h_OCHCTP,13-L1-10,2019-02-04 16:15:00.0,BerPreFecMax,0.00363,CHCGILDTO6Y
MA6813400180,h_OCHCTP,13-L1-10,2019-02-04 16:15:00.0,PmdMin,0.96,CHCGILDTO6Y
MA6813400180,h_OCHCTP,13-L1-10,2019-02-04 16:15:00.0,SoPmdAve,3930.88,CHCGILDTO6Y
MA6813400180,h_OCHCTP,13-L1-10,2019-02-04 16:30:00.0,Qmin,8.63,CHCGILDTO6Y
MA6813400180,h_OCHCTP,13-L1-10,2019-02-04 16:30:00.0,PhaseCorrectionAve,-0.061,CHCGILDTO6Y
MA6813400180,h_OCHCTP,13-L1-10,2019-02-04 16:30:00.0,BerPreFecMax,0.00345,CHCGILDTO6Y
MA6813400180,h_OCHCTP,13-L1-10,2019-02-04 16:30:00.0,PmdMin,1.07,CHCGILDTO6Y
MA6813400180,h_OCHCTP,13-L1-10,2019-02-04 16:30:00.0,SoPmdAve,3877.78,CHCGILDTO6Y
MA6813400180,h_OCHCTP,13-L1-10,2019-02-04 16:45:00.0,Qmin,8.61,CHCGILDTO6Y
MA6813400180,h_OCHCTP,13-L1-10,2019-02-04 16:45:00.0,PhaseCorrectionAve,-0.061,CHCGILDTO6Y
MA6813400180,h_OCHCTP,13-L1-10,2019-02-04 16:45:00.0,BerPreFecMax,0.00352,CHCGILDTO6Y
MA6813400180,h_OCHCTP,13-L1-10,2019-02-04 16:45:00.0,PmdMin,0.615,CHCGILDTO6Y
MA6813400180,h_OCHCTP,13-L1-10,2019-02-04 16:45:00.0,SoPmdAve,3768.14,CHCGILDTO6Y
