MA6813400180,h_OCHCTP,11-L1-1,2019-01-25 10:15:00.0,Qmin,9.1,CHCGILDTO6Y
MA6813400180,h_OCHCTP,11-L1-1,2019-01-25 10:15:00.0,PhaseCorrectionAve,1.25e-07,CHCGILDTO6Y
MA6813400180,h_OCHCTP,11-L1-1,2019-01-25 10:15:00.0,BerPreFecMax,0.00218,CHCGILDTO6Y
MA6813400180,h_OCHCTP,11-L1-1,2019-01-25 10:15:00.0,PmdMin,0.946,CHCGILDTO6Y
MA6813400180,h_OCHCTP,11-L1-1,2019-01-25 10:15:00.0,SoPmdAve,3245.06,CHCGILDTO6Y
MA6813400180,h_OCHCTP,11-L1-1,2019-01-25 10:30:00.0,Qmin,9.1,CHCGILDTO6Y
MA6813400180,h_OCHCTP,11-L1-1,2019-01-25 10:30:00.0,PhaseCorrectionAve,1.18e-07,CHCGILDTO6Y
MA6813400180,h_OCHCTP,11-L1-1,2019-01-25 10:30:00.0,BerPreFecMax,0.00217,CHCGILDTO6Y
MA6813400180,h_OCHCTP,11-L1-1,2019-01-25 10:30:00.0,PmdMin,0.353,CHCGILDTO6Y
MA6813400180,h_OCHCTP,11-L1-1,2019-01-25 10:30:00.0,SoPmdAve,3444.63,CHCGILDTO6Y
MA6813400180,h_OCHCTP,11-L1-1,2019-01-25 10:45:00.0,Qmin,9.14,CHCGILDTO6Y
MA6813400180,h_OCHCTP,11-L1-1,2019-01-25 10:45:00.0,PhaseCorrectionAve,1.02e-07,CHCGILDTO6Y
MA6813400180,h_OCHCTP,11-L1-1,2019-01-25 10:45:00.0,BerPreFecMax,0.00208,CHCGILDTO6Y
MA6813400180,h_OCHCTP,11-L1-1,2019-01-25 10:45:00.0,PmdMin,1.06,CHCGILDTO6Y
MA6813400180,h_OCHCTP,11-L1-1,2019-01-25 10:45:00.0,SoPmdAve,3334.64,CHCGILDTO6Y
MA6813400180,h_OCHCTP,11-L1-2,2019-01-25 10:15:00.0,Qmin,9.02,CHCGILDTO6Y
MA6813400180,h_OCHCTP,11-L1-2,2019-01-25 10:15:00.0,PhaseCorrectionAve,-0.061,CHCGILDTO6Y
MA6813400180,h_OCHCTP,11-L1-2,2019-01-25 10:15:00.0,BerPreFecMax,0.00237,CHCGILDTO6Y
MA6813400180,h_OCHCTP,11-L1-2,2019-01-25 10:15:00.0,PmdMin,0.637,CHCGILDTO6Y
MA6813400180,h_OCHCTP,11-L1-2,2019-01-25 10:15:00.0,SoPmdAve,3241.71,CHCGILDTO6Y
MA6813400180,h_OCHCTP,11-L1-2,2019-01-25 10:30:00.0,Qmin,9.02,CHCGILDTO6Y
MA6813400180,h_OCHCTP,11-L1-2,2019-01-25 10:30:00.0,PhaseCorrectionAve,3.16e-07,CHCGILDTO6Y
MA6813400180,h_OCHCTP,11-L1-2,2019-01-25 10:30:00.0,BerPreFecMax,0.00236,CHCGILDTO6Y
MA6813400180,h_OCHCTP,11-L1-2,2019-01-25 10:30:00.0,PmdMin,1.11,CHCGILDTO6Y
MA6813400180,h_OCHCTP,11-L1-2,2019-01-25 10:30:00.0,SoPmdAve,3183.39,CHCGILDTO6Y
MA6813400180,h_OCHCTP,11-L1-2,2019-01-25 10:45:00.0,Qmin,9.03,CHCGILDTO6Y
MA6813400180,h_OCHCTP,11-L1-2,2019-01-25 10:45:00.0,PhaseCorrectionAve,-0.061,CHCGILDTO6Y
MA6813400180,h_OCHCTP,11-L1-2,2019-01-25 10:45:00.0,BerPreFecMax,0.00234,CHCGILDTO6Y
MA6813400180,h_OCHCTP,11-L1-2,2019-01-25 10:45:00.0,PmdMin,0.345,CHCGILDTO6Y
MA6813400180,h_OCHCTP,11-L1-2,2019-01-25 10:45:00.0,SoPmdAve,3142.8,CHCGILDTO6Y
MA6813400180,h_OCHCTP,11-L1-3,2019-01-25 10:15:00.0,Qmin,8.9,CHCGILDTO6Y
MA6813400180,h_OCHCTP,11-L1-3,2019-01-25 10:15:00.0,PhaseCorrectionAve,-0.122,CHCGILDTO6Y
MA6813400180,h_OCHCTP,11-L1-3,2019-01-25 10:15:00.0,BerPreFecMax,0.00266,CHCGILDTO6Y
MA6813400180,h_OCHCTP,11-L1-3,2019-01-25 10:15:00.0,PmdMin,1.23,CHCGILDTO6Y
MA6813400180,h_OCHCTP,11-L1-3,2019-01-25 10:15:00.0,SoPmdAve,2680.62,CHCGILDTO6Y
MA6813400180,h_OCHCTP,11-L1-3,2019-01-25 10:30:00.0,Qmin,8.85,CHCGILDTO6Y
MA6813400180,h_OCHCTP,11-L1-3,2019-01-25 10:30:00.0,PhaseCorrectionAve,3.58e-07,CHCGILDTO6Y
MA6813400180,h_OCHCTP,11-L1-3,2019-01-25 10:30:00.0,BerPreFecMax,0.00281,CHCGILDTO6Y
MA6813400180,h_OCHCTP,11-L1-3,2019-01-25 10:30:00.0,PmdMin,0.478,CHCGILDTO6Y
MA6813400180,h_OCHCTP,11-L1-3,2019-01-25 10:30:00.0,SoPmdAve,2788.99,CHCGILDTO6Y
MA6813400180,h_OCHCTP,11-L1-3,2019-01-25 10:45:00.0,Qmin,8.92,CHCGILDTO6Y
MA6813400180,h_OCHCTP,11-L1-3,2019-01-25 10:45:00.0,PhaseCorrectionAve,-0.061,CHCGILDTO6Y
MA6813400180,h_OCHCTP,11-L1-3,2019-01-25 10:45:00.0,BerPreFecMax,0.00261,CHCGILDTO6Y
MA6813400180,h_OCHCTP,11-L1-3,2019-01-25 10:45:00.0,PmdMin,1.08,CHCGILDTO6Y
MA6813400180,h_OCHCTP,11-L1-3,2019-01-25 10:45:00.0,SoPmdAve,2750.81,CHCGILDTO6Y
MA6813400180,h_OCHCTP,11-L1-4,2019-01-25 10:15:00.0,Qmin,8.7,CHCGILDTO6Y
MA6813400180,h_OCHCTP,11-L1-4,2019-01-25 10:15:00.0,PhaseCorrectionAve,-0.122,CHCGILDTO6Y
MA6813400180,h_OCHCTP,11-L1-4,2019-01-25 10:15:00.0,BerPreFecMax,0.00324,CHCGILDTO6Y
MA6813400180,h_OCHCTP,11-L1-4,2019-01-25 10:15:00.0,PmdMin,0.924,CHCGILDTO6Y
MA6813400180,h_OCHCTP,11-L1-4,2019-01-25 10:15:00.0,SoPmdAve,3001.2,CHCGILDTO6Y
MA6813400180,h_OCHCTP,11-L1-4,2019-01-25 10:30:00.0,Qmin,8.7,CHCGILDTO6Y
MA6813400180,h_OCHCTP,11-L1-4,2019-01-25 10:30:00.0,PhaseCorrectionAve,5.45e-07,CHCGILDTO6Y
MA6813400180,h_OCHCTP,11-L1-4,2019-01-25 10:30:00.0,BerPreFecMax,0.00322,CHCGILDTO6Y
MA6813400180,h_OCHCTP,11-L1-4,2019-01-25 10:30:00.0,PmdMin,1.12,CHCGILDTO6Y
MA6813400180,h_OCHCTP,11-L1-4,2019-01-25 10:30:00.0,SoPmdAve,2976.33,CHCGILDTO6Y
MA6813400180,h_OCHCTP,11-L1-4,2019-01-25 10:45:00.0,Qmin,8.73,CHCGILDTO6Y
MA6813400180,h_OCHCTP,11-L1-4,2019-01-25 10:45:00.0,PhaseCorrectionAve,-0.061,CHCGILDTO6Y
MA6813400180,h_OCHCTP,11-L1-4,2019-01-25 10:45:00.0,BerPreFecMax,0.00313,CHCGILDTO6Y
MA6813400180,h_OCHCTP,11-L1-4,2019-01-25 10:45:00.0,PmdMin,1.63,CHCGILDTO6Y
MA6813400180,h_OCHCTP,11-L1-4,2019-01-25 10:45:00.0,SoPmdAve,2998.42,CHCGILDTO6Y
MA6813400180,h_OCHCTP,11-L1-5,2019-01-25 10:15:00.0,Qmin,8.79,CHCGILDTO6Y
MA6813400180,h_OCHCTP,11-L1-5,2019-01-25 10:15:00.0,PhaseCorrectionAve,-0.122,CHCGILDTO6Y
MA6813400180,h_OCHCTP,11-L1-5,2019-01-25 10:15:00.0,BerPreFecMax,0.00297,CHCGILDTO6Y
MA6813400180,h_OCHCTP,11-L1-5,2019-01-25 10:15:00.0,PmdMin,0.714,CHCGILDTO6Y
MA6813400180,h_OCHCTP,11-L1-5,2019-01-25 10:15:00.0,SoPmdAve,2564.94,CHCGILDTO6Y
MA6813400180,h_OCHCTP,11-L1-5,2019-01-25 10:30:00.0,Qmin,8.79,CHCGILDTO6Y
MA6813400180,h_OCHCTP,11-L1-5,2019-01-25 10:30:00.0,PhaseCorrectionAve,1.74e-07,CHCGILDTO6Y
MA6813400180,h_OCHCTP,11-L1-5,2019-01-25 10:30:00.0,BerPreFecMax,0.00296,CHCGILDTO6Y
MA6813400180,h_OCHCTP,11-L1-5,2019-01-25 10:30:00.0,PmdMin,0.155,CHCGILDTO6Y
MA6813400180,h_OCHCTP,11-L1-5,2019-01-25 10:30:00.0,SoPmdAve,2558.44,CHCGILDTO6Y
MA6813400180,h_OCHCTP,11-L1-5,2019-01-25 10:45:00.0,Qmin,8.82,CHCGILDTO6Y
MA6813400180,h_OCHCTP,11-L1-5,2019-01-25 10:45:00.0,PhaseCorrectionAve,-0.061,CHCGILDTO6Y
MA6813400180,h_OCHCTP,11-L1-5,2019-01-25 10:45:00.0,BerPreFecMax,0.00287,CHCGILDTO6Y
MA6813400180,h_OCHCTP,11-L1-5,2019-01-25 10:45:00.0,PmdMin,1.4,CHCGILDTO6Y
MA6813400180,h_OCHCTP,11-L1-5,2019-01-25 10:45:00.0,SoPmdAve,2477.23,CHCGILDTO6Y
MA6813400180,h_OCHCTP,11-L1-6,2019-01-25 10:15:00.0,Qmin,8.75,CHCGILDTO6Y
MA6813400180,h_OCHCTP,11-L1-6,2019-01-25 10:15:00.0,PhaseCorrectionAve,-0.122,CHCGILDTO6Y
MA6813400180,h_OCHCTP,11-L1-6,2019-01-25 10:15:00.0,BerPreFecMax,0.00308,CHCGILDTO6Y
MA6813400180,h_OCHCTP,11-L1-6,2019-01-25 10:15:00.0,PmdMin,1.02,CHCGILDTO6Y
MA6813400180,h_OCHCTP,11-L1-6,2019-01-25 10:15:00.0,SoPmdAve,2498.96,CHCGILDTO6Y
MA6813400180,h_OCHCTP,11-L1-6,2019-01-25 10:30:00.0,Qmin,8.77,CHCGILDTO6Y
MA6813400180,h_OCHCTP,11-L1-6,2019-01-25 10:30:00.0,PhaseCorrectionAve,-0.061,CHCGILDTO6Y
MA6813400180,h_OCHCTP,11-L1-6,2019-01-25 10:30:00.0,BerPreFecMax,0.00303,CHCGILDTO6Y
MA6813400180,h_OCHCTP,11-L1-6,2019-01-25 10:30:00.0,PmdMin,1.14,CHCGILDTO6Y
MA6813400180,h_OCHCTP,11-L1-6,2019-01-25 10:30:00.0,SoPmdAve,2510.7,CHCGILDTO6Y
MA6813400180,h_OCHCTP,11-L1-6,2019-01-25 10:45:00.0,Qmin,8.75,CHCGILDTO6Y
MA6813400180,h_OCHCTP,11-L1-6,2019-01-25 10:45:00.0,PhaseCorrectionAve,-0.061,CHCGILDTO6Y
MA6813400180,h_OCHCTP,11-L1-6,2019-01-25 10:45:00.0,BerPreFecMax,0.00307,CHCGILDTO6Y
MA6813400180,h_OCHCTP,11-L1-6,2019-01-25 10:45:00.0,PmdMin,0.529,CHCGILDTO6Y
MA6813400180,h_OCHCTP,11-L1-6,2019-01-25 10:45:00.0,SoPmdAve,2538.6,CHCGILDTO6Y
MA6813400180,h_OCHCTP,11-L1-7,2019-01-25 10:15:00.0,Qmin,8.87,CHCGILDTO6Y
MA6813400180,h_OCHCTP,11-L1-7,2019-01-25 10:15:00.0,PhaseCorrectionAve,-0.122,CHCGILDTO6Y
MA6813400180,h_OCHCTP,11-L1-7,2019-01-25 10:15:00.0,BerPreFecMax,0.00274,CHCGILDTO6Y
MA6813400180,h_OCHCTP,11-L1-7,2019-01-25 10:15:00.0,PmdMin,0.982,CHCGILDTO6Y
MA6813400180,h_OCHCTP,11-L1-7,2019-01-25 10:15:00.0,SoPmdAve,3014.56,CHCGILDTO6Y
MA6813400180,h_OCHCTP,11-L1-7,2019-01-25 10:30:00.0,Qmin,8.87,CHCGILDTO6Y
MA6813400180,h_OCHCTP,11-L1-7,2019-01-25 10:30:00.0,PhaseCorrectionAve,-0.122,CHCGILDTO6Y
MA6813400180,h_OCHCTP,11-L1-7,2019-01-25 10:30:00.0,BerPreFecMax,0.00274,CHCGILDTO6Y
MA6813400180,h_OCHCTP,11-L1-7,2019-01-25 10:30:00.0,PmdMin,1.33,CHCGILDTO6Y
MA6813400180,h_OCHCTP,11-L1-7,2019-01-25 10:30:00.0,SoPmdAve,2886.73,CHCGILDTO6Y
MA6813400180,h_OCHCTP,11-L1-7,2019-01-25 10:45:00.0,Qmin,8.89,CHCGILDTO6Y
MA6813400180,h_OCHCTP,11-L1-7,2019-01-25 10:45:00.0,PhaseCorrectionAve,-0.061,CHCGILDTO6Y
MA6813400180,h_OCHCTP,11-L1-7,2019-01-25 10:45:00.0,BerPreFecMax,0.0027,CHCGILDTO6Y
MA6813400180,h_OCHCTP,11-L1-7,2019-01-25 10:45:00.0,PmdMin,0.916,CHCGILDTO6Y
MA6813400180,h_OCHCTP,11-L1-7,2019-01-25 10:45:00.0,SoPmdAve,2957.73,CHCGILDTO6Y
MA6813400180,h_OCHCTP,11-L1-8,2019-01-25 10:15:00.0,Qmin,9.03,CHCGILDTO6Y
MA6813400180,h_OCHCTP,11-L1-8,2019-01-25 10:15:00.0,PhaseCorrectionAve,-0.183,CHCGILDTO6Y
MA6813400180,h_OCHCTP,11-L1-8,2019-01-25 10:15:00.0,BerPreFecMax,0.00234,CHCGILDTO6Y
MA6813400180,h_OCHCTP,11-L1-8,2019-01-25 10:15:00.0,PmdMin,0.33,CHCGILDTO6Y
MA6813400180,h_OCHCTP,11-L1-8,2019-01-25 10:15:00.0,SoPmdAve,3090.77,CHCGILDTO6Y
MA6813400180,h_OCHCTP,11-L1-8,2019-01-25 10:30:00.0,Qmin,8.98,CHCGILDTO6Y
MA6813400180,h_OCHCTP,11-L1-8,2019-01-25 10:30:00.0,PhaseCorrectionAve,-0.122,CHCGILDTO6Y
MA6813400180,h_OCHCTP,11-L1-8,2019-01-25 10:30:00.0,BerPreFecMax,0.00246,CHCGILDTO6Y
MA6813400180,h_OCHCTP,11-L1-8,2019-01-25 10:30:00.0,PmdMin,0.857,CHCGILDTO6Y
MA6813400180,h_OCHCTP,11-L1-8,2019-01-25 10:30:00.0,SoPmdAve,3178.49,CHCGILDTO6Y
MA6813400180,h_OCHCTP,11-L1-8,2019-01-25 10:45:00.0,Qmin,8.97,CHCGILDTO6Y
MA6813400180,h_OCHCTP,11-L1-8,2019-01-25 10:45:00.0,PhaseCorrectionAve,-0.061,CHCGILDTO6Y
MA6813400180,h_OCHCTP,11-L1-8,2019-01-25 10:45:00.0,BerPreFecMax,0.0025,CHCGILDTO6Y
MA6813400180,h_OCHCTP,11-L1-8,2019-01-25 10:45:00.0,PmdMin,1.65,CHCGILDTO6Y
MA6813400180,h_OCHCTP,11-L1-8,2019-01-25 10:45:00.0,SoPmdAve,3081.61,CHCGILDTO6Y
MA6813400180,h_OCHCTP,11-L1-9,2019-01-25 10:15:00.0,Qmin,8.92,CHCGILDTO6Y
MA6813400180,h_OCHCTP,11-L1-9,2019-01-25 10:15:00.0,PhaseCorrectionAve,-0.183,CHCGILDTO6Y
MA6813400180,h_OCHCTP,11-L1-9,2019-01-25 10:15:00.0,BerPreFecMax,0.00261,CHCGILDTO6Y
MA6813400180,h_OCHCTP,11-L1-9,2019-01-25 10:15:00.0,PmdMin,0.968,CHCGILDTO6Y
MA6813400180,h_OCHCTP,11-L1-9,2019-01-25 10:15:00.0,SoPmdAve,3059.27,CHCGILDTO6Y
MA6813400180,h_OCHCTP,11-L1-9,2019-01-25 10:30:00.0,Qmin,8.83,CHCGILDTO6Y
MA6813400180,h_OCHCTP,11-L1-9,2019-01-25 10:30:00.0,PhaseCorrectionAve,-0.122,CHCGILDTO6Y
MA6813400180,h_OCHCTP,11-L1-9,2019-01-25 10:30:00.0,BerPreFecMax,0.00287,CHCGILDTO6Y
MA6813400180,h_OCHCTP,11-L1-9,2019-01-25 10:30:00.0,PmdMin,1.58,CHCGILDTO6Y
MA6813400180,h_OCHCTP,11-L1-9,2019-01-25 10:30:00.0,SoPmdAve,3152.63,CHCGILDTO6Y
MA6813400180,h_OCHCTP,11-L1-9,2019-01-25 10:45:00.0,Qmin,8.84,CHCGILDTO6Y
MA6813400180,h_OCHCTP,11-L1-9,2019-01-25 10:45:00.0,PhaseCorrectionAve,-0.061,CHCGILDTO6Y
MA6813400180,h_OCHCTP,11-L1-9,2019-01-25 10:45:00.0,BerPreFecMax,0.00282,CHCGILDTO6Y
MA6813400180,h_OCHCTP,11-L1-9,2019-01-25 10:45:00.0,PmdMin,0.659,CHCGILDTO6Y
MA6813400180,h_OCHCTP,11-L1-9,2019-01-25 10:45:00.0,SoPmdAve,3100.33,CHCGILDTO6Y
MA6813400180,h_OCHCTP,11-L1-10,2019-01-25 10:15:00.0,Qmin,9.01,CHCGILDTO6Y
MA6813400180,h_OCHCTP,11-L1-10,2019-01-25 10:15:00.0,PhaseCorrectionAve,-0.183,CHCGILDTO6Y
MA6813400180,h_OCHCTP,11-L1-10,2019-01-25 10:15:00.0,BerPreFecMax,0.00238,CHCGILDTO6Y
MA6813400180,h_OCHCTP,11-L1-10,2019-01-25 10:15:00.0,PmdMin,1.36,CHCGILDTO6Y
MA6813400180,h_OCHCTP,11-L1-10,2019-01-25 10:15:00.0,SoPmdAve,2976.77,CHCGILDTO6Y
MA6813400180,h_OCHCTP,11-L1-10,2019-01-25 10:30:00.0,Qmin,8.97,CHCGILDTO6Y
MA6813400180,h_OCHCTP,11-L1-10,2019-01-25 10:30:00.0,PhaseCorrectionAve,-0.122,CHCGILDTO6Y
MA6813400180,h_OCHCTP,11-L1-10,2019-01-25 10:30:00.0,BerPreFecMax,0.00248,CHCGILDTO6Y
MA6813400180,h_OCHCTP,11-L1-10,2019-01-25 10:30:00.0,PmdMin,1.39,CHCGILDTO6Y
MA6813400180,h_OCHCTP,11-L1-10,2019-01-25 10:30:00.0,SoPmdAve,3026.15,CHCGILDTO6Y
MA6813400180,h_OCHCTP,11-L1-10,2019-01-25 10:45:00.0,Qmin,8.98,CHCGILDTO6Y
MA6813400180,h_OCHCTP,11-L1-10,2019-01-25 10:45:00.0,PhaseCorrectionAve,-0.122,CHCGILDTO6Y
MA6813400180,h_OCHCTP,11-L1-10,2019-01-25 10:45:00.0,BerPreFecMax,0.00246,CHCGILDTO6Y
MA6813400180,h_OCHCTP,11-L1-10,2019-01-25 10:45:00.0,PmdMin,0.865,CHCGILDTO6Y
MA6813400180,h_OCHCTP,11-L1-10,2019-01-25 10:45:00.0,SoPmdAve,3020.84,CHCGILDTO6Y
MA6813400180,h_OCHCTP,10-L1-1,2019-01-25 10:15:00.0,Qmin,9.43,CHCGILDTO6Y
MA6813400180,h_OCHCTP,10-L1-1,2019-01-25 10:15:00.0,PhaseCorrectionAve,3.32e-07,CHCGILDTO6Y
MA6813400180,h_OCHCTP,10-L1-1,2019-01-25 10:15:00.0,BerPreFecMax,0.00153,CHCGILDTO6Y
MA6813400180,h_OCHCTP,10-L1-1,2019-01-25 10:15:00.0,PmdMin,5.11,CHCGILDTO6Y
MA6813400180,h_OCHCTP,10-L1-1,2019-01-25 10:15:00.0,SoPmdAve,3283.15,CHCGILDTO6Y
MA6813400180,h_OCHCTP,10-L1-1,2019-01-25 10:30:00.0,Qmin,9.43,CHCGILDTO6Y
MA6813400180,h_OCHCTP,10-L1-1,2019-01-25 10:30:00.0,PhaseCorrectionAve,3.26e-07,CHCGILDTO6Y
MA6813400180,h_OCHCTP,10-L1-1,2019-01-25 10:30:00.0,BerPreFecMax,0.00154,CHCGILDTO6Y
MA6813400180,h_OCHCTP,10-L1-1,2019-01-25 10:30:00.0,PmdMin,6.06,CHCGILDTO6Y
MA6813400180,h_OCHCTP,10-L1-1,2019-01-25 10:30:00.0,SoPmdAve,3387.47,CHCGILDTO6Y
MA6813400180,h_OCHCTP,10-L1-1,2019-01-25 10:45:00.0,Qmin,9.43,CHCGILDTO6Y
MA6813400180,h_OCHCTP,10-L1-1,2019-01-25 10:45:00.0,PhaseCorrectionAve,3.34e-07,CHCGILDTO6Y
MA6813400180,h_OCHCTP,10-L1-1,2019-01-25 10:45:00.0,BerPreFecMax,0.00153,CHCGILDTO6Y
MA6813400180,h_OCHCTP,10-L1-1,2019-01-25 10:45:00.0,PmdMin,3.91,CHCGILDTO6Y
MA6813400180,h_OCHCTP,10-L1-1,2019-01-25 10:45:00.0,SoPmdAve,3332.67,CHCGILDTO6Y
MA6813400180,h_OCHCTP,10-L1-2,2019-01-25 10:15:00.0,Qmin,9.15,CHCGILDTO6Y
MA6813400180,h_OCHCTP,10-L1-2,2019-01-25 10:15:00.0,PhaseCorrectionAve,2.99e-07,CHCGILDTO6Y
MA6813400180,h_OCHCTP,10-L1-2,2019-01-25 10:15:00.0,BerPreFecMax,0.00208,CHCGILDTO6Y
MA6813400180,h_OCHCTP,10-L1-2,2019-01-25 10:15:00.0,PmdMin,0.27,CHCGILDTO6Y
MA6813400180,h_OCHCTP,10-L1-2,2019-01-25 10:15:00.0,SoPmdAve,3380.52,CHCGILDTO6Y
MA6813400180,h_OCHCTP,10-L1-2,2019-01-25 10:30:00.0,Qmin,9.13,CHCGILDTO6Y
MA6813400180,h_OCHCTP,10-L1-2,2019-01-25 10:30:00.0,PhaseCorrectionAve,3.01e-07,CHCGILDTO6Y
MA6813400180,h_OCHCTP,10-L1-2,2019-01-25 10:30:00.0,BerPreFecMax,0.0021,CHCGILDTO6Y
MA6813400180,h_OCHCTP,10-L1-2,2019-01-25 10:30:00.0,PmdMin,0.956,CHCGILDTO6Y
MA6813400180,h_OCHCTP,10-L1-2,2019-01-25 10:30:00.0,SoPmdAve,3392.79,CHCGILDTO6Y
MA6813400180,h_OCHCTP,10-L1-2,2019-01-25 10:45:00.0,Qmin,9.11,CHCGILDTO6Y
MA6813400180,h_OCHCTP,10-L1-2,2019-01-25 10:45:00.0,PhaseCorrectionAve,3.02e-07,CHCGILDTO6Y
MA6813400180,h_OCHCTP,10-L1-2,2019-01-25 10:45:00.0,BerPreFecMax,0.00215,CHCGILDTO6Y
MA6813400180,h_OCHCTP,10-L1-2,2019-01-25 10:45:00.0,PmdMin,1.03,CHCGILDTO6Y
MA6813400180,h_OCHCTP,10-L1-2,2019-01-25 10:45:00.0,SoPmdAve,3225.07,CHCGILDTO6Y
MA6813400180,h_OCHCTP,10-L1-3,2019-01-25 10:15:00.0,Qmin,8.84,CHCGILDTO6Y
MA6813400180,h_OCHCTP,10-L1-3,2019-01-25 10:15:00.0,PhaseCorrectionAve,-0.061,CHCGILDTO6Y
MA6813400180,h_OCHCTP,10-L1-3,2019-01-25 10:15:00.0,BerPreFecMax,0.00283,CHCGILDTO6Y
MA6813400180,h_OCHCTP,10-L1-3,2019-01-25 10:15:00.0,PmdMin,0.956,CHCGILDTO6Y
MA6813400180,h_OCHCTP,10-L1-3,2019-01-25 10:15:00.0,SoPmdAve,2845.78,CHCGILDTO6Y
MA6813400180,h_OCHCTP,10-L1-3,2019-01-25 10:30:00.0,Qmin,8.83,CHCGILDTO6Y
MA6813400180,h_OCHCTP,10-L1-3,2019-01-25 10:30:00.0,PhaseCorrectionAve,5.53e-07,CHCGILDTO6Y
MA6813400180,h_OCHCTP,10-L1-3,2019-01-25 10:30:00.0,BerPreFecMax,0.00285,CHCGILDTO6Y
MA6813400180,h_OCHCTP,10-L1-3,2019-01-25 10:30:00.0,PmdMin,2.32,CHCGILDTO6Y
MA6813400180,h_OCHCTP,10-L1-3,2019-01-25 10:30:00.0,SoPmdAve,2817.53,CHCGILDTO6Y
MA6813400180,h_OCHCTP,10-L1-3,2019-01-25 10:45:00.0,Qmin,8.82,CHCGILDTO6Y
MA6813400180,h_OCHCTP,10-L1-3,2019-01-25 10:45:00.0,PhaseCorrectionAve,5.41e-07,CHCGILDTO6Y
MA6813400180,h_OCHCTP,10-L1-3,2019-01-25 10:45:00.0,BerPreFecMax,0.00287,CHCGILDTO6Y
MA6813400180,h_OCHCTP,10-L1-3,2019-01-25 10:45:00.0,PmdMin,1.62,CHCGILDTO6Y
MA6813400180,h_OCHCTP,10-L1-3,2019-01-25 10:45:00.0,SoPmdAve,2820.97,CHCGILDTO6Y
MA6813400180,h_OCHCTP,10-L1-4,2019-01-25 10:15:00.0,Qmin,8.25,CHCGILDTO6Y
MA6813400180,h_OCHCTP,10-L1-4,2019-01-25 10:15:00.0,PhaseCorrectionAve,-0.061,CHCGILDTO6Y
MA6813400180,h_OCHCTP,10-L1-4,2019-01-25 10:15:00.0,BerPreFecMax,0.00486,CHCGILDTO6Y
MA6813400180,h_OCHCTP,10-L1-4,2019-01-25 10:15:00.0,PmdMin,1.63,CHCGILDTO6Y
MA6813400180,h_OCHCTP,10-L1-4,2019-01-25 10:15:00.0,SoPmdAve,3029.98,CHCGILDTO6Y
MA6813400180,h_OCHCTP,10-L1-4,2019-01-25 10:30:00.0,Qmin,8.21,CHCGILDTO6Y
MA6813400180,h_OCHCTP,10-L1-4,2019-01-25 10:30:00.0,PhaseCorrectionAve,-0.061,CHCGILDTO6Y
MA6813400180,h_OCHCTP,10-L1-4,2019-01-25 10:30:00.0,BerPreFecMax,0.00502,CHCGILDTO6Y
MA6813400180,h_OCHCTP,10-L1-4,2019-01-25 10:30:00.0,PmdMin,2.24,CHCGILDTO6Y
MA6813400180,h_OCHCTP,10-L1-4,2019-01-25 10:30:00.0,SoPmdAve,3043.06,CHCGILDTO6Y
MA6813400180,h_OCHCTP,10-L1-4,2019-01-25 10:45:00.0,Qmin,8.24,CHCGILDTO6Y
MA6813400180,h_OCHCTP,10-L1-4,2019-01-25 10:45:00.0,PhaseCorrectionAve,3.26e-06,CHCGILDTO6Y
MA6813400180,h_OCHCTP,10-L1-4,2019-01-25 10:45:00.0,BerPreFecMax,0.0049,CHCGILDTO6Y
MA6813400180,h_OCHCTP,10-L1-4,2019-01-25 10:45:00.0,PmdMin,1.26,CHCGILDTO6Y
MA6813400180,h_OCHCTP,10-L1-4,2019-01-25 10:45:00.0,SoPmdAve,3060.4,CHCGILDTO6Y
MA6813400180,h_OCHCTP,10-L1-5,2019-01-25 10:15:00.0,Qmin,8.41,CHCGILDTO6Y
MA6813400180,h_OCHCTP,10-L1-5,2019-01-25 10:15:00.0,PhaseCorrectionAve,-0.061,CHCGILDTO6Y
MA6813400180,h_OCHCTP,10-L1-5,2019-01-25 10:15:00.0,BerPreFecMax,0.00422,CHCGILDTO6Y
MA6813400180,h_OCHCTP,10-L1-5,2019-01-25 10:15:00.0,PmdMin,1.6,CHCGILDTO6Y
MA6813400180,h_OCHCTP,10-L1-5,2019-01-25 10:15:00.0,SoPmdAve,2837.43,CHCGILDTO6Y
MA6813400180,h_OCHCTP,10-L1-5,2019-01-25 10:30:00.0,Qmin,8.39,CHCGILDTO6Y
MA6813400180,h_OCHCTP,10-L1-5,2019-01-25 10:30:00.0,PhaseCorrectionAve,-0.061,CHCGILDTO6Y
MA6813400180,h_OCHCTP,10-L1-5,2019-01-25 10:30:00.0,BerPreFecMax,0.0043,CHCGILDTO6Y
MA6813400180,h_OCHCTP,10-L1-5,2019-01-25 10:30:00.0,PmdMin,0.685,CHCGILDTO6Y
MA6813400180,h_OCHCTP,10-L1-5,2019-01-25 10:30:00.0,SoPmdAve,2893.14,CHCGILDTO6Y
MA6813400180,h_OCHCTP,10-L1-5,2019-01-25 10:45:00.0,Qmin,8.42,CHCGILDTO6Y
MA6813400180,h_OCHCTP,10-L1-5,2019-01-25 10:45:00.0,PhaseCorrectionAve,1.9e-06,CHCGILDTO6Y
MA6813400180,h_OCHCTP,10-L1-5,2019-01-25 10:45:00.0,BerPreFecMax,0.00419,CHCGILDTO6Y
MA6813400180,h_OCHCTP,10-L1-5,2019-01-25 10:45:00.0,PmdMin,1.59,CHCGILDTO6Y
MA6813400180,h_OCHCTP,10-L1-5,2019-01-25 10:45:00.0,SoPmdAve,2910.89,CHCGILDTO6Y
MA6813400180,h_OCHCTP,10-L1-6,2019-01-25 10:15:00.0,Qmin,8.65,CHCGILDTO6Y
MA6813400180,h_OCHCTP,10-L1-6,2019-01-25 10:15:00.0,PhaseCorrectionAve,-0.061,CHCGILDTO6Y
MA6813400180,h_OCHCTP,10-L1-6,2019-01-25 10:15:00.0,BerPreFecMax,0.00338,CHCGILDTO6Y
MA6813400180,h_OCHCTP,10-L1-6,2019-01-25 10:15:00.0,PmdMin,2.02,CHCGILDTO6Y
MA6813400180,h_OCHCTP,10-L1-6,2019-01-25 10:15:00.0,SoPmdAve,2914.55,CHCGILDTO6Y
MA6813400180,h_OCHCTP,10-L1-6,2019-01-25 10:30:00.0,Qmin,8.64,CHCGILDTO6Y
MA6813400180,h_OCHCTP,10-L1-6,2019-01-25 10:30:00.0,PhaseCorrectionAve,-0.061,CHCGILDTO6Y
MA6813400180,h_OCHCTP,10-L1-6,2019-01-25 10:30:00.0,BerPreFecMax,0.00341,CHCGILDTO6Y
MA6813400180,h_OCHCTP,10-L1-6,2019-01-25 10:30:00.0,PmdMin,4.58,CHCGILDTO6Y
MA6813400180,h_OCHCTP,10-L1-6,2019-01-25 10:30:00.0,SoPmdAve,2896.95,CHCGILDTO6Y
MA6813400180,h_OCHCTP,10-L1-6,2019-01-25 10:45:00.0,Qmin,8.65,CHCGILDTO6Y
MA6813400180,h_OCHCTP,10-L1-6,2019-01-25 10:45:00.0,PhaseCorrectionAve,-0.061,CHCGILDTO6Y
MA6813400180,h_OCHCTP,10-L1-6,2019-01-25 10:45:00.0,BerPreFecMax,0.00339,CHCGILDTO6Y
MA6813400180,h_OCHCTP,10-L1-6,2019-01-25 10:45:00.0,PmdMin,2.32,CHCGILDTO6Y
MA6813400180,h_OCHCTP,10-L1-6,2019-01-25 10:45:00.0,SoPmdAve,2835.37,CHCGILDTO6Y
MA6813400180,h_OCHCTP,10-L1-7,2019-01-25 10:15:00.0,Qmin,8.76,CHCGILDTO6Y
MA6813400180,h_OCHCTP,10-L1-7,2019-01-25 10:15:00.0,PhaseCorrectionAve,-0.061,CHCGILDTO6Y
MA6813400180,h_OCHCTP,10-L1-7,2019-01-25 10:15:00.0,BerPreFecMax,0.00306,CHCGILDTO6Y
MA6813400180,h_OCHCTP,10-L1-7,2019-01-25 10:15:00.0,PmdMin,1.31,CHCGILDTO6Y
MA6813400180,h_OCHCTP,10-L1-7,2019-01-25 10:15:00.0,SoPmdAve,3472.83,CHCGILDTO6Y
MA6813400180,h_OCHCTP,10-L1-7,2019-01-25 10:30:00.0,Qmin,8.75,CHCGILDTO6Y
MA6813400180,h_OCHCTP,10-L1-7,2019-01-25 10:30:00.0,PhaseCorrectionAve,-0.061,CHCGILDTO6Y
MA6813400180,h_OCHCTP,10-L1-7,2019-01-25 10:30:00.0,BerPreFecMax,0.00307,CHCGILDTO6Y
MA6813400180,h_OCHCTP,10-L1-7,2019-01-25 10:30:00.0,PmdMin,2.21,CHCGILDTO6Y
MA6813400180,h_OCHCTP,10-L1-7,2019-01-25 10:30:00.0,SoPmdAve,3513.55,CHCGILDTO6Y
MA6813400180,h_OCHCTP,10-L1-7,2019-01-25 10:45:00.0,Qmin,8.77,CHCGILDTO6Y
MA6813400180,h_OCHCTP,10-L1-7,2019-01-25 10:45:00.0,PhaseCorrectionAve,-0.061,CHCGILDTO6Y
MA6813400180,h_OCHCTP,10-L1-7,2019-01-25 10:45:00.0,BerPreFecMax,0.00303,CHCGILDTO6Y
MA6813400180,h_OCHCTP,10-L1-7,2019-01-25 10:45:00.0,PmdMin,1.55,CHCGILDTO6Y
MA6813400180,h_OCHCTP,10-L1-7,2019-01-25 10:45:00.0,SoPmdAve,3334.88,CHCGILDTO6Y
MA6813400180,h_OCHCTP,10-L1-8,2019-01-25 10:15:00.0,Qmin,9.32,CHCGILDTO6Y
MA6813400180,h_OCHCTP,10-L1-8,2019-01-25 10:15:00.0,PhaseCorrectionAve,-0.061,CHCGILDTO6Y
MA6813400180,h_OCHCTP,10-L1-8,2019-01-25 10:15:00.0,BerPreFecMax,0.00173,CHCGILDTO6Y
MA6813400180,h_OCHCTP,10-L1-8,2019-01-25 10:15:00.0,PmdMin,1.29,CHCGILDTO6Y
MA6813400180,h_OCHCTP,10-L1-8,2019-01-25 10:15:00.0,SoPmdAve,3347.22,CHCGILDTO6Y
MA6813400180,h_OCHCTP,10-L1-8,2019-01-25 10:30:00.0,Qmin,9.32,CHCGILDTO6Y
MA6813400180,h_OCHCTP,10-L1-8,2019-01-25 10:30:00.0,PhaseCorrectionAve,-0.061,CHCGILDTO6Y
MA6813400180,h_OCHCTP,10-L1-8,2019-01-25 10:30:00.0,BerPreFecMax,0.00173,CHCGILDTO6Y
MA6813400180,h_OCHCTP,10-L1-8,2019-01-25 10:30:00.0,PmdMin,0.822,CHCGILDTO6Y
MA6813400180,h_OCHCTP,10-L1-8,2019-01-25 10:30:00.0,SoPmdAve,3446.9,CHCGILDTO6Y
MA6813400180,h_OCHCTP,10-L1-8,2019-01-25 10:45:00.0,Qmin,9.32,CHCGILDTO6Y
MA6813400180,h_OCHCTP,10-L1-8,2019-01-25 10:45:00.0,PhaseCorrectionAve,-0.061,CHCGILDTO6Y
MA6813400180,h_OCHCTP,10-L1-8,2019-01-25 10:45:00.0,BerPreFecMax,0.00172,CHCGILDTO6Y
MA6813400180,h_OCHCTP,10-L1-8,2019-01-25 10:45:00.0,PmdMin,1.24,CHCGILDTO6Y
MA6813400180,h_OCHCTP,10-L1-8,2019-01-25 10:45:00.0,SoPmdAve,3477.41,CHCGILDTO6Y
MA6813400180,h_OCHCTP,10-L1-9,2019-01-25 10:15:00.0,Qmin,9.35,CHCGILDTO6Y
MA6813400180,h_OCHCTP,10-L1-9,2019-01-25 10:15:00.0,PhaseCorrectionAve,-0.122,CHCGILDTO6Y
MA6813400180,h_OCHCTP,10-L1-9,2019-01-25 10:15:00.0,BerPreFecMax,0.00167,CHCGILDTO6Y
MA6813400180,h_OCHCTP,10-L1-9,2019-01-25 10:15:00.0,PmdMin,0.928,CHCGILDTO6Y
MA6813400180,h_OCHCTP,10-L1-9,2019-01-25 10:15:00.0,SoPmdAve,3388.65,CHCGILDTO6Y
MA6813400180,h_OCHCTP,10-L1-9,2019-01-25 10:30:00.0,Qmin,9.35,CHCGILDTO6Y
MA6813400180,h_OCHCTP,10-L1-9,2019-01-25 10:30:00.0,PhaseCorrectionAve,-0.061,CHCGILDTO6Y
MA6813400180,h_OCHCTP,10-L1-9,2019-01-25 10:30:00.0,BerPreFecMax,0.00167,CHCGILDTO6Y
MA6813400180,h_OCHCTP,10-L1-9,2019-01-25 10:30:00.0,PmdMin,1.47,CHCGILDTO6Y
MA6813400180,h_OCHCTP,10-L1-9,2019-01-25 10:30:00.0,SoPmdAve,3349.63,CHCGILDTO6Y
MA6813400180,h_OCHCTP,10-L1-9,2019-01-25 10:45:00.0,Qmin,9.35,CHCGILDTO6Y
MA6813400180,h_OCHCTP,10-L1-9,2019-01-25 10:45:00.0,PhaseCorrectionAve,-0.061,CHCGILDTO6Y
MA6813400180,h_OCHCTP,10-L1-9,2019-01-25 10:45:00.0,BerPreFecMax,0.00168,CHCGILDTO6Y
MA6813400180,h_OCHCTP,10-L1-9,2019-01-25 10:45:00.0,PmdMin,1.6,CHCGILDTO6Y
MA6813400180,h_OCHCTP,10-L1-9,2019-01-25 10:45:00.0,SoPmdAve,3388.55,CHCGILDTO6Y
MA6813400180,h_OCHCTP,10-L1-10,2019-01-25 10:15:00.0,Qmin,9.38,CHCGILDTO6Y
MA6813400180,h_OCHCTP,10-L1-10,2019-01-25 10:15:00.0,PhaseCorrectionAve,-0.183,CHCGILDTO6Y
MA6813400180,h_OCHCTP,10-L1-10,2019-01-25 10:15:00.0,BerPreFecMax,0.00161,CHCGILDTO6Y
MA6813400180,h_OCHCTP,10-L1-10,2019-01-25 10:15:00.0,PmdMin,4.86,CHCGILDTO6Y
MA6813400180,h_OCHCTP,10-L1-10,2019-01-25 10:15:00.0,SoPmdAve,3271.36,CHCGILDTO6Y
MA6813400180,h_OCHCTP,10-L1-10,2019-01-25 10:30:00.0,Qmin,9.38,CHCGILDTO6Y
MA6813400180,h_OCHCTP,10-L1-10,2019-01-25 10:30:00.0,PhaseCorrectionAve,-0.122,CHCGILDTO6Y
MA6813400180,h_OCHCTP,10-L1-10,2019-01-25 10:30:00.0,BerPreFecMax,0.00161,CHCGILDTO6Y
MA6813400180,h_OCHCTP,10-L1-10,2019-01-25 10:30:00.0,PmdMin,4.79,CHCGILDTO6Y
MA6813400180,h_OCHCTP,10-L1-10,2019-01-25 10:30:00.0,SoPmdAve,3232.79,CHCGILDTO6Y
MA6813400180,h_OCHCTP,10-L1-10,2019-01-25 10:45:00.0,Qmin,9.37,CHCGILDTO6Y
MA6813400180,h_OCHCTP,10-L1-10,2019-01-25 10:45:00.0,PhaseCorrectionAve,-0.061,CHCGILDTO6Y
MA6813400180,h_OCHCTP,10-L1-10,2019-01-25 10:45:00.0,BerPreFecMax,0.00163,CHCGILDTO6Y
MA6813400180,h_OCHCTP,10-L1-10,2019-01-25 10:45:00.0,PmdMin,3.05,CHCGILDTO6Y
MA6813400180,h_OCHCTP,10-L1-10,2019-01-25 10:45:00.0,SoPmdAve,3309.38,CHCGILDTO6Y
MA6813400180,h_OCHCTP,13-L1-1,2019-01-25 10:15:00.0,Qmin,9.12,CHCGILDTO6Y
MA6813400180,h_OCHCTP,13-L1-1,2019-01-25 10:15:00.0,PhaseCorrectionAve,2.33e-07,CHCGILDTO6Y
MA6813400180,h_OCHCTP,13-L1-1,2019-01-25 10:15:00.0,BerPreFecMax,0.00214,CHCGILDTO6Y
MA6813400180,h_OCHCTP,13-L1-1,2019-01-25 10:15:00.0,PmdMin,0.933,CHCGILDTO6Y
MA6813400180,h_OCHCTP,13-L1-1,2019-01-25 10:15:00.0,SoPmdAve,3640.81,CHCGILDTO6Y
MA6813400180,h_OCHCTP,13-L1-1,2019-01-25 10:30:00.0,Qmin,9.05,CHCGILDTO6Y
MA6813400180,h_OCHCTP,13-L1-1,2019-01-25 10:30:00.0,PhaseCorrectionAve,2.31e-07,CHCGILDTO6Y
MA6813400180,h_OCHCTP,13-L1-1,2019-01-25 10:30:00.0,BerPreFecMax,0.00229,CHCGILDTO6Y
MA6813400180,h_OCHCTP,13-L1-1,2019-01-25 10:30:00.0,PmdMin,0.481,CHCGILDTO6Y
MA6813400180,h_OCHCTP,13-L1-1,2019-01-25 10:30:00.0,SoPmdAve,3524.02,CHCGILDTO6Y
MA6813400180,h_OCHCTP,13-L1-1,2019-01-25 10:45:00.0,Qmin,9.1,CHCGILDTO6Y
MA6813400180,h_OCHCTP,13-L1-1,2019-01-25 10:45:00.0,PhaseCorrectionAve,2.28e-07,CHCGILDTO6Y
MA6813400180,h_OCHCTP,13-L1-1,2019-01-25 10:45:00.0,BerPreFecMax,0.00217,CHCGILDTO6Y
MA6813400180,h_OCHCTP,13-L1-1,2019-01-25 10:45:00.0,PmdMin,0.784,CHCGILDTO6Y
MA6813400180,h_OCHCTP,13-L1-1,2019-01-25 10:45:00.0,SoPmdAve,3580.95,CHCGILDTO6Y
MA6813400180,h_OCHCTP,13-L1-2,2019-01-25 10:15:00.0,Qmin,9.12,CHCGILDTO6Y
MA6813400180,h_OCHCTP,13-L1-2,2019-01-25 10:15:00.0,PhaseCorrectionAve,-0.061,CHCGILDTO6Y
MA6813400180,h_OCHCTP,13-L1-2,2019-01-25 10:15:00.0,BerPreFecMax,0.00214,CHCGILDTO6Y
MA6813400180,h_OCHCTP,13-L1-2,2019-01-25 10:15:00.0,PmdMin,1.01,CHCGILDTO6Y
MA6813400180,h_OCHCTP,13-L1-2,2019-01-25 10:15:00.0,SoPmdAve,3526.75,CHCGILDTO6Y
MA6813400180,h_OCHCTP,13-L1-2,2019-01-25 10:30:00.0,Qmin,9.13,CHCGILDTO6Y
MA6813400180,h_OCHCTP,13-L1-2,2019-01-25 10:30:00.0,PhaseCorrectionAve,2.68e-07,CHCGILDTO6Y
MA6813400180,h_OCHCTP,13-L1-2,2019-01-25 10:30:00.0,BerPreFecMax,0.00212,CHCGILDTO6Y
MA6813400180,h_OCHCTP,13-L1-2,2019-01-25 10:30:00.0,PmdMin,1.01,CHCGILDTO6Y
MA6813400180,h_OCHCTP,13-L1-2,2019-01-25 10:30:00.0,SoPmdAve,3590.3,CHCGILDTO6Y
MA6813400180,h_OCHCTP,13-L1-2,2019-01-25 10:45:00.0,Qmin,9.09,CHCGILDTO6Y
MA6813400180,h_OCHCTP,13-L1-2,2019-01-25 10:45:00.0,PhaseCorrectionAve,2.6e-07,CHCGILDTO6Y
MA6813400180,h_OCHCTP,13-L1-2,2019-01-25 10:45:00.0,BerPreFecMax,0.0022,CHCGILDTO6Y
MA6813400180,h_OCHCTP,13-L1-2,2019-01-25 10:45:00.0,PmdMin,1.17,CHCGILDTO6Y
MA6813400180,h_OCHCTP,13-L1-2,2019-01-25 10:45:00.0,SoPmdAve,3634.6,CHCGILDTO6Y
MA6813400180,h_OCHCTP,13-L1-3,2019-01-25 10:15:00.0,Qmin,8.95,CHCGILDTO6Y
MA6813400180,h_OCHCTP,13-L1-3,2019-01-25 10:15:00.0,PhaseCorrectionAve,-0.061,CHCGILDTO6Y
MA6813400180,h_OCHCTP,13-L1-3,2019-01-25 10:15:00.0,BerPreFecMax,0.00253,CHCGILDTO6Y
MA6813400180,h_OCHCTP,13-L1-3,2019-01-25 10:15:00.0,PmdMin,0.944,CHCGILDTO6Y
MA6813400180,h_OCHCTP,13-L1-3,2019-01-25 10:15:00.0,SoPmdAve,2997.78,CHCGILDTO6Y
MA6813400180,h_OCHCTP,13-L1-3,2019-01-25 10:30:00.0,Qmin,8.89,CHCGILDTO6Y
MA6813400180,h_OCHCTP,13-L1-3,2019-01-25 10:30:00.0,PhaseCorrectionAve,4.55e-07,CHCGILDTO6Y
MA6813400180,h_OCHCTP,13-L1-3,2019-01-25 10:30:00.0,BerPreFecMax,0.00269,CHCGILDTO6Y
MA6813400180,h_OCHCTP,13-L1-3,2019-01-25 10:30:00.0,PmdMin,0.833,CHCGILDTO6Y
MA6813400180,h_OCHCTP,13-L1-3,2019-01-25 10:30:00.0,SoPmdAve,3021.8,CHCGILDTO6Y
MA6813400180,h_OCHCTP,13-L1-3,2019-01-25 10:45:00.0,Qmin,8.94,CHCGILDTO6Y
MA6813400180,h_OCHCTP,13-L1-3,2019-01-25 10:45:00.0,PhaseCorrectionAve,4.82e-07,CHCGILDTO6Y
MA6813400180,h_OCHCTP,13-L1-3,2019-01-25 10:45:00.0,BerPreFecMax,0.00256,CHCGILDTO6Y
MA6813400180,h_OCHCTP,13-L1-3,2019-01-25 10:45:00.0,PmdMin,0.513,CHCGILDTO6Y
MA6813400180,h_OCHCTP,13-L1-3,2019-01-25 10:45:00.0,SoPmdAve,2979.31,CHCGILDTO6Y
MA6813400180,h_OCHCTP,13-L1-4,2019-01-25 10:15:00.0,Qmin,8.66,CHCGILDTO6Y
MA6813400180,h_OCHCTP,13-L1-4,2019-01-25 10:15:00.0,PhaseCorrectionAve,-0.122,CHCGILDTO6Y
MA6813400180,h_OCHCTP,13-L1-4,2019-01-25 10:15:00.0,BerPreFecMax,0.00335,CHCGILDTO6Y
MA6813400180,h_OCHCTP,13-L1-4,2019-01-25 10:15:00.0,PmdMin,0.68,CHCGILDTO6Y
MA6813400180,h_OCHCTP,13-L1-4,2019-01-25 10:15:00.0,SoPmdAve,3349.44,CHCGILDTO6Y
MA6813400180,h_OCHCTP,13-L1-4,2019-01-25 10:30:00.0,Qmin,8.69,CHCGILDTO6Y
MA6813400180,h_OCHCTP,13-L1-4,2019-01-25 10:30:00.0,PhaseCorrectionAve,-0.061,CHCGILDTO6Y
MA6813400180,h_OCHCTP,13-L1-4,2019-01-25 10:30:00.0,BerPreFecMax,0.00326,CHCGILDTO6Y
MA6813400180,h_OCHCTP,13-L1-4,2019-01-25 10:30:00.0,PmdMin,1.16,CHCGILDTO6Y
MA6813400180,h_OCHCTP,13-L1-4,2019-01-25 10:30:00.0,SoPmdAve,3348.52,CHCGILDTO6Y
MA6813400180,h_OCHCTP,13-L1-4,2019-01-25 10:45:00.0,Qmin,8.68,CHCGILDTO6Y
MA6813400180,h_OCHCTP,13-L1-4,2019-01-25 10:45:00.0,PhaseCorrectionAve,4.84e-07,CHCGILDTO6Y
MA6813400180,h_OCHCTP,13-L1-4,2019-01-25 10:45:00.0,BerPreFecMax,0.0033,CHCGILDTO6Y
MA6813400180,h_OCHCTP,13-L1-4,2019-01-25 10:45:00.0,PmdMin,0.929,CHCGILDTO6Y
MA6813400180,h_OCHCTP,13-L1-4,2019-01-25 10:45:00.0,SoPmdAve,3380.04,CHCGILDTO6Y
MA6813400180,h_OCHCTP,13-L1-5,2019-01-25 10:15:00.0,Qmin,8.67,CHCGILDTO6Y
MA6813400180,h_OCHCTP,13-L1-5,2019-01-25 10:15:00.0,PhaseCorrectionAve,-0.122,CHCGILDTO6Y
MA6813400180,h_OCHCTP,13-L1-5,2019-01-25 10:15:00.0,BerPreFecMax,0.00333,CHCGILDTO6Y
MA6813400180,h_OCHCTP,13-L1-5,2019-01-25 10:15:00.0,PmdMin,0.593,CHCGILDTO6Y
MA6813400180,h_OCHCTP,13-L1-5,2019-01-25 10:15:00.0,SoPmdAve,2763.06,CHCGILDTO6Y
MA6813400180,h_OCHCTP,13-L1-5,2019-01-25 10:30:00.0,Qmin,8.69,CHCGILDTO6Y
MA6813400180,h_OCHCTP,13-L1-5,2019-01-25 10:30:00.0,PhaseCorrectionAve,-0.122,CHCGILDTO6Y
MA6813400180,h_OCHCTP,13-L1-5,2019-01-25 10:30:00.0,BerPreFecMax,0.00325,CHCGILDTO6Y
MA6813400180,h_OCHCTP,13-L1-5,2019-01-25 10:30:00.0,PmdMin,0.571,CHCGILDTO6Y
MA6813400180,h_OCHCTP,13-L1-5,2019-01-25 10:30:00.0,SoPmdAve,2788.83,CHCGILDTO6Y
MA6813400180,h_OCHCTP,13-L1-5,2019-01-25 10:45:00.0,Qmin,8.69,CHCGILDTO6Y
MA6813400180,h_OCHCTP,13-L1-5,2019-01-25 10:45:00.0,PhaseCorrectionAve,3.28e-07,CHCGILDTO6Y
MA6813400180,h_OCHCTP,13-L1-5,2019-01-25 10:45:00.0,BerPreFecMax,0.00325,CHCGILDTO6Y
MA6813400180,h_OCHCTP,13-L1-5,2019-01-25 10:45:00.0,PmdMin,0.848,CHCGILDTO6Y
MA6813400180,h_OCHCTP,13-L1-5,2019-01-25 10:45:00.0,SoPmdAve,2824.94,CHCGILDTO6Y
MA6813400180,h_OCHCTP,13-L1-6,2019-01-25 10:15:00.0,Qmin,8.76,CHCGILDTO6Y
MA6813400180,h_OCHCTP,13-L1-6,2019-01-25 10:15:00.0,PhaseCorrectionAve,-0.122,CHCGILDTO6Y
MA6813400180,h_OCHCTP,13-L1-6,2019-01-25 10:15:00.0,BerPreFecMax,0.00304,CHCGILDTO6Y
MA6813400180,h_OCHCTP,13-L1-6,2019-01-25 10:15:00.0,PmdMin,1.2,CHCGILDTO6Y
MA6813400180,h_OCHCTP,13-L1-6,2019-01-25 10:15:00.0,SoPmdAve,3125.01,CHCGILDTO6Y
MA6813400180,h_OCHCTP,13-L1-6,2019-01-25 10:30:00.0,Qmin,8.75,CHCGILDTO6Y
MA6813400180,h_OCHCTP,13-L1-6,2019-01-25 10:30:00.0,PhaseCorrectionAve,-0.122,CHCGILDTO6Y
MA6813400180,h_OCHCTP,13-L1-6,2019-01-25 10:30:00.0,BerPreFecMax,0.00308,CHCGILDTO6Y
MA6813400180,h_OCHCTP,13-L1-6,2019-01-25 10:30:00.0,PmdMin,0.747,CHCGILDTO6Y
MA6813400180,h_OCHCTP,13-L1-6,2019-01-25 10:30:00.0,SoPmdAve,2942.18,CHCGILDTO6Y
MA6813400180,h_OCHCTP,13-L1-6,2019-01-25 10:45:00.0,Qmin,8.79,CHCGILDTO6Y
MA6813400180,h_OCHCTP,13-L1-6,2019-01-25 10:45:00.0,PhaseCorrectionAve,4.15e-07,CHCGILDTO6Y
MA6813400180,h_OCHCTP,13-L1-6,2019-01-25 10:45:00.0,BerPreFecMax,0.00296,CHCGILDTO6Y
MA6813400180,h_OCHCTP,13-L1-6,2019-01-25 10:45:00.0,PmdMin,0.847,CHCGILDTO6Y
MA6813400180,h_OCHCTP,13-L1-6,2019-01-25 10:45:00.0,SoPmdAve,3024.11,CHCGILDTO6Y
MA6813400180,h_OCHCTP,13-L1-7,2019-01-25 10:15:00.0,Qmin,8.74,CHCGILDTO6Y
MA6813400180,h_OCHCTP,13-L1-7,2019-01-25 10:15:00.0,PhaseCorrectionAve,-0.122,CHCGILDTO6Y
MA6813400180,h_OCHCTP,13-L1-7,2019-01-25 10:15:00.0,BerPreFecMax,0.00312,CHCGILDTO6Y
MA6813400180,h_OCHCTP,13-L1-7,2019-01-25 10:15:00.0,PmdMin,1.06,CHCGILDTO6Y
MA6813400180,h_OCHCTP,13-L1-7,2019-01-25 10:15:00.0,SoPmdAve,3754.82,CHCGILDTO6Y
MA6813400180,h_OCHCTP,13-L1-7,2019-01-25 10:30:00.0,Qmin,8.78,CHCGILDTO6Y
MA6813400180,h_OCHCTP,13-L1-7,2019-01-25 10:30:00.0,PhaseCorrectionAve,-0.122,CHCGILDTO6Y
MA6813400180,h_OCHCTP,13-L1-7,2019-01-25 10:30:00.0,BerPreFecMax,0.00299,CHCGILDTO6Y
MA6813400180,h_OCHCTP,13-L1-7,2019-01-25 10:30:00.0,PmdMin,1.03,CHCGILDTO6Y
MA6813400180,h_OCHCTP,13-L1-7,2019-01-25 10:30:00.0,SoPmdAve,3737.82,CHCGILDTO6Y
MA6813400180,h_OCHCTP,13-L1-7,2019-01-25 10:45:00.0,Qmin,8.79,CHCGILDTO6Y
MA6813400180,h_OCHCTP,13-L1-7,2019-01-25 10:45:00.0,PhaseCorrectionAve,3.3e-07,CHCGILDTO6Y
MA6813400180,h_OCHCTP,13-L1-7,2019-01-25 10:45:00.0,BerPreFecMax,0.00298,CHCGILDTO6Y
MA6813400180,h_OCHCTP,13-L1-7,2019-01-25 10:45:00.0,PmdMin,0.339,CHCGILDTO6Y
MA6813400180,h_OCHCTP,13-L1-7,2019-01-25 10:45:00.0,SoPmdAve,3789.14,CHCGILDTO6Y
MA6813400180,h_OCHCTP,13-L1-8,2019-01-25 10:15:00.0,Qmin,8.95,CHCGILDTO6Y
MA6813400180,h_OCHCTP,13-L1-8,2019-01-25 10:15:00.0,PhaseCorrectionAve,-0.122,CHCGILDTO6Y
MA6813400180,h_OCHCTP,13-L1-8,2019-01-25 10:15:00.0,BerPreFecMax,0.00255,CHCGILDTO6Y
MA6813400180,h_OCHCTP,13-L1-8,2019-01-25 10:15:00.0,PmdMin,1.0,CHCGILDTO6Y
MA6813400180,h_OCHCTP,13-L1-8,2019-01-25 10:15:00.0,SoPmdAve,3933.83,CHCGILDTO6Y
MA6813400180,h_OCHCTP,13-L1-8,2019-01-25 10:30:00.0,Qmin,8.9,CHCGILDTO6Y
MA6813400180,h_OCHCTP,13-L1-8,2019-01-25 10:30:00.0,PhaseCorrectionAve,-0.122,CHCGILDTO6Y
MA6813400180,h_OCHCTP,13-L1-8,2019-01-25 10:30:00.0,BerPreFecMax,0.00266,CHCGILDTO6Y
MA6813400180,h_OCHCTP,13-L1-8,2019-01-25 10:30:00.0,PmdMin,0.31,CHCGILDTO6Y
MA6813400180,h_OCHCTP,13-L1-8,2019-01-25 10:30:00.0,SoPmdAve,3955.2,CHCGILDTO6Y
MA6813400180,h_OCHCTP,13-L1-8,2019-01-25 10:45:00.0,Qmin,8.91,CHCGILDTO6Y
MA6813400180,h_OCHCTP,13-L1-8,2019-01-25 10:45:00.0,PhaseCorrectionAve,-0.061,CHCGILDTO6Y
MA6813400180,h_OCHCTP,13-L1-8,2019-01-25 10:45:00.0,BerPreFecMax,0.00265,CHCGILDTO6Y
MA6813400180,h_OCHCTP,13-L1-8,2019-01-25 10:45:00.0,PmdMin,1.3,CHCGILDTO6Y
MA6813400180,h_OCHCTP,13-L1-8,2019-01-25 10:45:00.0,SoPmdAve,3978.52,CHCGILDTO6Y
MA6813400180,h_OCHCTP,13-L1-9,2019-01-25 10:15:00.0,Qmin,8.89,CHCGILDTO6Y
MA6813400180,h_OCHCTP,13-L1-9,2019-01-25 10:15:00.0,PhaseCorrectionAve,-0.183,CHCGILDTO6Y
MA6813400180,h_OCHCTP,13-L1-9,2019-01-25 10:15:00.0,BerPreFecMax,0.00268,CHCGILDTO6Y
MA6813400180,h_OCHCTP,13-L1-9,2019-01-25 10:15:00.0,PmdMin,0.569,CHCGILDTO6Y
MA6813400180,h_OCHCTP,13-L1-9,2019-01-25 10:15:00.0,SoPmdAve,3504.27,CHCGILDTO6Y
MA6813400180,h_OCHCTP,13-L1-9,2019-01-25 10:30:00.0,Qmin,8.8,CHCGILDTO6Y
MA6813400180,h_OCHCTP,13-L1-9,2019-01-25 10:30:00.0,PhaseCorrectionAve,-0.183,CHCGILDTO6Y
MA6813400180,h_OCHCTP,13-L1-9,2019-01-25 10:30:00.0,BerPreFecMax,0.00293,CHCGILDTO6Y
MA6813400180,h_OCHCTP,13-L1-9,2019-01-25 10:30:00.0,PmdMin,0.792,CHCGILDTO6Y
MA6813400180,h_OCHCTP,13-L1-9,2019-01-25 10:30:00.0,SoPmdAve,3568.55,CHCGILDTO6Y
MA6813400180,h_OCHCTP,13-L1-9,2019-01-25 10:45:00.0,Qmin,8.84,CHCGILDTO6Y
MA6813400180,h_OCHCTP,13-L1-9,2019-01-25 10:45:00.0,PhaseCorrectionAve,-0.061,CHCGILDTO6Y
MA6813400180,h_OCHCTP,13-L1-9,2019-01-25 10:45:00.0,BerPreFecMax,0.00283,CHCGILDTO6Y
MA6813400180,h_OCHCTP,13-L1-9,2019-01-25 10:45:00.0,PmdMin,0.763,CHCGILDTO6Y
MA6813400180,h_OCHCTP,13-L1-9,2019-01-25 10:45:00.0,SoPmdAve,3586.43,CHCGILDTO6Y
MA6813400180,h_OCHCTP,13-L1-10,2019-01-25 10:15:00.0,Qmin,8.74,CHCGILDTO6Y
MA6813400180,h_OCHCTP,13-L1-10,2019-01-25 10:15:00.0,PhaseCorrectionAve,-0.183,CHCGILDTO6Y
MA6813400180,h_OCHCTP,13-L1-10,2019-01-25 10:15:00.0,BerPreFecMax,0.0031,CHCGILDTO6Y
MA6813400180,h_OCHCTP,13-L1-10,2019-01-25 10:15:00.0,PmdMin,0.814,CHCGILDTO6Y
MA6813400180,h_OCHCTP,13-L1-10,2019-01-25 10:15:00.0,SoPmdAve,3735.88,CHCGILDTO6Y
MA6813400180,h_OCHCTP,13-L1-10,2019-01-25 10:30:00.0,Qmin,8.69,CHCGILDTO6Y
MA6813400180,h_OCHCTP,13-L1-10,2019-01-25 10:30:00.0,PhaseCorrectionAve,-0.183,CHCGILDTO6Y
MA6813400180,h_OCHCTP,13-L1-10,2019-01-25 10:30:00.0,BerPreFecMax,0.00326,CHCGILDTO6Y
MA6813400180,h_OCHCTP,13-L1-10,2019-01-25 10:30:00.0,PmdMin,1.32,CHCGILDTO6Y
MA6813400180,h_OCHCTP,13-L1-10,2019-01-25 10:30:00.0,SoPmdAve,3766.2,CHCGILDTO6Y
MA6813400180,h_OCHCTP,13-L1-10,2019-01-25 10:45:00.0,Qmin,8.68,CHCGILDTO6Y
MA6813400180,h_OCHCTP,13-L1-10,2019-01-25 10:45:00.0,PhaseCorrectionAve,-0.061,CHCGILDTO6Y
MA6813400180,h_OCHCTP,13-L1-10,2019-01-25 10:45:00.0,BerPreFecMax,0.00328,CHCGILDTO6Y
MA6813400180,h_OCHCTP,13-L1-10,2019-01-25 10:45:00.0,PmdMin,0.961,CHCGILDTO6Y
MA6813400180,h_OCHCTP,13-L1-10,2019-01-25 10:45:00.0,SoPmdAve,3845.87,CHCGILDTO6Y
