MA6813400180,h_OCHCTP,11-L1-1,2019-02-04 12:15:00.0,Qmin,9.13,CHCGILDTO6Y
MA6813400180,h_OCHCTP,11-L1-1,2019-02-04 12:15:00.0,PhaseCorrectionAve,1.31e-07,CHCGILDTO6Y
MA6813400180,h_OCHCTP,11-L1-1,2019-02-04 12:15:00.0,BerPreFecMax,0.00211,CHCGILDTO6Y
MA6813400180,h_OCHCTP,11-L1-1,2019-02-04 12:15:00.0,PmdMin,0.594,CHCGILDTO6Y
MA6813400180,h_OCHCTP,11-L1-1,2019-02-04 12:15:00.0,SoPmdAve,3427.0,CHCGILDTO6Y
MA6813400180,h_OCHCTP,11-L1-1,2019-02-04 12:30:00.0,Qmin,9.03,CHCGILDTO6Y
MA6813400180,h_OCHCTP,11-L1-1,2019-02-04 12:30:00.0,PhaseCorrectionAve,1.82e-07,CHCGILDTO6Y
MA6813400180,h_OCHCTP,11-L1-1,2019-02-04 12:30:00.0,BerPreFecMax,0.00234,CHCGILDTO6Y
MA6813400180,h_OCHCTP,11-L1-1,2019-02-04 12:30:00.0,PmdMin,0.466,CHCGILDTO6Y
MA6813400180,h_OCHCTP,11-L1-1,2019-02-04 12:30:00.0,SoPmdAve,3429.1,CHCGILDTO6Y
MA6813400180,h_OCHCTP,11-L1-1,2019-02-04 12:45:00.0,Qmin,9.07,CHCGILDTO6Y
MA6813400180,h_OCHCTP,11-L1-1,2019-02-04 12:45:00.0,PhaseCorrectionAve,1.55e-07,CHCGILDTO6Y
MA6813400180,h_OCHCTP,11-L1-1,2019-02-04 12:45:00.0,BerPreFecMax,0.00224,CHCGILDTO6Y
MA6813400180,h_OCHCTP,11-L1-1,2019-02-04 12:45:00.0,PmdMin,0.686,CHCGILDTO6Y
MA6813400180,h_OCHCTP,11-L1-1,2019-02-04 12:45:00.0,SoPmdAve,3446.94,CHCGILDTO6Y
MA6813400180,h_OCHCTP,11-L1-2,2019-02-04 12:15:00.0,Qmin,9.07,CHCGILDTO6Y
MA6813400180,h_OCHCTP,11-L1-2,2019-02-04 12:15:00.0,PhaseCorrectionAve,4.21e-07,CHCGILDTO6Y
MA6813400180,h_OCHCTP,11-L1-2,2019-02-04 12:15:00.0,BerPreFecMax,0.00226,CHCGILDTO6Y
MA6813400180,h_OCHCTP,11-L1-2,2019-02-04 12:15:00.0,PmdMin,0.63,CHCGILDTO6Y
MA6813400180,h_OCHCTP,11-L1-2,2019-02-04 12:15:00.0,SoPmdAve,3114.32,CHCGILDTO6Y
MA6813400180,h_OCHCTP,11-L1-2,2019-02-04 12:30:00.0,Qmin,8.87,CHCGILDTO6Y
MA6813400180,h_OCHCTP,11-L1-2,2019-02-04 12:30:00.0,PhaseCorrectionAve,-0.061,CHCGILDTO6Y
MA6813400180,h_OCHCTP,11-L1-2,2019-02-04 12:30:00.0,BerPreFecMax,0.00274,CHCGILDTO6Y
MA6813400180,h_OCHCTP,11-L1-2,2019-02-04 12:30:00.0,PmdMin,0.754,CHCGILDTO6Y
MA6813400180,h_OCHCTP,11-L1-2,2019-02-04 12:30:00.0,SoPmdAve,3161.33,CHCGILDTO6Y
MA6813400180,h_OCHCTP,11-L1-2,2019-02-04 12:45:00.0,Qmin,9.01,CHCGILDTO6Y
MA6813400180,h_OCHCTP,11-L1-2,2019-02-04 12:45:00.0,PhaseCorrectionAve,-0.061,CHCGILDTO6Y
MA6813400180,h_OCHCTP,11-L1-2,2019-02-04 12:45:00.0,BerPreFecMax,0.00238,CHCGILDTO6Y
MA6813400180,h_OCHCTP,11-L1-2,2019-02-04 12:45:00.0,PmdMin,0.273,CHCGILDTO6Y
MA6813400180,h_OCHCTP,11-L1-2,2019-02-04 12:45:00.0,SoPmdAve,3042.48,CHCGILDTO6Y
MA6813400180,h_OCHCTP,11-L1-3,2019-02-04 12:15:00.0,Qmin,8.94,CHCGILDTO6Y
MA6813400180,h_OCHCTP,11-L1-3,2019-02-04 12:15:00.0,PhaseCorrectionAve,4.22e-07,CHCGILDTO6Y
MA6813400180,h_OCHCTP,11-L1-3,2019-02-04 12:15:00.0,BerPreFecMax,0.00258,CHCGILDTO6Y
MA6813400180,h_OCHCTP,11-L1-3,2019-02-04 12:15:00.0,PmdMin,0.95,CHCGILDTO6Y
MA6813400180,h_OCHCTP,11-L1-3,2019-02-04 12:15:00.0,SoPmdAve,2615.45,CHCGILDTO6Y
MA6813400180,h_OCHCTP,11-L1-3,2019-02-04 12:30:00.0,Qmin,8.86,CHCGILDTO6Y
MA6813400180,h_OCHCTP,11-L1-3,2019-02-04 12:30:00.0,PhaseCorrectionAve,-0.061,CHCGILDTO6Y
MA6813400180,h_OCHCTP,11-L1-3,2019-02-04 12:30:00.0,BerPreFecMax,0.00276,CHCGILDTO6Y
MA6813400180,h_OCHCTP,11-L1-3,2019-02-04 12:30:00.0,PmdMin,1.14,CHCGILDTO6Y
MA6813400180,h_OCHCTP,11-L1-3,2019-02-04 12:30:00.0,SoPmdAve,2696.62,CHCGILDTO6Y
MA6813400180,h_OCHCTP,11-L1-3,2019-02-04 12:45:00.0,Qmin,8.85,CHCGILDTO6Y
MA6813400180,h_OCHCTP,11-L1-3,2019-02-04 12:45:00.0,PhaseCorrectionAve,-0.061,CHCGILDTO6Y
MA6813400180,h_OCHCTP,11-L1-3,2019-02-04 12:45:00.0,BerPreFecMax,0.00279,CHCGILDTO6Y
MA6813400180,h_OCHCTP,11-L1-3,2019-02-04 12:45:00.0,PmdMin,0.607,CHCGILDTO6Y
MA6813400180,h_OCHCTP,11-L1-3,2019-02-04 12:45:00.0,SoPmdAve,2747.12,CHCGILDTO6Y
MA6813400180,h_OCHCTP,11-L1-4,2019-02-04 12:15:00.0,Qmin,8.58,CHCGILDTO6Y
MA6813400180,h_OCHCTP,11-L1-4,2019-02-04 12:15:00.0,PhaseCorrectionAve,6.17e-07,CHCGILDTO6Y
MA6813400180,h_OCHCTP,11-L1-4,2019-02-04 12:15:00.0,BerPreFecMax,0.00361,CHCGILDTO6Y
MA6813400180,h_OCHCTP,11-L1-4,2019-02-04 12:15:00.0,PmdMin,1.39,CHCGILDTO6Y
MA6813400180,h_OCHCTP,11-L1-4,2019-02-04 12:15:00.0,SoPmdAve,2894.83,CHCGILDTO6Y
MA6813400180,h_OCHCTP,11-L1-4,2019-02-04 12:30:00.0,Qmin,8.65,CHCGILDTO6Y
MA6813400180,h_OCHCTP,11-L1-4,2019-02-04 12:30:00.0,PhaseCorrectionAve,-0.061,CHCGILDTO6Y
MA6813400180,h_OCHCTP,11-L1-4,2019-02-04 12:30:00.0,BerPreFecMax,0.00338,CHCGILDTO6Y
MA6813400180,h_OCHCTP,11-L1-4,2019-02-04 12:30:00.0,PmdMin,0.989,CHCGILDTO6Y
MA6813400180,h_OCHCTP,11-L1-4,2019-02-04 12:30:00.0,SoPmdAve,3000.21,CHCGILDTO6Y
MA6813400180,h_OCHCTP,11-L1-4,2019-02-04 12:45:00.0,Qmin,8.59,CHCGILDTO6Y
MA6813400180,h_OCHCTP,11-L1-4,2019-02-04 12:45:00.0,PhaseCorrectionAve,-0.061,CHCGILDTO6Y
MA6813400180,h_OCHCTP,11-L1-4,2019-02-04 12:45:00.0,BerPreFecMax,0.0036,CHCGILDTO6Y
MA6813400180,h_OCHCTP,11-L1-4,2019-02-04 12:45:00.0,PmdMin,0.463,CHCGILDTO6Y
MA6813400180,h_OCHCTP,11-L1-4,2019-02-04 12:45:00.0,SoPmdAve,2943.26,CHCGILDTO6Y
MA6813400180,h_OCHCTP,11-L1-5,2019-02-04 12:15:00.0,Qmin,8.84,CHCGILDTO6Y
MA6813400180,h_OCHCTP,11-L1-5,2019-02-04 12:15:00.0,PhaseCorrectionAve,1.73e-07,CHCGILDTO6Y
MA6813400180,h_OCHCTP,11-L1-5,2019-02-04 12:15:00.0,BerPreFecMax,0.00283,CHCGILDTO6Y
MA6813400180,h_OCHCTP,11-L1-5,2019-02-04 12:15:00.0,PmdMin,0.587,CHCGILDTO6Y
MA6813400180,h_OCHCTP,11-L1-5,2019-02-04 12:15:00.0,SoPmdAve,2534.34,CHCGILDTO6Y
MA6813400180,h_OCHCTP,11-L1-5,2019-02-04 12:30:00.0,Qmin,8.68,CHCGILDTO6Y
MA6813400180,h_OCHCTP,11-L1-5,2019-02-04 12:30:00.0,PhaseCorrectionAve,-0.061,CHCGILDTO6Y
MA6813400180,h_OCHCTP,11-L1-5,2019-02-04 12:30:00.0,BerPreFecMax,0.00329,CHCGILDTO6Y
MA6813400180,h_OCHCTP,11-L1-5,2019-02-04 12:30:00.0,PmdMin,0.206,CHCGILDTO6Y
MA6813400180,h_OCHCTP,11-L1-5,2019-02-04 12:30:00.0,SoPmdAve,2552.79,CHCGILDTO6Y
MA6813400180,h_OCHCTP,11-L1-5,2019-02-04 12:45:00.0,Qmin,8.76,CHCGILDTO6Y
MA6813400180,h_OCHCTP,11-L1-5,2019-02-04 12:45:00.0,PhaseCorrectionAve,-0.061,CHCGILDTO6Y
MA6813400180,h_OCHCTP,11-L1-5,2019-02-04 12:45:00.0,BerPreFecMax,0.00307,CHCGILDTO6Y
MA6813400180,h_OCHCTP,11-L1-5,2019-02-04 12:45:00.0,PmdMin,0.678,CHCGILDTO6Y
MA6813400180,h_OCHCTP,11-L1-5,2019-02-04 12:45:00.0,SoPmdAve,2539.91,CHCGILDTO6Y
MA6813400180,h_OCHCTP,11-L1-6,2019-02-04 12:15:00.0,Qmin,8.79,CHCGILDTO6Y
MA6813400180,h_OCHCTP,11-L1-6,2019-02-04 12:15:00.0,PhaseCorrectionAve,4.35e-07,CHCGILDTO6Y
MA6813400180,h_OCHCTP,11-L1-6,2019-02-04 12:15:00.0,BerPreFecMax,0.00297,CHCGILDTO6Y
MA6813400180,h_OCHCTP,11-L1-6,2019-02-04 12:15:00.0,PmdMin,0.724,CHCGILDTO6Y
MA6813400180,h_OCHCTP,11-L1-6,2019-02-04 12:15:00.0,SoPmdAve,2463.42,CHCGILDTO6Y
MA6813400180,h_OCHCTP,11-L1-6,2019-02-04 12:30:00.0,Qmin,8.8,CHCGILDTO6Y
MA6813400180,h_OCHCTP,11-L1-6,2019-02-04 12:30:00.0,PhaseCorrectionAve,-0.122,CHCGILDTO6Y
MA6813400180,h_OCHCTP,11-L1-6,2019-02-04 12:30:00.0,BerPreFecMax,0.00294,CHCGILDTO6Y
MA6813400180,h_OCHCTP,11-L1-6,2019-02-04 12:30:00.0,PmdMin,0.344,CHCGILDTO6Y
MA6813400180,h_OCHCTP,11-L1-6,2019-02-04 12:30:00.0,SoPmdAve,2481.1,CHCGILDTO6Y
MA6813400180,h_OCHCTP,11-L1-6,2019-02-04 12:45:00.0,Qmin,8.67,CHCGILDTO6Y
MA6813400180,h_OCHCTP,11-L1-6,2019-02-04 12:45:00.0,PhaseCorrectionAve,-0.061,CHCGILDTO6Y
MA6813400180,h_OCHCTP,11-L1-6,2019-02-04 12:45:00.0,BerPreFecMax,0.00332,CHCGILDTO6Y
MA6813400180,h_OCHCTP,11-L1-6,2019-02-04 12:45:00.0,PmdMin,0.677,CHCGILDTO6Y
MA6813400180,h_OCHCTP,11-L1-6,2019-02-04 12:45:00.0,SoPmdAve,2579.52,CHCGILDTO6Y
MA6813400180,h_OCHCTP,11-L1-7,2019-02-04 12:15:00.0,Qmin,8.87,CHCGILDTO6Y
MA6813400180,h_OCHCTP,11-L1-7,2019-02-04 12:15:00.0,PhaseCorrectionAve,3.07e-07,CHCGILDTO6Y
MA6813400180,h_OCHCTP,11-L1-7,2019-02-04 12:15:00.0,BerPreFecMax,0.00276,CHCGILDTO6Y
MA6813400180,h_OCHCTP,11-L1-7,2019-02-04 12:15:00.0,PmdMin,0.932,CHCGILDTO6Y
MA6813400180,h_OCHCTP,11-L1-7,2019-02-04 12:15:00.0,SoPmdAve,3069.89,CHCGILDTO6Y
MA6813400180,h_OCHCTP,11-L1-7,2019-02-04 12:30:00.0,Qmin,8.85,CHCGILDTO6Y
MA6813400180,h_OCHCTP,11-L1-7,2019-02-04 12:30:00.0,PhaseCorrectionAve,-0.122,CHCGILDTO6Y
MA6813400180,h_OCHCTP,11-L1-7,2019-02-04 12:30:00.0,BerPreFecMax,0.00279,CHCGILDTO6Y
MA6813400180,h_OCHCTP,11-L1-7,2019-02-04 12:30:00.0,PmdMin,1.41,CHCGILDTO6Y
MA6813400180,h_OCHCTP,11-L1-7,2019-02-04 12:30:00.0,SoPmdAve,3091.27,CHCGILDTO6Y
MA6813400180,h_OCHCTP,11-L1-7,2019-02-04 12:45:00.0,Qmin,8.81,CHCGILDTO6Y
MA6813400180,h_OCHCTP,11-L1-7,2019-02-04 12:45:00.0,PhaseCorrectionAve,-0.061,CHCGILDTO6Y
MA6813400180,h_OCHCTP,11-L1-7,2019-02-04 12:45:00.0,BerPreFecMax,0.00292,CHCGILDTO6Y
MA6813400180,h_OCHCTP,11-L1-7,2019-02-04 12:45:00.0,PmdMin,0.624,CHCGILDTO6Y
MA6813400180,h_OCHCTP,11-L1-7,2019-02-04 12:45:00.0,SoPmdAve,3082.58,CHCGILDTO6Y
MA6813400180,h_OCHCTP,11-L1-8,2019-02-04 12:15:00.0,Qmin,8.92,CHCGILDTO6Y
MA6813400180,h_OCHCTP,11-L1-8,2019-02-04 12:15:00.0,PhaseCorrectionAve,1.25e-06,CHCGILDTO6Y
MA6813400180,h_OCHCTP,11-L1-8,2019-02-04 12:15:00.0,BerPreFecMax,0.00261,CHCGILDTO6Y
MA6813400180,h_OCHCTP,11-L1-8,2019-02-04 12:15:00.0,PmdMin,0.694,CHCGILDTO6Y
MA6813400180,h_OCHCTP,11-L1-8,2019-02-04 12:15:00.0,SoPmdAve,3095.3,CHCGILDTO6Y
MA6813400180,h_OCHCTP,11-L1-8,2019-02-04 12:30:00.0,Qmin,8.93,CHCGILDTO6Y
MA6813400180,h_OCHCTP,11-L1-8,2019-02-04 12:30:00.0,PhaseCorrectionAve,-0.122,CHCGILDTO6Y
MA6813400180,h_OCHCTP,11-L1-8,2019-02-04 12:30:00.0,BerPreFecMax,0.00259,CHCGILDTO6Y
MA6813400180,h_OCHCTP,11-L1-8,2019-02-04 12:30:00.0,PmdMin,0.762,CHCGILDTO6Y
MA6813400180,h_OCHCTP,11-L1-8,2019-02-04 12:30:00.0,SoPmdAve,3161.44,CHCGILDTO6Y
MA6813400180,h_OCHCTP,11-L1-8,2019-02-04 12:45:00.0,Qmin,8.97,CHCGILDTO6Y
MA6813400180,h_OCHCTP,11-L1-8,2019-02-04 12:45:00.0,PhaseCorrectionAve,-0.061,CHCGILDTO6Y
MA6813400180,h_OCHCTP,11-L1-8,2019-02-04 12:45:00.0,BerPreFecMax,0.0025,CHCGILDTO6Y
MA6813400180,h_OCHCTP,11-L1-8,2019-02-04 12:45:00.0,PmdMin,0.822,CHCGILDTO6Y
MA6813400180,h_OCHCTP,11-L1-8,2019-02-04 12:45:00.0,SoPmdAve,3132.2,CHCGILDTO6Y
MA6813400180,h_OCHCTP,11-L1-9,2019-02-04 12:15:00.0,Qmin,8.77,CHCGILDTO6Y
MA6813400180,h_OCHCTP,11-L1-9,2019-02-04 12:15:00.0,PhaseCorrectionAve,-0.061,CHCGILDTO6Y
MA6813400180,h_OCHCTP,11-L1-9,2019-02-04 12:15:00.0,BerPreFecMax,0.00301,CHCGILDTO6Y
MA6813400180,h_OCHCTP,11-L1-9,2019-02-04 12:15:00.0,PmdMin,0.55,CHCGILDTO6Y
MA6813400180,h_OCHCTP,11-L1-9,2019-02-04 12:15:00.0,SoPmdAve,2915.08,CHCGILDTO6Y
MA6813400180,h_OCHCTP,11-L1-9,2019-02-04 12:30:00.0,Qmin,8.82,CHCGILDTO6Y
MA6813400180,h_OCHCTP,11-L1-9,2019-02-04 12:30:00.0,PhaseCorrectionAve,-0.122,CHCGILDTO6Y
MA6813400180,h_OCHCTP,11-L1-9,2019-02-04 12:30:00.0,BerPreFecMax,0.0029,CHCGILDTO6Y
MA6813400180,h_OCHCTP,11-L1-9,2019-02-04 12:30:00.0,PmdMin,0.526,CHCGILDTO6Y
MA6813400180,h_OCHCTP,11-L1-9,2019-02-04 12:30:00.0,SoPmdAve,3043.63,CHCGILDTO6Y
MA6813400180,h_OCHCTP,11-L1-9,2019-02-04 12:45:00.0,Qmin,8.86,CHCGILDTO6Y
MA6813400180,h_OCHCTP,11-L1-9,2019-02-04 12:45:00.0,PhaseCorrectionAve,-0.183,CHCGILDTO6Y
MA6813400180,h_OCHCTP,11-L1-9,2019-02-04 12:45:00.0,BerPreFecMax,0.00277,CHCGILDTO6Y
MA6813400180,h_OCHCTP,11-L1-9,2019-02-04 12:45:00.0,PmdMin,0.44,CHCGILDTO6Y
MA6813400180,h_OCHCTP,11-L1-9,2019-02-04 12:45:00.0,SoPmdAve,2966.34,CHCGILDTO6Y
MA6813400180,h_OCHCTP,11-L1-10,2019-02-04 12:15:00.0,Qmin,8.92,CHCGILDTO6Y
MA6813400180,h_OCHCTP,11-L1-10,2019-02-04 12:15:00.0,PhaseCorrectionAve,-0.183,CHCGILDTO6Y
MA6813400180,h_OCHCTP,11-L1-10,2019-02-04 12:15:00.0,BerPreFecMax,0.00262,CHCGILDTO6Y
MA6813400180,h_OCHCTP,11-L1-10,2019-02-04 12:15:00.0,PmdMin,0.73,CHCGILDTO6Y
MA6813400180,h_OCHCTP,11-L1-10,2019-02-04 12:15:00.0,SoPmdAve,3094.65,CHCGILDTO6Y
MA6813400180,h_OCHCTP,11-L1-10,2019-02-04 12:30:00.0,Qmin,8.99,CHCGILDTO6Y
MA6813400180,h_OCHCTP,11-L1-10,2019-02-04 12:30:00.0,PhaseCorrectionAve,-0.122,CHCGILDTO6Y
MA6813400180,h_OCHCTP,11-L1-10,2019-02-04 12:30:00.0,BerPreFecMax,0.00244,CHCGILDTO6Y
MA6813400180,h_OCHCTP,11-L1-10,2019-02-04 12:30:00.0,PmdMin,1.17,CHCGILDTO6Y
MA6813400180,h_OCHCTP,11-L1-10,2019-02-04 12:30:00.0,SoPmdAve,3055.51,CHCGILDTO6Y
MA6813400180,h_OCHCTP,11-L1-10,2019-02-04 12:45:00.0,Qmin,8.9,CHCGILDTO6Y
MA6813400180,h_OCHCTP,11-L1-10,2019-02-04 12:45:00.0,PhaseCorrectionAve,-0.183,CHCGILDTO6Y
MA6813400180,h_OCHCTP,11-L1-10,2019-02-04 12:45:00.0,BerPreFecMax,0.00267,CHCGILDTO6Y
MA6813400180,h_OCHCTP,11-L1-10,2019-02-04 12:45:00.0,PmdMin,1.01,CHCGILDTO6Y
MA6813400180,h_OCHCTP,11-L1-10,2019-02-04 12:45:00.0,SoPmdAve,3128.9,CHCGILDTO6Y
MA6813400180,h_OCHCTP,10-L1-1,2019-02-04 12:15:00.0,Qmin,9.48,CHCGILDTO6Y
MA6813400180,h_OCHCTP,10-L1-1,2019-02-04 12:15:00.0,PhaseCorrectionAve,4.54e-07,CHCGILDTO6Y
MA6813400180,h_OCHCTP,10-L1-1,2019-02-04 12:15:00.0,BerPreFecMax,0.00145,CHCGILDTO6Y
MA6813400180,h_OCHCTP,10-L1-1,2019-02-04 12:15:00.0,PmdMin,1.62,CHCGILDTO6Y
MA6813400180,h_OCHCTP,10-L1-1,2019-02-04 12:15:00.0,SoPmdAve,3667.58,CHCGILDTO6Y
MA6813400180,h_OCHCTP,10-L1-1,2019-02-04 12:30:00.0,Qmin,9.48,CHCGILDTO6Y
MA6813400180,h_OCHCTP,10-L1-1,2019-02-04 12:30:00.0,PhaseCorrectionAve,4.66e-07,CHCGILDTO6Y
MA6813400180,h_OCHCTP,10-L1-1,2019-02-04 12:30:00.0,BerPreFecMax,0.00145,CHCGILDTO6Y
MA6813400180,h_OCHCTP,10-L1-1,2019-02-04 12:30:00.0,PmdMin,1.1,CHCGILDTO6Y
MA6813400180,h_OCHCTP,10-L1-1,2019-02-04 12:30:00.0,SoPmdAve,3541.88,CHCGILDTO6Y
MA6813400180,h_OCHCTP,10-L1-1,2019-02-04 12:45:00.0,Qmin,9.48,CHCGILDTO6Y
MA6813400180,h_OCHCTP,10-L1-1,2019-02-04 12:45:00.0,PhaseCorrectionAve,4.47e-07,CHCGILDTO6Y
MA6813400180,h_OCHCTP,10-L1-1,2019-02-04 12:45:00.0,BerPreFecMax,0.00144,CHCGILDTO6Y
MA6813400180,h_OCHCTP,10-L1-1,2019-02-04 12:45:00.0,PmdMin,1.53,CHCGILDTO6Y
MA6813400180,h_OCHCTP,10-L1-1,2019-02-04 12:45:00.0,SoPmdAve,3506.11,CHCGILDTO6Y
MA6813400180,h_OCHCTP,10-L1-2,2019-02-04 12:15:00.0,Qmin,9.2,CHCGILDTO6Y
MA6813400180,h_OCHCTP,10-L1-2,2019-02-04 12:15:00.0,PhaseCorrectionAve,-0.061,CHCGILDTO6Y
MA6813400180,h_OCHCTP,10-L1-2,2019-02-04 12:15:00.0,BerPreFecMax,0.00197,CHCGILDTO6Y
MA6813400180,h_OCHCTP,10-L1-2,2019-02-04 12:15:00.0,PmdMin,1.89,CHCGILDTO6Y
MA6813400180,h_OCHCTP,10-L1-2,2019-02-04 12:15:00.0,SoPmdAve,3339.95,CHCGILDTO6Y
MA6813400180,h_OCHCTP,10-L1-2,2019-02-04 12:30:00.0,Qmin,9.19,CHCGILDTO6Y
MA6813400180,h_OCHCTP,10-L1-2,2019-02-04 12:30:00.0,PhaseCorrectionAve,3.27e-07,CHCGILDTO6Y
MA6813400180,h_OCHCTP,10-L1-2,2019-02-04 12:30:00.0,BerPreFecMax,0.00198,CHCGILDTO6Y
MA6813400180,h_OCHCTP,10-L1-2,2019-02-04 12:30:00.0,PmdMin,2.55,CHCGILDTO6Y
MA6813400180,h_OCHCTP,10-L1-2,2019-02-04 12:30:00.0,SoPmdAve,3341.44,CHCGILDTO6Y
MA6813400180,h_OCHCTP,10-L1-2,2019-02-04 12:45:00.0,Qmin,9.19,CHCGILDTO6Y
MA6813400180,h_OCHCTP,10-L1-2,2019-02-04 12:45:00.0,PhaseCorrectionAve,3.24e-07,CHCGILDTO6Y
MA6813400180,h_OCHCTP,10-L1-2,2019-02-04 12:45:00.0,BerPreFecMax,0.00199,CHCGILDTO6Y
MA6813400180,h_OCHCTP,10-L1-2,2019-02-04 12:45:00.0,PmdMin,2.8,CHCGILDTO6Y
MA6813400180,h_OCHCTP,10-L1-2,2019-02-04 12:45:00.0,SoPmdAve,3381.97,CHCGILDTO6Y
MA6813400180,h_OCHCTP,10-L1-3,2019-02-04 12:15:00.0,Qmin,8.96,CHCGILDTO6Y
MA6813400180,h_OCHCTP,10-L1-3,2019-02-04 12:15:00.0,PhaseCorrectionAve,-0.061,CHCGILDTO6Y
MA6813400180,h_OCHCTP,10-L1-3,2019-02-04 12:15:00.0,BerPreFecMax,0.00251,CHCGILDTO6Y
MA6813400180,h_OCHCTP,10-L1-3,2019-02-04 12:15:00.0,PmdMin,4.22,CHCGILDTO6Y
MA6813400180,h_OCHCTP,10-L1-3,2019-02-04 12:15:00.0,SoPmdAve,2845.36,CHCGILDTO6Y
MA6813400180,h_OCHCTP,10-L1-3,2019-02-04 12:30:00.0,Qmin,8.95,CHCGILDTO6Y
MA6813400180,h_OCHCTP,10-L1-3,2019-02-04 12:30:00.0,PhaseCorrectionAve,-0.122,CHCGILDTO6Y
MA6813400180,h_OCHCTP,10-L1-3,2019-02-04 12:30:00.0,BerPreFecMax,0.00253,CHCGILDTO6Y
MA6813400180,h_OCHCTP,10-L1-3,2019-02-04 12:30:00.0,PmdMin,2.77,CHCGILDTO6Y
MA6813400180,h_OCHCTP,10-L1-3,2019-02-04 12:30:00.0,SoPmdAve,2895.81,CHCGILDTO6Y
MA6813400180,h_OCHCTP,10-L1-3,2019-02-04 12:45:00.0,Qmin,8.97,CHCGILDTO6Y
MA6813400180,h_OCHCTP,10-L1-3,2019-02-04 12:45:00.0,PhaseCorrectionAve,5.36e-07,CHCGILDTO6Y
MA6813400180,h_OCHCTP,10-L1-3,2019-02-04 12:45:00.0,BerPreFecMax,0.00248,CHCGILDTO6Y
MA6813400180,h_OCHCTP,10-L1-3,2019-02-04 12:45:00.0,PmdMin,3.59,CHCGILDTO6Y
MA6813400180,h_OCHCTP,10-L1-3,2019-02-04 12:45:00.0,SoPmdAve,2835.55,CHCGILDTO6Y
MA6813400180,h_OCHCTP,10-L1-4,2019-02-04 12:15:00.0,Qmin,8.41,CHCGILDTO6Y
MA6813400180,h_OCHCTP,10-L1-4,2019-02-04 12:15:00.0,PhaseCorrectionAve,-0.061,CHCGILDTO6Y
MA6813400180,h_OCHCTP,10-L1-4,2019-02-04 12:15:00.0,BerPreFecMax,0.00423,CHCGILDTO6Y
MA6813400180,h_OCHCTP,10-L1-4,2019-02-04 12:15:00.0,PmdMin,0.778,CHCGILDTO6Y
MA6813400180,h_OCHCTP,10-L1-4,2019-02-04 12:15:00.0,SoPmdAve,3096.97,CHCGILDTO6Y
MA6813400180,h_OCHCTP,10-L1-4,2019-02-04 12:30:00.0,Qmin,8.4,CHCGILDTO6Y
MA6813400180,h_OCHCTP,10-L1-4,2019-02-04 12:30:00.0,PhaseCorrectionAve,-0.122,CHCGILDTO6Y
MA6813400180,h_OCHCTP,10-L1-4,2019-02-04 12:30:00.0,BerPreFecMax,0.00427,CHCGILDTO6Y
MA6813400180,h_OCHCTP,10-L1-4,2019-02-04 12:30:00.0,PmdMin,1.65,CHCGILDTO6Y
MA6813400180,h_OCHCTP,10-L1-4,2019-02-04 12:30:00.0,SoPmdAve,3184.45,CHCGILDTO6Y
MA6813400180,h_OCHCTP,10-L1-4,2019-02-04 12:45:00.0,Qmin,8.41,CHCGILDTO6Y
MA6813400180,h_OCHCTP,10-L1-4,2019-02-04 12:45:00.0,PhaseCorrectionAve,-0.061,CHCGILDTO6Y
MA6813400180,h_OCHCTP,10-L1-4,2019-02-04 12:45:00.0,BerPreFecMax,0.00424,CHCGILDTO6Y
MA6813400180,h_OCHCTP,10-L1-4,2019-02-04 12:45:00.0,PmdMin,0.928,CHCGILDTO6Y
MA6813400180,h_OCHCTP,10-L1-4,2019-02-04 12:45:00.0,SoPmdAve,3009.18,CHCGILDTO6Y
MA6813400180,h_OCHCTP,10-L1-5,2019-02-04 12:15:00.0,Qmin,8.59,CHCGILDTO6Y
MA6813400180,h_OCHCTP,10-L1-5,2019-02-04 12:15:00.0,PhaseCorrectionAve,-0.061,CHCGILDTO6Y
MA6813400180,h_OCHCTP,10-L1-5,2019-02-04 12:15:00.0,BerPreFecMax,0.0036,CHCGILDTO6Y
MA6813400180,h_OCHCTP,10-L1-5,2019-02-04 12:15:00.0,PmdMin,1.08,CHCGILDTO6Y
MA6813400180,h_OCHCTP,10-L1-5,2019-02-04 12:15:00.0,SoPmdAve,2931.43,CHCGILDTO6Y
MA6813400180,h_OCHCTP,10-L1-5,2019-02-04 12:30:00.0,Qmin,8.59,CHCGILDTO6Y
MA6813400180,h_OCHCTP,10-L1-5,2019-02-04 12:30:00.0,PhaseCorrectionAve,-0.244,CHCGILDTO6Y
MA6813400180,h_OCHCTP,10-L1-5,2019-02-04 12:30:00.0,BerPreFecMax,0.00359,CHCGILDTO6Y
MA6813400180,h_OCHCTP,10-L1-5,2019-02-04 12:30:00.0,PmdMin,0.671,CHCGILDTO6Y
MA6813400180,h_OCHCTP,10-L1-5,2019-02-04 12:30:00.0,SoPmdAve,2823.05,CHCGILDTO6Y
MA6813400180,h_OCHCTP,10-L1-5,2019-02-04 12:45:00.0,Qmin,8.6,CHCGILDTO6Y
MA6813400180,h_OCHCTP,10-L1-5,2019-02-04 12:45:00.0,PhaseCorrectionAve,-0.061,CHCGILDTO6Y
MA6813400180,h_OCHCTP,10-L1-5,2019-02-04 12:45:00.0,BerPreFecMax,0.00354,CHCGILDTO6Y
MA6813400180,h_OCHCTP,10-L1-5,2019-02-04 12:45:00.0,PmdMin,0.938,CHCGILDTO6Y
MA6813400180,h_OCHCTP,10-L1-5,2019-02-04 12:45:00.0,SoPmdAve,2969.21,CHCGILDTO6Y
MA6813400180,h_OCHCTP,10-L1-6,2019-02-04 12:15:00.0,Qmin,8.79,CHCGILDTO6Y
MA6813400180,h_OCHCTP,10-L1-6,2019-02-04 12:15:00.0,PhaseCorrectionAve,-0.061,CHCGILDTO6Y
MA6813400180,h_OCHCTP,10-L1-6,2019-02-04 12:15:00.0,BerPreFecMax,0.00297,CHCGILDTO6Y
MA6813400180,h_OCHCTP,10-L1-6,2019-02-04 12:15:00.0,PmdMin,2.58,CHCGILDTO6Y
MA6813400180,h_OCHCTP,10-L1-6,2019-02-04 12:15:00.0,SoPmdAve,2804.82,CHCGILDTO6Y
MA6813400180,h_OCHCTP,10-L1-6,2019-02-04 12:30:00.0,Qmin,8.79,CHCGILDTO6Y
MA6813400180,h_OCHCTP,10-L1-6,2019-02-04 12:30:00.0,PhaseCorrectionAve,-0.305,CHCGILDTO6Y
MA6813400180,h_OCHCTP,10-L1-6,2019-02-04 12:30:00.0,BerPreFecMax,0.00298,CHCGILDTO6Y
MA6813400180,h_OCHCTP,10-L1-6,2019-02-04 12:30:00.0,PmdMin,1.4,CHCGILDTO6Y
MA6813400180,h_OCHCTP,10-L1-6,2019-02-04 12:30:00.0,SoPmdAve,2815.21,CHCGILDTO6Y
MA6813400180,h_OCHCTP,10-L1-6,2019-02-04 12:45:00.0,Qmin,8.81,CHCGILDTO6Y
MA6813400180,h_OCHCTP,10-L1-6,2019-02-04 12:45:00.0,PhaseCorrectionAve,-0.061,CHCGILDTO6Y
MA6813400180,h_OCHCTP,10-L1-6,2019-02-04 12:45:00.0,BerPreFecMax,0.00292,CHCGILDTO6Y
MA6813400180,h_OCHCTP,10-L1-6,2019-02-04 12:45:00.0,PmdMin,3.23,CHCGILDTO6Y
MA6813400180,h_OCHCTP,10-L1-6,2019-02-04 12:45:00.0,SoPmdAve,2767.47,CHCGILDTO6Y
MA6813400180,h_OCHCTP,10-L1-7,2019-02-04 12:15:00.0,Qmin,8.88,CHCGILDTO6Y
MA6813400180,h_OCHCTP,10-L1-7,2019-02-04 12:15:00.0,PhaseCorrectionAve,-0.061,CHCGILDTO6Y
MA6813400180,h_OCHCTP,10-L1-7,2019-02-04 12:15:00.0,BerPreFecMax,0.00271,CHCGILDTO6Y
MA6813400180,h_OCHCTP,10-L1-7,2019-02-04 12:15:00.0,PmdMin,1.31,CHCGILDTO6Y
MA6813400180,h_OCHCTP,10-L1-7,2019-02-04 12:15:00.0,SoPmdAve,3523.97,CHCGILDTO6Y
MA6813400180,h_OCHCTP,10-L1-7,2019-02-04 12:30:00.0,Qmin,8.89,CHCGILDTO6Y
MA6813400180,h_OCHCTP,10-L1-7,2019-02-04 12:30:00.0,PhaseCorrectionAve,-0.305,CHCGILDTO6Y
MA6813400180,h_OCHCTP,10-L1-7,2019-02-04 12:30:00.0,BerPreFecMax,0.0027,CHCGILDTO6Y
MA6813400180,h_OCHCTP,10-L1-7,2019-02-04 12:30:00.0,PmdMin,1.23,CHCGILDTO6Y
MA6813400180,h_OCHCTP,10-L1-7,2019-02-04 12:30:00.0,SoPmdAve,3544.54,CHCGILDTO6Y
MA6813400180,h_OCHCTP,10-L1-7,2019-02-04 12:45:00.0,Qmin,8.89,CHCGILDTO6Y
MA6813400180,h_OCHCTP,10-L1-7,2019-02-04 12:45:00.0,PhaseCorrectionAve,-0.122,CHCGILDTO6Y
MA6813400180,h_OCHCTP,10-L1-7,2019-02-04 12:45:00.0,BerPreFecMax,0.00269,CHCGILDTO6Y
MA6813400180,h_OCHCTP,10-L1-7,2019-02-04 12:45:00.0,PmdMin,0.954,CHCGILDTO6Y
MA6813400180,h_OCHCTP,10-L1-7,2019-02-04 12:45:00.0,SoPmdAve,3482.68,CHCGILDTO6Y
MA6813400180,h_OCHCTP,10-L1-8,2019-02-04 12:15:00.0,Qmin,9.32,CHCGILDTO6Y
MA6813400180,h_OCHCTP,10-L1-8,2019-02-04 12:15:00.0,PhaseCorrectionAve,-0.122,CHCGILDTO6Y
MA6813400180,h_OCHCTP,10-L1-8,2019-02-04 12:15:00.0,BerPreFecMax,0.00173,CHCGILDTO6Y
MA6813400180,h_OCHCTP,10-L1-8,2019-02-04 12:15:00.0,PmdMin,2.27,CHCGILDTO6Y
MA6813400180,h_OCHCTP,10-L1-8,2019-02-04 12:15:00.0,SoPmdAve,3349.3,CHCGILDTO6Y
MA6813400180,h_OCHCTP,10-L1-8,2019-02-04 12:30:00.0,Qmin,9.31,CHCGILDTO6Y
MA6813400180,h_OCHCTP,10-L1-8,2019-02-04 12:30:00.0,PhaseCorrectionAve,-0.305,CHCGILDTO6Y
MA6813400180,h_OCHCTP,10-L1-8,2019-02-04 12:30:00.0,BerPreFecMax,0.00174,CHCGILDTO6Y
MA6813400180,h_OCHCTP,10-L1-8,2019-02-04 12:30:00.0,PmdMin,5.27,CHCGILDTO6Y
MA6813400180,h_OCHCTP,10-L1-8,2019-02-04 12:30:00.0,SoPmdAve,3303.62,CHCGILDTO6Y
MA6813400180,h_OCHCTP,10-L1-8,2019-02-04 12:45:00.0,Qmin,9.32,CHCGILDTO6Y
MA6813400180,h_OCHCTP,10-L1-8,2019-02-04 12:45:00.0,PhaseCorrectionAve,-0.122,CHCGILDTO6Y
MA6813400180,h_OCHCTP,10-L1-8,2019-02-04 12:45:00.0,BerPreFecMax,0.00173,CHCGILDTO6Y
MA6813400180,h_OCHCTP,10-L1-8,2019-02-04 12:45:00.0,PmdMin,7.57,CHCGILDTO6Y
MA6813400180,h_OCHCTP,10-L1-8,2019-02-04 12:45:00.0,SoPmdAve,3294.85,CHCGILDTO6Y
MA6813400180,h_OCHCTP,10-L1-9,2019-02-04 12:15:00.0,Qmin,9.33,CHCGILDTO6Y
MA6813400180,h_OCHCTP,10-L1-9,2019-02-04 12:15:00.0,PhaseCorrectionAve,-0.122,CHCGILDTO6Y
MA6813400180,h_OCHCTP,10-L1-9,2019-02-04 12:15:00.0,BerPreFecMax,0.00171,CHCGILDTO6Y
MA6813400180,h_OCHCTP,10-L1-9,2019-02-04 12:15:00.0,PmdMin,8.89,CHCGILDTO6Y
MA6813400180,h_OCHCTP,10-L1-9,2019-02-04 12:15:00.0,SoPmdAve,3275.34,CHCGILDTO6Y
MA6813400180,h_OCHCTP,10-L1-9,2019-02-04 12:30:00.0,Qmin,9.34,CHCGILDTO6Y
MA6813400180,h_OCHCTP,10-L1-9,2019-02-04 12:30:00.0,PhaseCorrectionAve,-0.305,CHCGILDTO6Y
MA6813400180,h_OCHCTP,10-L1-9,2019-02-04 12:30:00.0,BerPreFecMax,0.0017,CHCGILDTO6Y
MA6813400180,h_OCHCTP,10-L1-9,2019-02-04 12:30:00.0,PmdMin,7.39,CHCGILDTO6Y
MA6813400180,h_OCHCTP,10-L1-9,2019-02-04 12:30:00.0,SoPmdAve,3532.03,CHCGILDTO6Y
MA6813400180,h_OCHCTP,10-L1-9,2019-02-04 12:45:00.0,Qmin,9.32,CHCGILDTO6Y
MA6813400180,h_OCHCTP,10-L1-9,2019-02-04 12:45:00.0,PhaseCorrectionAve,-0.122,CHCGILDTO6Y
MA6813400180,h_OCHCTP,10-L1-9,2019-02-04 12:45:00.0,BerPreFecMax,0.00172,CHCGILDTO6Y
MA6813400180,h_OCHCTP,10-L1-9,2019-02-04 12:45:00.0,PmdMin,8.67,CHCGILDTO6Y
MA6813400180,h_OCHCTP,10-L1-9,2019-02-04 12:45:00.0,SoPmdAve,3599.27,CHCGILDTO6Y
MA6813400180,h_OCHCTP,10-L1-10,2019-02-04 12:15:00.0,Qmin,9.35,CHCGILDTO6Y
MA6813400180,h_OCHCTP,10-L1-10,2019-02-04 12:15:00.0,PhaseCorrectionAve,-0.244,CHCGILDTO6Y
MA6813400180,h_OCHCTP,10-L1-10,2019-02-04 12:15:00.0,BerPreFecMax,0.00166,CHCGILDTO6Y
MA6813400180,h_OCHCTP,10-L1-10,2019-02-04 12:15:00.0,PmdMin,10.15,CHCGILDTO6Y
MA6813400180,h_OCHCTP,10-L1-10,2019-02-04 12:15:00.0,SoPmdAve,3260.05,CHCGILDTO6Y
MA6813400180,h_OCHCTP,10-L1-10,2019-02-04 12:30:00.0,Qmin,9.35,CHCGILDTO6Y
MA6813400180,h_OCHCTP,10-L1-10,2019-02-04 12:30:00.0,PhaseCorrectionAve,-0.305,CHCGILDTO6Y
MA6813400180,h_OCHCTP,10-L1-10,2019-02-04 12:30:00.0,BerPreFecMax,0.00167,CHCGILDTO6Y
MA6813400180,h_OCHCTP,10-L1-10,2019-02-04 12:30:00.0,PmdMin,9.81,CHCGILDTO6Y
MA6813400180,h_OCHCTP,10-L1-10,2019-02-04 12:30:00.0,SoPmdAve,3237.74,CHCGILDTO6Y
MA6813400180,h_OCHCTP,10-L1-10,2019-02-04 12:45:00.0,Qmin,9.36,CHCGILDTO6Y
MA6813400180,h_OCHCTP,10-L1-10,2019-02-04 12:45:00.0,PhaseCorrectionAve,-0.122,CHCGILDTO6Y
MA6813400180,h_OCHCTP,10-L1-10,2019-02-04 12:45:00.0,BerPreFecMax,0.00165,CHCGILDTO6Y
MA6813400180,h_OCHCTP,10-L1-10,2019-02-04 12:45:00.0,PmdMin,12.17,CHCGILDTO6Y
MA6813400180,h_OCHCTP,10-L1-10,2019-02-04 12:45:00.0,SoPmdAve,3228.31,CHCGILDTO6Y
MA6813400180,h_OCHCTP,13-L1-1,2019-02-04 12:15:00.0,Qmin,9.18,CHCGILDTO6Y
MA6813400180,h_OCHCTP,13-L1-1,2019-02-04 12:15:00.0,PhaseCorrectionAve,2.47e-07,CHCGILDTO6Y
MA6813400180,h_OCHCTP,13-L1-1,2019-02-04 12:15:00.0,BerPreFecMax,0.002,CHCGILDTO6Y
MA6813400180,h_OCHCTP,13-L1-1,2019-02-04 12:15:00.0,PmdMin,0.483,CHCGILDTO6Y
MA6813400180,h_OCHCTP,13-L1-1,2019-02-04 12:15:00.0,SoPmdAve,3526.44,CHCGILDTO6Y
MA6813400180,h_OCHCTP,13-L1-1,2019-02-04 12:30:00.0,Qmin,9.04,CHCGILDTO6Y
MA6813400180,h_OCHCTP,13-L1-1,2019-02-04 12:30:00.0,PhaseCorrectionAve,3.04e-07,CHCGILDTO6Y
MA6813400180,h_OCHCTP,13-L1-1,2019-02-04 12:30:00.0,BerPreFecMax,0.00233,CHCGILDTO6Y
MA6813400180,h_OCHCTP,13-L1-1,2019-02-04 12:30:00.0,PmdMin,1.58,CHCGILDTO6Y
MA6813400180,h_OCHCTP,13-L1-1,2019-02-04 12:30:00.0,SoPmdAve,3597.85,CHCGILDTO6Y
MA6813400180,h_OCHCTP,13-L1-1,2019-02-04 12:45:00.0,Qmin,9.11,CHCGILDTO6Y
MA6813400180,h_OCHCTP,13-L1-1,2019-02-04 12:45:00.0,PhaseCorrectionAve,2.89e-07,CHCGILDTO6Y
MA6813400180,h_OCHCTP,13-L1-1,2019-02-04 12:45:00.0,BerPreFecMax,0.00215,CHCGILDTO6Y
MA6813400180,h_OCHCTP,13-L1-1,2019-02-04 12:45:00.0,PmdMin,1.46,CHCGILDTO6Y
MA6813400180,h_OCHCTP,13-L1-1,2019-02-04 12:45:00.0,SoPmdAve,3608.31,CHCGILDTO6Y
MA6813400180,h_OCHCTP,13-L1-2,2019-02-04 12:15:00.0,Qmin,9.18,CHCGILDTO6Y
MA6813400180,h_OCHCTP,13-L1-2,2019-02-04 12:15:00.0,PhaseCorrectionAve,3.11e-07,CHCGILDTO6Y
MA6813400180,h_OCHCTP,13-L1-2,2019-02-04 12:15:00.0,BerPreFecMax,0.002,CHCGILDTO6Y
MA6813400180,h_OCHCTP,13-L1-2,2019-02-04 12:15:00.0,PmdMin,0.302,CHCGILDTO6Y
MA6813400180,h_OCHCTP,13-L1-2,2019-02-04 12:15:00.0,SoPmdAve,3487.68,CHCGILDTO6Y
MA6813400180,h_OCHCTP,13-L1-2,2019-02-04 12:30:00.0,Qmin,9.01,CHCGILDTO6Y
MA6813400180,h_OCHCTP,13-L1-2,2019-02-04 12:30:00.0,PhaseCorrectionAve,-0.183,CHCGILDTO6Y
MA6813400180,h_OCHCTP,13-L1-2,2019-02-04 12:30:00.0,BerPreFecMax,0.00238,CHCGILDTO6Y
MA6813400180,h_OCHCTP,13-L1-2,2019-02-04 12:30:00.0,PmdMin,0.775,CHCGILDTO6Y
MA6813400180,h_OCHCTP,13-L1-2,2019-02-04 12:30:00.0,SoPmdAve,3475.49,CHCGILDTO6Y
MA6813400180,h_OCHCTP,13-L1-2,2019-02-04 12:45:00.0,Qmin,9.13,CHCGILDTO6Y
MA6813400180,h_OCHCTP,13-L1-2,2019-02-04 12:45:00.0,PhaseCorrectionAve,3.06e-07,CHCGILDTO6Y
MA6813400180,h_OCHCTP,13-L1-2,2019-02-04 12:45:00.0,BerPreFecMax,0.00211,CHCGILDTO6Y
MA6813400180,h_OCHCTP,13-L1-2,2019-02-04 12:45:00.0,PmdMin,0.789,CHCGILDTO6Y
MA6813400180,h_OCHCTP,13-L1-2,2019-02-04 12:45:00.0,SoPmdAve,3466.76,CHCGILDTO6Y
MA6813400180,h_OCHCTP,13-L1-3,2019-02-04 12:15:00.0,Qmin,8.89,CHCGILDTO6Y
MA6813400180,h_OCHCTP,13-L1-3,2019-02-04 12:15:00.0,PhaseCorrectionAve,-0.061,CHCGILDTO6Y
MA6813400180,h_OCHCTP,13-L1-3,2019-02-04 12:15:00.0,BerPreFecMax,0.00269,CHCGILDTO6Y
MA6813400180,h_OCHCTP,13-L1-3,2019-02-04 12:15:00.0,PmdMin,0.764,CHCGILDTO6Y
MA6813400180,h_OCHCTP,13-L1-3,2019-02-04 12:15:00.0,SoPmdAve,2895.25,CHCGILDTO6Y
MA6813400180,h_OCHCTP,13-L1-3,2019-02-04 12:30:00.0,Qmin,8.93,CHCGILDTO6Y
MA6813400180,h_OCHCTP,13-L1-3,2019-02-04 12:30:00.0,PhaseCorrectionAve,-0.183,CHCGILDTO6Y
MA6813400180,h_OCHCTP,13-L1-3,2019-02-04 12:30:00.0,BerPreFecMax,0.00258,CHCGILDTO6Y
MA6813400180,h_OCHCTP,13-L1-3,2019-02-04 12:30:00.0,PmdMin,0.943,CHCGILDTO6Y
MA6813400180,h_OCHCTP,13-L1-3,2019-02-04 12:30:00.0,SoPmdAve,2856.44,CHCGILDTO6Y
MA6813400180,h_OCHCTP,13-L1-3,2019-02-04 12:45:00.0,Qmin,8.91,CHCGILDTO6Y
MA6813400180,h_OCHCTP,13-L1-3,2019-02-04 12:45:00.0,PhaseCorrectionAve,4.44e-07,CHCGILDTO6Y
MA6813400180,h_OCHCTP,13-L1-3,2019-02-04 12:45:00.0,BerPreFecMax,0.00263,CHCGILDTO6Y
MA6813400180,h_OCHCTP,13-L1-3,2019-02-04 12:45:00.0,PmdMin,1.25,CHCGILDTO6Y
MA6813400180,h_OCHCTP,13-L1-3,2019-02-04 12:45:00.0,SoPmdAve,2943.53,CHCGILDTO6Y
MA6813400180,h_OCHCTP,13-L1-4,2019-02-04 12:15:00.0,Qmin,8.57,CHCGILDTO6Y
MA6813400180,h_OCHCTP,13-L1-4,2019-02-04 12:15:00.0,PhaseCorrectionAve,-0.061,CHCGILDTO6Y
MA6813400180,h_OCHCTP,13-L1-4,2019-02-04 12:15:00.0,BerPreFecMax,0.00365,CHCGILDTO6Y
MA6813400180,h_OCHCTP,13-L1-4,2019-02-04 12:15:00.0,PmdMin,0.731,CHCGILDTO6Y
MA6813400180,h_OCHCTP,13-L1-4,2019-02-04 12:15:00.0,SoPmdAve,3414.71,CHCGILDTO6Y
MA6813400180,h_OCHCTP,13-L1-4,2019-02-04 12:30:00.0,Qmin,8.65,CHCGILDTO6Y
MA6813400180,h_OCHCTP,13-L1-4,2019-02-04 12:30:00.0,PhaseCorrectionAve,-0.183,CHCGILDTO6Y
MA6813400180,h_OCHCTP,13-L1-4,2019-02-04 12:30:00.0,BerPreFecMax,0.00339,CHCGILDTO6Y
MA6813400180,h_OCHCTP,13-L1-4,2019-02-04 12:30:00.0,PmdMin,1.15,CHCGILDTO6Y
MA6813400180,h_OCHCTP,13-L1-4,2019-02-04 12:30:00.0,SoPmdAve,3419.88,CHCGILDTO6Y
MA6813400180,h_OCHCTP,13-L1-4,2019-02-04 12:45:00.0,Qmin,8.62,CHCGILDTO6Y
MA6813400180,h_OCHCTP,13-L1-4,2019-02-04 12:45:00.0,PhaseCorrectionAve,5.66e-07,CHCGILDTO6Y
MA6813400180,h_OCHCTP,13-L1-4,2019-02-04 12:45:00.0,BerPreFecMax,0.00348,CHCGILDTO6Y
MA6813400180,h_OCHCTP,13-L1-4,2019-02-04 12:45:00.0,PmdMin,0.969,CHCGILDTO6Y
MA6813400180,h_OCHCTP,13-L1-4,2019-02-04 12:45:00.0,SoPmdAve,3383.41,CHCGILDTO6Y
MA6813400180,h_OCHCTP,13-L1-5,2019-02-04 12:15:00.0,Qmin,8.7,CHCGILDTO6Y
MA6813400180,h_OCHCTP,13-L1-5,2019-02-04 12:15:00.0,PhaseCorrectionAve,-0.122,CHCGILDTO6Y
MA6813400180,h_OCHCTP,13-L1-5,2019-02-04 12:15:00.0,BerPreFecMax,0.00323,CHCGILDTO6Y
MA6813400180,h_OCHCTP,13-L1-5,2019-02-04 12:15:00.0,PmdMin,0.726,CHCGILDTO6Y
MA6813400180,h_OCHCTP,13-L1-5,2019-02-04 12:15:00.0,SoPmdAve,2830.89,CHCGILDTO6Y
MA6813400180,h_OCHCTP,13-L1-5,2019-02-04 12:30:00.0,Qmin,8.68,CHCGILDTO6Y
MA6813400180,h_OCHCTP,13-L1-5,2019-02-04 12:30:00.0,PhaseCorrectionAve,-0.244,CHCGILDTO6Y
MA6813400180,h_OCHCTP,13-L1-5,2019-02-04 12:30:00.0,BerPreFecMax,0.0033,CHCGILDTO6Y
MA6813400180,h_OCHCTP,13-L1-5,2019-02-04 12:30:00.0,PmdMin,0.884,CHCGILDTO6Y
MA6813400180,h_OCHCTP,13-L1-5,2019-02-04 12:30:00.0,SoPmdAve,2834.09,CHCGILDTO6Y
MA6813400180,h_OCHCTP,13-L1-5,2019-02-04 12:45:00.0,Qmin,8.59,CHCGILDTO6Y
MA6813400180,h_OCHCTP,13-L1-5,2019-02-04 12:45:00.0,PhaseCorrectionAve,3.2e-07,CHCGILDTO6Y
MA6813400180,h_OCHCTP,13-L1-5,2019-02-04 12:45:00.0,BerPreFecMax,0.00358,CHCGILDTO6Y
MA6813400180,h_OCHCTP,13-L1-5,2019-02-04 12:45:00.0,PmdMin,1.15,CHCGILDTO6Y
MA6813400180,h_OCHCTP,13-L1-5,2019-02-04 12:45:00.0,SoPmdAve,2826.84,CHCGILDTO6Y
MA6813400180,h_OCHCTP,13-L1-6,2019-02-04 12:15:00.0,Qmin,8.81,CHCGILDTO6Y
MA6813400180,h_OCHCTP,13-L1-6,2019-02-04 12:15:00.0,PhaseCorrectionAve,-0.183,CHCGILDTO6Y
MA6813400180,h_OCHCTP,13-L1-6,2019-02-04 12:15:00.0,BerPreFecMax,0.00292,CHCGILDTO6Y
MA6813400180,h_OCHCTP,13-L1-6,2019-02-04 12:15:00.0,PmdMin,1.08,CHCGILDTO6Y
MA6813400180,h_OCHCTP,13-L1-6,2019-02-04 12:15:00.0,SoPmdAve,2979.15,CHCGILDTO6Y
MA6813400180,h_OCHCTP,13-L1-6,2019-02-04 12:30:00.0,Qmin,8.81,CHCGILDTO6Y
MA6813400180,h_OCHCTP,13-L1-6,2019-02-04 12:30:00.0,PhaseCorrectionAve,-0.244,CHCGILDTO6Y
MA6813400180,h_OCHCTP,13-L1-6,2019-02-04 12:30:00.0,BerPreFecMax,0.0029,CHCGILDTO6Y
MA6813400180,h_OCHCTP,13-L1-6,2019-02-04 12:30:00.0,PmdMin,0.836,CHCGILDTO6Y
MA6813400180,h_OCHCTP,13-L1-6,2019-02-04 12:30:00.0,SoPmdAve,3051.31,CHCGILDTO6Y
MA6813400180,h_OCHCTP,13-L1-6,2019-02-04 12:45:00.0,Qmin,8.67,CHCGILDTO6Y
MA6813400180,h_OCHCTP,13-L1-6,2019-02-04 12:45:00.0,PhaseCorrectionAve,5.36e-07,CHCGILDTO6Y
MA6813400180,h_OCHCTP,13-L1-6,2019-02-04 12:45:00.0,BerPreFecMax,0.00333,CHCGILDTO6Y
MA6813400180,h_OCHCTP,13-L1-6,2019-02-04 12:45:00.0,PmdMin,0.565,CHCGILDTO6Y
MA6813400180,h_OCHCTP,13-L1-6,2019-02-04 12:45:00.0,SoPmdAve,3030.51,CHCGILDTO6Y
MA6813400180,h_OCHCTP,13-L1-7,2019-02-04 12:15:00.0,Qmin,8.83,CHCGILDTO6Y
MA6813400180,h_OCHCTP,13-L1-7,2019-02-04 12:15:00.0,PhaseCorrectionAve,-0.183,CHCGILDTO6Y
MA6813400180,h_OCHCTP,13-L1-7,2019-02-04 12:15:00.0,BerPreFecMax,0.00285,CHCGILDTO6Y
MA6813400180,h_OCHCTP,13-L1-7,2019-02-04 12:15:00.0,PmdMin,0.257,CHCGILDTO6Y
MA6813400180,h_OCHCTP,13-L1-7,2019-02-04 12:15:00.0,SoPmdAve,3741.54,CHCGILDTO6Y
MA6813400180,h_OCHCTP,13-L1-7,2019-02-04 12:30:00.0,Qmin,8.83,CHCGILDTO6Y
MA6813400180,h_OCHCTP,13-L1-7,2019-02-04 12:30:00.0,PhaseCorrectionAve,-0.244,CHCGILDTO6Y
MA6813400180,h_OCHCTP,13-L1-7,2019-02-04 12:30:00.0,BerPreFecMax,0.00286,CHCGILDTO6Y
MA6813400180,h_OCHCTP,13-L1-7,2019-02-04 12:30:00.0,PmdMin,0.658,CHCGILDTO6Y
MA6813400180,h_OCHCTP,13-L1-7,2019-02-04 12:30:00.0,SoPmdAve,3661.3,CHCGILDTO6Y
MA6813400180,h_OCHCTP,13-L1-7,2019-02-04 12:45:00.0,Qmin,8.75,CHCGILDTO6Y
MA6813400180,h_OCHCTP,13-L1-7,2019-02-04 12:45:00.0,PhaseCorrectionAve,4.67e-07,CHCGILDTO6Y
MA6813400180,h_OCHCTP,13-L1-7,2019-02-04 12:45:00.0,BerPreFecMax,0.00309,CHCGILDTO6Y
MA6813400180,h_OCHCTP,13-L1-7,2019-02-04 12:45:00.0,PmdMin,0.86,CHCGILDTO6Y
MA6813400180,h_OCHCTP,13-L1-7,2019-02-04 12:45:00.0,SoPmdAve,3735.37,CHCGILDTO6Y
MA6813400180,h_OCHCTP,13-L1-8,2019-02-04 12:15:00.0,Qmin,8.77,CHCGILDTO6Y
MA6813400180,h_OCHCTP,13-L1-8,2019-02-04 12:15:00.0,PhaseCorrectionAve,-0.183,CHCGILDTO6Y
MA6813400180,h_OCHCTP,13-L1-8,2019-02-04 12:15:00.0,BerPreFecMax,0.00302,CHCGILDTO6Y
MA6813400180,h_OCHCTP,13-L1-8,2019-02-04 12:15:00.0,PmdMin,0.782,CHCGILDTO6Y
MA6813400180,h_OCHCTP,13-L1-8,2019-02-04 12:15:00.0,SoPmdAve,3751.55,CHCGILDTO6Y
MA6813400180,h_OCHCTP,13-L1-8,2019-02-04 12:30:00.0,Qmin,8.85,CHCGILDTO6Y
MA6813400180,h_OCHCTP,13-L1-8,2019-02-04 12:30:00.0,PhaseCorrectionAve,-0.305,CHCGILDTO6Y
MA6813400180,h_OCHCTP,13-L1-8,2019-02-04 12:30:00.0,BerPreFecMax,0.0028,CHCGILDTO6Y
MA6813400180,h_OCHCTP,13-L1-8,2019-02-04 12:30:00.0,PmdMin,0.642,CHCGILDTO6Y
MA6813400180,h_OCHCTP,13-L1-8,2019-02-04 12:30:00.0,SoPmdAve,3734.32,CHCGILDTO6Y
MA6813400180,h_OCHCTP,13-L1-8,2019-02-04 12:45:00.0,Qmin,8.87,CHCGILDTO6Y
MA6813400180,h_OCHCTP,13-L1-8,2019-02-04 12:45:00.0,PhaseCorrectionAve,8.48e-07,CHCGILDTO6Y
MA6813400180,h_OCHCTP,13-L1-8,2019-02-04 12:45:00.0,BerPreFecMax,0.00274,CHCGILDTO6Y
MA6813400180,h_OCHCTP,13-L1-8,2019-02-04 12:45:00.0,PmdMin,0.861,CHCGILDTO6Y
MA6813400180,h_OCHCTP,13-L1-8,2019-02-04 12:45:00.0,SoPmdAve,3926.9,CHCGILDTO6Y
MA6813400180,h_OCHCTP,13-L1-9,2019-02-04 12:15:00.0,Qmin,8.71,CHCGILDTO6Y
MA6813400180,h_OCHCTP,13-L1-9,2019-02-04 12:15:00.0,PhaseCorrectionAve,-0.183,CHCGILDTO6Y
MA6813400180,h_OCHCTP,13-L1-9,2019-02-04 12:15:00.0,BerPreFecMax,0.00322,CHCGILDTO6Y
MA6813400180,h_OCHCTP,13-L1-9,2019-02-04 12:15:00.0,PmdMin,0.987,CHCGILDTO6Y
MA6813400180,h_OCHCTP,13-L1-9,2019-02-04 12:15:00.0,SoPmdAve,3490.1,CHCGILDTO6Y
MA6813400180,h_OCHCTP,13-L1-9,2019-02-04 12:30:00.0,Qmin,8.71,CHCGILDTO6Y
MA6813400180,h_OCHCTP,13-L1-9,2019-02-04 12:30:00.0,PhaseCorrectionAve,-0.305,CHCGILDTO6Y
MA6813400180,h_OCHCTP,13-L1-9,2019-02-04 12:30:00.0,BerPreFecMax,0.00321,CHCGILDTO6Y
MA6813400180,h_OCHCTP,13-L1-9,2019-02-04 12:30:00.0,PmdMin,1.2,CHCGILDTO6Y
MA6813400180,h_OCHCTP,13-L1-9,2019-02-04 12:30:00.0,SoPmdAve,3577.72,CHCGILDTO6Y
MA6813400180,h_OCHCTP,13-L1-9,2019-02-04 12:45:00.0,Qmin,8.78,CHCGILDTO6Y
MA6813400180,h_OCHCTP,13-L1-9,2019-02-04 12:45:00.0,PhaseCorrectionAve,3.49e-06,CHCGILDTO6Y
MA6813400180,h_OCHCTP,13-L1-9,2019-02-04 12:45:00.0,BerPreFecMax,0.00299,CHCGILDTO6Y
MA6813400180,h_OCHCTP,13-L1-9,2019-02-04 12:45:00.0,PmdMin,0.686,CHCGILDTO6Y
MA6813400180,h_OCHCTP,13-L1-9,2019-02-04 12:45:00.0,SoPmdAve,3511.69,CHCGILDTO6Y
MA6813400180,h_OCHCTP,13-L1-10,2019-02-04 12:15:00.0,Qmin,8.59,CHCGILDTO6Y
MA6813400180,h_OCHCTP,13-L1-10,2019-02-04 12:15:00.0,PhaseCorrectionAve,-0.244,CHCGILDTO6Y
MA6813400180,h_OCHCTP,13-L1-10,2019-02-04 12:15:00.0,BerPreFecMax,0.00359,CHCGILDTO6Y
MA6813400180,h_OCHCTP,13-L1-10,2019-02-04 12:15:00.0,PmdMin,1.17,CHCGILDTO6Y
MA6813400180,h_OCHCTP,13-L1-10,2019-02-04 12:15:00.0,SoPmdAve,3795.79,CHCGILDTO6Y
MA6813400180,h_OCHCTP,13-L1-10,2019-02-04 12:30:00.0,Qmin,8.64,CHCGILDTO6Y
MA6813400180,h_OCHCTP,13-L1-10,2019-02-04 12:30:00.0,PhaseCorrectionAve,-0.305,CHCGILDTO6Y
MA6813400180,h_OCHCTP,13-L1-10,2019-02-04 12:30:00.0,BerPreFecMax,0.00342,CHCGILDTO6Y
MA6813400180,h_OCHCTP,13-L1-10,2019-02-04 12:30:00.0,PmdMin,1.4,CHCGILDTO6Y
MA6813400180,h_OCHCTP,13-L1-10,2019-02-04 12:30:00.0,SoPmdAve,3773.08,CHCGILDTO6Y
MA6813400180,h_OCHCTP,13-L1-10,2019-02-04 12:45:00.0,Qmin,8.57,CHCGILDTO6Y
MA6813400180,h_OCHCTP,13-L1-10,2019-02-04 12:45:00.0,PhaseCorrectionAve,3.41e-06,CHCGILDTO6Y
MA6813400180,h_OCHCTP,13-L1-10,2019-02-04 12:45:00.0,BerPreFecMax,0.00365,CHCGILDTO6Y
MA6813400180,h_OCHCTP,13-L1-10,2019-02-04 12:45:00.0,PmdMin,0.909,CHCGILDTO6Y
MA6813400180,h_OCHCTP,13-L1-10,2019-02-04 12:45:00.0,SoPmdAve,3751.33,CHCGILDTO6Y
