MA6813400180,h_OCHCTP,13-L1-1,2019-01-24 14:15:00.0,Qmin,9.19,CHCGILDTO6Y
MA6813400180,h_OCHCTP,13-L1-1,2019-01-24 14:15:00.0,PhaseCorrectionAve,2.45e-07,CHCGILDTO6Y
MA6813400180,h_OCHCTP,13-L1-1,2019-01-24 14:15:00.0,BerPreFecMax,0.00199,CHCGILDTO6Y
MA6813400180,h_OCHCTP,13-L1-1,2019-01-24 14:15:00.0,PmdMin,0.281,CHCGILDTO6Y
MA6813400180,h_OCHCTP,13-L1-1,2019-01-24 14:15:00.0,SoPmdAve,3561.58,CHCGILDTO6Y
MA6813400180,h_OCHCTP,13-L1-1,2019-01-24 14:30:00.0,Qmin,9.22,CHCGILDTO6Y
MA6813400180,h_OCHCTP,13-L1-1,2019-01-24 14:30:00.0,PhaseCorrectionAve,2.43e-07,CHCGILDTO6Y
MA6813400180,h_OCHCTP,13-L1-1,2019-01-24 14:30:00.0,BerPreFecMax,0.00193,CHCGILDTO6Y
MA6813400180,h_OCHCTP,13-L1-1,2019-01-24 14:30:00.0,PmdMin,1.33,CHCGILDTO6Y
MA6813400180,h_OCHCTP,13-L1-1,2019-01-24 14:30:00.0,SoPmdAve,3593.36,CHCGILDTO6Y
MA6813400180,h_OCHCTP,13-L1-1,2019-01-24 14:45:00.0,Qmin,9.25,CHCGILDTO6Y
MA6813400180,h_OCHCTP,13-L1-1,2019-01-24 14:45:00.0,PhaseCorrectionAve,2.32e-07,CHCGILDTO6Y
MA6813400180,h_OCHCTP,13-L1-1,2019-01-24 14:45:00.0,BerPreFecMax,0.00186,CHCGILDTO6Y
MA6813400180,h_OCHCTP,13-L1-1,2019-01-24 14:45:00.0,PmdMin,0.928,CHCGILDTO6Y
MA6813400180,h_OCHCTP,13-L1-1,2019-01-24 14:45:00.0,SoPmdAve,3659.24,CHCGILDTO6Y
MA6813400180,h_OCHCTP,13-L1-2,2019-01-24 14:15:00.0,Qmin,9.18,CHCGILDTO6Y
MA6813400180,h_OCHCTP,13-L1-2,2019-01-24 14:15:00.0,PhaseCorrectionAve,3.37e-07,CHCGILDTO6Y
MA6813400180,h_OCHCTP,13-L1-2,2019-01-24 14:15:00.0,BerPreFecMax,0.002,CHCGILDTO6Y
MA6813400180,h_OCHCTP,13-L1-2,2019-01-24 14:15:00.0,PmdMin,0.857,CHCGILDTO6Y
MA6813400180,h_OCHCTP,13-L1-2,2019-01-24 14:15:00.0,SoPmdAve,3435.74,CHCGILDTO6Y
MA6813400180,h_OCHCTP,13-L1-2,2019-01-24 14:30:00.0,Qmin,9.21,CHCGILDTO6Y
MA6813400180,h_OCHCTP,13-L1-2,2019-01-24 14:30:00.0,PhaseCorrectionAve,-0.061,CHCGILDTO6Y
MA6813400180,h_OCHCTP,13-L1-2,2019-01-24 14:30:00.0,BerPreFecMax,0.00194,CHCGILDTO6Y
MA6813400180,h_OCHCTP,13-L1-2,2019-01-24 14:30:00.0,PmdMin,1.15,CHCGILDTO6Y
MA6813400180,h_OCHCTP,13-L1-2,2019-01-24 14:30:00.0,SoPmdAve,3552.19,CHCGILDTO6Y
MA6813400180,h_OCHCTP,13-L1-2,2019-01-24 14:45:00.0,Qmin,9.27,CHCGILDTO6Y
MA6813400180,h_OCHCTP,13-L1-2,2019-01-24 14:45:00.0,PhaseCorrectionAve,3.09e-07,CHCGILDTO6Y
MA6813400180,h_OCHCTP,13-L1-2,2019-01-24 14:45:00.0,BerPreFecMax,0.00183,CHCGILDTO6Y
MA6813400180,h_OCHCTP,13-L1-2,2019-01-24 14:45:00.0,PmdMin,1.71,CHCGILDTO6Y
MA6813400180,h_OCHCTP,13-L1-2,2019-01-24 14:45:00.0,SoPmdAve,3498.06,CHCGILDTO6Y
MA6813400180,h_OCHCTP,13-L1-3,2019-01-24 14:15:00.0,Qmin,9.06,CHCGILDTO6Y
MA6813400180,h_OCHCTP,13-L1-3,2019-01-24 14:15:00.0,PhaseCorrectionAve,4.15e-07,CHCGILDTO6Y
MA6813400180,h_OCHCTP,13-L1-3,2019-01-24 14:15:00.0,BerPreFecMax,0.00228,CHCGILDTO6Y
MA6813400180,h_OCHCTP,13-L1-3,2019-01-24 14:15:00.0,PmdMin,0.589,CHCGILDTO6Y
MA6813400180,h_OCHCTP,13-L1-3,2019-01-24 14:15:00.0,SoPmdAve,2986.76,CHCGILDTO6Y
MA6813400180,h_OCHCTP,13-L1-3,2019-01-24 14:30:00.0,Qmin,9.04,CHCGILDTO6Y
MA6813400180,h_OCHCTP,13-L1-3,2019-01-24 14:30:00.0,PhaseCorrectionAve,-0.122,CHCGILDTO6Y
MA6813400180,h_OCHCTP,13-L1-3,2019-01-24 14:30:00.0,BerPreFecMax,0.00231,CHCGILDTO6Y
MA6813400180,h_OCHCTP,13-L1-3,2019-01-24 14:30:00.0,PmdMin,0.478,CHCGILDTO6Y
MA6813400180,h_OCHCTP,13-L1-3,2019-01-24 14:30:00.0,SoPmdAve,2916.72,CHCGILDTO6Y
MA6813400180,h_OCHCTP,13-L1-3,2019-01-24 14:45:00.0,Qmin,9.08,CHCGILDTO6Y
MA6813400180,h_OCHCTP,13-L1-3,2019-01-24 14:45:00.0,PhaseCorrectionAve,-0.061,CHCGILDTO6Y
MA6813400180,h_OCHCTP,13-L1-3,2019-01-24 14:45:00.0,BerPreFecMax,0.00222,CHCGILDTO6Y
MA6813400180,h_OCHCTP,13-L1-3,2019-01-24 14:45:00.0,PmdMin,0.336,CHCGILDTO6Y
MA6813400180,h_OCHCTP,13-L1-3,2019-01-24 14:45:00.0,SoPmdAve,2977.31,CHCGILDTO6Y
MA6813400180,h_OCHCTP,13-L1-4,2019-01-24 14:15:00.0,Qmin,8.83,CHCGILDTO6Y
MA6813400180,h_OCHCTP,13-L1-4,2019-01-24 14:15:00.0,PhaseCorrectionAve,3.86e-07,CHCGILDTO6Y
MA6813400180,h_OCHCTP,13-L1-4,2019-01-24 14:15:00.0,BerPreFecMax,0.00286,CHCGILDTO6Y
MA6813400180,h_OCHCTP,13-L1-4,2019-01-24 14:15:00.0,PmdMin,0.781,CHCGILDTO6Y
MA6813400180,h_OCHCTP,13-L1-4,2019-01-24 14:15:00.0,SoPmdAve,3476.28,CHCGILDTO6Y
MA6813400180,h_OCHCTP,13-L1-4,2019-01-24 14:30:00.0,Qmin,8.79,CHCGILDTO6Y
MA6813400180,h_OCHCTP,13-L1-4,2019-01-24 14:30:00.0,PhaseCorrectionAve,-0.122,CHCGILDTO6Y
MA6813400180,h_OCHCTP,13-L1-4,2019-01-24 14:30:00.0,BerPreFecMax,0.00296,CHCGILDTO6Y
MA6813400180,h_OCHCTP,13-L1-4,2019-01-24 14:30:00.0,PmdMin,0.645,CHCGILDTO6Y
MA6813400180,h_OCHCTP,13-L1-4,2019-01-24 14:30:00.0,SoPmdAve,3332.87,CHCGILDTO6Y
MA6813400180,h_OCHCTP,13-L1-4,2019-01-24 14:45:00.0,Qmin,8.83,CHCGILDTO6Y
MA6813400180,h_OCHCTP,13-L1-4,2019-01-24 14:45:00.0,PhaseCorrectionAve,-0.061,CHCGILDTO6Y
MA6813400180,h_OCHCTP,13-L1-4,2019-01-24 14:45:00.0,BerPreFecMax,0.00285,CHCGILDTO6Y
MA6813400180,h_OCHCTP,13-L1-4,2019-01-24 14:45:00.0,PmdMin,0.555,CHCGILDTO6Y
MA6813400180,h_OCHCTP,13-L1-4,2019-01-24 14:45:00.0,SoPmdAve,3329.78,CHCGILDTO6Y
MA6813400180,h_OCHCTP,13-L1-5,2019-01-24 14:15:00.0,Qmin,8.81,CHCGILDTO6Y
MA6813400180,h_OCHCTP,13-L1-5,2019-01-24 14:15:00.0,PhaseCorrectionAve,-0.061,CHCGILDTO6Y
MA6813400180,h_OCHCTP,13-L1-5,2019-01-24 14:15:00.0,BerPreFecMax,0.00292,CHCGILDTO6Y
MA6813400180,h_OCHCTP,13-L1-5,2019-01-24 14:15:00.0,PmdMin,0.857,CHCGILDTO6Y
MA6813400180,h_OCHCTP,13-L1-5,2019-01-24 14:15:00.0,SoPmdAve,2738.51,CHCGILDTO6Y
MA6813400180,h_OCHCTP,13-L1-5,2019-01-24 14:30:00.0,Qmin,8.81,CHCGILDTO6Y
MA6813400180,h_OCHCTP,13-L1-5,2019-01-24 14:30:00.0,PhaseCorrectionAve,-0.122,CHCGILDTO6Y
MA6813400180,h_OCHCTP,13-L1-5,2019-01-24 14:30:00.0,BerPreFecMax,0.00292,CHCGILDTO6Y
MA6813400180,h_OCHCTP,13-L1-5,2019-01-24 14:30:00.0,PmdMin,0.73,CHCGILDTO6Y
MA6813400180,h_OCHCTP,13-L1-5,2019-01-24 14:30:00.0,SoPmdAve,2844.41,CHCGILDTO6Y
MA6813400180,h_OCHCTP,13-L1-5,2019-01-24 14:45:00.0,Qmin,8.82,CHCGILDTO6Y
MA6813400180,h_OCHCTP,13-L1-5,2019-01-24 14:45:00.0,PhaseCorrectionAve,-0.061,CHCGILDTO6Y
MA6813400180,h_OCHCTP,13-L1-5,2019-01-24 14:45:00.0,BerPreFecMax,0.00288,CHCGILDTO6Y
MA6813400180,h_OCHCTP,13-L1-5,2019-01-24 14:45:00.0,PmdMin,0.721,CHCGILDTO6Y
MA6813400180,h_OCHCTP,13-L1-5,2019-01-24 14:45:00.0,SoPmdAve,2844.85,CHCGILDTO6Y
MA6813400180,h_OCHCTP,13-L1-6,2019-01-24 14:15:00.0,Qmin,8.86,CHCGILDTO6Y
MA6813400180,h_OCHCTP,13-L1-6,2019-01-24 14:15:00.0,PhaseCorrectionAve,-0.061,CHCGILDTO6Y
MA6813400180,h_OCHCTP,13-L1-6,2019-01-24 14:15:00.0,BerPreFecMax,0.00277,CHCGILDTO6Y
MA6813400180,h_OCHCTP,13-L1-6,2019-01-24 14:15:00.0,PmdMin,0.904,CHCGILDTO6Y
MA6813400180,h_OCHCTP,13-L1-6,2019-01-24 14:15:00.0,SoPmdAve,2988.88,CHCGILDTO6Y
MA6813400180,h_OCHCTP,13-L1-6,2019-01-24 14:30:00.0,Qmin,8.83,CHCGILDTO6Y
MA6813400180,h_OCHCTP,13-L1-6,2019-01-24 14:30:00.0,PhaseCorrectionAve,-0.122,CHCGILDTO6Y
MA6813400180,h_OCHCTP,13-L1-6,2019-01-24 14:30:00.0,BerPreFecMax,0.00286,CHCGILDTO6Y
MA6813400180,h_OCHCTP,13-L1-6,2019-01-24 14:30:00.0,PmdMin,0.919,CHCGILDTO6Y
MA6813400180,h_OCHCTP,13-L1-6,2019-01-24 14:30:00.0,SoPmdAve,2950.65,CHCGILDTO6Y
MA6813400180,h_OCHCTP,13-L1-6,2019-01-24 14:45:00.0,Qmin,8.86,CHCGILDTO6Y
MA6813400180,h_OCHCTP,13-L1-6,2019-01-24 14:45:00.0,PhaseCorrectionAve,-0.061,CHCGILDTO6Y
MA6813400180,h_OCHCTP,13-L1-6,2019-01-24 14:45:00.0,BerPreFecMax,0.00278,CHCGILDTO6Y
MA6813400180,h_OCHCTP,13-L1-6,2019-01-24 14:45:00.0,PmdMin,0.488,CHCGILDTO6Y
MA6813400180,h_OCHCTP,13-L1-6,2019-01-24 14:45:00.0,SoPmdAve,3143.95,CHCGILDTO6Y
MA6813400180,h_OCHCTP,13-L1-7,2019-01-24 14:15:00.0,Qmin,8.81,CHCGILDTO6Y
MA6813400180,h_OCHCTP,13-L1-7,2019-01-24 14:15:00.0,PhaseCorrectionAve,-0.061,CHCGILDTO6Y
MA6813400180,h_OCHCTP,13-L1-7,2019-01-24 14:15:00.0,BerPreFecMax,0.0029,CHCGILDTO6Y
MA6813400180,h_OCHCTP,13-L1-7,2019-01-24 14:15:00.0,PmdMin,0.726,CHCGILDTO6Y
MA6813400180,h_OCHCTP,13-L1-7,2019-01-24 14:15:00.0,SoPmdAve,3753.24,CHCGILDTO6Y
MA6813400180,h_OCHCTP,13-L1-7,2019-01-24 14:30:00.0,Qmin,8.8,CHCGILDTO6Y
MA6813400180,h_OCHCTP,13-L1-7,2019-01-24 14:30:00.0,PhaseCorrectionAve,-0.183,CHCGILDTO6Y
MA6813400180,h_OCHCTP,13-L1-7,2019-01-24 14:30:00.0,BerPreFecMax,0.00295,CHCGILDTO6Y
MA6813400180,h_OCHCTP,13-L1-7,2019-01-24 14:30:00.0,PmdMin,0.626,CHCGILDTO6Y
MA6813400180,h_OCHCTP,13-L1-7,2019-01-24 14:30:00.0,SoPmdAve,3721.55,CHCGILDTO6Y
MA6813400180,h_OCHCTP,13-L1-7,2019-01-24 14:45:00.0,Qmin,8.88,CHCGILDTO6Y
MA6813400180,h_OCHCTP,13-L1-7,2019-01-24 14:45:00.0,PhaseCorrectionAve,-0.061,CHCGILDTO6Y
MA6813400180,h_OCHCTP,13-L1-7,2019-01-24 14:45:00.0,BerPreFecMax,0.00271,CHCGILDTO6Y
MA6813400180,h_OCHCTP,13-L1-7,2019-01-24 14:45:00.0,PmdMin,0.149,CHCGILDTO6Y
MA6813400180,h_OCHCTP,13-L1-7,2019-01-24 14:45:00.0,SoPmdAve,3769.9,CHCGILDTO6Y
MA6813400180,h_OCHCTP,13-L1-8,2019-01-24 14:15:00.0,Qmin,8.87,CHCGILDTO6Y
MA6813400180,h_OCHCTP,13-L1-8,2019-01-24 14:15:00.0,PhaseCorrectionAve,-0.183,CHCGILDTO6Y
MA6813400180,h_OCHCTP,13-L1-8,2019-01-24 14:15:00.0,BerPreFecMax,0.00274,CHCGILDTO6Y
MA6813400180,h_OCHCTP,13-L1-8,2019-01-24 14:15:00.0,PmdMin,0.692,CHCGILDTO6Y
MA6813400180,h_OCHCTP,13-L1-8,2019-01-24 14:15:00.0,SoPmdAve,3852.87,CHCGILDTO6Y
MA6813400180,h_OCHCTP,13-L1-8,2019-01-24 14:30:00.0,Qmin,8.88,CHCGILDTO6Y
MA6813400180,h_OCHCTP,13-L1-8,2019-01-24 14:30:00.0,PhaseCorrectionAve,-0.183,CHCGILDTO6Y
MA6813400180,h_OCHCTP,13-L1-8,2019-01-24 14:30:00.0,BerPreFecMax,0.00273,CHCGILDTO6Y
MA6813400180,h_OCHCTP,13-L1-8,2019-01-24 14:30:00.0,PmdMin,1.19,CHCGILDTO6Y
MA6813400180,h_OCHCTP,13-L1-8,2019-01-24 14:30:00.0,SoPmdAve,3852.13,CHCGILDTO6Y
MA6813400180,h_OCHCTP,13-L1-8,2019-01-24 14:45:00.0,Qmin,8.94,CHCGILDTO6Y
MA6813400180,h_OCHCTP,13-L1-8,2019-01-24 14:45:00.0,PhaseCorrectionAve,-0.061,CHCGILDTO6Y
MA6813400180,h_OCHCTP,13-L1-8,2019-01-24 14:45:00.0,BerPreFecMax,0.00255,CHCGILDTO6Y
MA6813400180,h_OCHCTP,13-L1-8,2019-01-24 14:45:00.0,PmdMin,0.741,CHCGILDTO6Y
MA6813400180,h_OCHCTP,13-L1-8,2019-01-24 14:45:00.0,SoPmdAve,3827.77,CHCGILDTO6Y
MA6813400180,h_OCHCTP,13-L1-9,2019-01-24 14:15:00.0,Qmin,8.78,CHCGILDTO6Y
MA6813400180,h_OCHCTP,13-L1-9,2019-01-24 14:15:00.0,PhaseCorrectionAve,-0.183,CHCGILDTO6Y
MA6813400180,h_OCHCTP,13-L1-9,2019-01-24 14:15:00.0,BerPreFecMax,0.003,CHCGILDTO6Y
MA6813400180,h_OCHCTP,13-L1-9,2019-01-24 14:15:00.0,PmdMin,0.874,CHCGILDTO6Y
MA6813400180,h_OCHCTP,13-L1-9,2019-01-24 14:15:00.0,SoPmdAve,3556.71,CHCGILDTO6Y
MA6813400180,h_OCHCTP,13-L1-9,2019-01-24 14:30:00.0,Qmin,8.86,CHCGILDTO6Y
MA6813400180,h_OCHCTP,13-L1-9,2019-01-24 14:30:00.0,PhaseCorrectionAve,-0.183,CHCGILDTO6Y
MA6813400180,h_OCHCTP,13-L1-9,2019-01-24 14:30:00.0,BerPreFecMax,0.00278,CHCGILDTO6Y
MA6813400180,h_OCHCTP,13-L1-9,2019-01-24 14:30:00.0,PmdMin,1.07,CHCGILDTO6Y
MA6813400180,h_OCHCTP,13-L1-9,2019-01-24 14:30:00.0,SoPmdAve,3502.52,CHCGILDTO6Y
MA6813400180,h_OCHCTP,13-L1-9,2019-01-24 14:45:00.0,Qmin,8.82,CHCGILDTO6Y
MA6813400180,h_OCHCTP,13-L1-9,2019-01-24 14:45:00.0,PhaseCorrectionAve,-0.061,CHCGILDTO6Y
MA6813400180,h_OCHCTP,13-L1-9,2019-01-24 14:45:00.0,BerPreFecMax,0.00287,CHCGILDTO6Y
MA6813400180,h_OCHCTP,13-L1-9,2019-01-24 14:45:00.0,PmdMin,1.01,CHCGILDTO6Y
MA6813400180,h_OCHCTP,13-L1-9,2019-01-24 14:45:00.0,SoPmdAve,3483.0,CHCGILDTO6Y
MA6813400180,h_OCHCTP,13-L1-10,2019-01-24 14:15:00.0,Qmin,8.69,CHCGILDTO6Y
MA6813400180,h_OCHCTP,13-L1-10,2019-01-24 14:15:00.0,PhaseCorrectionAve,-0.183,CHCGILDTO6Y
MA6813400180,h_OCHCTP,13-L1-10,2019-01-24 14:15:00.0,BerPreFecMax,0.00328,CHCGILDTO6Y
MA6813400180,h_OCHCTP,13-L1-10,2019-01-24 14:15:00.0,PmdMin,0.145,CHCGILDTO6Y
MA6813400180,h_OCHCTP,13-L1-10,2019-01-24 14:15:00.0,SoPmdAve,3702.55,CHCGILDTO6Y
MA6813400180,h_OCHCTP,13-L1-10,2019-01-24 14:30:00.0,Qmin,8.63,CHCGILDTO6Y
MA6813400180,h_OCHCTP,13-L1-10,2019-01-24 14:30:00.0,PhaseCorrectionAve,-0.183,CHCGILDTO6Y
MA6813400180,h_OCHCTP,13-L1-10,2019-01-24 14:30:00.0,BerPreFecMax,0.00346,CHCGILDTO6Y
MA6813400180,h_OCHCTP,13-L1-10,2019-01-24 14:30:00.0,PmdMin,0.588,CHCGILDTO6Y
MA6813400180,h_OCHCTP,13-L1-10,2019-01-24 14:30:00.0,SoPmdAve,3852.61,CHCGILDTO6Y
MA6813400180,h_OCHCTP,13-L1-10,2019-01-24 14:45:00.0,Qmin,8.65,CHCGILDTO6Y
MA6813400180,h_OCHCTP,13-L1-10,2019-01-24 14:45:00.0,PhaseCorrectionAve,-0.122,CHCGILDTO6Y
MA6813400180,h_OCHCTP,13-L1-10,2019-01-24 14:45:00.0,BerPreFecMax,0.00339,CHCGILDTO6Y
MA6813400180,h_OCHCTP,13-L1-10,2019-01-24 14:45:00.0,PmdMin,0.653,CHCGILDTO6Y
MA6813400180,h_OCHCTP,13-L1-10,2019-01-24 14:45:00.0,SoPmdAve,3792.64,CHCGILDTO6Y
MA6813400180,h_OCHCTP,10-L1-1,2019-01-24 14:15:00.0,Qmin,9.49,CHCGILDTO6Y
MA6813400180,h_OCHCTP,10-L1-1,2019-01-24 14:15:00.0,PhaseCorrectionAve,-0.061,CHCGILDTO6Y
MA6813400180,h_OCHCTP,10-L1-1,2019-01-24 14:15:00.0,BerPreFecMax,0.00143,CHCGILDTO6Y
MA6813400180,h_OCHCTP,10-L1-1,2019-01-24 14:15:00.0,PmdMin,2.54,CHCGILDTO6Y
MA6813400180,h_OCHCTP,10-L1-1,2019-01-24 14:15:00.0,SoPmdAve,3288.1,CHCGILDTO6Y
MA6813400180,h_OCHCTP,10-L1-1,2019-01-24 14:30:00.0,Qmin,9.48,CHCGILDTO6Y
MA6813400180,h_OCHCTP,10-L1-1,2019-01-24 14:30:00.0,PhaseCorrectionAve,6.07e-07,CHCGILDTO6Y
MA6813400180,h_OCHCTP,10-L1-1,2019-01-24 14:30:00.0,BerPreFecMax,0.00144,CHCGILDTO6Y
MA6813400180,h_OCHCTP,10-L1-1,2019-01-24 14:30:00.0,PmdMin,2.53,CHCGILDTO6Y
MA6813400180,h_OCHCTP,10-L1-1,2019-01-24 14:30:00.0,SoPmdAve,3390.8,CHCGILDTO6Y
MA6813400180,h_OCHCTP,10-L1-1,2019-01-24 14:45:00.0,Qmin,9.48,CHCGILDTO6Y
MA6813400180,h_OCHCTP,10-L1-1,2019-01-24 14:45:00.0,PhaseCorrectionAve,5.89e-07,CHCGILDTO6Y
MA6813400180,h_OCHCTP,10-L1-1,2019-01-24 14:45:00.0,BerPreFecMax,0.00144,CHCGILDTO6Y
MA6813400180,h_OCHCTP,10-L1-1,2019-01-24 14:45:00.0,PmdMin,2.26,CHCGILDTO6Y
MA6813400180,h_OCHCTP,10-L1-1,2019-01-24 14:45:00.0,SoPmdAve,3272.36,CHCGILDTO6Y
MA6813400180,h_OCHCTP,10-L1-2,2019-01-24 14:15:00.0,Qmin,9.21,CHCGILDTO6Y
MA6813400180,h_OCHCTP,10-L1-2,2019-01-24 14:15:00.0,PhaseCorrectionAve,-0.061,CHCGILDTO6Y
MA6813400180,h_OCHCTP,10-L1-2,2019-01-24 14:15:00.0,BerPreFecMax,0.00193,CHCGILDTO6Y
MA6813400180,h_OCHCTP,10-L1-2,2019-01-24 14:15:00.0,PmdMin,1.62,CHCGILDTO6Y
MA6813400180,h_OCHCTP,10-L1-2,2019-01-24 14:15:00.0,SoPmdAve,3421.9,CHCGILDTO6Y
MA6813400180,h_OCHCTP,10-L1-2,2019-01-24 14:30:00.0,Qmin,9.22,CHCGILDTO6Y
MA6813400180,h_OCHCTP,10-L1-2,2019-01-24 14:30:00.0,PhaseCorrectionAve,-0.061,CHCGILDTO6Y
MA6813400180,h_OCHCTP,10-L1-2,2019-01-24 14:30:00.0,BerPreFecMax,0.00193,CHCGILDTO6Y
MA6813400180,h_OCHCTP,10-L1-2,2019-01-24 14:30:00.0,PmdMin,1.15,CHCGILDTO6Y
MA6813400180,h_OCHCTP,10-L1-2,2019-01-24 14:30:00.0,SoPmdAve,3409.46,CHCGILDTO6Y
MA6813400180,h_OCHCTP,10-L1-2,2019-01-24 14:45:00.0,Qmin,9.21,CHCGILDTO6Y
MA6813400180,h_OCHCTP,10-L1-2,2019-01-24 14:45:00.0,PhaseCorrectionAve,3.94e-07,CHCGILDTO6Y
MA6813400180,h_OCHCTP,10-L1-2,2019-01-24 14:45:00.0,BerPreFecMax,0.00194,CHCGILDTO6Y
MA6813400180,h_OCHCTP,10-L1-2,2019-01-24 14:45:00.0,PmdMin,1.08,CHCGILDTO6Y
MA6813400180,h_OCHCTP,10-L1-2,2019-01-24 14:45:00.0,SoPmdAve,3539.84,CHCGILDTO6Y
MA6813400180,h_OCHCTP,10-L1-3,2019-01-24 14:15:00.0,Qmin,9.0,CHCGILDTO6Y
MA6813400180,h_OCHCTP,10-L1-3,2019-01-24 14:15:00.0,PhaseCorrectionAve,-0.122,CHCGILDTO6Y
MA6813400180,h_OCHCTP,10-L1-3,2019-01-24 14:15:00.0,BerPreFecMax,0.0024,CHCGILDTO6Y
MA6813400180,h_OCHCTP,10-L1-3,2019-01-24 14:15:00.0,PmdMin,0.775,CHCGILDTO6Y
MA6813400180,h_OCHCTP,10-L1-3,2019-01-24 14:15:00.0,SoPmdAve,2826.94,CHCGILDTO6Y
MA6813400180,h_OCHCTP,10-L1-3,2019-01-24 14:30:00.0,Qmin,9.01,CHCGILDTO6Y
MA6813400180,h_OCHCTP,10-L1-3,2019-01-24 14:30:00.0,PhaseCorrectionAve,-0.122,CHCGILDTO6Y
MA6813400180,h_OCHCTP,10-L1-3,2019-01-24 14:30:00.0,BerPreFecMax,0.0024,CHCGILDTO6Y
MA6813400180,h_OCHCTP,10-L1-3,2019-01-24 14:30:00.0,PmdMin,1.67,CHCGILDTO6Y
MA6813400180,h_OCHCTP,10-L1-3,2019-01-24 14:30:00.0,SoPmdAve,2780.05,CHCGILDTO6Y
MA6813400180,h_OCHCTP,10-L1-3,2019-01-24 14:45:00.0,Qmin,9.01,CHCGILDTO6Y
MA6813400180,h_OCHCTP,10-L1-3,2019-01-24 14:45:00.0,PhaseCorrectionAve,4.95e-07,CHCGILDTO6Y
MA6813400180,h_OCHCTP,10-L1-3,2019-01-24 14:45:00.0,BerPreFecMax,0.00238,CHCGILDTO6Y
MA6813400180,h_OCHCTP,10-L1-3,2019-01-24 14:45:00.0,PmdMin,1.19,CHCGILDTO6Y
MA6813400180,h_OCHCTP,10-L1-3,2019-01-24 14:45:00.0,SoPmdAve,2827.64,CHCGILDTO6Y
MA6813400180,h_OCHCTP,10-L1-4,2019-01-24 14:15:00.0,Qmin,8.47,CHCGILDTO6Y
MA6813400180,h_OCHCTP,10-L1-4,2019-01-24 14:15:00.0,PhaseCorrectionAve,-0.122,CHCGILDTO6Y
MA6813400180,h_OCHCTP,10-L1-4,2019-01-24 14:15:00.0,BerPreFecMax,0.00402,CHCGILDTO6Y
MA6813400180,h_OCHCTP,10-L1-4,2019-01-24 14:15:00.0,PmdMin,1.46,CHCGILDTO6Y
MA6813400180,h_OCHCTP,10-L1-4,2019-01-24 14:15:00.0,SoPmdAve,2954.42,CHCGILDTO6Y
MA6813400180,h_OCHCTP,10-L1-4,2019-01-24 14:30:00.0,Qmin,8.44,CHCGILDTO6Y
MA6813400180,h_OCHCTP,10-L1-4,2019-01-24 14:30:00.0,PhaseCorrectionAve,-0.122,CHCGILDTO6Y
MA6813400180,h_OCHCTP,10-L1-4,2019-01-24 14:30:00.0,BerPreFecMax,0.00411,CHCGILDTO6Y
MA6813400180,h_OCHCTP,10-L1-4,2019-01-24 14:30:00.0,PmdMin,1.6,CHCGILDTO6Y
MA6813400180,h_OCHCTP,10-L1-4,2019-01-24 14:30:00.0,SoPmdAve,3045.5,CHCGILDTO6Y
MA6813400180,h_OCHCTP,10-L1-4,2019-01-24 14:45:00.0,Qmin,8.44,CHCGILDTO6Y
MA6813400180,h_OCHCTP,10-L1-4,2019-01-24 14:45:00.0,PhaseCorrectionAve,-0.061,CHCGILDTO6Y
MA6813400180,h_OCHCTP,10-L1-4,2019-01-24 14:45:00.0,BerPreFecMax,0.0041,CHCGILDTO6Y
MA6813400180,h_OCHCTP,10-L1-4,2019-01-24 14:45:00.0,PmdMin,1.21,CHCGILDTO6Y
MA6813400180,h_OCHCTP,10-L1-4,2019-01-24 14:45:00.0,SoPmdAve,3084.45,CHCGILDTO6Y
MA6813400180,h_OCHCTP,10-L1-5,2019-01-24 14:15:00.0,Qmin,8.63,CHCGILDTO6Y
MA6813400180,h_OCHCTP,10-L1-5,2019-01-24 14:15:00.0,PhaseCorrectionAve,-0.183,CHCGILDTO6Y
MA6813400180,h_OCHCTP,10-L1-5,2019-01-24 14:15:00.0,BerPreFecMax,0.00346,CHCGILDTO6Y
MA6813400180,h_OCHCTP,10-L1-5,2019-01-24 14:15:00.0,PmdMin,1.1,CHCGILDTO6Y
MA6813400180,h_OCHCTP,10-L1-5,2019-01-24 14:15:00.0,SoPmdAve,2826.84,CHCGILDTO6Y
MA6813400180,h_OCHCTP,10-L1-5,2019-01-24 14:30:00.0,Qmin,8.62,CHCGILDTO6Y
MA6813400180,h_OCHCTP,10-L1-5,2019-01-24 14:30:00.0,PhaseCorrectionAve,-0.122,CHCGILDTO6Y
MA6813400180,h_OCHCTP,10-L1-5,2019-01-24 14:30:00.0,BerPreFecMax,0.00348,CHCGILDTO6Y
MA6813400180,h_OCHCTP,10-L1-5,2019-01-24 14:30:00.0,PmdMin,1.09,CHCGILDTO6Y
MA6813400180,h_OCHCTP,10-L1-5,2019-01-24 14:30:00.0,SoPmdAve,2921.24,CHCGILDTO6Y
MA6813400180,h_OCHCTP,10-L1-5,2019-01-24 14:45:00.0,Qmin,8.62,CHCGILDTO6Y
MA6813400180,h_OCHCTP,10-L1-5,2019-01-24 14:45:00.0,PhaseCorrectionAve,-0.122,CHCGILDTO6Y
MA6813400180,h_OCHCTP,10-L1-5,2019-01-24 14:45:00.0,BerPreFecMax,0.00348,CHCGILDTO6Y
MA6813400180,h_OCHCTP,10-L1-5,2019-01-24 14:45:00.0,PmdMin,1.8,CHCGILDTO6Y
MA6813400180,h_OCHCTP,10-L1-5,2019-01-24 14:45:00.0,SoPmdAve,2850.4,CHCGILDTO6Y
MA6813400180,h_OCHCTP,10-L1-6,2019-01-24 14:15:00.0,Qmin,8.83,CHCGILDTO6Y
MA6813400180,h_OCHCTP,10-L1-6,2019-01-24 14:15:00.0,PhaseCorrectionAve,-0.183,CHCGILDTO6Y
MA6813400180,h_OCHCTP,10-L1-6,2019-01-24 14:15:00.0,BerPreFecMax,0.00286,CHCGILDTO6Y
MA6813400180,h_OCHCTP,10-L1-6,2019-01-24 14:15:00.0,PmdMin,2.42,CHCGILDTO6Y
MA6813400180,h_OCHCTP,10-L1-6,2019-01-24 14:15:00.0,SoPmdAve,2790.77,CHCGILDTO6Y
MA6813400180,h_OCHCTP,10-L1-6,2019-01-24 14:30:00.0,Qmin,8.83,CHCGILDTO6Y
MA6813400180,h_OCHCTP,10-L1-6,2019-01-24 14:30:00.0,PhaseCorrectionAve,-0.122,CHCGILDTO6Y
MA6813400180,h_OCHCTP,10-L1-6,2019-01-24 14:30:00.0,BerPreFecMax,0.00286,CHCGILDTO6Y
MA6813400180,h_OCHCTP,10-L1-6,2019-01-24 14:30:00.0,PmdMin,2.76,CHCGILDTO6Y
MA6813400180,h_OCHCTP,10-L1-6,2019-01-24 14:30:00.0,SoPmdAve,2842.88,CHCGILDTO6Y
MA6813400180,h_OCHCTP,10-L1-6,2019-01-24 14:45:00.0,Qmin,8.81,CHCGILDTO6Y
MA6813400180,h_OCHCTP,10-L1-6,2019-01-24 14:45:00.0,PhaseCorrectionAve,-0.122,CHCGILDTO6Y
MA6813400180,h_OCHCTP,10-L1-6,2019-01-24 14:45:00.0,BerPreFecMax,0.0029,CHCGILDTO6Y
MA6813400180,h_OCHCTP,10-L1-6,2019-01-24 14:45:00.0,PmdMin,2.44,CHCGILDTO6Y
MA6813400180,h_OCHCTP,10-L1-6,2019-01-24 14:45:00.0,SoPmdAve,2860.84,CHCGILDTO6Y
MA6813400180,h_OCHCTP,10-L1-7,2019-01-24 14:15:00.0,Qmin,8.89,CHCGILDTO6Y
MA6813400180,h_OCHCTP,10-L1-7,2019-01-24 14:15:00.0,PhaseCorrectionAve,-0.183,CHCGILDTO6Y
MA6813400180,h_OCHCTP,10-L1-7,2019-01-24 14:15:00.0,BerPreFecMax,0.0027,CHCGILDTO6Y
MA6813400180,h_OCHCTP,10-L1-7,2019-01-24 14:15:00.0,PmdMin,1.82,CHCGILDTO6Y
MA6813400180,h_OCHCTP,10-L1-7,2019-01-24 14:15:00.0,SoPmdAve,3383.94,CHCGILDTO6Y
MA6813400180,h_OCHCTP,10-L1-7,2019-01-24 14:30:00.0,Qmin,8.9,CHCGILDTO6Y
MA6813400180,h_OCHCTP,10-L1-7,2019-01-24 14:30:00.0,PhaseCorrectionAve,-0.244,CHCGILDTO6Y
MA6813400180,h_OCHCTP,10-L1-7,2019-01-24 14:30:00.0,BerPreFecMax,0.00267,CHCGILDTO6Y
MA6813400180,h_OCHCTP,10-L1-7,2019-01-24 14:30:00.0,PmdMin,1.88,CHCGILDTO6Y
MA6813400180,h_OCHCTP,10-L1-7,2019-01-24 14:30:00.0,SoPmdAve,3430.37,CHCGILDTO6Y
MA6813400180,h_OCHCTP,10-L1-7,2019-01-24 14:45:00.0,Qmin,8.9,CHCGILDTO6Y
MA6813400180,h_OCHCTP,10-L1-7,2019-01-24 14:45:00.0,PhaseCorrectionAve,-0.122,CHCGILDTO6Y
MA6813400180,h_OCHCTP,10-L1-7,2019-01-24 14:45:00.0,BerPreFecMax,0.00267,CHCGILDTO6Y
MA6813400180,h_OCHCTP,10-L1-7,2019-01-24 14:45:00.0,PmdMin,2.56,CHCGILDTO6Y
MA6813400180,h_OCHCTP,10-L1-7,2019-01-24 14:45:00.0,SoPmdAve,3337.43,CHCGILDTO6Y
MA6813400180,h_OCHCTP,10-L1-8,2019-01-24 14:15:00.0,Qmin,9.27,CHCGILDTO6Y
MA6813400180,h_OCHCTP,10-L1-8,2019-01-24 14:15:00.0,PhaseCorrectionAve,-0.244,CHCGILDTO6Y
MA6813400180,h_OCHCTP,10-L1-8,2019-01-24 14:15:00.0,BerPreFecMax,0.00182,CHCGILDTO6Y
MA6813400180,h_OCHCTP,10-L1-8,2019-01-24 14:15:00.0,PmdMin,1.76,CHCGILDTO6Y
MA6813400180,h_OCHCTP,10-L1-8,2019-01-24 14:15:00.0,SoPmdAve,3422.01,CHCGILDTO6Y
MA6813400180,h_OCHCTP,10-L1-8,2019-01-24 14:30:00.0,Qmin,9.29,CHCGILDTO6Y
MA6813400180,h_OCHCTP,10-L1-8,2019-01-24 14:30:00.0,PhaseCorrectionAve,-0.244,CHCGILDTO6Y
MA6813400180,h_OCHCTP,10-L1-8,2019-01-24 14:30:00.0,BerPreFecMax,0.00178,CHCGILDTO6Y
MA6813400180,h_OCHCTP,10-L1-8,2019-01-24 14:30:00.0,PmdMin,1.25,CHCGILDTO6Y
MA6813400180,h_OCHCTP,10-L1-8,2019-01-24 14:30:00.0,SoPmdAve,3397.93,CHCGILDTO6Y
MA6813400180,h_OCHCTP,10-L1-8,2019-01-24 14:45:00.0,Qmin,9.28,CHCGILDTO6Y
MA6813400180,h_OCHCTP,10-L1-8,2019-01-24 14:45:00.0,PhaseCorrectionAve,-0.183,CHCGILDTO6Y
MA6813400180,h_OCHCTP,10-L1-8,2019-01-24 14:45:00.0,BerPreFecMax,0.0018,CHCGILDTO6Y
MA6813400180,h_OCHCTP,10-L1-8,2019-01-24 14:45:00.0,PmdMin,0.98,CHCGILDTO6Y
MA6813400180,h_OCHCTP,10-L1-8,2019-01-24 14:45:00.0,SoPmdAve,3300.16,CHCGILDTO6Y
MA6813400180,h_OCHCTP,10-L1-9,2019-01-24 14:15:00.0,Qmin,9.26,CHCGILDTO6Y
MA6813400180,h_OCHCTP,10-L1-9,2019-01-24 14:15:00.0,PhaseCorrectionAve,-0.244,CHCGILDTO6Y
MA6813400180,h_OCHCTP,10-L1-9,2019-01-24 14:15:00.0,BerPreFecMax,0.00185,CHCGILDTO6Y
MA6813400180,h_OCHCTP,10-L1-9,2019-01-24 14:15:00.0,PmdMin,2.34,CHCGILDTO6Y
MA6813400180,h_OCHCTP,10-L1-9,2019-01-24 14:15:00.0,SoPmdAve,3496.33,CHCGILDTO6Y
MA6813400180,h_OCHCTP,10-L1-9,2019-01-24 14:30:00.0,Qmin,9.27,CHCGILDTO6Y
MA6813400180,h_OCHCTP,10-L1-9,2019-01-24 14:30:00.0,PhaseCorrectionAve,-0.244,CHCGILDTO6Y
MA6813400180,h_OCHCTP,10-L1-9,2019-01-24 14:30:00.0,BerPreFecMax,0.00181,CHCGILDTO6Y
MA6813400180,h_OCHCTP,10-L1-9,2019-01-24 14:30:00.0,PmdMin,0.947,CHCGILDTO6Y
MA6813400180,h_OCHCTP,10-L1-9,2019-01-24 14:30:00.0,SoPmdAve,3480.04,CHCGILDTO6Y
MA6813400180,h_OCHCTP,10-L1-9,2019-01-24 14:45:00.0,Qmin,9.26,CHCGILDTO6Y
MA6813400180,h_OCHCTP,10-L1-9,2019-01-24 14:45:00.0,PhaseCorrectionAve,-0.244,CHCGILDTO6Y
MA6813400180,h_OCHCTP,10-L1-9,2019-01-24 14:45:00.0,BerPreFecMax,0.00184,CHCGILDTO6Y
MA6813400180,h_OCHCTP,10-L1-9,2019-01-24 14:45:00.0,PmdMin,1.91,CHCGILDTO6Y
MA6813400180,h_OCHCTP,10-L1-9,2019-01-24 14:45:00.0,SoPmdAve,3463.69,CHCGILDTO6Y
MA6813400180,h_OCHCTP,10-L1-10,2019-01-24 14:15:00.0,Qmin,9.33,CHCGILDTO6Y
MA6813400180,h_OCHCTP,10-L1-10,2019-01-24 14:15:00.0,PhaseCorrectionAve,-0.244,CHCGILDTO6Y
MA6813400180,h_OCHCTP,10-L1-10,2019-01-24 14:15:00.0,BerPreFecMax,0.00171,CHCGILDTO6Y
MA6813400180,h_OCHCTP,10-L1-10,2019-01-24 14:15:00.0,PmdMin,3.27,CHCGILDTO6Y
MA6813400180,h_OCHCTP,10-L1-10,2019-01-24 14:15:00.0,SoPmdAve,3159.65,CHCGILDTO6Y
MA6813400180,h_OCHCTP,10-L1-10,2019-01-24 14:30:00.0,Qmin,9.33,CHCGILDTO6Y
MA6813400180,h_OCHCTP,10-L1-10,2019-01-24 14:30:00.0,PhaseCorrectionAve,-0.244,CHCGILDTO6Y
MA6813400180,h_OCHCTP,10-L1-10,2019-01-24 14:30:00.0,BerPreFecMax,0.00171,CHCGILDTO6Y
MA6813400180,h_OCHCTP,10-L1-10,2019-01-24 14:30:00.0,PmdMin,2.58,CHCGILDTO6Y
MA6813400180,h_OCHCTP,10-L1-10,2019-01-24 14:30:00.0,SoPmdAve,3154.88,CHCGILDTO6Y
MA6813400180,h_OCHCTP,10-L1-10,2019-01-24 14:45:00.0,Qmin,9.34,CHCGILDTO6Y
MA6813400180,h_OCHCTP,10-L1-10,2019-01-24 14:45:00.0,PhaseCorrectionAve,-0.244,CHCGILDTO6Y
MA6813400180,h_OCHCTP,10-L1-10,2019-01-24 14:45:00.0,BerPreFecMax,0.0017,CHCGILDTO6Y
MA6813400180,h_OCHCTP,10-L1-10,2019-01-24 14:45:00.0,PmdMin,1.99,CHCGILDTO6Y
MA6813400180,h_OCHCTP,10-L1-10,2019-01-24 14:45:00.0,SoPmdAve,3272.94,CHCGILDTO6Y
MA6813400180,h_OCHCTP,11-L1-1,2019-01-24 14:15:00.0,Qmin,9.19,CHCGILDTO6Y
MA6813400180,h_OCHCTP,11-L1-1,2019-01-24 14:15:00.0,PhaseCorrectionAve,1.34e-07,CHCGILDTO6Y
MA6813400180,h_OCHCTP,11-L1-1,2019-01-24 14:15:00.0,BerPreFecMax,0.00199,CHCGILDTO6Y
MA6813400180,h_OCHCTP,11-L1-1,2019-01-24 14:15:00.0,PmdMin,0.907,CHCGILDTO6Y
MA6813400180,h_OCHCTP,11-L1-1,2019-01-24 14:15:00.0,SoPmdAve,3306.1,CHCGILDTO6Y
MA6813400180,h_OCHCTP,11-L1-1,2019-01-24 14:30:00.0,Qmin,9.18,CHCGILDTO6Y
MA6813400180,h_OCHCTP,11-L1-1,2019-01-24 14:30:00.0,PhaseCorrectionAve,1.48e-07,CHCGILDTO6Y
MA6813400180,h_OCHCTP,11-L1-1,2019-01-24 14:30:00.0,BerPreFecMax,0.00201,CHCGILDTO6Y
MA6813400180,h_OCHCTP,11-L1-1,2019-01-24 14:30:00.0,PmdMin,0.587,CHCGILDTO6Y
MA6813400180,h_OCHCTP,11-L1-1,2019-01-24 14:30:00.0,SoPmdAve,3279.0,CHCGILDTO6Y
MA6813400180,h_OCHCTP,11-L1-1,2019-01-24 14:45:00.0,Qmin,9.21,CHCGILDTO6Y
MA6813400180,h_OCHCTP,11-L1-1,2019-01-24 14:45:00.0,PhaseCorrectionAve,1.39e-07,CHCGILDTO6Y
MA6813400180,h_OCHCTP,11-L1-1,2019-01-24 14:45:00.0,BerPreFecMax,0.00194,CHCGILDTO6Y
MA6813400180,h_OCHCTP,11-L1-1,2019-01-24 14:45:00.0,PmdMin,1.13,CHCGILDTO6Y
MA6813400180,h_OCHCTP,11-L1-1,2019-01-24 14:45:00.0,SoPmdAve,3400.49,CHCGILDTO6Y
MA6813400180,h_OCHCTP,11-L1-2,2019-01-24 14:15:00.0,Qmin,9.12,CHCGILDTO6Y
MA6813400180,h_OCHCTP,11-L1-2,2019-01-24 14:15:00.0,PhaseCorrectionAve,4.27e-07,CHCGILDTO6Y
MA6813400180,h_OCHCTP,11-L1-2,2019-01-24 14:15:00.0,BerPreFecMax,0.00212,CHCGILDTO6Y
MA6813400180,h_OCHCTP,11-L1-2,2019-01-24 14:15:00.0,PmdMin,0.523,CHCGILDTO6Y
MA6813400180,h_OCHCTP,11-L1-2,2019-01-24 14:15:00.0,SoPmdAve,3102.13,CHCGILDTO6Y
MA6813400180,h_OCHCTP,11-L1-2,2019-01-24 14:30:00.0,Qmin,9.13,CHCGILDTO6Y
MA6813400180,h_OCHCTP,11-L1-2,2019-01-24 14:30:00.0,PhaseCorrectionAve,4.28e-07,CHCGILDTO6Y
MA6813400180,h_OCHCTP,11-L1-2,2019-01-24 14:30:00.0,BerPreFecMax,0.00212,CHCGILDTO6Y
MA6813400180,h_OCHCTP,11-L1-2,2019-01-24 14:30:00.0,PmdMin,0.788,CHCGILDTO6Y
MA6813400180,h_OCHCTP,11-L1-2,2019-01-24 14:30:00.0,SoPmdAve,3182.8,CHCGILDTO6Y
MA6813400180,h_OCHCTP,11-L1-2,2019-01-24 14:45:00.0,Qmin,9.15,CHCGILDTO6Y
MA6813400180,h_OCHCTP,11-L1-2,2019-01-24 14:45:00.0,PhaseCorrectionAve,4.11e-07,CHCGILDTO6Y
MA6813400180,h_OCHCTP,11-L1-2,2019-01-24 14:45:00.0,BerPreFecMax,0.00207,CHCGILDTO6Y
MA6813400180,h_OCHCTP,11-L1-2,2019-01-24 14:45:00.0,PmdMin,1.22,CHCGILDTO6Y
MA6813400180,h_OCHCTP,11-L1-2,2019-01-24 14:45:00.0,SoPmdAve,3123.9,CHCGILDTO6Y
MA6813400180,h_OCHCTP,11-L1-3,2019-01-24 14:15:00.0,Qmin,9.06,CHCGILDTO6Y
MA6813400180,h_OCHCTP,11-L1-3,2019-01-24 14:15:00.0,PhaseCorrectionAve,3.11e-07,CHCGILDTO6Y
MA6813400180,h_OCHCTP,11-L1-3,2019-01-24 14:15:00.0,BerPreFecMax,0.00227,CHCGILDTO6Y
MA6813400180,h_OCHCTP,11-L1-3,2019-01-24 14:15:00.0,PmdMin,0.924,CHCGILDTO6Y
MA6813400180,h_OCHCTP,11-L1-3,2019-01-24 14:15:00.0,SoPmdAve,2743.51,CHCGILDTO6Y
MA6813400180,h_OCHCTP,11-L1-3,2019-01-24 14:30:00.0,Qmin,9.03,CHCGILDTO6Y
MA6813400180,h_OCHCTP,11-L1-3,2019-01-24 14:30:00.0,PhaseCorrectionAve,3.18e-07,CHCGILDTO6Y
MA6813400180,h_OCHCTP,11-L1-3,2019-01-24 14:30:00.0,BerPreFecMax,0.00234,CHCGILDTO6Y
MA6813400180,h_OCHCTP,11-L1-3,2019-01-24 14:30:00.0,PmdMin,1.35,CHCGILDTO6Y
MA6813400180,h_OCHCTP,11-L1-3,2019-01-24 14:30:00.0,SoPmdAve,2623.09,CHCGILDTO6Y
MA6813400180,h_OCHCTP,11-L1-3,2019-01-24 14:45:00.0,Qmin,9.07,CHCGILDTO6Y
MA6813400180,h_OCHCTP,11-L1-3,2019-01-24 14:45:00.0,PhaseCorrectionAve,3.26e-07,CHCGILDTO6Y
MA6813400180,h_OCHCTP,11-L1-3,2019-01-24 14:45:00.0,BerPreFecMax,0.00225,CHCGILDTO6Y
MA6813400180,h_OCHCTP,11-L1-3,2019-01-24 14:45:00.0,PmdMin,0.372,CHCGILDTO6Y
MA6813400180,h_OCHCTP,11-L1-3,2019-01-24 14:45:00.0,SoPmdAve,2695.33,CHCGILDTO6Y
MA6813400180,h_OCHCTP,11-L1-4,2019-01-24 14:15:00.0,Qmin,8.89,CHCGILDTO6Y
MA6813400180,h_OCHCTP,11-L1-4,2019-01-24 14:15:00.0,PhaseCorrectionAve,3.75e-07,CHCGILDTO6Y
MA6813400180,h_OCHCTP,11-L1-4,2019-01-24 14:15:00.0,BerPreFecMax,0.00271,CHCGILDTO6Y
MA6813400180,h_OCHCTP,11-L1-4,2019-01-24 14:15:00.0,PmdMin,0.957,CHCGILDTO6Y
MA6813400180,h_OCHCTP,11-L1-4,2019-01-24 14:15:00.0,SoPmdAve,2947.7,CHCGILDTO6Y
MA6813400180,h_OCHCTP,11-L1-4,2019-01-24 14:30:00.0,Qmin,8.86,CHCGILDTO6Y
MA6813400180,h_OCHCTP,11-L1-4,2019-01-24 14:30:00.0,PhaseCorrectionAve,4.26e-07,CHCGILDTO6Y
MA6813400180,h_OCHCTP,11-L1-4,2019-01-24 14:30:00.0,BerPreFecMax,0.00279,CHCGILDTO6Y
MA6813400180,h_OCHCTP,11-L1-4,2019-01-24 14:30:00.0,PmdMin,0.707,CHCGILDTO6Y
MA6813400180,h_OCHCTP,11-L1-4,2019-01-24 14:30:00.0,SoPmdAve,2945.68,CHCGILDTO6Y
MA6813400180,h_OCHCTP,11-L1-4,2019-01-24 14:45:00.0,Qmin,8.86,CHCGILDTO6Y
MA6813400180,h_OCHCTP,11-L1-4,2019-01-24 14:45:00.0,PhaseCorrectionAve,-0.061,CHCGILDTO6Y
MA6813400180,h_OCHCTP,11-L1-4,2019-01-24 14:45:00.0,BerPreFecMax,0.00278,CHCGILDTO6Y
MA6813400180,h_OCHCTP,11-L1-4,2019-01-24 14:45:00.0,PmdMin,0.612,CHCGILDTO6Y
MA6813400180,h_OCHCTP,11-L1-4,2019-01-24 14:45:00.0,SoPmdAve,2997.59,CHCGILDTO6Y
MA6813400180,h_OCHCTP,11-L1-5,2019-01-24 14:15:00.0,Qmin,8.93,CHCGILDTO6Y
MA6813400180,h_OCHCTP,11-L1-5,2019-01-24 14:15:00.0,PhaseCorrectionAve,1.63e-07,CHCGILDTO6Y
MA6813400180,h_OCHCTP,11-L1-5,2019-01-24 14:15:00.0,BerPreFecMax,0.00258,CHCGILDTO6Y
MA6813400180,h_OCHCTP,11-L1-5,2019-01-24 14:15:00.0,PmdMin,0.599,CHCGILDTO6Y
MA6813400180,h_OCHCTP,11-L1-5,2019-01-24 14:15:00.0,SoPmdAve,2562.74,CHCGILDTO6Y
MA6813400180,h_OCHCTP,11-L1-5,2019-01-24 14:30:00.0,Qmin,8.89,CHCGILDTO6Y
MA6813400180,h_OCHCTP,11-L1-5,2019-01-24 14:30:00.0,PhaseCorrectionAve,1.81e-07,CHCGILDTO6Y
MA6813400180,h_OCHCTP,11-L1-5,2019-01-24 14:30:00.0,BerPreFecMax,0.00269,CHCGILDTO6Y
MA6813400180,h_OCHCTP,11-L1-5,2019-01-24 14:30:00.0,PmdMin,0.51,CHCGILDTO6Y
MA6813400180,h_OCHCTP,11-L1-5,2019-01-24 14:30:00.0,SoPmdAve,2559.93,CHCGILDTO6Y
MA6813400180,h_OCHCTP,11-L1-5,2019-01-24 14:45:00.0,Qmin,8.93,CHCGILDTO6Y
MA6813400180,h_OCHCTP,11-L1-5,2019-01-24 14:45:00.0,PhaseCorrectionAve,-0.061,CHCGILDTO6Y
MA6813400180,h_OCHCTP,11-L1-5,2019-01-24 14:45:00.0,BerPreFecMax,0.00258,CHCGILDTO6Y
MA6813400180,h_OCHCTP,11-L1-5,2019-01-24 14:45:00.0,PmdMin,0.477,CHCGILDTO6Y
MA6813400180,h_OCHCTP,11-L1-5,2019-01-24 14:45:00.0,SoPmdAve,2556.48,CHCGILDTO6Y
MA6813400180,h_OCHCTP,11-L1-6,2019-01-24 14:15:00.0,Qmin,8.84,CHCGILDTO6Y
MA6813400180,h_OCHCTP,11-L1-6,2019-01-24 14:15:00.0,PhaseCorrectionAve,4.96e-07,CHCGILDTO6Y
MA6813400180,h_OCHCTP,11-L1-6,2019-01-24 14:15:00.0,BerPreFecMax,0.00284,CHCGILDTO6Y
MA6813400180,h_OCHCTP,11-L1-6,2019-01-24 14:15:00.0,PmdMin,1.04,CHCGILDTO6Y
MA6813400180,h_OCHCTP,11-L1-6,2019-01-24 14:15:00.0,SoPmdAve,2529.27,CHCGILDTO6Y
MA6813400180,h_OCHCTP,11-L1-6,2019-01-24 14:30:00.0,Qmin,8.81,CHCGILDTO6Y
MA6813400180,h_OCHCTP,11-L1-6,2019-01-24 14:30:00.0,PhaseCorrectionAve,5.2e-07,CHCGILDTO6Y
MA6813400180,h_OCHCTP,11-L1-6,2019-01-24 14:30:00.0,BerPreFecMax,0.00292,CHCGILDTO6Y
MA6813400180,h_OCHCTP,11-L1-6,2019-01-24 14:30:00.0,PmdMin,0.883,CHCGILDTO6Y
MA6813400180,h_OCHCTP,11-L1-6,2019-01-24 14:30:00.0,SoPmdAve,2440.14,CHCGILDTO6Y
MA6813400180,h_OCHCTP,11-L1-6,2019-01-24 14:45:00.0,Qmin,8.85,CHCGILDTO6Y
MA6813400180,h_OCHCTP,11-L1-6,2019-01-24 14:45:00.0,PhaseCorrectionAve,-0.061,CHCGILDTO6Y
MA6813400180,h_OCHCTP,11-L1-6,2019-01-24 14:45:00.0,BerPreFecMax,0.00281,CHCGILDTO6Y
MA6813400180,h_OCHCTP,11-L1-6,2019-01-24 14:45:00.0,PmdMin,0.795,CHCGILDTO6Y
MA6813400180,h_OCHCTP,11-L1-6,2019-01-24 14:45:00.0,SoPmdAve,2414.28,CHCGILDTO6Y
MA6813400180,h_OCHCTP,11-L1-7,2019-01-24 14:15:00.0,Qmin,8.89,CHCGILDTO6Y
MA6813400180,h_OCHCTP,11-L1-7,2019-01-24 14:15:00.0,PhaseCorrectionAve,3.12e-07,CHCGILDTO6Y
MA6813400180,h_OCHCTP,11-L1-7,2019-01-24 14:15:00.0,BerPreFecMax,0.00269,CHCGILDTO6Y
MA6813400180,h_OCHCTP,11-L1-7,2019-01-24 14:15:00.0,PmdMin,0.834,CHCGILDTO6Y
MA6813400180,h_OCHCTP,11-L1-7,2019-01-24 14:15:00.0,SoPmdAve,3032.8,CHCGILDTO6Y
MA6813400180,h_OCHCTP,11-L1-7,2019-01-24 14:30:00.0,Qmin,8.87,CHCGILDTO6Y
MA6813400180,h_OCHCTP,11-L1-7,2019-01-24 14:30:00.0,PhaseCorrectionAve,3.27e-07,CHCGILDTO6Y
MA6813400180,h_OCHCTP,11-L1-7,2019-01-24 14:30:00.0,BerPreFecMax,0.00273,CHCGILDTO6Y
MA6813400180,h_OCHCTP,11-L1-7,2019-01-24 14:30:00.0,PmdMin,1.04,CHCGILDTO6Y
MA6813400180,h_OCHCTP,11-L1-7,2019-01-24 14:30:00.0,SoPmdAve,2938.67,CHCGILDTO6Y
MA6813400180,h_OCHCTP,11-L1-7,2019-01-24 14:45:00.0,Qmin,8.95,CHCGILDTO6Y
MA6813400180,h_OCHCTP,11-L1-7,2019-01-24 14:45:00.0,PhaseCorrectionAve,-0.061,CHCGILDTO6Y
MA6813400180,h_OCHCTP,11-L1-7,2019-01-24 14:45:00.0,BerPreFecMax,0.00253,CHCGILDTO6Y
MA6813400180,h_OCHCTP,11-L1-7,2019-01-24 14:45:00.0,PmdMin,1.2,CHCGILDTO6Y
MA6813400180,h_OCHCTP,11-L1-7,2019-01-24 14:45:00.0,SoPmdAve,3042.09,CHCGILDTO6Y
MA6813400180,h_OCHCTP,11-L1-8,2019-01-24 14:15:00.0,Qmin,8.92,CHCGILDTO6Y
MA6813400180,h_OCHCTP,11-L1-8,2019-01-24 14:15:00.0,PhaseCorrectionAve,1.29e-06,CHCGILDTO6Y
MA6813400180,h_OCHCTP,11-L1-8,2019-01-24 14:15:00.0,BerPreFecMax,0.00261,CHCGILDTO6Y
MA6813400180,h_OCHCTP,11-L1-8,2019-01-24 14:15:00.0,PmdMin,0.979,CHCGILDTO6Y
MA6813400180,h_OCHCTP,11-L1-8,2019-01-24 14:15:00.0,SoPmdAve,3129.28,CHCGILDTO6Y
MA6813400180,h_OCHCTP,11-L1-8,2019-01-24 14:30:00.0,Qmin,8.95,CHCGILDTO6Y
MA6813400180,h_OCHCTP,11-L1-8,2019-01-24 14:30:00.0,PhaseCorrectionAve,1.08e-06,CHCGILDTO6Y
MA6813400180,h_OCHCTP,11-L1-8,2019-01-24 14:30:00.0,BerPreFecMax,0.00255,CHCGILDTO6Y
MA6813400180,h_OCHCTP,11-L1-8,2019-01-24 14:30:00.0,PmdMin,0.98,CHCGILDTO6Y
MA6813400180,h_OCHCTP,11-L1-8,2019-01-24 14:30:00.0,SoPmdAve,3097.9,CHCGILDTO6Y
MA6813400180,h_OCHCTP,11-L1-8,2019-01-24 14:45:00.0,Qmin,8.99,CHCGILDTO6Y
MA6813400180,h_OCHCTP,11-L1-8,2019-01-24 14:45:00.0,PhaseCorrectionAve,-0.061,CHCGILDTO6Y
MA6813400180,h_OCHCTP,11-L1-8,2019-01-24 14:45:00.0,BerPreFecMax,0.00243,CHCGILDTO6Y
MA6813400180,h_OCHCTP,11-L1-8,2019-01-24 14:45:00.0,PmdMin,0.763,CHCGILDTO6Y
MA6813400180,h_OCHCTP,11-L1-8,2019-01-24 14:45:00.0,SoPmdAve,3027.67,CHCGILDTO6Y
MA6813400180,h_OCHCTP,11-L1-9,2019-01-24 14:15:00.0,Qmin,8.85,CHCGILDTO6Y
MA6813400180,h_OCHCTP,11-L1-9,2019-01-24 14:15:00.0,PhaseCorrectionAve,2.28e-06,CHCGILDTO6Y
MA6813400180,h_OCHCTP,11-L1-9,2019-01-24 14:15:00.0,BerPreFecMax,0.0028,CHCGILDTO6Y
MA6813400180,h_OCHCTP,11-L1-9,2019-01-24 14:15:00.0,PmdMin,0.907,CHCGILDTO6Y
MA6813400180,h_OCHCTP,11-L1-9,2019-01-24 14:15:00.0,SoPmdAve,3065.9,CHCGILDTO6Y
MA6813400180,h_OCHCTP,11-L1-9,2019-01-24 14:30:00.0,Qmin,8.9,CHCGILDTO6Y
MA6813400180,h_OCHCTP,11-L1-9,2019-01-24 14:30:00.0,PhaseCorrectionAve,-0.122,CHCGILDTO6Y
MA6813400180,h_OCHCTP,11-L1-9,2019-01-24 14:30:00.0,BerPreFecMax,0.00266,CHCGILDTO6Y
MA6813400180,h_OCHCTP,11-L1-9,2019-01-24 14:30:00.0,PmdMin,0.206,CHCGILDTO6Y
MA6813400180,h_OCHCTP,11-L1-9,2019-01-24 14:30:00.0,SoPmdAve,3087.0,CHCGILDTO6Y
MA6813400180,h_OCHCTP,11-L1-9,2019-01-24 14:45:00.0,Qmin,8.87,CHCGILDTO6Y
MA6813400180,h_OCHCTP,11-L1-9,2019-01-24 14:45:00.0,PhaseCorrectionAve,-0.122,CHCGILDTO6Y
MA6813400180,h_OCHCTP,11-L1-9,2019-01-24 14:45:00.0,BerPreFecMax,0.00275,CHCGILDTO6Y
MA6813400180,h_OCHCTP,11-L1-9,2019-01-24 14:45:00.0,PmdMin,0.651,CHCGILDTO6Y
MA6813400180,h_OCHCTP,11-L1-9,2019-01-24 14:45:00.0,SoPmdAve,3172.38,CHCGILDTO6Y
MA6813400180,h_OCHCTP,11-L1-10,2019-01-24 14:15:00.0,Qmin,8.96,CHCGILDTO6Y
MA6813400180,h_OCHCTP,11-L1-10,2019-01-24 14:15:00.0,PhaseCorrectionAve,3.17e-06,CHCGILDTO6Y
MA6813400180,h_OCHCTP,11-L1-10,2019-01-24 14:15:00.0,BerPreFecMax,0.0025,CHCGILDTO6Y
MA6813400180,h_OCHCTP,11-L1-10,2019-01-24 14:15:00.0,PmdMin,0.497,CHCGILDTO6Y
MA6813400180,h_OCHCTP,11-L1-10,2019-01-24 14:15:00.0,SoPmdAve,3090.08,CHCGILDTO6Y
MA6813400180,h_OCHCTP,11-L1-10,2019-01-24 14:30:00.0,Qmin,8.94,CHCGILDTO6Y
MA6813400180,h_OCHCTP,11-L1-10,2019-01-24 14:30:00.0,PhaseCorrectionAve,-0.122,CHCGILDTO6Y
MA6813400180,h_OCHCTP,11-L1-10,2019-01-24 14:30:00.0,BerPreFecMax,0.00257,CHCGILDTO6Y
MA6813400180,h_OCHCTP,11-L1-10,2019-01-24 14:30:00.0,PmdMin,0.644,CHCGILDTO6Y
MA6813400180,h_OCHCTP,11-L1-10,2019-01-24 14:30:00.0,SoPmdAve,3086.26,CHCGILDTO6Y
MA6813400180,h_OCHCTP,11-L1-10,2019-01-24 14:45:00.0,Qmin,8.92,CHCGILDTO6Y
MA6813400180,h_OCHCTP,11-L1-10,2019-01-24 14:45:00.0,PhaseCorrectionAve,-0.122,CHCGILDTO6Y
MA6813400180,h_OCHCTP,11-L1-10,2019-01-24 14:45:00.0,BerPreFecMax,0.00261,CHCGILDTO6Y
MA6813400180,h_OCHCTP,11-L1-10,2019-01-24 14:45:00.0,PmdMin,0.963,CHCGILDTO6Y
MA6813400180,h_OCHCTP,11-L1-10,2019-01-24 14:45:00.0,SoPmdAve,3085.52,CHCGILDTO6Y
