MA6813400180,h_OCHCTP,11-L1-1,2019-02-06 03:15:00.0,Qmin,9.13,CHCGILDTO6Y
MA6813400180,h_OCHCTP,11-L1-1,2019-02-06 03:15:00.0,PhaseCorrectionAve,1.51e-07,CHCGILDTO6Y
MA6813400180,h_OCHCTP,11-L1-1,2019-02-06 03:15:00.0,BerPreFecMax,0.00211,CHCGILDTO6Y
MA6813400180,h_OCHCTP,11-L1-1,2019-02-06 03:15:00.0,PmdMin,0.614,CHCGILDTO6Y
MA6813400180,h_OCHCTP,11-L1-1,2019-02-06 03:15:00.0,SoPmdAve,3327.97,CHCGILDTO6Y
MA6813400180,h_OCHCTP,11-L1-1,2019-02-06 03:30:00.0,Qmin,9.15,CHCGILDTO6Y
MA6813400180,h_OCHCTP,11-L1-1,2019-02-06 03:30:00.0,PhaseCorrectionAve,1.62e-07,CHCGILDTO6Y
MA6813400180,h_OCHCTP,11-L1-1,2019-02-06 03:30:00.0,BerPreFecMax,0.00207,CHCGILDTO6Y
MA6813400180,h_OCHCTP,11-L1-1,2019-02-06 03:30:00.0,PmdMin,1.32,CHCGILDTO6Y
MA6813400180,h_OCHCTP,11-L1-1,2019-02-06 03:30:00.0,SoPmdAve,3312.41,CHCGILDTO6Y
MA6813400180,h_OCHCTP,11-L1-1,2019-02-06 03:45:00.0,Qmin,9.19,CHCGILDTO6Y
MA6813400180,h_OCHCTP,11-L1-1,2019-02-06 03:45:00.0,PhaseCorrectionAve,-0.061,CHCGILDTO6Y
MA6813400180,h_OCHCTP,11-L1-1,2019-02-06 03:45:00.0,BerPreFecMax,0.00198,CHCGILDTO6Y
MA6813400180,h_OCHCTP,11-L1-1,2019-02-06 03:45:00.0,PmdMin,1.28,CHCGILDTO6Y
MA6813400180,h_OCHCTP,11-L1-1,2019-02-06 03:45:00.0,SoPmdAve,3332.4,CHCGILDTO6Y
MA6813400180,h_OCHCTP,11-L1-2,2019-02-06 03:15:00.0,Qmin,9.12,CHCGILDTO6Y
MA6813400180,h_OCHCTP,11-L1-2,2019-02-06 03:15:00.0,PhaseCorrectionAve,3.43e-07,CHCGILDTO6Y
MA6813400180,h_OCHCTP,11-L1-2,2019-02-06 03:15:00.0,BerPreFecMax,0.00214,CHCGILDTO6Y
MA6813400180,h_OCHCTP,11-L1-2,2019-02-06 03:15:00.0,PmdMin,1.4,CHCGILDTO6Y
MA6813400180,h_OCHCTP,11-L1-2,2019-02-06 03:15:00.0,SoPmdAve,3129.74,CHCGILDTO6Y
MA6813400180,h_OCHCTP,11-L1-2,2019-02-06 03:30:00.0,Qmin,9.02,CHCGILDTO6Y
MA6813400180,h_OCHCTP,11-L1-2,2019-02-06 03:30:00.0,PhaseCorrectionAve,4.62e-07,CHCGILDTO6Y
MA6813400180,h_OCHCTP,11-L1-2,2019-02-06 03:30:00.0,BerPreFecMax,0.00237,CHCGILDTO6Y
MA6813400180,h_OCHCTP,11-L1-2,2019-02-06 03:30:00.0,PmdMin,0.933,CHCGILDTO6Y
MA6813400180,h_OCHCTP,11-L1-2,2019-02-06 03:30:00.0,SoPmdAve,3130.93,CHCGILDTO6Y
MA6813400180,h_OCHCTP,11-L1-2,2019-02-06 03:45:00.0,Qmin,9.01,CHCGILDTO6Y
MA6813400180,h_OCHCTP,11-L1-2,2019-02-06 03:45:00.0,PhaseCorrectionAve,-0.061,CHCGILDTO6Y
MA6813400180,h_OCHCTP,11-L1-2,2019-02-06 03:45:00.0,BerPreFecMax,0.00238,CHCGILDTO6Y
MA6813400180,h_OCHCTP,11-L1-2,2019-02-06 03:45:00.0,PmdMin,0.574,CHCGILDTO6Y
MA6813400180,h_OCHCTP,11-L1-2,2019-02-06 03:45:00.0,SoPmdAve,3144.64,CHCGILDTO6Y
MA6813400180,h_OCHCTP,11-L1-3,2019-02-06 03:15:00.0,Qmin,9.01,CHCGILDTO6Y
MA6813400180,h_OCHCTP,11-L1-3,2019-02-06 03:15:00.0,PhaseCorrectionAve,-0.061,CHCGILDTO6Y
MA6813400180,h_OCHCTP,11-L1-3,2019-02-06 03:15:00.0,BerPreFecMax,0.00239,CHCGILDTO6Y
MA6813400180,h_OCHCTP,11-L1-3,2019-02-06 03:15:00.0,PmdMin,1.08,CHCGILDTO6Y
MA6813400180,h_OCHCTP,11-L1-3,2019-02-06 03:15:00.0,SoPmdAve,2738.6,CHCGILDTO6Y
MA6813400180,h_OCHCTP,11-L1-3,2019-02-06 03:30:00.0,Qmin,9.01,CHCGILDTO6Y
MA6813400180,h_OCHCTP,11-L1-3,2019-02-06 03:30:00.0,PhaseCorrectionAve,3.31e-07,CHCGILDTO6Y
MA6813400180,h_OCHCTP,11-L1-3,2019-02-06 03:30:00.0,BerPreFecMax,0.0024,CHCGILDTO6Y
MA6813400180,h_OCHCTP,11-L1-3,2019-02-06 03:30:00.0,PmdMin,0.409,CHCGILDTO6Y
MA6813400180,h_OCHCTP,11-L1-3,2019-02-06 03:30:00.0,SoPmdAve,2643.99,CHCGILDTO6Y
MA6813400180,h_OCHCTP,11-L1-3,2019-02-06 03:45:00.0,Qmin,8.98,CHCGILDTO6Y
MA6813400180,h_OCHCTP,11-L1-3,2019-02-06 03:45:00.0,PhaseCorrectionAve,-0.061,CHCGILDTO6Y
MA6813400180,h_OCHCTP,11-L1-3,2019-02-06 03:45:00.0,BerPreFecMax,0.00246,CHCGILDTO6Y
MA6813400180,h_OCHCTP,11-L1-3,2019-02-06 03:45:00.0,PmdMin,0.571,CHCGILDTO6Y
MA6813400180,h_OCHCTP,11-L1-3,2019-02-06 03:45:00.0,SoPmdAve,2758.01,CHCGILDTO6Y
MA6813400180,h_OCHCTP,11-L1-4,2019-02-06 03:15:00.0,Qmin,8.82,CHCGILDTO6Y
MA6813400180,h_OCHCTP,11-L1-4,2019-02-06 03:15:00.0,PhaseCorrectionAve,-0.122,CHCGILDTO6Y
MA6813400180,h_OCHCTP,11-L1-4,2019-02-06 03:15:00.0,BerPreFecMax,0.00289,CHCGILDTO6Y
MA6813400180,h_OCHCTP,11-L1-4,2019-02-06 03:15:00.0,PmdMin,0.301,CHCGILDTO6Y
MA6813400180,h_OCHCTP,11-L1-4,2019-02-06 03:15:00.0,SoPmdAve,3014.44,CHCGILDTO6Y
MA6813400180,h_OCHCTP,11-L1-4,2019-02-06 03:30:00.0,Qmin,8.88,CHCGILDTO6Y
MA6813400180,h_OCHCTP,11-L1-4,2019-02-06 03:30:00.0,PhaseCorrectionAve,4.44e-07,CHCGILDTO6Y
MA6813400180,h_OCHCTP,11-L1-4,2019-02-06 03:30:00.0,BerPreFecMax,0.00272,CHCGILDTO6Y
MA6813400180,h_OCHCTP,11-L1-4,2019-02-06 03:30:00.0,PmdMin,1.17,CHCGILDTO6Y
MA6813400180,h_OCHCTP,11-L1-4,2019-02-06 03:30:00.0,SoPmdAve,2985.4,CHCGILDTO6Y
MA6813400180,h_OCHCTP,11-L1-4,2019-02-06 03:45:00.0,Qmin,8.86,CHCGILDTO6Y
MA6813400180,h_OCHCTP,11-L1-4,2019-02-06 03:45:00.0,PhaseCorrectionAve,-0.061,CHCGILDTO6Y
MA6813400180,h_OCHCTP,11-L1-4,2019-02-06 03:45:00.0,BerPreFecMax,0.00278,CHCGILDTO6Y
MA6813400180,h_OCHCTP,11-L1-4,2019-02-06 03:45:00.0,PmdMin,0.781,CHCGILDTO6Y
MA6813400180,h_OCHCTP,11-L1-4,2019-02-06 03:45:00.0,SoPmdAve,2959.58,CHCGILDTO6Y
MA6813400180,h_OCHCTP,11-L1-5,2019-02-06 03:15:00.0,Qmin,8.91,CHCGILDTO6Y
MA6813400180,h_OCHCTP,11-L1-5,2019-02-06 03:15:00.0,PhaseCorrectionAve,-0.122,CHCGILDTO6Y
MA6813400180,h_OCHCTP,11-L1-5,2019-02-06 03:15:00.0,BerPreFecMax,0.00263,CHCGILDTO6Y
MA6813400180,h_OCHCTP,11-L1-5,2019-02-06 03:15:00.0,PmdMin,0.717,CHCGILDTO6Y
MA6813400180,h_OCHCTP,11-L1-5,2019-02-06 03:15:00.0,SoPmdAve,2594.79,CHCGILDTO6Y
MA6813400180,h_OCHCTP,11-L1-5,2019-02-06 03:30:00.0,Qmin,8.96,CHCGILDTO6Y
MA6813400180,h_OCHCTP,11-L1-5,2019-02-06 03:30:00.0,PhaseCorrectionAve,1.43e-07,CHCGILDTO6Y
MA6813400180,h_OCHCTP,11-L1-5,2019-02-06 03:30:00.0,BerPreFecMax,0.0025,CHCGILDTO6Y
MA6813400180,h_OCHCTP,11-L1-5,2019-02-06 03:30:00.0,PmdMin,0.184,CHCGILDTO6Y
MA6813400180,h_OCHCTP,11-L1-5,2019-02-06 03:30:00.0,SoPmdAve,2556.73,CHCGILDTO6Y
MA6813400180,h_OCHCTP,11-L1-5,2019-02-06 03:45:00.0,Qmin,8.95,CHCGILDTO6Y
MA6813400180,h_OCHCTP,11-L1-5,2019-02-06 03:45:00.0,PhaseCorrectionAve,-0.122,CHCGILDTO6Y
MA6813400180,h_OCHCTP,11-L1-5,2019-02-06 03:45:00.0,BerPreFecMax,0.00254,CHCGILDTO6Y
MA6813400180,h_OCHCTP,11-L1-5,2019-02-06 03:45:00.0,PmdMin,0.531,CHCGILDTO6Y
MA6813400180,h_OCHCTP,11-L1-5,2019-02-06 03:45:00.0,SoPmdAve,2572.75,CHCGILDTO6Y
MA6813400180,h_OCHCTP,11-L1-6,2019-02-06 03:15:00.0,Qmin,8.85,CHCGILDTO6Y
MA6813400180,h_OCHCTP,11-L1-6,2019-02-06 03:15:00.0,PhaseCorrectionAve,-0.122,CHCGILDTO6Y
MA6813400180,h_OCHCTP,11-L1-6,2019-02-06 03:15:00.0,BerPreFecMax,0.0028,CHCGILDTO6Y
MA6813400180,h_OCHCTP,11-L1-6,2019-02-06 03:15:00.0,PmdMin,0.79,CHCGILDTO6Y
MA6813400180,h_OCHCTP,11-L1-6,2019-02-06 03:15:00.0,SoPmdAve,2552.35,CHCGILDTO6Y
MA6813400180,h_OCHCTP,11-L1-6,2019-02-06 03:30:00.0,Qmin,8.85,CHCGILDTO6Y
MA6813400180,h_OCHCTP,11-L1-6,2019-02-06 03:30:00.0,PhaseCorrectionAve,4.59e-07,CHCGILDTO6Y
MA6813400180,h_OCHCTP,11-L1-6,2019-02-06 03:30:00.0,BerPreFecMax,0.0028,CHCGILDTO6Y
MA6813400180,h_OCHCTP,11-L1-6,2019-02-06 03:30:00.0,PmdMin,0.26,CHCGILDTO6Y
MA6813400180,h_OCHCTP,11-L1-6,2019-02-06 03:30:00.0,SoPmdAve,2486.63,CHCGILDTO6Y
MA6813400180,h_OCHCTP,11-L1-6,2019-02-06 03:45:00.0,Qmin,8.85,CHCGILDTO6Y
MA6813400180,h_OCHCTP,11-L1-6,2019-02-06 03:45:00.0,PhaseCorrectionAve,-0.122,CHCGILDTO6Y
MA6813400180,h_OCHCTP,11-L1-6,2019-02-06 03:45:00.0,BerPreFecMax,0.00281,CHCGILDTO6Y
MA6813400180,h_OCHCTP,11-L1-6,2019-02-06 03:45:00.0,PmdMin,0.348,CHCGILDTO6Y
MA6813400180,h_OCHCTP,11-L1-6,2019-02-06 03:45:00.0,SoPmdAve,2578.23,CHCGILDTO6Y
MA6813400180,h_OCHCTP,11-L1-7,2019-02-06 03:15:00.0,Qmin,8.89,CHCGILDTO6Y
MA6813400180,h_OCHCTP,11-L1-7,2019-02-06 03:15:00.0,PhaseCorrectionAve,-0.122,CHCGILDTO6Y
MA6813400180,h_OCHCTP,11-L1-7,2019-02-06 03:15:00.0,BerPreFecMax,0.0027,CHCGILDTO6Y
MA6813400180,h_OCHCTP,11-L1-7,2019-02-06 03:15:00.0,PmdMin,1.36,CHCGILDTO6Y
MA6813400180,h_OCHCTP,11-L1-7,2019-02-06 03:15:00.0,SoPmdAve,2939.92,CHCGILDTO6Y
MA6813400180,h_OCHCTP,11-L1-7,2019-02-06 03:30:00.0,Qmin,8.85,CHCGILDTO6Y
MA6813400180,h_OCHCTP,11-L1-7,2019-02-06 03:30:00.0,PhaseCorrectionAve,3.2e-07,CHCGILDTO6Y
MA6813400180,h_OCHCTP,11-L1-7,2019-02-06 03:30:00.0,BerPreFecMax,0.00281,CHCGILDTO6Y
MA6813400180,h_OCHCTP,11-L1-7,2019-02-06 03:30:00.0,PmdMin,0.682,CHCGILDTO6Y
MA6813400180,h_OCHCTP,11-L1-7,2019-02-06 03:30:00.0,SoPmdAve,3021.63,CHCGILDTO6Y
MA6813400180,h_OCHCTP,11-L1-7,2019-02-06 03:45:00.0,Qmin,8.73,CHCGILDTO6Y
MA6813400180,h_OCHCTP,11-L1-7,2019-02-06 03:45:00.0,PhaseCorrectionAve,-0.122,CHCGILDTO6Y
MA6813400180,h_OCHCTP,11-L1-7,2019-02-06 03:45:00.0,BerPreFecMax,0.00316,CHCGILDTO6Y
MA6813400180,h_OCHCTP,11-L1-7,2019-02-06 03:45:00.0,PmdMin,0.46,CHCGILDTO6Y
MA6813400180,h_OCHCTP,11-L1-7,2019-02-06 03:45:00.0,SoPmdAve,3063.14,CHCGILDTO6Y
MA6813400180,h_OCHCTP,11-L1-8,2019-02-06 03:15:00.0,Qmin,8.95,CHCGILDTO6Y
MA6813400180,h_OCHCTP,11-L1-8,2019-02-06 03:15:00.0,PhaseCorrectionAve,-0.122,CHCGILDTO6Y
MA6813400180,h_OCHCTP,11-L1-8,2019-02-06 03:15:00.0,BerPreFecMax,0.00254,CHCGILDTO6Y
MA6813400180,h_OCHCTP,11-L1-8,2019-02-06 03:15:00.0,PmdMin,0.46,CHCGILDTO6Y
MA6813400180,h_OCHCTP,11-L1-8,2019-02-06 03:15:00.0,SoPmdAve,3097.58,CHCGILDTO6Y
MA6813400180,h_OCHCTP,11-L1-8,2019-02-06 03:30:00.0,Qmin,8.95,CHCGILDTO6Y
MA6813400180,h_OCHCTP,11-L1-8,2019-02-06 03:30:00.0,PhaseCorrectionAve,7.47e-07,CHCGILDTO6Y
MA6813400180,h_OCHCTP,11-L1-8,2019-02-06 03:30:00.0,BerPreFecMax,0.00254,CHCGILDTO6Y
MA6813400180,h_OCHCTP,11-L1-8,2019-02-06 03:30:00.0,PmdMin,0.479,CHCGILDTO6Y
MA6813400180,h_OCHCTP,11-L1-8,2019-02-06 03:30:00.0,SoPmdAve,3034.55,CHCGILDTO6Y
MA6813400180,h_OCHCTP,11-L1-8,2019-02-06 03:45:00.0,Qmin,8.81,CHCGILDTO6Y
MA6813400180,h_OCHCTP,11-L1-8,2019-02-06 03:45:00.0,PhaseCorrectionAve,-0.122,CHCGILDTO6Y
MA6813400180,h_OCHCTP,11-L1-8,2019-02-06 03:45:00.0,BerPreFecMax,0.00292,CHCGILDTO6Y
MA6813400180,h_OCHCTP,11-L1-8,2019-02-06 03:45:00.0,PmdMin,1.04,CHCGILDTO6Y
MA6813400180,h_OCHCTP,11-L1-8,2019-02-06 03:45:00.0,SoPmdAve,3173.68,CHCGILDTO6Y
MA6813400180,h_OCHCTP,11-L1-9,2019-02-06 03:15:00.0,Qmin,8.81,CHCGILDTO6Y
MA6813400180,h_OCHCTP,11-L1-9,2019-02-06 03:15:00.0,PhaseCorrectionAve,-0.122,CHCGILDTO6Y
MA6813400180,h_OCHCTP,11-L1-9,2019-02-06 03:15:00.0,BerPreFecMax,0.00291,CHCGILDTO6Y
MA6813400180,h_OCHCTP,11-L1-9,2019-02-06 03:15:00.0,PmdMin,1.09,CHCGILDTO6Y
MA6813400180,h_OCHCTP,11-L1-9,2019-02-06 03:15:00.0,SoPmdAve,2972.99,CHCGILDTO6Y
MA6813400180,h_OCHCTP,11-L1-9,2019-02-06 03:30:00.0,Qmin,8.78,CHCGILDTO6Y
MA6813400180,h_OCHCTP,11-L1-9,2019-02-06 03:30:00.0,PhaseCorrectionAve,1.3e-06,CHCGILDTO6Y
MA6813400180,h_OCHCTP,11-L1-9,2019-02-06 03:30:00.0,BerPreFecMax,0.00298,CHCGILDTO6Y
MA6813400180,h_OCHCTP,11-L1-9,2019-02-06 03:30:00.0,PmdMin,1.05,CHCGILDTO6Y
MA6813400180,h_OCHCTP,11-L1-9,2019-02-06 03:30:00.0,SoPmdAve,2998.23,CHCGILDTO6Y
MA6813400180,h_OCHCTP,11-L1-9,2019-02-06 03:45:00.0,Qmin,8.78,CHCGILDTO6Y
MA6813400180,h_OCHCTP,11-L1-9,2019-02-06 03:45:00.0,PhaseCorrectionAve,-0.122,CHCGILDTO6Y
MA6813400180,h_OCHCTP,11-L1-9,2019-02-06 03:45:00.0,BerPreFecMax,0.00301,CHCGILDTO6Y
MA6813400180,h_OCHCTP,11-L1-9,2019-02-06 03:45:00.0,PmdMin,0.809,CHCGILDTO6Y
MA6813400180,h_OCHCTP,11-L1-9,2019-02-06 03:45:00.0,SoPmdAve,2938.19,CHCGILDTO6Y
MA6813400180,h_OCHCTP,11-L1-10,2019-02-06 03:15:00.0,Qmin,8.87,CHCGILDTO6Y
MA6813400180,h_OCHCTP,11-L1-10,2019-02-06 03:15:00.0,PhaseCorrectionAve,-0.122,CHCGILDTO6Y
MA6813400180,h_OCHCTP,11-L1-10,2019-02-06 03:15:00.0,BerPreFecMax,0.00275,CHCGILDTO6Y
MA6813400180,h_OCHCTP,11-L1-10,2019-02-06 03:15:00.0,PmdMin,0.699,CHCGILDTO6Y
MA6813400180,h_OCHCTP,11-L1-10,2019-02-06 03:15:00.0,SoPmdAve,3166.75,CHCGILDTO6Y
MA6813400180,h_OCHCTP,11-L1-10,2019-02-06 03:30:00.0,Qmin,8.93,CHCGILDTO6Y
MA6813400180,h_OCHCTP,11-L1-10,2019-02-06 03:30:00.0,PhaseCorrectionAve,2.33e-06,CHCGILDTO6Y
MA6813400180,h_OCHCTP,11-L1-10,2019-02-06 03:30:00.0,BerPreFecMax,0.00259,CHCGILDTO6Y
MA6813400180,h_OCHCTP,11-L1-10,2019-02-06 03:30:00.0,PmdMin,0.442,CHCGILDTO6Y
MA6813400180,h_OCHCTP,11-L1-10,2019-02-06 03:30:00.0,SoPmdAve,3035.86,CHCGILDTO6Y
MA6813400180,h_OCHCTP,11-L1-10,2019-02-06 03:45:00.0,Qmin,8.93,CHCGILDTO6Y
MA6813400180,h_OCHCTP,11-L1-10,2019-02-06 03:45:00.0,PhaseCorrectionAve,-0.183,CHCGILDTO6Y
MA6813400180,h_OCHCTP,11-L1-10,2019-02-06 03:45:00.0,BerPreFecMax,0.00258,CHCGILDTO6Y
MA6813400180,h_OCHCTP,11-L1-10,2019-02-06 03:45:00.0,PmdMin,1.06,CHCGILDTO6Y
MA6813400180,h_OCHCTP,11-L1-10,2019-02-06 03:45:00.0,SoPmdAve,3128.56,CHCGILDTO6Y
MA6813400180,h_OCHCTP,10-L1-1,2019-02-06 03:15:00.0,Qmin,9.47,CHCGILDTO6Y
MA6813400180,h_OCHCTP,10-L1-1,2019-02-06 03:15:00.0,PhaseCorrectionAve,4.34e-07,CHCGILDTO6Y
MA6813400180,h_OCHCTP,10-L1-1,2019-02-06 03:15:00.0,BerPreFecMax,0.00147,CHCGILDTO6Y
MA6813400180,h_OCHCTP,10-L1-1,2019-02-06 03:15:00.0,PmdMin,0.831,CHCGILDTO6Y
MA6813400180,h_OCHCTP,10-L1-1,2019-02-06 03:15:00.0,SoPmdAve,3550.64,CHCGILDTO6Y
MA6813400180,h_OCHCTP,10-L1-1,2019-02-06 03:30:00.0,Qmin,9.47,CHCGILDTO6Y
MA6813400180,h_OCHCTP,10-L1-1,2019-02-06 03:30:00.0,PhaseCorrectionAve,4.23e-07,CHCGILDTO6Y
MA6813400180,h_OCHCTP,10-L1-1,2019-02-06 03:30:00.0,BerPreFecMax,0.00147,CHCGILDTO6Y
MA6813400180,h_OCHCTP,10-L1-1,2019-02-06 03:30:00.0,PmdMin,1.35,CHCGILDTO6Y
MA6813400180,h_OCHCTP,10-L1-1,2019-02-06 03:30:00.0,SoPmdAve,3622.31,CHCGILDTO6Y
MA6813400180,h_OCHCTP,10-L1-1,2019-02-06 03:45:00.0,Qmin,9.47,CHCGILDTO6Y
MA6813400180,h_OCHCTP,10-L1-1,2019-02-06 03:45:00.0,PhaseCorrectionAve,-0.0609,CHCGILDTO6Y
MA6813400180,h_OCHCTP,10-L1-1,2019-02-06 03:45:00.0,BerPreFecMax,0.00146,CHCGILDTO6Y
MA6813400180,h_OCHCTP,10-L1-1,2019-02-06 03:45:00.0,PmdMin,1.26,CHCGILDTO6Y
MA6813400180,h_OCHCTP,10-L1-1,2019-02-06 03:45:00.0,SoPmdAve,3506.21,CHCGILDTO6Y
MA6813400180,h_OCHCTP,10-L1-2,2019-02-06 03:15:00.0,Qmin,9.13,CHCGILDTO6Y
MA6813400180,h_OCHCTP,10-L1-2,2019-02-06 03:15:00.0,PhaseCorrectionAve,-0.0611,CHCGILDTO6Y
MA6813400180,h_OCHCTP,10-L1-2,2019-02-06 03:15:00.0,BerPreFecMax,0.0021,CHCGILDTO6Y
MA6813400180,h_OCHCTP,10-L1-2,2019-02-06 03:15:00.0,PmdMin,5.49,CHCGILDTO6Y
MA6813400180,h_OCHCTP,10-L1-2,2019-02-06 03:15:00.0,SoPmdAve,3291.42,CHCGILDTO6Y
MA6813400180,h_OCHCTP,10-L1-2,2019-02-06 03:30:00.0,Qmin,9.13,CHCGILDTO6Y
MA6813400180,h_OCHCTP,10-L1-2,2019-02-06 03:30:00.0,PhaseCorrectionAve,3.53e-07,CHCGILDTO6Y
MA6813400180,h_OCHCTP,10-L1-2,2019-02-06 03:30:00.0,BerPreFecMax,0.0021,CHCGILDTO6Y
MA6813400180,h_OCHCTP,10-L1-2,2019-02-06 03:30:00.0,PmdMin,5.06,CHCGILDTO6Y
MA6813400180,h_OCHCTP,10-L1-2,2019-02-06 03:30:00.0,SoPmdAve,3280.6,CHCGILDTO6Y
MA6813400180,h_OCHCTP,10-L1-2,2019-02-06 03:45:00.0,Qmin,9.14,CHCGILDTO6Y
MA6813400180,h_OCHCTP,10-L1-2,2019-02-06 03:45:00.0,PhaseCorrectionAve,-0.0609,CHCGILDTO6Y
MA6813400180,h_OCHCTP,10-L1-2,2019-02-06 03:45:00.0,BerPreFecMax,0.00208,CHCGILDTO6Y
MA6813400180,h_OCHCTP,10-L1-2,2019-02-06 03:45:00.0,PmdMin,3.0,CHCGILDTO6Y
MA6813400180,h_OCHCTP,10-L1-2,2019-02-06 03:45:00.0,SoPmdAve,3329.63,CHCGILDTO6Y
MA6813400180,h_OCHCTP,10-L1-3,2019-02-06 03:15:00.0,Qmin,8.86,CHCGILDTO6Y
MA6813400180,h_OCHCTP,10-L1-3,2019-02-06 03:15:00.0,PhaseCorrectionAve,-0.0611,CHCGILDTO6Y
MA6813400180,h_OCHCTP,10-L1-3,2019-02-06 03:15:00.0,BerPreFecMax,0.00277,CHCGILDTO6Y
MA6813400180,h_OCHCTP,10-L1-3,2019-02-06 03:15:00.0,PmdMin,3.86,CHCGILDTO6Y
MA6813400180,h_OCHCTP,10-L1-3,2019-02-06 03:15:00.0,SoPmdAve,2805.15,CHCGILDTO6Y
MA6813400180,h_OCHCTP,10-L1-3,2019-02-06 03:30:00.0,Qmin,8.84,CHCGILDTO6Y
MA6813400180,h_OCHCTP,10-L1-3,2019-02-06 03:30:00.0,PhaseCorrectionAve,-0.061,CHCGILDTO6Y
MA6813400180,h_OCHCTP,10-L1-3,2019-02-06 03:30:00.0,BerPreFecMax,0.00283,CHCGILDTO6Y
MA6813400180,h_OCHCTP,10-L1-3,2019-02-06 03:30:00.0,PmdMin,3.63,CHCGILDTO6Y
MA6813400180,h_OCHCTP,10-L1-3,2019-02-06 03:30:00.0,SoPmdAve,2820.24,CHCGILDTO6Y
MA6813400180,h_OCHCTP,10-L1-3,2019-02-06 03:45:00.0,Qmin,8.88,CHCGILDTO6Y
MA6813400180,h_OCHCTP,10-L1-3,2019-02-06 03:45:00.0,PhaseCorrectionAve,-0.0609,CHCGILDTO6Y
MA6813400180,h_OCHCTP,10-L1-3,2019-02-06 03:45:00.0,BerPreFecMax,0.00273,CHCGILDTO6Y
MA6813400180,h_OCHCTP,10-L1-3,2019-02-06 03:45:00.0,PmdMin,3.39,CHCGILDTO6Y
MA6813400180,h_OCHCTP,10-L1-3,2019-02-06 03:45:00.0,SoPmdAve,2848.66,CHCGILDTO6Y
MA6813400180,h_OCHCTP,10-L1-4,2019-02-06 03:15:00.0,Qmin,8.28,CHCGILDTO6Y
MA6813400180,h_OCHCTP,10-L1-4,2019-02-06 03:15:00.0,PhaseCorrectionAve,-0.0611,CHCGILDTO6Y
MA6813400180,h_OCHCTP,10-L1-4,2019-02-06 03:15:00.0,BerPreFecMax,0.00472,CHCGILDTO6Y
MA6813400180,h_OCHCTP,10-L1-4,2019-02-06 03:15:00.0,PmdMin,1.1,CHCGILDTO6Y
MA6813400180,h_OCHCTP,10-L1-4,2019-02-06 03:15:00.0,SoPmdAve,3023.72,CHCGILDTO6Y
MA6813400180,h_OCHCTP,10-L1-4,2019-02-06 03:30:00.0,Qmin,8.26,CHCGILDTO6Y
MA6813400180,h_OCHCTP,10-L1-4,2019-02-06 03:30:00.0,PhaseCorrectionAve,-0.061,CHCGILDTO6Y
MA6813400180,h_OCHCTP,10-L1-4,2019-02-06 03:30:00.0,BerPreFecMax,0.00481,CHCGILDTO6Y
MA6813400180,h_OCHCTP,10-L1-4,2019-02-06 03:30:00.0,PmdMin,1.31,CHCGILDTO6Y
MA6813400180,h_OCHCTP,10-L1-4,2019-02-06 03:30:00.0,SoPmdAve,3181.63,CHCGILDTO6Y
MA6813400180,h_OCHCTP,10-L1-4,2019-02-06 03:45:00.0,Qmin,8.3,CHCGILDTO6Y
MA6813400180,h_OCHCTP,10-L1-4,2019-02-06 03:45:00.0,PhaseCorrectionAve,-0.0609,CHCGILDTO6Y
MA6813400180,h_OCHCTP,10-L1-4,2019-02-06 03:45:00.0,BerPreFecMax,0.00467,CHCGILDTO6Y
MA6813400180,h_OCHCTP,10-L1-4,2019-02-06 03:45:00.0,PmdMin,1.9,CHCGILDTO6Y
MA6813400180,h_OCHCTP,10-L1-4,2019-02-06 03:45:00.0,SoPmdAve,3079.38,CHCGILDTO6Y
MA6813400180,h_OCHCTP,10-L1-5,2019-02-06 03:15:00.0,Qmin,8.49,CHCGILDTO6Y
MA6813400180,h_OCHCTP,10-L1-5,2019-02-06 03:15:00.0,PhaseCorrectionAve,-0.0611,CHCGILDTO6Y
MA6813400180,h_OCHCTP,10-L1-5,2019-02-06 03:15:00.0,BerPreFecMax,0.00395,CHCGILDTO6Y
MA6813400180,h_OCHCTP,10-L1-5,2019-02-06 03:15:00.0,PmdMin,1.04,CHCGILDTO6Y
MA6813400180,h_OCHCTP,10-L1-5,2019-02-06 03:15:00.0,SoPmdAve,2849.9,CHCGILDTO6Y
MA6813400180,h_OCHCTP,10-L1-5,2019-02-06 03:30:00.0,Qmin,8.48,CHCGILDTO6Y
MA6813400180,h_OCHCTP,10-L1-5,2019-02-06 03:30:00.0,PhaseCorrectionAve,-0.061,CHCGILDTO6Y
MA6813400180,h_OCHCTP,10-L1-5,2019-02-06 03:30:00.0,BerPreFecMax,0.00398,CHCGILDTO6Y
MA6813400180,h_OCHCTP,10-L1-5,2019-02-06 03:30:00.0,PmdMin,0.685,CHCGILDTO6Y
MA6813400180,h_OCHCTP,10-L1-5,2019-02-06 03:30:00.0,SoPmdAve,2869.61,CHCGILDTO6Y
MA6813400180,h_OCHCTP,10-L1-5,2019-02-06 03:45:00.0,Qmin,8.52,CHCGILDTO6Y
MA6813400180,h_OCHCTP,10-L1-5,2019-02-06 03:45:00.0,PhaseCorrectionAve,-0.0609,CHCGILDTO6Y
MA6813400180,h_OCHCTP,10-L1-5,2019-02-06 03:45:00.0,BerPreFecMax,0.00384,CHCGILDTO6Y
MA6813400180,h_OCHCTP,10-L1-5,2019-02-06 03:45:00.0,PmdMin,1.35,CHCGILDTO6Y
MA6813400180,h_OCHCTP,10-L1-5,2019-02-06 03:45:00.0,SoPmdAve,2848.07,CHCGILDTO6Y
MA6813400180,h_OCHCTP,10-L1-6,2019-02-06 03:15:00.0,Qmin,8.74,CHCGILDTO6Y
MA6813400180,h_OCHCTP,10-L1-6,2019-02-06 03:15:00.0,PhaseCorrectionAve,-0.0611,CHCGILDTO6Y
MA6813400180,h_OCHCTP,10-L1-6,2019-02-06 03:15:00.0,BerPreFecMax,0.00311,CHCGILDTO6Y
MA6813400180,h_OCHCTP,10-L1-6,2019-02-06 03:15:00.0,PmdMin,1.13,CHCGILDTO6Y
MA6813400180,h_OCHCTP,10-L1-6,2019-02-06 03:15:00.0,SoPmdAve,2852.21,CHCGILDTO6Y
MA6813400180,h_OCHCTP,10-L1-6,2019-02-06 03:30:00.0,Qmin,8.72,CHCGILDTO6Y
MA6813400180,h_OCHCTP,10-L1-6,2019-02-06 03:30:00.0,PhaseCorrectionAve,-0.061,CHCGILDTO6Y
MA6813400180,h_OCHCTP,10-L1-6,2019-02-06 03:30:00.0,BerPreFecMax,0.00318,CHCGILDTO6Y
MA6813400180,h_OCHCTP,10-L1-6,2019-02-06 03:30:00.0,PmdMin,0.979,CHCGILDTO6Y
MA6813400180,h_OCHCTP,10-L1-6,2019-02-06 03:30:00.0,SoPmdAve,2789.92,CHCGILDTO6Y
MA6813400180,h_OCHCTP,10-L1-6,2019-02-06 03:45:00.0,Qmin,8.75,CHCGILDTO6Y
MA6813400180,h_OCHCTP,10-L1-6,2019-02-06 03:45:00.0,PhaseCorrectionAve,-0.0609,CHCGILDTO6Y
MA6813400180,h_OCHCTP,10-L1-6,2019-02-06 03:45:00.0,BerPreFecMax,0.0031,CHCGILDTO6Y
MA6813400180,h_OCHCTP,10-L1-6,2019-02-06 03:45:00.0,PmdMin,1.05,CHCGILDTO6Y
MA6813400180,h_OCHCTP,10-L1-6,2019-02-06 03:45:00.0,SoPmdAve,2887.08,CHCGILDTO6Y
MA6813400180,h_OCHCTP,10-L1-7,2019-02-06 03:15:00.0,Qmin,8.83,CHCGILDTO6Y
MA6813400180,h_OCHCTP,10-L1-7,2019-02-06 03:15:00.0,PhaseCorrectionAve,-0.0611,CHCGILDTO6Y
MA6813400180,h_OCHCTP,10-L1-7,2019-02-06 03:15:00.0,BerPreFecMax,0.00285,CHCGILDTO6Y
MA6813400180,h_OCHCTP,10-L1-7,2019-02-06 03:15:00.0,PmdMin,2.5,CHCGILDTO6Y
MA6813400180,h_OCHCTP,10-L1-7,2019-02-06 03:15:00.0,SoPmdAve,3407.75,CHCGILDTO6Y
MA6813400180,h_OCHCTP,10-L1-7,2019-02-06 03:30:00.0,Qmin,8.82,CHCGILDTO6Y
MA6813400180,h_OCHCTP,10-L1-7,2019-02-06 03:30:00.0,PhaseCorrectionAve,-0.122,CHCGILDTO6Y
MA6813400180,h_OCHCTP,10-L1-7,2019-02-06 03:30:00.0,BerPreFecMax,0.00288,CHCGILDTO6Y
MA6813400180,h_OCHCTP,10-L1-7,2019-02-06 03:30:00.0,PmdMin,1.95,CHCGILDTO6Y
MA6813400180,h_OCHCTP,10-L1-7,2019-02-06 03:30:00.0,SoPmdAve,3415.27,CHCGILDTO6Y
MA6813400180,h_OCHCTP,10-L1-7,2019-02-06 03:45:00.0,Qmin,8.85,CHCGILDTO6Y
MA6813400180,h_OCHCTP,10-L1-7,2019-02-06 03:45:00.0,PhaseCorrectionAve,-0.0609,CHCGILDTO6Y
MA6813400180,h_OCHCTP,10-L1-7,2019-02-06 03:45:00.0,BerPreFecMax,0.0028,CHCGILDTO6Y
MA6813400180,h_OCHCTP,10-L1-7,2019-02-06 03:45:00.0,PmdMin,1.22,CHCGILDTO6Y
MA6813400180,h_OCHCTP,10-L1-7,2019-02-06 03:45:00.0,SoPmdAve,3546.67,CHCGILDTO6Y
MA6813400180,h_OCHCTP,10-L1-8,2019-02-06 03:15:00.0,Qmin,9.34,CHCGILDTO6Y
MA6813400180,h_OCHCTP,10-L1-8,2019-02-06 03:15:00.0,PhaseCorrectionAve,-0.0611,CHCGILDTO6Y
MA6813400180,h_OCHCTP,10-L1-8,2019-02-06 03:15:00.0,BerPreFecMax,0.0017,CHCGILDTO6Y
MA6813400180,h_OCHCTP,10-L1-8,2019-02-06 03:15:00.0,PmdMin,1.47,CHCGILDTO6Y
MA6813400180,h_OCHCTP,10-L1-8,2019-02-06 03:15:00.0,SoPmdAve,3332.42,CHCGILDTO6Y
MA6813400180,h_OCHCTP,10-L1-8,2019-02-06 03:30:00.0,Qmin,9.34,CHCGILDTO6Y
MA6813400180,h_OCHCTP,10-L1-8,2019-02-06 03:30:00.0,PhaseCorrectionAve,-0.122,CHCGILDTO6Y
MA6813400180,h_OCHCTP,10-L1-8,2019-02-06 03:30:00.0,BerPreFecMax,0.00168,CHCGILDTO6Y
MA6813400180,h_OCHCTP,10-L1-8,2019-02-06 03:30:00.0,PmdMin,0.758,CHCGILDTO6Y
MA6813400180,h_OCHCTP,10-L1-8,2019-02-06 03:30:00.0,SoPmdAve,3372.25,CHCGILDTO6Y
MA6813400180,h_OCHCTP,10-L1-8,2019-02-06 03:45:00.0,Qmin,9.33,CHCGILDTO6Y
MA6813400180,h_OCHCTP,10-L1-8,2019-02-06 03:45:00.0,PhaseCorrectionAve,-0.0609,CHCGILDTO6Y
MA6813400180,h_OCHCTP,10-L1-8,2019-02-06 03:45:00.0,BerPreFecMax,0.00171,CHCGILDTO6Y
MA6813400180,h_OCHCTP,10-L1-8,2019-02-06 03:45:00.0,PmdMin,1.46,CHCGILDTO6Y
MA6813400180,h_OCHCTP,10-L1-8,2019-02-06 03:45:00.0,SoPmdAve,3264.48,CHCGILDTO6Y
MA6813400180,h_OCHCTP,10-L1-9,2019-02-06 03:15:00.0,Qmin,9.35,CHCGILDTO6Y
MA6813400180,h_OCHCTP,10-L1-9,2019-02-06 03:15:00.0,PhaseCorrectionAve,-0.122,CHCGILDTO6Y
MA6813400180,h_OCHCTP,10-L1-9,2019-02-06 03:15:00.0,BerPreFecMax,0.00167,CHCGILDTO6Y
MA6813400180,h_OCHCTP,10-L1-9,2019-02-06 03:15:00.0,PmdMin,5.16,CHCGILDTO6Y
MA6813400180,h_OCHCTP,10-L1-9,2019-02-06 03:15:00.0,SoPmdAve,3267.78,CHCGILDTO6Y
MA6813400180,h_OCHCTP,10-L1-9,2019-02-06 03:30:00.0,Qmin,9.35,CHCGILDTO6Y
MA6813400180,h_OCHCTP,10-L1-9,2019-02-06 03:30:00.0,PhaseCorrectionAve,-0.122,CHCGILDTO6Y
MA6813400180,h_OCHCTP,10-L1-9,2019-02-06 03:30:00.0,BerPreFecMax,0.00167,CHCGILDTO6Y
MA6813400180,h_OCHCTP,10-L1-9,2019-02-06 03:30:00.0,PmdMin,3.94,CHCGILDTO6Y
MA6813400180,h_OCHCTP,10-L1-9,2019-02-06 03:30:00.0,SoPmdAve,3295.9,CHCGILDTO6Y
MA6813400180,h_OCHCTP,10-L1-9,2019-02-06 03:45:00.0,Qmin,9.36,CHCGILDTO6Y
MA6813400180,h_OCHCTP,10-L1-9,2019-02-06 03:45:00.0,PhaseCorrectionAve,-0.0609,CHCGILDTO6Y
MA6813400180,h_OCHCTP,10-L1-9,2019-02-06 03:45:00.0,BerPreFecMax,0.00166,CHCGILDTO6Y
MA6813400180,h_OCHCTP,10-L1-9,2019-02-06 03:45:00.0,PmdMin,2.01,CHCGILDTO6Y
MA6813400180,h_OCHCTP,10-L1-9,2019-02-06 03:45:00.0,SoPmdAve,3206.17,CHCGILDTO6Y
MA6813400180,h_OCHCTP,10-L1-10,2019-02-06 03:15:00.0,Qmin,9.39,CHCGILDTO6Y
MA6813400180,h_OCHCTP,10-L1-10,2019-02-06 03:15:00.0,PhaseCorrectionAve,-0.122,CHCGILDTO6Y
MA6813400180,h_OCHCTP,10-L1-10,2019-02-06 03:15:00.0,BerPreFecMax,0.0016,CHCGILDTO6Y
MA6813400180,h_OCHCTP,10-L1-10,2019-02-06 03:15:00.0,PmdMin,8.67,CHCGILDTO6Y
MA6813400180,h_OCHCTP,10-L1-10,2019-02-06 03:15:00.0,SoPmdAve,3307.27,CHCGILDTO6Y
MA6813400180,h_OCHCTP,10-L1-10,2019-02-06 03:30:00.0,Qmin,9.38,CHCGILDTO6Y
MA6813400180,h_OCHCTP,10-L1-10,2019-02-06 03:30:00.0,PhaseCorrectionAve,-0.183,CHCGILDTO6Y
MA6813400180,h_OCHCTP,10-L1-10,2019-02-06 03:30:00.0,BerPreFecMax,0.00161,CHCGILDTO6Y
MA6813400180,h_OCHCTP,10-L1-10,2019-02-06 03:30:00.0,PmdMin,10.21,CHCGILDTO6Y
MA6813400180,h_OCHCTP,10-L1-10,2019-02-06 03:30:00.0,SoPmdAve,3290.27,CHCGILDTO6Y
MA6813400180,h_OCHCTP,10-L1-10,2019-02-06 03:45:00.0,Qmin,9.39,CHCGILDTO6Y
MA6813400180,h_OCHCTP,10-L1-10,2019-02-06 03:45:00.0,PhaseCorrectionAve,-0.0609,CHCGILDTO6Y
MA6813400180,h_OCHCTP,10-L1-10,2019-02-06 03:45:00.0,BerPreFecMax,0.0016,CHCGILDTO6Y
MA6813400180,h_OCHCTP,10-L1-10,2019-02-06 03:45:00.0,PmdMin,6.03,CHCGILDTO6Y
MA6813400180,h_OCHCTP,10-L1-10,2019-02-06 03:45:00.0,SoPmdAve,3190.57,CHCGILDTO6Y
MA6813400180,h_OCHCTP,13-L1-1,2019-02-06 03:15:00.0,Qmin,9.13,CHCGILDTO6Y
MA6813400180,h_OCHCTP,13-L1-1,2019-02-06 03:15:00.0,PhaseCorrectionAve,2.64e-07,CHCGILDTO6Y
MA6813400180,h_OCHCTP,13-L1-1,2019-02-06 03:15:00.0,BerPreFecMax,0.0021,CHCGILDTO6Y
MA6813400180,h_OCHCTP,13-L1-1,2019-02-06 03:15:00.0,PmdMin,1.13,CHCGILDTO6Y
MA6813400180,h_OCHCTP,13-L1-1,2019-02-06 03:15:00.0,SoPmdAve,3575.75,CHCGILDTO6Y
MA6813400180,h_OCHCTP,13-L1-1,2019-02-06 03:30:00.0,Qmin,9.19,CHCGILDTO6Y
MA6813400180,h_OCHCTP,13-L1-1,2019-02-06 03:30:00.0,PhaseCorrectionAve,2.59e-07,CHCGILDTO6Y
MA6813400180,h_OCHCTP,13-L1-1,2019-02-06 03:30:00.0,BerPreFecMax,0.00198,CHCGILDTO6Y
MA6813400180,h_OCHCTP,13-L1-1,2019-02-06 03:30:00.0,PmdMin,1.26,CHCGILDTO6Y
MA6813400180,h_OCHCTP,13-L1-1,2019-02-06 03:30:00.0,SoPmdAve,3567.68,CHCGILDTO6Y
MA6813400180,h_OCHCTP,13-L1-1,2019-02-06 03:45:00.0,Qmin,9.23,CHCGILDTO6Y
MA6813400180,h_OCHCTP,13-L1-1,2019-02-06 03:45:00.0,PhaseCorrectionAve,2.6e-07,CHCGILDTO6Y
MA6813400180,h_OCHCTP,13-L1-1,2019-02-06 03:45:00.0,BerPreFecMax,0.0019,CHCGILDTO6Y
MA6813400180,h_OCHCTP,13-L1-1,2019-02-06 03:45:00.0,PmdMin,1.12,CHCGILDTO6Y
MA6813400180,h_OCHCTP,13-L1-1,2019-02-06 03:45:00.0,SoPmdAve,3385.55,CHCGILDTO6Y
MA6813400180,h_OCHCTP,13-L1-2,2019-02-06 03:15:00.0,Qmin,9.21,CHCGILDTO6Y
MA6813400180,h_OCHCTP,13-L1-2,2019-02-06 03:15:00.0,PhaseCorrectionAve,2.93e-07,CHCGILDTO6Y
MA6813400180,h_OCHCTP,13-L1-2,2019-02-06 03:15:00.0,BerPreFecMax,0.00194,CHCGILDTO6Y
MA6813400180,h_OCHCTP,13-L1-2,2019-02-06 03:15:00.0,PmdMin,1.45,CHCGILDTO6Y
MA6813400180,h_OCHCTP,13-L1-2,2019-02-06 03:15:00.0,SoPmdAve,3623.53,CHCGILDTO6Y
MA6813400180,h_OCHCTP,13-L1-2,2019-02-06 03:30:00.0,Qmin,9.14,CHCGILDTO6Y
MA6813400180,h_OCHCTP,13-L1-2,2019-02-06 03:30:00.0,PhaseCorrectionAve,-0.061,CHCGILDTO6Y
MA6813400180,h_OCHCTP,13-L1-2,2019-02-06 03:30:00.0,BerPreFecMax,0.00209,CHCGILDTO6Y
MA6813400180,h_OCHCTP,13-L1-2,2019-02-06 03:30:00.0,PmdMin,1.5,CHCGILDTO6Y
MA6813400180,h_OCHCTP,13-L1-2,2019-02-06 03:30:00.0,SoPmdAve,3500.33,CHCGILDTO6Y
MA6813400180,h_OCHCTP,13-L1-2,2019-02-06 03:45:00.0,Qmin,9.15,CHCGILDTO6Y
MA6813400180,h_OCHCTP,13-L1-2,2019-02-06 03:45:00.0,PhaseCorrectionAve,3.6e-07,CHCGILDTO6Y
MA6813400180,h_OCHCTP,13-L1-2,2019-02-06 03:45:00.0,BerPreFecMax,0.00207,CHCGILDTO6Y
MA6813400180,h_OCHCTP,13-L1-2,2019-02-06 03:45:00.0,PmdMin,1.19,CHCGILDTO6Y
MA6813400180,h_OCHCTP,13-L1-2,2019-02-06 03:45:00.0,SoPmdAve,3468.81,CHCGILDTO6Y
MA6813400180,h_OCHCTP,13-L1-3,2019-02-06 03:15:00.0,Qmin,8.99,CHCGILDTO6Y
MA6813400180,h_OCHCTP,13-L1-3,2019-02-06 03:15:00.0,PhaseCorrectionAve,-0.061,CHCGILDTO6Y
MA6813400180,h_OCHCTP,13-L1-3,2019-02-06 03:15:00.0,BerPreFecMax,0.00243,CHCGILDTO6Y
MA6813400180,h_OCHCTP,13-L1-3,2019-02-06 03:15:00.0,PmdMin,0.418,CHCGILDTO6Y
MA6813400180,h_OCHCTP,13-L1-3,2019-02-06 03:15:00.0,SoPmdAve,2846.6,CHCGILDTO6Y
MA6813400180,h_OCHCTP,13-L1-3,2019-02-06 03:30:00.0,Qmin,9.01,CHCGILDTO6Y
MA6813400180,h_OCHCTP,13-L1-3,2019-02-06 03:30:00.0,PhaseCorrectionAve,-0.061,CHCGILDTO6Y
MA6813400180,h_OCHCTP,13-L1-3,2019-02-06 03:30:00.0,BerPreFecMax,0.0024,CHCGILDTO6Y
MA6813400180,h_OCHCTP,13-L1-3,2019-02-06 03:30:00.0,PmdMin,0.602,CHCGILDTO6Y
MA6813400180,h_OCHCTP,13-L1-3,2019-02-06 03:30:00.0,SoPmdAve,2827.5,CHCGILDTO6Y
MA6813400180,h_OCHCTP,13-L1-3,2019-02-06 03:45:00.0,Qmin,9.0,CHCGILDTO6Y
MA6813400180,h_OCHCTP,13-L1-3,2019-02-06 03:45:00.0,PhaseCorrectionAve,4.05e-07,CHCGILDTO6Y
MA6813400180,h_OCHCTP,13-L1-3,2019-02-06 03:45:00.0,BerPreFecMax,0.00242,CHCGILDTO6Y
MA6813400180,h_OCHCTP,13-L1-3,2019-02-06 03:45:00.0,PmdMin,0.304,CHCGILDTO6Y
MA6813400180,h_OCHCTP,13-L1-3,2019-02-06 03:45:00.0,SoPmdAve,2884.98,CHCGILDTO6Y
MA6813400180,h_OCHCTP,13-L1-4,2019-02-06 03:15:00.0,Qmin,8.78,CHCGILDTO6Y
MA6813400180,h_OCHCTP,13-L1-4,2019-02-06 03:15:00.0,PhaseCorrectionAve,-0.061,CHCGILDTO6Y
MA6813400180,h_OCHCTP,13-L1-4,2019-02-06 03:15:00.0,BerPreFecMax,0.00301,CHCGILDTO6Y
MA6813400180,h_OCHCTP,13-L1-4,2019-02-06 03:15:00.0,PmdMin,0.455,CHCGILDTO6Y
MA6813400180,h_OCHCTP,13-L1-4,2019-02-06 03:15:00.0,SoPmdAve,3363.05,CHCGILDTO6Y
MA6813400180,h_OCHCTP,13-L1-4,2019-02-06 03:30:00.0,Qmin,8.82,CHCGILDTO6Y
MA6813400180,h_OCHCTP,13-L1-4,2019-02-06 03:30:00.0,PhaseCorrectionAve,-0.122,CHCGILDTO6Y
MA6813400180,h_OCHCTP,13-L1-4,2019-02-06 03:30:00.0,BerPreFecMax,0.00288,CHCGILDTO6Y
MA6813400180,h_OCHCTP,13-L1-4,2019-02-06 03:30:00.0,PmdMin,1.08,CHCGILDTO6Y
MA6813400180,h_OCHCTP,13-L1-4,2019-02-06 03:30:00.0,SoPmdAve,3297.64,CHCGILDTO6Y
MA6813400180,h_OCHCTP,13-L1-4,2019-02-06 03:45:00.0,Qmin,8.79,CHCGILDTO6Y
MA6813400180,h_OCHCTP,13-L1-4,2019-02-06 03:45:00.0,PhaseCorrectionAve,4.86e-07,CHCGILDTO6Y
MA6813400180,h_OCHCTP,13-L1-4,2019-02-06 03:45:00.0,BerPreFecMax,0.00296,CHCGILDTO6Y
MA6813400180,h_OCHCTP,13-L1-4,2019-02-06 03:45:00.0,PmdMin,0.356,CHCGILDTO6Y
MA6813400180,h_OCHCTP,13-L1-4,2019-02-06 03:45:00.0,SoPmdAve,3436.59,CHCGILDTO6Y
MA6813400180,h_OCHCTP,13-L1-5,2019-02-06 03:15:00.0,Qmin,8.78,CHCGILDTO6Y
MA6813400180,h_OCHCTP,13-L1-5,2019-02-06 03:15:00.0,PhaseCorrectionAve,-0.061,CHCGILDTO6Y
MA6813400180,h_OCHCTP,13-L1-5,2019-02-06 03:15:00.0,BerPreFecMax,0.00298,CHCGILDTO6Y
MA6813400180,h_OCHCTP,13-L1-5,2019-02-06 03:15:00.0,PmdMin,0.856,CHCGILDTO6Y
MA6813400180,h_OCHCTP,13-L1-5,2019-02-06 03:15:00.0,SoPmdAve,2825.31,CHCGILDTO6Y
MA6813400180,h_OCHCTP,13-L1-5,2019-02-06 03:30:00.0,Qmin,8.84,CHCGILDTO6Y
MA6813400180,h_OCHCTP,13-L1-5,2019-02-06 03:30:00.0,PhaseCorrectionAve,-0.122,CHCGILDTO6Y
MA6813400180,h_OCHCTP,13-L1-5,2019-02-06 03:30:00.0,BerPreFecMax,0.00282,CHCGILDTO6Y
MA6813400180,h_OCHCTP,13-L1-5,2019-02-06 03:30:00.0,PmdMin,1.14,CHCGILDTO6Y
MA6813400180,h_OCHCTP,13-L1-5,2019-02-06 03:30:00.0,SoPmdAve,2831.53,CHCGILDTO6Y
MA6813400180,h_OCHCTP,13-L1-5,2019-02-06 03:45:00.0,Qmin,8.82,CHCGILDTO6Y
MA6813400180,h_OCHCTP,13-L1-5,2019-02-06 03:45:00.0,PhaseCorrectionAve,-0.061,CHCGILDTO6Y
MA6813400180,h_OCHCTP,13-L1-5,2019-02-06 03:45:00.0,BerPreFecMax,0.00288,CHCGILDTO6Y
MA6813400180,h_OCHCTP,13-L1-5,2019-02-06 03:45:00.0,PmdMin,0.969,CHCGILDTO6Y
MA6813400180,h_OCHCTP,13-L1-5,2019-02-06 03:45:00.0,SoPmdAve,2890.0,CHCGILDTO6Y
MA6813400180,h_OCHCTP,13-L1-6,2019-02-06 03:15:00.0,Qmin,8.8,CHCGILDTO6Y
MA6813400180,h_OCHCTP,13-L1-6,2019-02-06 03:15:00.0,PhaseCorrectionAve,-0.122,CHCGILDTO6Y
MA6813400180,h_OCHCTP,13-L1-6,2019-02-06 03:15:00.0,BerPreFecMax,0.00295,CHCGILDTO6Y
MA6813400180,h_OCHCTP,13-L1-6,2019-02-06 03:15:00.0,PmdMin,1.31,CHCGILDTO6Y
MA6813400180,h_OCHCTP,13-L1-6,2019-02-06 03:15:00.0,SoPmdAve,3066.4,CHCGILDTO6Y
MA6813400180,h_OCHCTP,13-L1-6,2019-02-06 03:30:00.0,Qmin,8.85,CHCGILDTO6Y
MA6813400180,h_OCHCTP,13-L1-6,2019-02-06 03:30:00.0,PhaseCorrectionAve,-0.183,CHCGILDTO6Y
MA6813400180,h_OCHCTP,13-L1-6,2019-02-06 03:30:00.0,BerPreFecMax,0.00281,CHCGILDTO6Y
MA6813400180,h_OCHCTP,13-L1-6,2019-02-06 03:30:00.0,PmdMin,0.756,CHCGILDTO6Y
MA6813400180,h_OCHCTP,13-L1-6,2019-02-06 03:30:00.0,SoPmdAve,2992.55,CHCGILDTO6Y
MA6813400180,h_OCHCTP,13-L1-6,2019-02-06 03:45:00.0,Qmin,8.83,CHCGILDTO6Y
MA6813400180,h_OCHCTP,13-L1-6,2019-02-06 03:45:00.0,PhaseCorrectionAve,-0.061,CHCGILDTO6Y
MA6813400180,h_OCHCTP,13-L1-6,2019-02-06 03:45:00.0,BerPreFecMax,0.00286,CHCGILDTO6Y
MA6813400180,h_OCHCTP,13-L1-6,2019-02-06 03:45:00.0,PmdMin,0.785,CHCGILDTO6Y
MA6813400180,h_OCHCTP,13-L1-6,2019-02-06 03:45:00.0,SoPmdAve,3000.26,CHCGILDTO6Y
MA6813400180,h_OCHCTP,13-L1-7,2019-02-06 03:15:00.0,Qmin,8.83,CHCGILDTO6Y
MA6813400180,h_OCHCTP,13-L1-7,2019-02-06 03:15:00.0,PhaseCorrectionAve,-0.122,CHCGILDTO6Y
MA6813400180,h_OCHCTP,13-L1-7,2019-02-06 03:15:00.0,BerPreFecMax,0.00286,CHCGILDTO6Y
MA6813400180,h_OCHCTP,13-L1-7,2019-02-06 03:15:00.0,PmdMin,1.12,CHCGILDTO6Y
MA6813400180,h_OCHCTP,13-L1-7,2019-02-06 03:15:00.0,SoPmdAve,3712.59,CHCGILDTO6Y
MA6813400180,h_OCHCTP,13-L1-7,2019-02-06 03:30:00.0,Qmin,8.73,CHCGILDTO6Y
MA6813400180,h_OCHCTP,13-L1-7,2019-02-06 03:30:00.0,PhaseCorrectionAve,-0.183,CHCGILDTO6Y
MA6813400180,h_OCHCTP,13-L1-7,2019-02-06 03:30:00.0,BerPreFecMax,0.00314,CHCGILDTO6Y
MA6813400180,h_OCHCTP,13-L1-7,2019-02-06 03:30:00.0,PmdMin,0.892,CHCGILDTO6Y
MA6813400180,h_OCHCTP,13-L1-7,2019-02-06 03:30:00.0,SoPmdAve,3762.64,CHCGILDTO6Y
MA6813400180,h_OCHCTP,13-L1-7,2019-02-06 03:45:00.0,Qmin,8.77,CHCGILDTO6Y
MA6813400180,h_OCHCTP,13-L1-7,2019-02-06 03:45:00.0,PhaseCorrectionAve,-0.061,CHCGILDTO6Y
MA6813400180,h_OCHCTP,13-L1-7,2019-02-06 03:45:00.0,BerPreFecMax,0.00303,CHCGILDTO6Y
MA6813400180,h_OCHCTP,13-L1-7,2019-02-06 03:45:00.0,PmdMin,0.918,CHCGILDTO6Y
MA6813400180,h_OCHCTP,13-L1-7,2019-02-06 03:45:00.0,SoPmdAve,3697.35,CHCGILDTO6Y
MA6813400180,h_OCHCTP,13-L1-8,2019-02-06 03:15:00.0,Qmin,8.86,CHCGILDTO6Y
MA6813400180,h_OCHCTP,13-L1-8,2019-02-06 03:15:00.0,PhaseCorrectionAve,-0.122,CHCGILDTO6Y
MA6813400180,h_OCHCTP,13-L1-8,2019-02-06 03:15:00.0,BerPreFecMax,0.00276,CHCGILDTO6Y
MA6813400180,h_OCHCTP,13-L1-8,2019-02-06 03:15:00.0,PmdMin,0.78,CHCGILDTO6Y
MA6813400180,h_OCHCTP,13-L1-8,2019-02-06 03:15:00.0,SoPmdAve,3836.0,CHCGILDTO6Y
MA6813400180,h_OCHCTP,13-L1-8,2019-02-06 03:30:00.0,Qmin,8.86,CHCGILDTO6Y
MA6813400180,h_OCHCTP,13-L1-8,2019-02-06 03:30:00.0,PhaseCorrectionAve,-0.183,CHCGILDTO6Y
MA6813400180,h_OCHCTP,13-L1-8,2019-02-06 03:30:00.0,BerPreFecMax,0.00277,CHCGILDTO6Y
MA6813400180,h_OCHCTP,13-L1-8,2019-02-06 03:30:00.0,PmdMin,1.78,CHCGILDTO6Y
MA6813400180,h_OCHCTP,13-L1-8,2019-02-06 03:30:00.0,SoPmdAve,3826.56,CHCGILDTO6Y
MA6813400180,h_OCHCTP,13-L1-8,2019-02-06 03:45:00.0,Qmin,8.75,CHCGILDTO6Y
MA6813400180,h_OCHCTP,13-L1-8,2019-02-06 03:45:00.0,PhaseCorrectionAve,-0.061,CHCGILDTO6Y
MA6813400180,h_OCHCTP,13-L1-8,2019-02-06 03:45:00.0,BerPreFecMax,0.0031,CHCGILDTO6Y
MA6813400180,h_OCHCTP,13-L1-8,2019-02-06 03:45:00.0,PmdMin,1.01,CHCGILDTO6Y
MA6813400180,h_OCHCTP,13-L1-8,2019-02-06 03:45:00.0,SoPmdAve,3897.03,CHCGILDTO6Y
MA6813400180,h_OCHCTP,13-L1-9,2019-02-06 03:15:00.0,Qmin,8.72,CHCGILDTO6Y
MA6813400180,h_OCHCTP,13-L1-9,2019-02-06 03:15:00.0,PhaseCorrectionAve,-0.183,CHCGILDTO6Y
MA6813400180,h_OCHCTP,13-L1-9,2019-02-06 03:15:00.0,BerPreFecMax,0.00317,CHCGILDTO6Y
MA6813400180,h_OCHCTP,13-L1-9,2019-02-06 03:15:00.0,PmdMin,1.63,CHCGILDTO6Y
MA6813400180,h_OCHCTP,13-L1-9,2019-02-06 03:15:00.0,SoPmdAve,3525.19,CHCGILDTO6Y
MA6813400180,h_OCHCTP,13-L1-9,2019-02-06 03:30:00.0,Qmin,8.77,CHCGILDTO6Y
MA6813400180,h_OCHCTP,13-L1-9,2019-02-06 03:30:00.0,PhaseCorrectionAve,-0.183,CHCGILDTO6Y
MA6813400180,h_OCHCTP,13-L1-9,2019-02-06 03:30:00.0,BerPreFecMax,0.00302,CHCGILDTO6Y
MA6813400180,h_OCHCTP,13-L1-9,2019-02-06 03:30:00.0,PmdMin,0.552,CHCGILDTO6Y
MA6813400180,h_OCHCTP,13-L1-9,2019-02-06 03:30:00.0,SoPmdAve,3643.53,CHCGILDTO6Y
MA6813400180,h_OCHCTP,13-L1-9,2019-02-06 03:45:00.0,Qmin,8.76,CHCGILDTO6Y
MA6813400180,h_OCHCTP,13-L1-9,2019-02-06 03:45:00.0,PhaseCorrectionAve,-0.061,CHCGILDTO6Y
MA6813400180,h_OCHCTP,13-L1-9,2019-02-06 03:45:00.0,BerPreFecMax,0.00306,CHCGILDTO6Y
MA6813400180,h_OCHCTP,13-L1-9,2019-02-06 03:45:00.0,PmdMin,0.922,CHCGILDTO6Y
MA6813400180,h_OCHCTP,13-L1-9,2019-02-06 03:45:00.0,SoPmdAve,3516.11,CHCGILDTO6Y
MA6813400180,h_OCHCTP,13-L1-10,2019-02-06 03:15:00.0,Qmin,8.58,CHCGILDTO6Y
MA6813400180,h_OCHCTP,13-L1-10,2019-02-06 03:15:00.0,PhaseCorrectionAve,-0.183,CHCGILDTO6Y
MA6813400180,h_OCHCTP,13-L1-10,2019-02-06 03:15:00.0,BerPreFecMax,0.00363,CHCGILDTO6Y
MA6813400180,h_OCHCTP,13-L1-10,2019-02-06 03:15:00.0,PmdMin,0.497,CHCGILDTO6Y
MA6813400180,h_OCHCTP,13-L1-10,2019-02-06 03:15:00.0,SoPmdAve,3877.47,CHCGILDTO6Y
MA6813400180,h_OCHCTP,13-L1-10,2019-02-06 03:30:00.0,Qmin,8.67,CHCGILDTO6Y
MA6813400180,h_OCHCTP,13-L1-10,2019-02-06 03:30:00.0,PhaseCorrectionAve,-0.183,CHCGILDTO6Y
MA6813400180,h_OCHCTP,13-L1-10,2019-02-06 03:30:00.0,BerPreFecMax,0.00333,CHCGILDTO6Y
MA6813400180,h_OCHCTP,13-L1-10,2019-02-06 03:30:00.0,PmdMin,0.624,CHCGILDTO6Y
MA6813400180,h_OCHCTP,13-L1-10,2019-02-06 03:30:00.0,SoPmdAve,3838.85,CHCGILDTO6Y
MA6813400180,h_OCHCTP,13-L1-10,2019-02-06 03:45:00.0,Qmin,8.66,CHCGILDTO6Y
MA6813400180,h_OCHCTP,13-L1-10,2019-02-06 03:45:00.0,PhaseCorrectionAve,-0.061,CHCGILDTO6Y
MA6813400180,h_OCHCTP,13-L1-10,2019-02-06 03:45:00.0,BerPreFecMax,0.00337,CHCGILDTO6Y
MA6813400180,h_OCHCTP,13-L1-10,2019-02-06 03:45:00.0,PmdMin,0.85,CHCGILDTO6Y
MA6813400180,h_OCHCTP,13-L1-10,2019-02-06 03:45:00.0,SoPmdAve,3774.8,CHCGILDTO6Y
