MA6813400180,h_OCHCTP,11-L1-1,2019-02-07 03:15:00.0,Qmin,9.09,CHCGILDTO6Y
MA6813400180,h_OCHCTP,11-L1-1,2019-02-07 03:15:00.0,PhaseCorrectionAve,1.68e-07,CHCGILDTO6Y
MA6813400180,h_OCHCTP,11-L1-1,2019-02-07 03:15:00.0,BerPreFecMax,0.0022,CHCGILDTO6Y
MA6813400180,h_OCHCTP,11-L1-1,2019-02-07 03:15:00.0,PmdMin,1.02,CHCGILDTO6Y
MA6813400180,h_OCHCTP,11-L1-1,2019-02-07 03:15:00.0,SoPmdAve,3411.27,CHCGILDTO6Y
MA6813400180,h_OCHCTP,11-L1-1,2019-02-07 03:30:00.0,Qmin,9.1,CHCGILDTO6Y
MA6813400180,h_OCHCTP,11-L1-1,2019-02-07 03:30:00.0,PhaseCorrectionAve,1.42e-07,CHCGILDTO6Y
MA6813400180,h_OCHCTP,11-L1-1,2019-02-07 03:30:00.0,BerPreFecMax,0.00217,CHCGILDTO6Y
MA6813400180,h_OCHCTP,11-L1-1,2019-02-07 03:30:00.0,PmdMin,0.621,CHCGILDTO6Y
MA6813400180,h_OCHCTP,11-L1-1,2019-02-07 03:30:00.0,SoPmdAve,3350.38,CHCGILDTO6Y
MA6813400180,h_OCHCTP,11-L1-1,2019-02-07 03:45:00.0,Qmin,9.1,CHCGILDTO6Y
MA6813400180,h_OCHCTP,11-L1-1,2019-02-07 03:45:00.0,PhaseCorrectionAve,1.37e-07,CHCGILDTO6Y
MA6813400180,h_OCHCTP,11-L1-1,2019-02-07 03:45:00.0,BerPreFecMax,0.00217,CHCGILDTO6Y
MA6813400180,h_OCHCTP,11-L1-1,2019-02-07 03:45:00.0,PmdMin,0.524,CHCGILDTO6Y
MA6813400180,h_OCHCTP,11-L1-1,2019-02-07 03:45:00.0,SoPmdAve,3418.35,CHCGILDTO6Y
MA6813400180,h_OCHCTP,11-L1-2,2019-02-07 03:15:00.0,Qmin,9.03,CHCGILDTO6Y
MA6813400180,h_OCHCTP,11-L1-2,2019-02-07 03:15:00.0,PhaseCorrectionAve,-0.061,CHCGILDTO6Y
MA6813400180,h_OCHCTP,11-L1-2,2019-02-07 03:15:00.0,BerPreFecMax,0.00233,CHCGILDTO6Y
MA6813400180,h_OCHCTP,11-L1-2,2019-02-07 03:15:00.0,PmdMin,0.585,CHCGILDTO6Y
MA6813400180,h_OCHCTP,11-L1-2,2019-02-07 03:15:00.0,SoPmdAve,3143.51,CHCGILDTO6Y
MA6813400180,h_OCHCTP,11-L1-2,2019-02-07 03:30:00.0,Qmin,9.02,CHCGILDTO6Y
MA6813400180,h_OCHCTP,11-L1-2,2019-02-07 03:30:00.0,PhaseCorrectionAve,-0.122,CHCGILDTO6Y
MA6813400180,h_OCHCTP,11-L1-2,2019-02-07 03:30:00.0,BerPreFecMax,0.00237,CHCGILDTO6Y
MA6813400180,h_OCHCTP,11-L1-2,2019-02-07 03:30:00.0,PmdMin,0.798,CHCGILDTO6Y
MA6813400180,h_OCHCTP,11-L1-2,2019-02-07 03:30:00.0,SoPmdAve,3269.36,CHCGILDTO6Y
MA6813400180,h_OCHCTP,11-L1-2,2019-02-07 03:45:00.0,Qmin,9.02,CHCGILDTO6Y
MA6813400180,h_OCHCTP,11-L1-2,2019-02-07 03:45:00.0,PhaseCorrectionAve,-0.061,CHCGILDTO6Y
MA6813400180,h_OCHCTP,11-L1-2,2019-02-07 03:45:00.0,BerPreFecMax,0.00237,CHCGILDTO6Y
MA6813400180,h_OCHCTP,11-L1-2,2019-02-07 03:45:00.0,PmdMin,0.323,CHCGILDTO6Y
MA6813400180,h_OCHCTP,11-L1-2,2019-02-07 03:45:00.0,SoPmdAve,3175.75,CHCGILDTO6Y
MA6813400180,h_OCHCTP,11-L1-3,2019-02-07 03:15:00.0,Qmin,8.86,CHCGILDTO6Y
MA6813400180,h_OCHCTP,11-L1-3,2019-02-07 03:15:00.0,PhaseCorrectionAve,-0.122,CHCGILDTO6Y
MA6813400180,h_OCHCTP,11-L1-3,2019-02-07 03:15:00.0,BerPreFecMax,0.00277,CHCGILDTO6Y
MA6813400180,h_OCHCTP,11-L1-3,2019-02-07 03:15:00.0,PmdMin,0.324,CHCGILDTO6Y
MA6813400180,h_OCHCTP,11-L1-3,2019-02-07 03:15:00.0,SoPmdAve,2816.91,CHCGILDTO6Y
MA6813400180,h_OCHCTP,11-L1-3,2019-02-07 03:30:00.0,Qmin,8.87,CHCGILDTO6Y
MA6813400180,h_OCHCTP,11-L1-3,2019-02-07 03:30:00.0,PhaseCorrectionAve,-0.122,CHCGILDTO6Y
MA6813400180,h_OCHCTP,11-L1-3,2019-02-07 03:30:00.0,BerPreFecMax,0.00275,CHCGILDTO6Y
MA6813400180,h_OCHCTP,11-L1-3,2019-02-07 03:30:00.0,PmdMin,0.617,CHCGILDTO6Y
MA6813400180,h_OCHCTP,11-L1-3,2019-02-07 03:30:00.0,SoPmdAve,2721.09,CHCGILDTO6Y
MA6813400180,h_OCHCTP,11-L1-3,2019-02-07 03:45:00.0,Qmin,8.79,CHCGILDTO6Y
MA6813400180,h_OCHCTP,11-L1-3,2019-02-07 03:45:00.0,PhaseCorrectionAve,-0.122,CHCGILDTO6Y
MA6813400180,h_OCHCTP,11-L1-3,2019-02-07 03:45:00.0,BerPreFecMax,0.00296,CHCGILDTO6Y
MA6813400180,h_OCHCTP,11-L1-3,2019-02-07 03:45:00.0,PmdMin,0.937,CHCGILDTO6Y
MA6813400180,h_OCHCTP,11-L1-3,2019-02-07 03:45:00.0,SoPmdAve,2761.99,CHCGILDTO6Y
MA6813400180,h_OCHCTP,11-L1-4,2019-02-07 03:15:00.0,Qmin,8.78,CHCGILDTO6Y
MA6813400180,h_OCHCTP,11-L1-4,2019-02-07 03:15:00.0,PhaseCorrectionAve,-0.122,CHCGILDTO6Y
MA6813400180,h_OCHCTP,11-L1-4,2019-02-07 03:15:00.0,BerPreFecMax,0.00299,CHCGILDTO6Y
MA6813400180,h_OCHCTP,11-L1-4,2019-02-07 03:15:00.0,PmdMin,1.21,CHCGILDTO6Y
MA6813400180,h_OCHCTP,11-L1-4,2019-02-07 03:15:00.0,SoPmdAve,2994.27,CHCGILDTO6Y
MA6813400180,h_OCHCTP,11-L1-4,2019-02-07 03:30:00.0,Qmin,8.74,CHCGILDTO6Y
MA6813400180,h_OCHCTP,11-L1-4,2019-02-07 03:30:00.0,PhaseCorrectionAve,-0.122,CHCGILDTO6Y
MA6813400180,h_OCHCTP,11-L1-4,2019-02-07 03:30:00.0,BerPreFecMax,0.00312,CHCGILDTO6Y
MA6813400180,h_OCHCTP,11-L1-4,2019-02-07 03:30:00.0,PmdMin,1.58,CHCGILDTO6Y
MA6813400180,h_OCHCTP,11-L1-4,2019-02-07 03:30:00.0,SoPmdAve,2946.42,CHCGILDTO6Y
MA6813400180,h_OCHCTP,11-L1-4,2019-02-07 03:45:00.0,Qmin,8.71,CHCGILDTO6Y
MA6813400180,h_OCHCTP,11-L1-4,2019-02-07 03:45:00.0,PhaseCorrectionAve,-0.122,CHCGILDTO6Y
MA6813400180,h_OCHCTP,11-L1-4,2019-02-07 03:45:00.0,BerPreFecMax,0.0032,CHCGILDTO6Y
MA6813400180,h_OCHCTP,11-L1-4,2019-02-07 03:45:00.0,PmdMin,0.782,CHCGILDTO6Y
MA6813400180,h_OCHCTP,11-L1-4,2019-02-07 03:45:00.0,SoPmdAve,2919.34,CHCGILDTO6Y
MA6813400180,h_OCHCTP,11-L1-5,2019-02-07 03:15:00.0,Qmin,8.91,CHCGILDTO6Y
MA6813400180,h_OCHCTP,11-L1-5,2019-02-07 03:15:00.0,PhaseCorrectionAve,-0.122,CHCGILDTO6Y
MA6813400180,h_OCHCTP,11-L1-5,2019-02-07 03:15:00.0,BerPreFecMax,0.00264,CHCGILDTO6Y
MA6813400180,h_OCHCTP,11-L1-5,2019-02-07 03:15:00.0,PmdMin,1.18,CHCGILDTO6Y
MA6813400180,h_OCHCTP,11-L1-5,2019-02-07 03:15:00.0,SoPmdAve,2511.77,CHCGILDTO6Y
MA6813400180,h_OCHCTP,11-L1-5,2019-02-07 03:30:00.0,Qmin,8.95,CHCGILDTO6Y
MA6813400180,h_OCHCTP,11-L1-5,2019-02-07 03:30:00.0,PhaseCorrectionAve,-0.122,CHCGILDTO6Y
MA6813400180,h_OCHCTP,11-L1-5,2019-02-07 03:30:00.0,BerPreFecMax,0.00253,CHCGILDTO6Y
MA6813400180,h_OCHCTP,11-L1-5,2019-02-07 03:30:00.0,PmdMin,0.486,CHCGILDTO6Y
MA6813400180,h_OCHCTP,11-L1-5,2019-02-07 03:30:00.0,SoPmdAve,2551.02,CHCGILDTO6Y
MA6813400180,h_OCHCTP,11-L1-5,2019-02-07 03:45:00.0,Qmin,8.88,CHCGILDTO6Y
MA6813400180,h_OCHCTP,11-L1-5,2019-02-07 03:45:00.0,PhaseCorrectionAve,-0.122,CHCGILDTO6Y
MA6813400180,h_OCHCTP,11-L1-5,2019-02-07 03:45:00.0,BerPreFecMax,0.00273,CHCGILDTO6Y
MA6813400180,h_OCHCTP,11-L1-5,2019-02-07 03:45:00.0,PmdMin,0.3,CHCGILDTO6Y
MA6813400180,h_OCHCTP,11-L1-5,2019-02-07 03:45:00.0,SoPmdAve,2532.64,CHCGILDTO6Y
MA6813400180,h_OCHCTP,11-L1-6,2019-02-07 03:15:00.0,Qmin,8.73,CHCGILDTO6Y
MA6813400180,h_OCHCTP,11-L1-6,2019-02-07 03:15:00.0,PhaseCorrectionAve,-0.122,CHCGILDTO6Y
MA6813400180,h_OCHCTP,11-L1-6,2019-02-07 03:15:00.0,BerPreFecMax,0.00313,CHCGILDTO6Y
MA6813400180,h_OCHCTP,11-L1-6,2019-02-07 03:15:00.0,PmdMin,0.655,CHCGILDTO6Y
MA6813400180,h_OCHCTP,11-L1-6,2019-02-07 03:15:00.0,SoPmdAve,2471.24,CHCGILDTO6Y
MA6813400180,h_OCHCTP,11-L1-6,2019-02-07 03:30:00.0,Qmin,8.82,CHCGILDTO6Y
MA6813400180,h_OCHCTP,11-L1-6,2019-02-07 03:30:00.0,PhaseCorrectionAve,-0.122,CHCGILDTO6Y
MA6813400180,h_OCHCTP,11-L1-6,2019-02-07 03:30:00.0,BerPreFecMax,0.00289,CHCGILDTO6Y
MA6813400180,h_OCHCTP,11-L1-6,2019-02-07 03:30:00.0,PmdMin,1.11,CHCGILDTO6Y
MA6813400180,h_OCHCTP,11-L1-6,2019-02-07 03:30:00.0,SoPmdAve,2466.63,CHCGILDTO6Y
MA6813400180,h_OCHCTP,11-L1-6,2019-02-07 03:45:00.0,Qmin,8.79,CHCGILDTO6Y
MA6813400180,h_OCHCTP,11-L1-6,2019-02-07 03:45:00.0,PhaseCorrectionAve,-0.183,CHCGILDTO6Y
MA6813400180,h_OCHCTP,11-L1-6,2019-02-07 03:45:00.0,BerPreFecMax,0.00296,CHCGILDTO6Y
MA6813400180,h_OCHCTP,11-L1-6,2019-02-07 03:45:00.0,PmdMin,0.669,CHCGILDTO6Y
MA6813400180,h_OCHCTP,11-L1-6,2019-02-07 03:45:00.0,SoPmdAve,2429.59,CHCGILDTO6Y
MA6813400180,h_OCHCTP,11-L1-7,2019-02-07 03:15:00.0,Qmin,8.75,CHCGILDTO6Y
MA6813400180,h_OCHCTP,11-L1-7,2019-02-07 03:15:00.0,PhaseCorrectionAve,-0.122,CHCGILDTO6Y
MA6813400180,h_OCHCTP,11-L1-7,2019-02-07 03:15:00.0,BerPreFecMax,0.00309,CHCGILDTO6Y
MA6813400180,h_OCHCTP,11-L1-7,2019-02-07 03:15:00.0,PmdMin,0.993,CHCGILDTO6Y
MA6813400180,h_OCHCTP,11-L1-7,2019-02-07 03:15:00.0,SoPmdAve,3071.9,CHCGILDTO6Y
MA6813400180,h_OCHCTP,11-L1-7,2019-02-07 03:30:00.0,Qmin,8.77,CHCGILDTO6Y
MA6813400180,h_OCHCTP,11-L1-7,2019-02-07 03:30:00.0,PhaseCorrectionAve,-0.122,CHCGILDTO6Y
MA6813400180,h_OCHCTP,11-L1-7,2019-02-07 03:30:00.0,BerPreFecMax,0.00302,CHCGILDTO6Y
MA6813400180,h_OCHCTP,11-L1-7,2019-02-07 03:30:00.0,PmdMin,0.879,CHCGILDTO6Y
MA6813400180,h_OCHCTP,11-L1-7,2019-02-07 03:30:00.0,SoPmdAve,2996.63,CHCGILDTO6Y
MA6813400180,h_OCHCTP,11-L1-7,2019-02-07 03:45:00.0,Qmin,8.76,CHCGILDTO6Y
MA6813400180,h_OCHCTP,11-L1-7,2019-02-07 03:45:00.0,PhaseCorrectionAve,-0.183,CHCGILDTO6Y
MA6813400180,h_OCHCTP,11-L1-7,2019-02-07 03:45:00.0,BerPreFecMax,0.00306,CHCGILDTO6Y
MA6813400180,h_OCHCTP,11-L1-7,2019-02-07 03:45:00.0,PmdMin,0.628,CHCGILDTO6Y
MA6813400180,h_OCHCTP,11-L1-7,2019-02-07 03:45:00.0,SoPmdAve,3035.28,CHCGILDTO6Y
MA6813400180,h_OCHCTP,11-L1-8,2019-02-07 03:15:00.0,Qmin,8.84,CHCGILDTO6Y
MA6813400180,h_OCHCTP,11-L1-8,2019-02-07 03:15:00.0,PhaseCorrectionAve,-0.122,CHCGILDTO6Y
MA6813400180,h_OCHCTP,11-L1-8,2019-02-07 03:15:00.0,BerPreFecMax,0.00282,CHCGILDTO6Y
MA6813400180,h_OCHCTP,11-L1-8,2019-02-07 03:15:00.0,PmdMin,0.664,CHCGILDTO6Y
MA6813400180,h_OCHCTP,11-L1-8,2019-02-07 03:15:00.0,SoPmdAve,3139.83,CHCGILDTO6Y
MA6813400180,h_OCHCTP,11-L1-8,2019-02-07 03:30:00.0,Qmin,8.84,CHCGILDTO6Y
MA6813400180,h_OCHCTP,11-L1-8,2019-02-07 03:30:00.0,PhaseCorrectionAve,-0.122,CHCGILDTO6Y
MA6813400180,h_OCHCTP,11-L1-8,2019-02-07 03:30:00.0,BerPreFecMax,0.00282,CHCGILDTO6Y
MA6813400180,h_OCHCTP,11-L1-8,2019-02-07 03:30:00.0,PmdMin,0.994,CHCGILDTO6Y
MA6813400180,h_OCHCTP,11-L1-8,2019-02-07 03:30:00.0,SoPmdAve,3087.99,CHCGILDTO6Y
MA6813400180,h_OCHCTP,11-L1-8,2019-02-07 03:45:00.0,Qmin,8.85,CHCGILDTO6Y
MA6813400180,h_OCHCTP,11-L1-8,2019-02-07 03:45:00.0,PhaseCorrectionAve,-0.183,CHCGILDTO6Y
MA6813400180,h_OCHCTP,11-L1-8,2019-02-07 03:45:00.0,BerPreFecMax,0.00279,CHCGILDTO6Y
MA6813400180,h_OCHCTP,11-L1-8,2019-02-07 03:45:00.0,PmdMin,0.926,CHCGILDTO6Y
MA6813400180,h_OCHCTP,11-L1-8,2019-02-07 03:45:00.0,SoPmdAve,3000.0,CHCGILDTO6Y
MA6813400180,h_OCHCTP,11-L1-9,2019-02-07 03:15:00.0,Qmin,8.81,CHCGILDTO6Y
MA6813400180,h_OCHCTP,11-L1-9,2019-02-07 03:15:00.0,PhaseCorrectionAve,-0.122,CHCGILDTO6Y
MA6813400180,h_OCHCTP,11-L1-9,2019-02-07 03:15:00.0,BerPreFecMax,0.00293,CHCGILDTO6Y
MA6813400180,h_OCHCTP,11-L1-9,2019-02-07 03:15:00.0,PmdMin,1.1,CHCGILDTO6Y
MA6813400180,h_OCHCTP,11-L1-9,2019-02-07 03:15:00.0,SoPmdAve,3005.87,CHCGILDTO6Y
MA6813400180,h_OCHCTP,11-L1-9,2019-02-07 03:30:00.0,Qmin,8.77,CHCGILDTO6Y
MA6813400180,h_OCHCTP,11-L1-9,2019-02-07 03:30:00.0,PhaseCorrectionAve,-0.122,CHCGILDTO6Y
MA6813400180,h_OCHCTP,11-L1-9,2019-02-07 03:30:00.0,BerPreFecMax,0.00302,CHCGILDTO6Y
MA6813400180,h_OCHCTP,11-L1-9,2019-02-07 03:30:00.0,PmdMin,1.74,CHCGILDTO6Y
MA6813400180,h_OCHCTP,11-L1-9,2019-02-07 03:30:00.0,SoPmdAve,2981.38,CHCGILDTO6Y
MA6813400180,h_OCHCTP,11-L1-9,2019-02-07 03:45:00.0,Qmin,8.78,CHCGILDTO6Y
MA6813400180,h_OCHCTP,11-L1-9,2019-02-07 03:45:00.0,PhaseCorrectionAve,-0.183,CHCGILDTO6Y
MA6813400180,h_OCHCTP,11-L1-9,2019-02-07 03:45:00.0,BerPreFecMax,0.00299,CHCGILDTO6Y
MA6813400180,h_OCHCTP,11-L1-9,2019-02-07 03:45:00.0,PmdMin,0.941,CHCGILDTO6Y
MA6813400180,h_OCHCTP,11-L1-9,2019-02-07 03:45:00.0,SoPmdAve,3079.13,CHCGILDTO6Y
MA6813400180,h_OCHCTP,11-L1-10,2019-02-07 03:15:00.0,Qmin,8.89,CHCGILDTO6Y
MA6813400180,h_OCHCTP,11-L1-10,2019-02-07 03:15:00.0,PhaseCorrectionAve,-0.122,CHCGILDTO6Y
MA6813400180,h_OCHCTP,11-L1-10,2019-02-07 03:15:00.0,BerPreFecMax,0.0027,CHCGILDTO6Y
MA6813400180,h_OCHCTP,11-L1-10,2019-02-07 03:15:00.0,PmdMin,0.446,CHCGILDTO6Y
MA6813400180,h_OCHCTP,11-L1-10,2019-02-07 03:15:00.0,SoPmdAve,3095.86,CHCGILDTO6Y
MA6813400180,h_OCHCTP,11-L1-10,2019-02-07 03:30:00.0,Qmin,8.87,CHCGILDTO6Y
MA6813400180,h_OCHCTP,11-L1-10,2019-02-07 03:30:00.0,PhaseCorrectionAve,-0.122,CHCGILDTO6Y
MA6813400180,h_OCHCTP,11-L1-10,2019-02-07 03:30:00.0,BerPreFecMax,0.00275,CHCGILDTO6Y
MA6813400180,h_OCHCTP,11-L1-10,2019-02-07 03:30:00.0,PmdMin,0.527,CHCGILDTO6Y
MA6813400180,h_OCHCTP,11-L1-10,2019-02-07 03:30:00.0,SoPmdAve,3155.18,CHCGILDTO6Y
MA6813400180,h_OCHCTP,11-L1-10,2019-02-07 03:45:00.0,Qmin,8.89,CHCGILDTO6Y
MA6813400180,h_OCHCTP,11-L1-10,2019-02-07 03:45:00.0,PhaseCorrectionAve,-0.183,CHCGILDTO6Y
MA6813400180,h_OCHCTP,11-L1-10,2019-02-07 03:45:00.0,BerPreFecMax,0.0027,CHCGILDTO6Y
MA6813400180,h_OCHCTP,11-L1-10,2019-02-07 03:45:00.0,PmdMin,0.85,CHCGILDTO6Y
MA6813400180,h_OCHCTP,11-L1-10,2019-02-07 03:45:00.0,SoPmdAve,3025.91,CHCGILDTO6Y
MA6813400180,h_OCHCTP,13-L1-1,2019-02-07 03:15:00.0,Qmin,9.09,CHCGILDTO6Y
MA6813400180,h_OCHCTP,13-L1-1,2019-02-07 03:15:00.0,PhaseCorrectionAve,2.66e-07,CHCGILDTO6Y
MA6813400180,h_OCHCTP,13-L1-1,2019-02-07 03:15:00.0,BerPreFecMax,0.00221,CHCGILDTO6Y
MA6813400180,h_OCHCTP,13-L1-1,2019-02-07 03:15:00.0,PmdMin,0.851,CHCGILDTO6Y
MA6813400180,h_OCHCTP,13-L1-1,2019-02-07 03:15:00.0,SoPmdAve,3656.08,CHCGILDTO6Y
MA6813400180,h_OCHCTP,13-L1-1,2019-02-07 03:30:00.0,Qmin,9.09,CHCGILDTO6Y
MA6813400180,h_OCHCTP,13-L1-1,2019-02-07 03:30:00.0,PhaseCorrectionAve,-0.0609,CHCGILDTO6Y
MA6813400180,h_OCHCTP,13-L1-1,2019-02-07 03:30:00.0,BerPreFecMax,0.00221,CHCGILDTO6Y
MA6813400180,h_OCHCTP,13-L1-1,2019-02-07 03:30:00.0,PmdMin,1.26,CHCGILDTO6Y
MA6813400180,h_OCHCTP,13-L1-1,2019-02-07 03:30:00.0,SoPmdAve,3574.61,CHCGILDTO6Y
MA6813400180,h_OCHCTP,13-L1-1,2019-02-07 03:45:00.0,Qmin,9.08,CHCGILDTO6Y
MA6813400180,h_OCHCTP,13-L1-1,2019-02-07 03:45:00.0,PhaseCorrectionAve,2.27e-07,CHCGILDTO6Y
MA6813400180,h_OCHCTP,13-L1-1,2019-02-07 03:45:00.0,BerPreFecMax,0.00222,CHCGILDTO6Y
MA6813400180,h_OCHCTP,13-L1-1,2019-02-07 03:45:00.0,PmdMin,0.807,CHCGILDTO6Y
MA6813400180,h_OCHCTP,13-L1-1,2019-02-07 03:45:00.0,SoPmdAve,3599.76,CHCGILDTO6Y
MA6813400180,h_OCHCTP,13-L1-2,2019-02-07 03:15:00.0,Qmin,9.07,CHCGILDTO6Y
MA6813400180,h_OCHCTP,13-L1-2,2019-02-07 03:15:00.0,PhaseCorrectionAve,-0.122,CHCGILDTO6Y
MA6813400180,h_OCHCTP,13-L1-2,2019-02-07 03:15:00.0,BerPreFecMax,0.00225,CHCGILDTO6Y
MA6813400180,h_OCHCTP,13-L1-2,2019-02-07 03:15:00.0,PmdMin,0.328,CHCGILDTO6Y
MA6813400180,h_OCHCTP,13-L1-2,2019-02-07 03:15:00.0,SoPmdAve,3508.06,CHCGILDTO6Y
MA6813400180,h_OCHCTP,13-L1-2,2019-02-07 03:30:00.0,Qmin,9.1,CHCGILDTO6Y
MA6813400180,h_OCHCTP,13-L1-2,2019-02-07 03:30:00.0,PhaseCorrectionAve,-0.122,CHCGILDTO6Y
MA6813400180,h_OCHCTP,13-L1-2,2019-02-07 03:30:00.0,BerPreFecMax,0.00217,CHCGILDTO6Y
MA6813400180,h_OCHCTP,13-L1-2,2019-02-07 03:30:00.0,PmdMin,0.736,CHCGILDTO6Y
MA6813400180,h_OCHCTP,13-L1-2,2019-02-07 03:30:00.0,SoPmdAve,3438.5,CHCGILDTO6Y
MA6813400180,h_OCHCTP,13-L1-2,2019-02-07 03:45:00.0,Qmin,9.07,CHCGILDTO6Y
MA6813400180,h_OCHCTP,13-L1-2,2019-02-07 03:45:00.0,PhaseCorrectionAve,-0.0611,CHCGILDTO6Y
MA6813400180,h_OCHCTP,13-L1-2,2019-02-07 03:45:00.0,BerPreFecMax,0.00225,CHCGILDTO6Y
MA6813400180,h_OCHCTP,13-L1-2,2019-02-07 03:45:00.0,PmdMin,0.749,CHCGILDTO6Y
MA6813400180,h_OCHCTP,13-L1-2,2019-02-07 03:45:00.0,SoPmdAve,3517.39,CHCGILDTO6Y
MA6813400180,h_OCHCTP,13-L1-3,2019-02-07 03:15:00.0,Qmin,8.8,CHCGILDTO6Y
MA6813400180,h_OCHCTP,13-L1-3,2019-02-07 03:15:00.0,PhaseCorrectionAve,-0.122,CHCGILDTO6Y
MA6813400180,h_OCHCTP,13-L1-3,2019-02-07 03:15:00.0,BerPreFecMax,0.00294,CHCGILDTO6Y
MA6813400180,h_OCHCTP,13-L1-3,2019-02-07 03:15:00.0,PmdMin,0.947,CHCGILDTO6Y
MA6813400180,h_OCHCTP,13-L1-3,2019-02-07 03:15:00.0,SoPmdAve,2928.56,CHCGILDTO6Y
MA6813400180,h_OCHCTP,13-L1-3,2019-02-07 03:30:00.0,Qmin,8.89,CHCGILDTO6Y
MA6813400180,h_OCHCTP,13-L1-3,2019-02-07 03:30:00.0,PhaseCorrectionAve,-0.122,CHCGILDTO6Y
MA6813400180,h_OCHCTP,13-L1-3,2019-02-07 03:30:00.0,BerPreFecMax,0.0027,CHCGILDTO6Y
MA6813400180,h_OCHCTP,13-L1-3,2019-02-07 03:30:00.0,PmdMin,1.05,CHCGILDTO6Y
MA6813400180,h_OCHCTP,13-L1-3,2019-02-07 03:30:00.0,SoPmdAve,2928.25,CHCGILDTO6Y
MA6813400180,h_OCHCTP,13-L1-3,2019-02-07 03:45:00.0,Qmin,8.87,CHCGILDTO6Y
MA6813400180,h_OCHCTP,13-L1-3,2019-02-07 03:45:00.0,PhaseCorrectionAve,-0.0611,CHCGILDTO6Y
MA6813400180,h_OCHCTP,13-L1-3,2019-02-07 03:45:00.0,BerPreFecMax,0.00276,CHCGILDTO6Y
MA6813400180,h_OCHCTP,13-L1-3,2019-02-07 03:45:00.0,PmdMin,0.874,CHCGILDTO6Y
MA6813400180,h_OCHCTP,13-L1-3,2019-02-07 03:45:00.0,SoPmdAve,2924.46,CHCGILDTO6Y
MA6813400180,h_OCHCTP,13-L1-4,2019-02-07 03:15:00.0,Qmin,8.73,CHCGILDTO6Y
MA6813400180,h_OCHCTP,13-L1-4,2019-02-07 03:15:00.0,PhaseCorrectionAve,-0.183,CHCGILDTO6Y
MA6813400180,h_OCHCTP,13-L1-4,2019-02-07 03:15:00.0,BerPreFecMax,0.00314,CHCGILDTO6Y
MA6813400180,h_OCHCTP,13-L1-4,2019-02-07 03:15:00.0,PmdMin,1.32,CHCGILDTO6Y
MA6813400180,h_OCHCTP,13-L1-4,2019-02-07 03:15:00.0,SoPmdAve,3352.68,CHCGILDTO6Y
MA6813400180,h_OCHCTP,13-L1-4,2019-02-07 03:30:00.0,Qmin,8.69,CHCGILDTO6Y
MA6813400180,h_OCHCTP,13-L1-4,2019-02-07 03:30:00.0,PhaseCorrectionAve,-0.183,CHCGILDTO6Y
MA6813400180,h_OCHCTP,13-L1-4,2019-02-07 03:30:00.0,BerPreFecMax,0.00326,CHCGILDTO6Y
MA6813400180,h_OCHCTP,13-L1-4,2019-02-07 03:30:00.0,PmdMin,1.31,CHCGILDTO6Y
MA6813400180,h_OCHCTP,13-L1-4,2019-02-07 03:30:00.0,SoPmdAve,3529.73,CHCGILDTO6Y
MA6813400180,h_OCHCTP,13-L1-4,2019-02-07 03:45:00.0,Qmin,8.67,CHCGILDTO6Y
MA6813400180,h_OCHCTP,13-L1-4,2019-02-07 03:45:00.0,PhaseCorrectionAve,-0.0611,CHCGILDTO6Y
MA6813400180,h_OCHCTP,13-L1-4,2019-02-07 03:45:00.0,BerPreFecMax,0.00333,CHCGILDTO6Y
MA6813400180,h_OCHCTP,13-L1-4,2019-02-07 03:45:00.0,PmdMin,1.21,CHCGILDTO6Y
MA6813400180,h_OCHCTP,13-L1-4,2019-02-07 03:45:00.0,SoPmdAve,3447.29,CHCGILDTO6Y
MA6813400180,h_OCHCTP,13-L1-5,2019-02-07 03:15:00.0,Qmin,8.8,CHCGILDTO6Y
MA6813400180,h_OCHCTP,13-L1-5,2019-02-07 03:15:00.0,PhaseCorrectionAve,-0.183,CHCGILDTO6Y
MA6813400180,h_OCHCTP,13-L1-5,2019-02-07 03:15:00.0,BerPreFecMax,0.00296,CHCGILDTO6Y
MA6813400180,h_OCHCTP,13-L1-5,2019-02-07 03:15:00.0,PmdMin,0.796,CHCGILDTO6Y
MA6813400180,h_OCHCTP,13-L1-5,2019-02-07 03:15:00.0,SoPmdAve,2866.71,CHCGILDTO6Y
MA6813400180,h_OCHCTP,13-L1-5,2019-02-07 03:30:00.0,Qmin,8.8,CHCGILDTO6Y
MA6813400180,h_OCHCTP,13-L1-5,2019-02-07 03:30:00.0,PhaseCorrectionAve,-0.183,CHCGILDTO6Y
MA6813400180,h_OCHCTP,13-L1-5,2019-02-07 03:30:00.0,BerPreFecMax,0.00293,CHCGILDTO6Y
MA6813400180,h_OCHCTP,13-L1-5,2019-02-07 03:30:00.0,PmdMin,1.19,CHCGILDTO6Y
MA6813400180,h_OCHCTP,13-L1-5,2019-02-07 03:30:00.0,SoPmdAve,2849.79,CHCGILDTO6Y
MA6813400180,h_OCHCTP,13-L1-5,2019-02-07 03:45:00.0,Qmin,8.74,CHCGILDTO6Y
MA6813400180,h_OCHCTP,13-L1-5,2019-02-07 03:45:00.0,PhaseCorrectionAve,-0.0611,CHCGILDTO6Y
MA6813400180,h_OCHCTP,13-L1-5,2019-02-07 03:45:00.0,BerPreFecMax,0.0031,CHCGILDTO6Y
MA6813400180,h_OCHCTP,13-L1-5,2019-02-07 03:45:00.0,PmdMin,0.806,CHCGILDTO6Y
MA6813400180,h_OCHCTP,13-L1-5,2019-02-07 03:45:00.0,SoPmdAve,2901.01,CHCGILDTO6Y
MA6813400180,h_OCHCTP,13-L1-6,2019-02-07 03:15:00.0,Qmin,8.83,CHCGILDTO6Y
MA6813400180,h_OCHCTP,13-L1-6,2019-02-07 03:15:00.0,PhaseCorrectionAve,-0.183,CHCGILDTO6Y
MA6813400180,h_OCHCTP,13-L1-6,2019-02-07 03:15:00.0,BerPreFecMax,0.00285,CHCGILDTO6Y
MA6813400180,h_OCHCTP,13-L1-6,2019-02-07 03:15:00.0,PmdMin,0.878,CHCGILDTO6Y
MA6813400180,h_OCHCTP,13-L1-6,2019-02-07 03:15:00.0,SoPmdAve,3010.46,CHCGILDTO6Y
MA6813400180,h_OCHCTP,13-L1-6,2019-02-07 03:30:00.0,Qmin,8.88,CHCGILDTO6Y
MA6813400180,h_OCHCTP,13-L1-6,2019-02-07 03:30:00.0,PhaseCorrectionAve,-0.183,CHCGILDTO6Y
MA6813400180,h_OCHCTP,13-L1-6,2019-02-07 03:30:00.0,BerPreFecMax,0.00271,CHCGILDTO6Y
MA6813400180,h_OCHCTP,13-L1-6,2019-02-07 03:30:00.0,PmdMin,0.545,CHCGILDTO6Y
MA6813400180,h_OCHCTP,13-L1-6,2019-02-07 03:30:00.0,SoPmdAve,3020.6,CHCGILDTO6Y
MA6813400180,h_OCHCTP,13-L1-6,2019-02-07 03:45:00.0,Qmin,8.81,CHCGILDTO6Y
MA6813400180,h_OCHCTP,13-L1-6,2019-02-07 03:45:00.0,PhaseCorrectionAve,-0.122,CHCGILDTO6Y
MA6813400180,h_OCHCTP,13-L1-6,2019-02-07 03:45:00.0,BerPreFecMax,0.00291,CHCGILDTO6Y
MA6813400180,h_OCHCTP,13-L1-6,2019-02-07 03:45:00.0,PmdMin,0.667,CHCGILDTO6Y
MA6813400180,h_OCHCTP,13-L1-6,2019-02-07 03:45:00.0,SoPmdAve,3161.59,CHCGILDTO6Y
MA6813400180,h_OCHCTP,13-L1-7,2019-02-07 03:15:00.0,Qmin,8.72,CHCGILDTO6Y
MA6813400180,h_OCHCTP,13-L1-7,2019-02-07 03:15:00.0,PhaseCorrectionAve,-0.183,CHCGILDTO6Y
MA6813400180,h_OCHCTP,13-L1-7,2019-02-07 03:15:00.0,BerPreFecMax,0.00318,CHCGILDTO6Y
MA6813400180,h_OCHCTP,13-L1-7,2019-02-07 03:15:00.0,PmdMin,0.849,CHCGILDTO6Y
MA6813400180,h_OCHCTP,13-L1-7,2019-02-07 03:15:00.0,SoPmdAve,3728.21,CHCGILDTO6Y
MA6813400180,h_OCHCTP,13-L1-7,2019-02-07 03:30:00.0,Qmin,8.76,CHCGILDTO6Y
MA6813400180,h_OCHCTP,13-L1-7,2019-02-07 03:30:00.0,PhaseCorrectionAve,-0.183,CHCGILDTO6Y
MA6813400180,h_OCHCTP,13-L1-7,2019-02-07 03:30:00.0,BerPreFecMax,0.00307,CHCGILDTO6Y
MA6813400180,h_OCHCTP,13-L1-7,2019-02-07 03:30:00.0,PmdMin,1.09,CHCGILDTO6Y
MA6813400180,h_OCHCTP,13-L1-7,2019-02-07 03:30:00.0,SoPmdAve,3775.56,CHCGILDTO6Y
MA6813400180,h_OCHCTP,13-L1-7,2019-02-07 03:45:00.0,Qmin,8.73,CHCGILDTO6Y
MA6813400180,h_OCHCTP,13-L1-7,2019-02-07 03:45:00.0,PhaseCorrectionAve,-0.183,CHCGILDTO6Y
MA6813400180,h_OCHCTP,13-L1-7,2019-02-07 03:45:00.0,BerPreFecMax,0.00314,CHCGILDTO6Y
MA6813400180,h_OCHCTP,13-L1-7,2019-02-07 03:45:00.0,PmdMin,1.46,CHCGILDTO6Y
MA6813400180,h_OCHCTP,13-L1-7,2019-02-07 03:45:00.0,SoPmdAve,3648.54,CHCGILDTO6Y
MA6813400180,h_OCHCTP,13-L1-8,2019-02-07 03:15:00.0,Qmin,8.81,CHCGILDTO6Y
MA6813400180,h_OCHCTP,13-L1-8,2019-02-07 03:15:00.0,PhaseCorrectionAve,-0.183,CHCGILDTO6Y
MA6813400180,h_OCHCTP,13-L1-8,2019-02-07 03:15:00.0,BerPreFecMax,0.00291,CHCGILDTO6Y
MA6813400180,h_OCHCTP,13-L1-8,2019-02-07 03:15:00.0,PmdMin,1.28,CHCGILDTO6Y
MA6813400180,h_OCHCTP,13-L1-8,2019-02-07 03:15:00.0,SoPmdAve,3720.35,CHCGILDTO6Y
MA6813400180,h_OCHCTP,13-L1-8,2019-02-07 03:30:00.0,Qmin,8.78,CHCGILDTO6Y
MA6813400180,h_OCHCTP,13-L1-8,2019-02-07 03:30:00.0,PhaseCorrectionAve,-0.244,CHCGILDTO6Y
MA6813400180,h_OCHCTP,13-L1-8,2019-02-07 03:30:00.0,BerPreFecMax,0.003,CHCGILDTO6Y
MA6813400180,h_OCHCTP,13-L1-8,2019-02-07 03:30:00.0,PmdMin,0.832,CHCGILDTO6Y
MA6813400180,h_OCHCTP,13-L1-8,2019-02-07 03:30:00.0,SoPmdAve,3771.61,CHCGILDTO6Y
MA6813400180,h_OCHCTP,13-L1-8,2019-02-07 03:45:00.0,Qmin,8.79,CHCGILDTO6Y
MA6813400180,h_OCHCTP,13-L1-8,2019-02-07 03:45:00.0,PhaseCorrectionAve,-0.183,CHCGILDTO6Y
MA6813400180,h_OCHCTP,13-L1-8,2019-02-07 03:45:00.0,BerPreFecMax,0.00296,CHCGILDTO6Y
MA6813400180,h_OCHCTP,13-L1-8,2019-02-07 03:45:00.0,PmdMin,0.864,CHCGILDTO6Y
MA6813400180,h_OCHCTP,13-L1-8,2019-02-07 03:45:00.0,SoPmdAve,3803.35,CHCGILDTO6Y
MA6813400180,h_OCHCTP,13-L1-9,2019-02-07 03:15:00.0,Qmin,8.73,CHCGILDTO6Y
MA6813400180,h_OCHCTP,13-L1-9,2019-02-07 03:15:00.0,PhaseCorrectionAve,-0.244,CHCGILDTO6Y
MA6813400180,h_OCHCTP,13-L1-9,2019-02-07 03:15:00.0,BerPreFecMax,0.00315,CHCGILDTO6Y
MA6813400180,h_OCHCTP,13-L1-9,2019-02-07 03:15:00.0,PmdMin,0.672,CHCGILDTO6Y
MA6813400180,h_OCHCTP,13-L1-9,2019-02-07 03:15:00.0,SoPmdAve,3480.83,CHCGILDTO6Y
MA6813400180,h_OCHCTP,13-L1-9,2019-02-07 03:30:00.0,Qmin,8.72,CHCGILDTO6Y
MA6813400180,h_OCHCTP,13-L1-9,2019-02-07 03:30:00.0,PhaseCorrectionAve,-0.244,CHCGILDTO6Y
MA6813400180,h_OCHCTP,13-L1-9,2019-02-07 03:30:00.0,BerPreFecMax,0.00317,CHCGILDTO6Y
MA6813400180,h_OCHCTP,13-L1-9,2019-02-07 03:30:00.0,PmdMin,1.26,CHCGILDTO6Y
MA6813400180,h_OCHCTP,13-L1-9,2019-02-07 03:30:00.0,SoPmdAve,3710.57,CHCGILDTO6Y
MA6813400180,h_OCHCTP,13-L1-9,2019-02-07 03:45:00.0,Qmin,8.73,CHCGILDTO6Y
MA6813400180,h_OCHCTP,13-L1-9,2019-02-07 03:45:00.0,PhaseCorrectionAve,-0.183,CHCGILDTO6Y
MA6813400180,h_OCHCTP,13-L1-9,2019-02-07 03:45:00.0,BerPreFecMax,0.00315,CHCGILDTO6Y
MA6813400180,h_OCHCTP,13-L1-9,2019-02-07 03:45:00.0,PmdMin,1.71,CHCGILDTO6Y
MA6813400180,h_OCHCTP,13-L1-9,2019-02-07 03:45:00.0,SoPmdAve,3467.41,CHCGILDTO6Y
MA6813400180,h_OCHCTP,13-L1-10,2019-02-07 03:15:00.0,Qmin,8.57,CHCGILDTO6Y
MA6813400180,h_OCHCTP,13-L1-10,2019-02-07 03:15:00.0,PhaseCorrectionAve,-0.244,CHCGILDTO6Y
MA6813400180,h_OCHCTP,13-L1-10,2019-02-07 03:15:00.0,BerPreFecMax,0.00366,CHCGILDTO6Y
MA6813400180,h_OCHCTP,13-L1-10,2019-02-07 03:15:00.0,PmdMin,1.07,CHCGILDTO6Y
MA6813400180,h_OCHCTP,13-L1-10,2019-02-07 03:15:00.0,SoPmdAve,3934.72,CHCGILDTO6Y
MA6813400180,h_OCHCTP,13-L1-10,2019-02-07 03:30:00.0,Qmin,8.57,CHCGILDTO6Y
MA6813400180,h_OCHCTP,13-L1-10,2019-02-07 03:30:00.0,PhaseCorrectionAve,-0.244,CHCGILDTO6Y
MA6813400180,h_OCHCTP,13-L1-10,2019-02-07 03:30:00.0,BerPreFecMax,0.00366,CHCGILDTO6Y
MA6813400180,h_OCHCTP,13-L1-10,2019-02-07 03:30:00.0,PmdMin,1.36,CHCGILDTO6Y
MA6813400180,h_OCHCTP,13-L1-10,2019-02-07 03:30:00.0,SoPmdAve,4009.59,CHCGILDTO6Y
MA6813400180,h_OCHCTP,13-L1-10,2019-02-07 03:45:00.0,Qmin,8.61,CHCGILDTO6Y
MA6813400180,h_OCHCTP,13-L1-10,2019-02-07 03:45:00.0,PhaseCorrectionAve,-0.183,CHCGILDTO6Y
MA6813400180,h_OCHCTP,13-L1-10,2019-02-07 03:45:00.0,BerPreFecMax,0.00352,CHCGILDTO6Y
MA6813400180,h_OCHCTP,13-L1-10,2019-02-07 03:45:00.0,PmdMin,1.03,CHCGILDTO6Y
MA6813400180,h_OCHCTP,13-L1-10,2019-02-07 03:45:00.0,SoPmdAve,3835.51,CHCGILDTO6Y
MA6813400180,h_OCHCTP,10-L1-1,2019-02-07 03:15:00.0,Qmin,9.44,CHCGILDTO6Y
MA6813400180,h_OCHCTP,10-L1-1,2019-02-07 03:15:00.0,PhaseCorrectionAve,4.38e-07,CHCGILDTO6Y
MA6813400180,h_OCHCTP,10-L1-1,2019-02-07 03:15:00.0,BerPreFecMax,0.00152,CHCGILDTO6Y
MA6813400180,h_OCHCTP,10-L1-1,2019-02-07 03:15:00.0,PmdMin,0.866,CHCGILDTO6Y
MA6813400180,h_OCHCTP,10-L1-1,2019-02-07 03:15:00.0,SoPmdAve,3622.55,CHCGILDTO6Y
MA6813400180,h_OCHCTP,10-L1-1,2019-02-07 03:30:00.0,Qmin,9.44,CHCGILDTO6Y
MA6813400180,h_OCHCTP,10-L1-1,2019-02-07 03:30:00.0,PhaseCorrectionAve,4.38e-07,CHCGILDTO6Y
MA6813400180,h_OCHCTP,10-L1-1,2019-02-07 03:30:00.0,BerPreFecMax,0.00151,CHCGILDTO6Y
MA6813400180,h_OCHCTP,10-L1-1,2019-02-07 03:30:00.0,PmdMin,1.3,CHCGILDTO6Y
MA6813400180,h_OCHCTP,10-L1-1,2019-02-07 03:30:00.0,SoPmdAve,3699.25,CHCGILDTO6Y
MA6813400180,h_OCHCTP,10-L1-1,2019-02-07 03:45:00.0,Qmin,9.45,CHCGILDTO6Y
MA6813400180,h_OCHCTP,10-L1-1,2019-02-07 03:45:00.0,PhaseCorrectionAve,4.26e-07,CHCGILDTO6Y
MA6813400180,h_OCHCTP,10-L1-1,2019-02-07 03:45:00.0,BerPreFecMax,0.00149,CHCGILDTO6Y
MA6813400180,h_OCHCTP,10-L1-1,2019-02-07 03:45:00.0,PmdMin,1.76,CHCGILDTO6Y
MA6813400180,h_OCHCTP,10-L1-1,2019-02-07 03:45:00.0,SoPmdAve,3592.11,CHCGILDTO6Y
MA6813400180,h_OCHCTP,10-L1-2,2019-02-07 03:15:00.0,Qmin,9.12,CHCGILDTO6Y
MA6813400180,h_OCHCTP,10-L1-2,2019-02-07 03:15:00.0,PhaseCorrectionAve,3.39e-07,CHCGILDTO6Y
MA6813400180,h_OCHCTP,10-L1-2,2019-02-07 03:15:00.0,BerPreFecMax,0.00213,CHCGILDTO6Y
MA6813400180,h_OCHCTP,10-L1-2,2019-02-07 03:15:00.0,PmdMin,4.06,CHCGILDTO6Y
MA6813400180,h_OCHCTP,10-L1-2,2019-02-07 03:15:00.0,SoPmdAve,3334.95,CHCGILDTO6Y
MA6813400180,h_OCHCTP,10-L1-2,2019-02-07 03:30:00.0,Qmin,9.13,CHCGILDTO6Y
MA6813400180,h_OCHCTP,10-L1-2,2019-02-07 03:30:00.0,PhaseCorrectionAve,-0.122,CHCGILDTO6Y
MA6813400180,h_OCHCTP,10-L1-2,2019-02-07 03:30:00.0,BerPreFecMax,0.00212,CHCGILDTO6Y
MA6813400180,h_OCHCTP,10-L1-2,2019-02-07 03:30:00.0,PmdMin,5.15,CHCGILDTO6Y
MA6813400180,h_OCHCTP,10-L1-2,2019-02-07 03:30:00.0,SoPmdAve,3438.9,CHCGILDTO6Y
MA6813400180,h_OCHCTP,10-L1-2,2019-02-07 03:45:00.0,Qmin,9.13,CHCGILDTO6Y
MA6813400180,h_OCHCTP,10-L1-2,2019-02-07 03:45:00.0,PhaseCorrectionAve,-0.061,CHCGILDTO6Y
MA6813400180,h_OCHCTP,10-L1-2,2019-02-07 03:45:00.0,BerPreFecMax,0.00211,CHCGILDTO6Y
MA6813400180,h_OCHCTP,10-L1-2,2019-02-07 03:45:00.0,PmdMin,5.03,CHCGILDTO6Y
MA6813400180,h_OCHCTP,10-L1-2,2019-02-07 03:45:00.0,SoPmdAve,3284.51,CHCGILDTO6Y
MA6813400180,h_OCHCTP,10-L1-3,2019-02-07 03:15:00.0,Qmin,8.81,CHCGILDTO6Y
MA6813400180,h_OCHCTP,10-L1-3,2019-02-07 03:15:00.0,PhaseCorrectionAve,6.61e-07,CHCGILDTO6Y
MA6813400180,h_OCHCTP,10-L1-3,2019-02-07 03:15:00.0,BerPreFecMax,0.00293,CHCGILDTO6Y
MA6813400180,h_OCHCTP,10-L1-3,2019-02-07 03:15:00.0,PmdMin,2.58,CHCGILDTO6Y
MA6813400180,h_OCHCTP,10-L1-3,2019-02-07 03:15:00.0,SoPmdAve,2861.18,CHCGILDTO6Y
MA6813400180,h_OCHCTP,10-L1-3,2019-02-07 03:30:00.0,Qmin,8.81,CHCGILDTO6Y
MA6813400180,h_OCHCTP,10-L1-3,2019-02-07 03:30:00.0,PhaseCorrectionAve,-0.122,CHCGILDTO6Y
MA6813400180,h_OCHCTP,10-L1-3,2019-02-07 03:30:00.0,BerPreFecMax,0.00291,CHCGILDTO6Y
MA6813400180,h_OCHCTP,10-L1-3,2019-02-07 03:30:00.0,PmdMin,2.55,CHCGILDTO6Y
MA6813400180,h_OCHCTP,10-L1-3,2019-02-07 03:30:00.0,SoPmdAve,2882.69,CHCGILDTO6Y
MA6813400180,h_OCHCTP,10-L1-3,2019-02-07 03:45:00.0,Qmin,8.85,CHCGILDTO6Y
MA6813400180,h_OCHCTP,10-L1-3,2019-02-07 03:45:00.0,PhaseCorrectionAve,-0.061,CHCGILDTO6Y
MA6813400180,h_OCHCTP,10-L1-3,2019-02-07 03:45:00.0,BerPreFecMax,0.00279,CHCGILDTO6Y
MA6813400180,h_OCHCTP,10-L1-3,2019-02-07 03:45:00.0,PmdMin,2.87,CHCGILDTO6Y
MA6813400180,h_OCHCTP,10-L1-3,2019-02-07 03:45:00.0,SoPmdAve,2867.91,CHCGILDTO6Y
MA6813400180,h_OCHCTP,10-L1-4,2019-02-07 03:15:00.0,Qmin,8.24,CHCGILDTO6Y
MA6813400180,h_OCHCTP,10-L1-4,2019-02-07 03:15:00.0,PhaseCorrectionAve,3.25e-06,CHCGILDTO6Y
MA6813400180,h_OCHCTP,10-L1-4,2019-02-07 03:15:00.0,BerPreFecMax,0.00492,CHCGILDTO6Y
MA6813400180,h_OCHCTP,10-L1-4,2019-02-07 03:15:00.0,PmdMin,1.79,CHCGILDTO6Y
MA6813400180,h_OCHCTP,10-L1-4,2019-02-07 03:15:00.0,SoPmdAve,3032.66,CHCGILDTO6Y
MA6813400180,h_OCHCTP,10-L1-4,2019-02-07 03:30:00.0,Qmin,8.29,CHCGILDTO6Y
MA6813400180,h_OCHCTP,10-L1-4,2019-02-07 03:30:00.0,PhaseCorrectionAve,-0.122,CHCGILDTO6Y
MA6813400180,h_OCHCTP,10-L1-4,2019-02-07 03:30:00.0,BerPreFecMax,0.00471,CHCGILDTO6Y
MA6813400180,h_OCHCTP,10-L1-4,2019-02-07 03:30:00.0,PmdMin,0.723,CHCGILDTO6Y
MA6813400180,h_OCHCTP,10-L1-4,2019-02-07 03:30:00.0,SoPmdAve,3180.44,CHCGILDTO6Y
MA6813400180,h_OCHCTP,10-L1-4,2019-02-07 03:45:00.0,Qmin,8.29,CHCGILDTO6Y
MA6813400180,h_OCHCTP,10-L1-4,2019-02-07 03:45:00.0,PhaseCorrectionAve,-0.061,CHCGILDTO6Y
MA6813400180,h_OCHCTP,10-L1-4,2019-02-07 03:45:00.0,BerPreFecMax,0.00469,CHCGILDTO6Y
MA6813400180,h_OCHCTP,10-L1-4,2019-02-07 03:45:00.0,PmdMin,1.73,CHCGILDTO6Y
MA6813400180,h_OCHCTP,10-L1-4,2019-02-07 03:45:00.0,SoPmdAve,3122.53,CHCGILDTO6Y
MA6813400180,h_OCHCTP,10-L1-5,2019-02-07 03:15:00.0,Qmin,8.48,CHCGILDTO6Y
MA6813400180,h_OCHCTP,10-L1-5,2019-02-07 03:15:00.0,PhaseCorrectionAve,1.65e-06,CHCGILDTO6Y
MA6813400180,h_OCHCTP,10-L1-5,2019-02-07 03:15:00.0,BerPreFecMax,0.00397,CHCGILDTO6Y
MA6813400180,h_OCHCTP,10-L1-5,2019-02-07 03:15:00.0,PmdMin,1.77,CHCGILDTO6Y
MA6813400180,h_OCHCTP,10-L1-5,2019-02-07 03:15:00.0,SoPmdAve,2955.43,CHCGILDTO6Y
MA6813400180,h_OCHCTP,10-L1-5,2019-02-07 03:30:00.0,Qmin,8.49,CHCGILDTO6Y
MA6813400180,h_OCHCTP,10-L1-5,2019-02-07 03:30:00.0,PhaseCorrectionAve,-0.122,CHCGILDTO6Y
MA6813400180,h_OCHCTP,10-L1-5,2019-02-07 03:30:00.0,BerPreFecMax,0.00394,CHCGILDTO6Y
MA6813400180,h_OCHCTP,10-L1-5,2019-02-07 03:30:00.0,PmdMin,2.01,CHCGILDTO6Y
MA6813400180,h_OCHCTP,10-L1-5,2019-02-07 03:30:00.0,SoPmdAve,2801.44,CHCGILDTO6Y
MA6813400180,h_OCHCTP,10-L1-5,2019-02-07 03:45:00.0,Qmin,8.51,CHCGILDTO6Y
MA6813400180,h_OCHCTP,10-L1-5,2019-02-07 03:45:00.0,PhaseCorrectionAve,-0.122,CHCGILDTO6Y
MA6813400180,h_OCHCTP,10-L1-5,2019-02-07 03:45:00.0,BerPreFecMax,0.00387,CHCGILDTO6Y
MA6813400180,h_OCHCTP,10-L1-5,2019-02-07 03:45:00.0,PmdMin,1.39,CHCGILDTO6Y
MA6813400180,h_OCHCTP,10-L1-5,2019-02-07 03:45:00.0,SoPmdAve,2850.64,CHCGILDTO6Y
MA6813400180,h_OCHCTP,10-L1-6,2019-02-07 03:15:00.0,Qmin,8.71,CHCGILDTO6Y
MA6813400180,h_OCHCTP,10-L1-6,2019-02-07 03:15:00.0,PhaseCorrectionAve,9.88e-07,CHCGILDTO6Y
MA6813400180,h_OCHCTP,10-L1-6,2019-02-07 03:15:00.0,BerPreFecMax,0.0032,CHCGILDTO6Y
MA6813400180,h_OCHCTP,10-L1-6,2019-02-07 03:15:00.0,PmdMin,0.895,CHCGILDTO6Y
MA6813400180,h_OCHCTP,10-L1-6,2019-02-07 03:15:00.0,SoPmdAve,2859.71,CHCGILDTO6Y
MA6813400180,h_OCHCTP,10-L1-6,2019-02-07 03:30:00.0,Qmin,8.69,CHCGILDTO6Y
MA6813400180,h_OCHCTP,10-L1-6,2019-02-07 03:30:00.0,PhaseCorrectionAve,-0.183,CHCGILDTO6Y
MA6813400180,h_OCHCTP,10-L1-6,2019-02-07 03:30:00.0,BerPreFecMax,0.00327,CHCGILDTO6Y
MA6813400180,h_OCHCTP,10-L1-6,2019-02-07 03:30:00.0,PmdMin,1.18,CHCGILDTO6Y
MA6813400180,h_OCHCTP,10-L1-6,2019-02-07 03:30:00.0,SoPmdAve,2863.35,CHCGILDTO6Y
MA6813400180,h_OCHCTP,10-L1-6,2019-02-07 03:45:00.0,Qmin,8.71,CHCGILDTO6Y
MA6813400180,h_OCHCTP,10-L1-6,2019-02-07 03:45:00.0,PhaseCorrectionAve,-0.183,CHCGILDTO6Y
MA6813400180,h_OCHCTP,10-L1-6,2019-02-07 03:45:00.0,BerPreFecMax,0.00319,CHCGILDTO6Y
MA6813400180,h_OCHCTP,10-L1-6,2019-02-07 03:45:00.0,PmdMin,1.6,CHCGILDTO6Y
MA6813400180,h_OCHCTP,10-L1-6,2019-02-07 03:45:00.0,SoPmdAve,2865.74,CHCGILDTO6Y
MA6813400180,h_OCHCTP,10-L1-7,2019-02-07 03:15:00.0,Qmin,8.83,CHCGILDTO6Y
MA6813400180,h_OCHCTP,10-L1-7,2019-02-07 03:15:00.0,PhaseCorrectionAve,5.51e-07,CHCGILDTO6Y
MA6813400180,h_OCHCTP,10-L1-7,2019-02-07 03:15:00.0,BerPreFecMax,0.00287,CHCGILDTO6Y
MA6813400180,h_OCHCTP,10-L1-7,2019-02-07 03:15:00.0,PmdMin,0.547,CHCGILDTO6Y
MA6813400180,h_OCHCTP,10-L1-7,2019-02-07 03:15:00.0,SoPmdAve,3401.9,CHCGILDTO6Y
MA6813400180,h_OCHCTP,10-L1-7,2019-02-07 03:30:00.0,Qmin,8.82,CHCGILDTO6Y
MA6813400180,h_OCHCTP,10-L1-7,2019-02-07 03:30:00.0,PhaseCorrectionAve,-0.183,CHCGILDTO6Y
MA6813400180,h_OCHCTP,10-L1-7,2019-02-07 03:30:00.0,BerPreFecMax,0.00288,CHCGILDTO6Y
MA6813400180,h_OCHCTP,10-L1-7,2019-02-07 03:30:00.0,PmdMin,2.13,CHCGILDTO6Y
MA6813400180,h_OCHCTP,10-L1-7,2019-02-07 03:30:00.0,SoPmdAve,3500.0,CHCGILDTO6Y
MA6813400180,h_OCHCTP,10-L1-7,2019-02-07 03:45:00.0,Qmin,8.84,CHCGILDTO6Y
MA6813400180,h_OCHCTP,10-L1-7,2019-02-07 03:45:00.0,PhaseCorrectionAve,-0.244,CHCGILDTO6Y
MA6813400180,h_OCHCTP,10-L1-7,2019-02-07 03:45:00.0,BerPreFecMax,0.00284,CHCGILDTO6Y
MA6813400180,h_OCHCTP,10-L1-7,2019-02-07 03:45:00.0,PmdMin,1.57,CHCGILDTO6Y
MA6813400180,h_OCHCTP,10-L1-7,2019-02-07 03:45:00.0,SoPmdAve,3318.68,CHCGILDTO6Y
MA6813400180,h_OCHCTP,10-L1-8,2019-02-07 03:15:00.0,Qmin,9.31,CHCGILDTO6Y
MA6813400180,h_OCHCTP,10-L1-8,2019-02-07 03:15:00.0,PhaseCorrectionAve,-0.061,CHCGILDTO6Y
MA6813400180,h_OCHCTP,10-L1-8,2019-02-07 03:15:00.0,BerPreFecMax,0.00175,CHCGILDTO6Y
MA6813400180,h_OCHCTP,10-L1-8,2019-02-07 03:15:00.0,PmdMin,3.25,CHCGILDTO6Y
MA6813400180,h_OCHCTP,10-L1-8,2019-02-07 03:15:00.0,SoPmdAve,3239.52,CHCGILDTO6Y
MA6813400180,h_OCHCTP,10-L1-8,2019-02-07 03:30:00.0,Qmin,9.3,CHCGILDTO6Y
MA6813400180,h_OCHCTP,10-L1-8,2019-02-07 03:30:00.0,PhaseCorrectionAve,-0.183,CHCGILDTO6Y
MA6813400180,h_OCHCTP,10-L1-8,2019-02-07 03:30:00.0,BerPreFecMax,0.00177,CHCGILDTO6Y
MA6813400180,h_OCHCTP,10-L1-8,2019-02-07 03:30:00.0,PmdMin,3.89,CHCGILDTO6Y
MA6813400180,h_OCHCTP,10-L1-8,2019-02-07 03:30:00.0,SoPmdAve,3340.0,CHCGILDTO6Y
MA6813400180,h_OCHCTP,10-L1-8,2019-02-07 03:45:00.0,Qmin,9.31,CHCGILDTO6Y
MA6813400180,h_OCHCTP,10-L1-8,2019-02-07 03:45:00.0,PhaseCorrectionAve,-0.244,CHCGILDTO6Y
MA6813400180,h_OCHCTP,10-L1-8,2019-02-07 03:45:00.0,BerPreFecMax,0.00175,CHCGILDTO6Y
MA6813400180,h_OCHCTP,10-L1-8,2019-02-07 03:45:00.0,PmdMin,8.89,CHCGILDTO6Y
MA6813400180,h_OCHCTP,10-L1-8,2019-02-07 03:45:00.0,SoPmdAve,3409.32,CHCGILDTO6Y
MA6813400180,h_OCHCTP,10-L1-9,2019-02-07 03:15:00.0,Qmin,9.34,CHCGILDTO6Y
MA6813400180,h_OCHCTP,10-L1-9,2019-02-07 03:15:00.0,PhaseCorrectionAve,-0.061,CHCGILDTO6Y
MA6813400180,h_OCHCTP,10-L1-9,2019-02-07 03:15:00.0,BerPreFecMax,0.00169,CHCGILDTO6Y
MA6813400180,h_OCHCTP,10-L1-9,2019-02-07 03:15:00.0,PmdMin,2.64,CHCGILDTO6Y
MA6813400180,h_OCHCTP,10-L1-9,2019-02-07 03:15:00.0,SoPmdAve,3363.63,CHCGILDTO6Y
MA6813400180,h_OCHCTP,10-L1-9,2019-02-07 03:30:00.0,Qmin,9.33,CHCGILDTO6Y
MA6813400180,h_OCHCTP,10-L1-9,2019-02-07 03:30:00.0,PhaseCorrectionAve,-0.183,CHCGILDTO6Y
MA6813400180,h_OCHCTP,10-L1-9,2019-02-07 03:30:00.0,BerPreFecMax,0.00171,CHCGILDTO6Y
MA6813400180,h_OCHCTP,10-L1-9,2019-02-07 03:30:00.0,PmdMin,3.79,CHCGILDTO6Y
MA6813400180,h_OCHCTP,10-L1-9,2019-02-07 03:30:00.0,SoPmdAve,3311.86,CHCGILDTO6Y
MA6813400180,h_OCHCTP,10-L1-9,2019-02-07 03:45:00.0,Qmin,9.33,CHCGILDTO6Y
MA6813400180,h_OCHCTP,10-L1-9,2019-02-07 03:45:00.0,PhaseCorrectionAve,-0.244,CHCGILDTO6Y
MA6813400180,h_OCHCTP,10-L1-9,2019-02-07 03:45:00.0,BerPreFecMax,0.00171,CHCGILDTO6Y
MA6813400180,h_OCHCTP,10-L1-9,2019-02-07 03:45:00.0,PmdMin,3.36,CHCGILDTO6Y
MA6813400180,h_OCHCTP,10-L1-9,2019-02-07 03:45:00.0,SoPmdAve,3416.94,CHCGILDTO6Y
MA6813400180,h_OCHCTP,10-L1-10,2019-02-07 03:15:00.0,Qmin,9.38,CHCGILDTO6Y
MA6813400180,h_OCHCTP,10-L1-10,2019-02-07 03:15:00.0,PhaseCorrectionAve,-0.122,CHCGILDTO6Y
MA6813400180,h_OCHCTP,10-L1-10,2019-02-07 03:15:00.0,BerPreFecMax,0.00161,CHCGILDTO6Y
MA6813400180,h_OCHCTP,10-L1-10,2019-02-07 03:15:00.0,PmdMin,4.62,CHCGILDTO6Y
MA6813400180,h_OCHCTP,10-L1-10,2019-02-07 03:15:00.0,SoPmdAve,3249.68,CHCGILDTO6Y
MA6813400180,h_OCHCTP,10-L1-10,2019-02-07 03:30:00.0,Qmin,9.38,CHCGILDTO6Y
MA6813400180,h_OCHCTP,10-L1-10,2019-02-07 03:30:00.0,PhaseCorrectionAve,-0.183,CHCGILDTO6Y
MA6813400180,h_OCHCTP,10-L1-10,2019-02-07 03:30:00.0,BerPreFecMax,0.00163,CHCGILDTO6Y
MA6813400180,h_OCHCTP,10-L1-10,2019-02-07 03:30:00.0,PmdMin,7.4,CHCGILDTO6Y
MA6813400180,h_OCHCTP,10-L1-10,2019-02-07 03:30:00.0,SoPmdAve,3318.76,CHCGILDTO6Y
MA6813400180,h_OCHCTP,10-L1-10,2019-02-07 03:45:00.0,Qmin,9.38,CHCGILDTO6Y
MA6813400180,h_OCHCTP,10-L1-10,2019-02-07 03:45:00.0,PhaseCorrectionAve,-0.244,CHCGILDTO6Y
MA6813400180,h_OCHCTP,10-L1-10,2019-02-07 03:45:00.0,BerPreFecMax,0.00162,CHCGILDTO6Y
MA6813400180,h_OCHCTP,10-L1-10,2019-02-07 03:45:00.0,PmdMin,5.44,CHCGILDTO6Y
MA6813400180,h_OCHCTP,10-L1-10,2019-02-07 03:45:00.0,SoPmdAve,3228.68,CHCGILDTO6Y
