MA6813400180,h_OCHCTP,10-L1-1,2019-02-04 13:15:00.0,Qmin,9.48,CHCGILDTO6Y
MA6813400180,h_OCHCTP,10-L1-1,2019-02-04 13:15:00.0,PhaseCorrectionAve,4.53e-07,CHCGILDTO6Y
MA6813400180,h_OCHCTP,10-L1-1,2019-02-04 13:15:00.0,BerPreFecMax,0.00145,CHCGILDTO6Y
MA6813400180,h_OCHCTP,10-L1-1,2019-02-04 13:15:00.0,PmdMin,0.92,CHCGILDTO6Y
MA6813400180,h_OCHCTP,10-L1-1,2019-02-04 13:15:00.0,SoPmdAve,3696.43,CHCGILDTO6Y
MA6813400180,h_OCHCTP,10-L1-1,2019-02-04 13:30:00.0,Qmin,9.48,CHCGILDTO6Y
MA6813400180,h_OCHCTP,10-L1-1,2019-02-04 13:30:00.0,PhaseCorrectionAve,4.46e-07,CHCGILDTO6Y
MA6813400180,h_OCHCTP,10-L1-1,2019-02-04 13:30:00.0,BerPreFecMax,0.00145,CHCGILDTO6Y
MA6813400180,h_OCHCTP,10-L1-1,2019-02-04 13:30:00.0,PmdMin,0.305,CHCGILDTO6Y
MA6813400180,h_OCHCTP,10-L1-1,2019-02-04 13:30:00.0,SoPmdAve,3656.15,CHCGILDTO6Y
MA6813400180,h_OCHCTP,10-L1-1,2019-02-04 13:45:00.0,Qmin,9.47,CHCGILDTO6Y
MA6813400180,h_OCHCTP,10-L1-1,2019-02-04 13:45:00.0,PhaseCorrectionAve,4.41e-07,CHCGILDTO6Y
MA6813400180,h_OCHCTP,10-L1-1,2019-02-04 13:45:00.0,BerPreFecMax,0.00147,CHCGILDTO6Y
MA6813400180,h_OCHCTP,10-L1-1,2019-02-04 13:45:00.0,PmdMin,1.22,CHCGILDTO6Y
MA6813400180,h_OCHCTP,10-L1-1,2019-02-04 13:45:00.0,SoPmdAve,3622.24,CHCGILDTO6Y
MA6813400180,h_OCHCTP,10-L1-2,2019-02-04 13:15:00.0,Qmin,9.18,CHCGILDTO6Y
MA6813400180,h_OCHCTP,10-L1-2,2019-02-04 13:15:00.0,PhaseCorrectionAve,-0.122,CHCGILDTO6Y
MA6813400180,h_OCHCTP,10-L1-2,2019-02-04 13:15:00.0,BerPreFecMax,0.00201,CHCGILDTO6Y
MA6813400180,h_OCHCTP,10-L1-2,2019-02-04 13:15:00.0,PmdMin,3.65,CHCGILDTO6Y
MA6813400180,h_OCHCTP,10-L1-2,2019-02-04 13:15:00.0,SoPmdAve,3349.34,CHCGILDTO6Y
MA6813400180,h_OCHCTP,10-L1-2,2019-02-04 13:30:00.0,Qmin,9.16,CHCGILDTO6Y
MA6813400180,h_OCHCTP,10-L1-2,2019-02-04 13:30:00.0,PhaseCorrectionAve,-0.244,CHCGILDTO6Y
MA6813400180,h_OCHCTP,10-L1-2,2019-02-04 13:30:00.0,BerPreFecMax,0.00204,CHCGILDTO6Y
MA6813400180,h_OCHCTP,10-L1-2,2019-02-04 13:30:00.0,PmdMin,5.17,CHCGILDTO6Y
MA6813400180,h_OCHCTP,10-L1-2,2019-02-04 13:30:00.0,SoPmdAve,3370.67,CHCGILDTO6Y
MA6813400180,h_OCHCTP,10-L1-2,2019-02-04 13:45:00.0,Qmin,9.18,CHCGILDTO6Y
MA6813400180,h_OCHCTP,10-L1-2,2019-02-04 13:45:00.0,PhaseCorrectionAve,3.48e-07,CHCGILDTO6Y
MA6813400180,h_OCHCTP,10-L1-2,2019-02-04 13:45:00.0,BerPreFecMax,0.00201,CHCGILDTO6Y
MA6813400180,h_OCHCTP,10-L1-2,2019-02-04 13:45:00.0,PmdMin,3.92,CHCGILDTO6Y
MA6813400180,h_OCHCTP,10-L1-2,2019-02-04 13:45:00.0,SoPmdAve,3309.54,CHCGILDTO6Y
MA6813400180,h_OCHCTP,10-L1-3,2019-02-04 13:15:00.0,Qmin,8.94,CHCGILDTO6Y
MA6813400180,h_OCHCTP,10-L1-3,2019-02-04 13:15:00.0,PhaseCorrectionAve,-0.122,CHCGILDTO6Y
MA6813400180,h_OCHCTP,10-L1-3,2019-02-04 13:15:00.0,BerPreFecMax,0.00257,CHCGILDTO6Y
MA6813400180,h_OCHCTP,10-L1-3,2019-02-04 13:15:00.0,PmdMin,4.04,CHCGILDTO6Y
MA6813400180,h_OCHCTP,10-L1-3,2019-02-04 13:15:00.0,SoPmdAve,2815.28,CHCGILDTO6Y
MA6813400180,h_OCHCTP,10-L1-3,2019-02-04 13:30:00.0,Qmin,8.94,CHCGILDTO6Y
MA6813400180,h_OCHCTP,10-L1-3,2019-02-04 13:30:00.0,PhaseCorrectionAve,-0.244,CHCGILDTO6Y
MA6813400180,h_OCHCTP,10-L1-3,2019-02-04 13:30:00.0,BerPreFecMax,0.00255,CHCGILDTO6Y
MA6813400180,h_OCHCTP,10-L1-3,2019-02-04 13:30:00.0,PmdMin,4.32,CHCGILDTO6Y
MA6813400180,h_OCHCTP,10-L1-3,2019-02-04 13:30:00.0,SoPmdAve,2933.83,CHCGILDTO6Y
MA6813400180,h_OCHCTP,10-L1-3,2019-02-04 13:45:00.0,Qmin,8.93,CHCGILDTO6Y
MA6813400180,h_OCHCTP,10-L1-3,2019-02-04 13:45:00.0,PhaseCorrectionAve,5.31e-07,CHCGILDTO6Y
MA6813400180,h_OCHCTP,10-L1-3,2019-02-04 13:45:00.0,BerPreFecMax,0.00258,CHCGILDTO6Y
MA6813400180,h_OCHCTP,10-L1-3,2019-02-04 13:45:00.0,PmdMin,2.34,CHCGILDTO6Y
MA6813400180,h_OCHCTP,10-L1-3,2019-02-04 13:45:00.0,SoPmdAve,2842.94,CHCGILDTO6Y
MA6813400180,h_OCHCTP,10-L1-4,2019-02-04 13:15:00.0,Qmin,8.4,CHCGILDTO6Y
MA6813400180,h_OCHCTP,10-L1-4,2019-02-04 13:15:00.0,PhaseCorrectionAve,-0.122,CHCGILDTO6Y
MA6813400180,h_OCHCTP,10-L1-4,2019-02-04 13:15:00.0,BerPreFecMax,0.00428,CHCGILDTO6Y
MA6813400180,h_OCHCTP,10-L1-4,2019-02-04 13:15:00.0,PmdMin,0.855,CHCGILDTO6Y
MA6813400180,h_OCHCTP,10-L1-4,2019-02-04 13:15:00.0,SoPmdAve,3126.13,CHCGILDTO6Y
MA6813400180,h_OCHCTP,10-L1-4,2019-02-04 13:30:00.0,Qmin,8.38,CHCGILDTO6Y
MA6813400180,h_OCHCTP,10-L1-4,2019-02-04 13:30:00.0,PhaseCorrectionAve,-0.305,CHCGILDTO6Y
MA6813400180,h_OCHCTP,10-L1-4,2019-02-04 13:30:00.0,BerPreFecMax,0.00433,CHCGILDTO6Y
MA6813400180,h_OCHCTP,10-L1-4,2019-02-04 13:30:00.0,PmdMin,0.727,CHCGILDTO6Y
MA6813400180,h_OCHCTP,10-L1-4,2019-02-04 13:30:00.0,SoPmdAve,3063.53,CHCGILDTO6Y
MA6813400180,h_OCHCTP,10-L1-4,2019-02-04 13:45:00.0,Qmin,8.37,CHCGILDTO6Y
MA6813400180,h_OCHCTP,10-L1-4,2019-02-04 13:45:00.0,PhaseCorrectionAve,2.37e-06,CHCGILDTO6Y
MA6813400180,h_OCHCTP,10-L1-4,2019-02-04 13:45:00.0,BerPreFecMax,0.00436,CHCGILDTO6Y
MA6813400180,h_OCHCTP,10-L1-4,2019-02-04 13:45:00.0,PmdMin,1.11,CHCGILDTO6Y
MA6813400180,h_OCHCTP,10-L1-4,2019-02-04 13:45:00.0,SoPmdAve,3185.26,CHCGILDTO6Y
MA6813400180,h_OCHCTP,10-L1-5,2019-02-04 13:15:00.0,Qmin,8.59,CHCGILDTO6Y
MA6813400180,h_OCHCTP,10-L1-5,2019-02-04 13:15:00.0,PhaseCorrectionAve,-0.122,CHCGILDTO6Y
MA6813400180,h_OCHCTP,10-L1-5,2019-02-04 13:15:00.0,BerPreFecMax,0.00359,CHCGILDTO6Y
MA6813400180,h_OCHCTP,10-L1-5,2019-02-04 13:15:00.0,PmdMin,1.28,CHCGILDTO6Y
MA6813400180,h_OCHCTP,10-L1-5,2019-02-04 13:15:00.0,SoPmdAve,2894.67,CHCGILDTO6Y
MA6813400180,h_OCHCTP,10-L1-5,2019-02-04 13:30:00.0,Qmin,8.59,CHCGILDTO6Y
MA6813400180,h_OCHCTP,10-L1-5,2019-02-04 13:30:00.0,PhaseCorrectionAve,-0.305,CHCGILDTO6Y
MA6813400180,h_OCHCTP,10-L1-5,2019-02-04 13:30:00.0,BerPreFecMax,0.00359,CHCGILDTO6Y
MA6813400180,h_OCHCTP,10-L1-5,2019-02-04 13:30:00.0,PmdMin,1.15,CHCGILDTO6Y
MA6813400180,h_OCHCTP,10-L1-5,2019-02-04 13:30:00.0,SoPmdAve,2931.19,CHCGILDTO6Y
MA6813400180,h_OCHCTP,10-L1-5,2019-02-04 13:45:00.0,Qmin,8.59,CHCGILDTO6Y
MA6813400180,h_OCHCTP,10-L1-5,2019-02-04 13:45:00.0,PhaseCorrectionAve,1.29e-06,CHCGILDTO6Y
MA6813400180,h_OCHCTP,10-L1-5,2019-02-04 13:45:00.0,BerPreFecMax,0.0036,CHCGILDTO6Y
MA6813400180,h_OCHCTP,10-L1-5,2019-02-04 13:45:00.0,PmdMin,1.04,CHCGILDTO6Y
MA6813400180,h_OCHCTP,10-L1-5,2019-02-04 13:45:00.0,SoPmdAve,2801.47,CHCGILDTO6Y
MA6813400180,h_OCHCTP,10-L1-6,2019-02-04 13:15:00.0,Qmin,8.81,CHCGILDTO6Y
MA6813400180,h_OCHCTP,10-L1-6,2019-02-04 13:15:00.0,PhaseCorrectionAve,-0.122,CHCGILDTO6Y
MA6813400180,h_OCHCTP,10-L1-6,2019-02-04 13:15:00.0,BerPreFecMax,0.00292,CHCGILDTO6Y
MA6813400180,h_OCHCTP,10-L1-6,2019-02-04 13:15:00.0,PmdMin,1.5,CHCGILDTO6Y
MA6813400180,h_OCHCTP,10-L1-6,2019-02-04 13:15:00.0,SoPmdAve,2869.59,CHCGILDTO6Y
MA6813400180,h_OCHCTP,10-L1-6,2019-02-04 13:30:00.0,Qmin,8.78,CHCGILDTO6Y
MA6813400180,h_OCHCTP,10-L1-6,2019-02-04 13:30:00.0,PhaseCorrectionAve,-0.305,CHCGILDTO6Y
MA6813400180,h_OCHCTP,10-L1-6,2019-02-04 13:30:00.0,BerPreFecMax,0.00298,CHCGILDTO6Y
MA6813400180,h_OCHCTP,10-L1-6,2019-02-04 13:30:00.0,PmdMin,1.52,CHCGILDTO6Y
MA6813400180,h_OCHCTP,10-L1-6,2019-02-04 13:30:00.0,SoPmdAve,2842.63,CHCGILDTO6Y
MA6813400180,h_OCHCTP,10-L1-6,2019-02-04 13:45:00.0,Qmin,8.8,CHCGILDTO6Y
MA6813400180,h_OCHCTP,10-L1-6,2019-02-04 13:45:00.0,PhaseCorrectionAve,-0.061,CHCGILDTO6Y
MA6813400180,h_OCHCTP,10-L1-6,2019-02-04 13:45:00.0,BerPreFecMax,0.00294,CHCGILDTO6Y
MA6813400180,h_OCHCTP,10-L1-6,2019-02-04 13:45:00.0,PmdMin,1.35,CHCGILDTO6Y
MA6813400180,h_OCHCTP,10-L1-6,2019-02-04 13:45:00.0,SoPmdAve,2878.93,CHCGILDTO6Y
MA6813400180,h_OCHCTP,10-L1-7,2019-02-04 13:15:00.0,Qmin,8.86,CHCGILDTO6Y
MA6813400180,h_OCHCTP,10-L1-7,2019-02-04 13:15:00.0,PhaseCorrectionAve,-0.122,CHCGILDTO6Y
MA6813400180,h_OCHCTP,10-L1-7,2019-02-04 13:15:00.0,BerPreFecMax,0.00277,CHCGILDTO6Y
MA6813400180,h_OCHCTP,10-L1-7,2019-02-04 13:15:00.0,PmdMin,0.89,CHCGILDTO6Y
MA6813400180,h_OCHCTP,10-L1-7,2019-02-04 13:15:00.0,SoPmdAve,3466.41,CHCGILDTO6Y
MA6813400180,h_OCHCTP,10-L1-7,2019-02-04 13:30:00.0,Qmin,8.88,CHCGILDTO6Y
MA6813400180,h_OCHCTP,10-L1-7,2019-02-04 13:30:00.0,PhaseCorrectionAve,-0.305,CHCGILDTO6Y
MA6813400180,h_OCHCTP,10-L1-7,2019-02-04 13:30:00.0,BerPreFecMax,0.00272,CHCGILDTO6Y
MA6813400180,h_OCHCTP,10-L1-7,2019-02-04 13:30:00.0,PmdMin,0.872,CHCGILDTO6Y
MA6813400180,h_OCHCTP,10-L1-7,2019-02-04 13:30:00.0,SoPmdAve,3369.97,CHCGILDTO6Y
MA6813400180,h_OCHCTP,10-L1-7,2019-02-04 13:45:00.0,Qmin,8.88,CHCGILDTO6Y
MA6813400180,h_OCHCTP,10-L1-7,2019-02-04 13:45:00.0,PhaseCorrectionAve,-0.061,CHCGILDTO6Y
MA6813400180,h_OCHCTP,10-L1-7,2019-02-04 13:45:00.0,BerPreFecMax,0.00273,CHCGILDTO6Y
MA6813400180,h_OCHCTP,10-L1-7,2019-02-04 13:45:00.0,PmdMin,1.05,CHCGILDTO6Y
MA6813400180,h_OCHCTP,10-L1-7,2019-02-04 13:45:00.0,SoPmdAve,3454.21,CHCGILDTO6Y
MA6813400180,h_OCHCTP,10-L1-8,2019-02-04 13:15:00.0,Qmin,9.31,CHCGILDTO6Y
MA6813400180,h_OCHCTP,10-L1-8,2019-02-04 13:15:00.0,PhaseCorrectionAve,-0.183,CHCGILDTO6Y
MA6813400180,h_OCHCTP,10-L1-8,2019-02-04 13:15:00.0,BerPreFecMax,0.00174,CHCGILDTO6Y
MA6813400180,h_OCHCTP,10-L1-8,2019-02-04 13:15:00.0,PmdMin,5.21,CHCGILDTO6Y
MA6813400180,h_OCHCTP,10-L1-8,2019-02-04 13:15:00.0,SoPmdAve,3345.04,CHCGILDTO6Y
MA6813400180,h_OCHCTP,10-L1-8,2019-02-04 13:30:00.0,Qmin,9.31,CHCGILDTO6Y
MA6813400180,h_OCHCTP,10-L1-8,2019-02-04 13:30:00.0,PhaseCorrectionAve,-0.366,CHCGILDTO6Y
MA6813400180,h_OCHCTP,10-L1-8,2019-02-04 13:30:00.0,BerPreFecMax,0.00174,CHCGILDTO6Y
MA6813400180,h_OCHCTP,10-L1-8,2019-02-04 13:30:00.0,PmdMin,4.09,CHCGILDTO6Y
MA6813400180,h_OCHCTP,10-L1-8,2019-02-04 13:30:00.0,SoPmdAve,3396.08,CHCGILDTO6Y
MA6813400180,h_OCHCTP,10-L1-8,2019-02-04 13:45:00.0,Qmin,9.33,CHCGILDTO6Y
MA6813400180,h_OCHCTP,10-L1-8,2019-02-04 13:45:00.0,PhaseCorrectionAve,-0.122,CHCGILDTO6Y
MA6813400180,h_OCHCTP,10-L1-8,2019-02-04 13:45:00.0,BerPreFecMax,0.00171,CHCGILDTO6Y
MA6813400180,h_OCHCTP,10-L1-8,2019-02-04 13:45:00.0,PmdMin,1.92,CHCGILDTO6Y
MA6813400180,h_OCHCTP,10-L1-8,2019-02-04 13:45:00.0,SoPmdAve,3422.91,CHCGILDTO6Y
MA6813400180,h_OCHCTP,10-L1-9,2019-02-04 13:15:00.0,Qmin,9.32,CHCGILDTO6Y
MA6813400180,h_OCHCTP,10-L1-9,2019-02-04 13:15:00.0,PhaseCorrectionAve,-0.183,CHCGILDTO6Y
MA6813400180,h_OCHCTP,10-L1-9,2019-02-04 13:15:00.0,BerPreFecMax,0.00172,CHCGILDTO6Y
MA6813400180,h_OCHCTP,10-L1-9,2019-02-04 13:15:00.0,PmdMin,6.92,CHCGILDTO6Y
MA6813400180,h_OCHCTP,10-L1-9,2019-02-04 13:15:00.0,SoPmdAve,3395.58,CHCGILDTO6Y
MA6813400180,h_OCHCTP,10-L1-9,2019-02-04 13:30:00.0,Qmin,9.33,CHCGILDTO6Y
MA6813400180,h_OCHCTP,10-L1-9,2019-02-04 13:30:00.0,PhaseCorrectionAve,-0.366,CHCGILDTO6Y
MA6813400180,h_OCHCTP,10-L1-9,2019-02-04 13:30:00.0,BerPreFecMax,0.0017,CHCGILDTO6Y
MA6813400180,h_OCHCTP,10-L1-9,2019-02-04 13:30:00.0,PmdMin,10.23,CHCGILDTO6Y
MA6813400180,h_OCHCTP,10-L1-9,2019-02-04 13:30:00.0,SoPmdAve,3489.49,CHCGILDTO6Y
MA6813400180,h_OCHCTP,10-L1-9,2019-02-04 13:45:00.0,Qmin,9.33,CHCGILDTO6Y
MA6813400180,h_OCHCTP,10-L1-9,2019-02-04 13:45:00.0,PhaseCorrectionAve,-0.122,CHCGILDTO6Y
MA6813400180,h_OCHCTP,10-L1-9,2019-02-04 13:45:00.0,BerPreFecMax,0.00171,CHCGILDTO6Y
MA6813400180,h_OCHCTP,10-L1-9,2019-02-04 13:45:00.0,PmdMin,8.97,CHCGILDTO6Y
MA6813400180,h_OCHCTP,10-L1-9,2019-02-04 13:45:00.0,SoPmdAve,3433.13,CHCGILDTO6Y
MA6813400180,h_OCHCTP,10-L1-10,2019-02-04 13:15:00.0,Qmin,9.39,CHCGILDTO6Y
MA6813400180,h_OCHCTP,10-L1-10,2019-02-04 13:15:00.0,PhaseCorrectionAve,-0.183,CHCGILDTO6Y
MA6813400180,h_OCHCTP,10-L1-10,2019-02-04 13:15:00.0,BerPreFecMax,0.0016,CHCGILDTO6Y
MA6813400180,h_OCHCTP,10-L1-10,2019-02-04 13:15:00.0,PmdMin,10.1,CHCGILDTO6Y
MA6813400180,h_OCHCTP,10-L1-10,2019-02-04 13:15:00.0,SoPmdAve,3224.33,CHCGILDTO6Y
MA6813400180,h_OCHCTP,10-L1-10,2019-02-04 13:30:00.0,Qmin,9.39,CHCGILDTO6Y
MA6813400180,h_OCHCTP,10-L1-10,2019-02-04 13:30:00.0,PhaseCorrectionAve,-0.366,CHCGILDTO6Y
MA6813400180,h_OCHCTP,10-L1-10,2019-02-04 13:30:00.0,BerPreFecMax,0.00159,CHCGILDTO6Y
MA6813400180,h_OCHCTP,10-L1-10,2019-02-04 13:30:00.0,PmdMin,8.59,CHCGILDTO6Y
MA6813400180,h_OCHCTP,10-L1-10,2019-02-04 13:30:00.0,SoPmdAve,3143.76,CHCGILDTO6Y
MA6813400180,h_OCHCTP,10-L1-10,2019-02-04 13:45:00.0,Qmin,9.39,CHCGILDTO6Y
MA6813400180,h_OCHCTP,10-L1-10,2019-02-04 13:45:00.0,PhaseCorrectionAve,-0.122,CHCGILDTO6Y
MA6813400180,h_OCHCTP,10-L1-10,2019-02-04 13:45:00.0,BerPreFecMax,0.0016,CHCGILDTO6Y
MA6813400180,h_OCHCTP,10-L1-10,2019-02-04 13:45:00.0,PmdMin,8.35,CHCGILDTO6Y
MA6813400180,h_OCHCTP,10-L1-10,2019-02-04 13:45:00.0,SoPmdAve,3271.03,CHCGILDTO6Y
MA6813400180,h_OCHCTP,11-L1-1,2019-02-04 13:15:00.0,Qmin,9.11,CHCGILDTO6Y
MA6813400180,h_OCHCTP,11-L1-1,2019-02-04 13:15:00.0,PhaseCorrectionAve,1.56e-07,CHCGILDTO6Y
MA6813400180,h_OCHCTP,11-L1-1,2019-02-04 13:15:00.0,BerPreFecMax,0.00216,CHCGILDTO6Y
MA6813400180,h_OCHCTP,11-L1-1,2019-02-04 13:15:00.0,PmdMin,1.04,CHCGILDTO6Y
MA6813400180,h_OCHCTP,11-L1-1,2019-02-04 13:15:00.0,SoPmdAve,3397.91,CHCGILDTO6Y
MA6813400180,h_OCHCTP,11-L1-1,2019-02-04 13:30:00.0,Qmin,9.16,CHCGILDTO6Y
MA6813400180,h_OCHCTP,11-L1-1,2019-02-04 13:30:00.0,PhaseCorrectionAve,1.38e-07,CHCGILDTO6Y
MA6813400180,h_OCHCTP,11-L1-1,2019-02-04 13:30:00.0,BerPreFecMax,0.00205,CHCGILDTO6Y
MA6813400180,h_OCHCTP,11-L1-1,2019-02-04 13:30:00.0,PmdMin,0.473,CHCGILDTO6Y
MA6813400180,h_OCHCTP,11-L1-1,2019-02-04 13:30:00.0,SoPmdAve,3333.0,CHCGILDTO6Y
MA6813400180,h_OCHCTP,11-L1-1,2019-02-04 13:45:00.0,Qmin,9.07,CHCGILDTO6Y
MA6813400180,h_OCHCTP,11-L1-1,2019-02-04 13:45:00.0,PhaseCorrectionAve,1.32e-07,CHCGILDTO6Y
MA6813400180,h_OCHCTP,11-L1-1,2019-02-04 13:45:00.0,BerPreFecMax,0.00225,CHCGILDTO6Y
MA6813400180,h_OCHCTP,11-L1-1,2019-02-04 13:45:00.0,PmdMin,0.877,CHCGILDTO6Y
MA6813400180,h_OCHCTP,11-L1-1,2019-02-04 13:45:00.0,SoPmdAve,3307.66,CHCGILDTO6Y
MA6813400180,h_OCHCTP,11-L1-2,2019-02-04 13:15:00.0,Qmin,9.04,CHCGILDTO6Y
MA6813400180,h_OCHCTP,11-L1-2,2019-02-04 13:15:00.0,PhaseCorrectionAve,5.25e-07,CHCGILDTO6Y
MA6813400180,h_OCHCTP,11-L1-2,2019-02-04 13:15:00.0,BerPreFecMax,0.00231,CHCGILDTO6Y
MA6813400180,h_OCHCTP,11-L1-2,2019-02-04 13:15:00.0,PmdMin,0.192,CHCGILDTO6Y
MA6813400180,h_OCHCTP,11-L1-2,2019-02-04 13:15:00.0,SoPmdAve,3167.45,CHCGILDTO6Y
MA6813400180,h_OCHCTP,11-L1-2,2019-02-04 13:30:00.0,Qmin,9.09,CHCGILDTO6Y
MA6813400180,h_OCHCTP,11-L1-2,2019-02-04 13:30:00.0,PhaseCorrectionAve,4.15e-07,CHCGILDTO6Y
MA6813400180,h_OCHCTP,11-L1-2,2019-02-04 13:30:00.0,BerPreFecMax,0.0022,CHCGILDTO6Y
MA6813400180,h_OCHCTP,11-L1-2,2019-02-04 13:30:00.0,PmdMin,1.3,CHCGILDTO6Y
MA6813400180,h_OCHCTP,11-L1-2,2019-02-04 13:30:00.0,SoPmdAve,3152.26,CHCGILDTO6Y
MA6813400180,h_OCHCTP,11-L1-2,2019-02-04 13:45:00.0,Qmin,8.94,CHCGILDTO6Y
MA6813400180,h_OCHCTP,11-L1-2,2019-02-04 13:45:00.0,PhaseCorrectionAve,3.79e-07,CHCGILDTO6Y
MA6813400180,h_OCHCTP,11-L1-2,2019-02-04 13:45:00.0,BerPreFecMax,0.00257,CHCGILDTO6Y
MA6813400180,h_OCHCTP,11-L1-2,2019-02-04 13:45:00.0,PmdMin,1.52,CHCGILDTO6Y
MA6813400180,h_OCHCTP,11-L1-2,2019-02-04 13:45:00.0,SoPmdAve,3180.73,CHCGILDTO6Y
MA6813400180,h_OCHCTP,11-L1-3,2019-02-04 13:15:00.0,Qmin,8.87,CHCGILDTO6Y
MA6813400180,h_OCHCTP,11-L1-3,2019-02-04 13:15:00.0,PhaseCorrectionAve,4.31e-07,CHCGILDTO6Y
MA6813400180,h_OCHCTP,11-L1-3,2019-02-04 13:15:00.0,BerPreFecMax,0.00275,CHCGILDTO6Y
MA6813400180,h_OCHCTP,11-L1-3,2019-02-04 13:15:00.0,PmdMin,1.42,CHCGILDTO6Y
MA6813400180,h_OCHCTP,11-L1-3,2019-02-04 13:15:00.0,SoPmdAve,2708.77,CHCGILDTO6Y
MA6813400180,h_OCHCTP,11-L1-3,2019-02-04 13:30:00.0,Qmin,8.95,CHCGILDTO6Y
MA6813400180,h_OCHCTP,11-L1-3,2019-02-04 13:30:00.0,PhaseCorrectionAve,-0.061,CHCGILDTO6Y
MA6813400180,h_OCHCTP,11-L1-3,2019-02-04 13:30:00.0,BerPreFecMax,0.00254,CHCGILDTO6Y
MA6813400180,h_OCHCTP,11-L1-3,2019-02-04 13:30:00.0,PmdMin,1.21,CHCGILDTO6Y
MA6813400180,h_OCHCTP,11-L1-3,2019-02-04 13:30:00.0,SoPmdAve,2627.48,CHCGILDTO6Y
MA6813400180,h_OCHCTP,11-L1-3,2019-02-04 13:45:00.0,Qmin,8.89,CHCGILDTO6Y
MA6813400180,h_OCHCTP,11-L1-3,2019-02-04 13:45:00.0,PhaseCorrectionAve,3.48e-07,CHCGILDTO6Y
MA6813400180,h_OCHCTP,11-L1-3,2019-02-04 13:45:00.0,BerPreFecMax,0.00269,CHCGILDTO6Y
MA6813400180,h_OCHCTP,11-L1-3,2019-02-04 13:45:00.0,PmdMin,0.592,CHCGILDTO6Y
MA6813400180,h_OCHCTP,11-L1-3,2019-02-04 13:45:00.0,SoPmdAve,2803.42,CHCGILDTO6Y
MA6813400180,h_OCHCTP,11-L1-4,2019-02-04 13:15:00.0,Qmin,8.76,CHCGILDTO6Y
MA6813400180,h_OCHCTP,11-L1-4,2019-02-04 13:15:00.0,PhaseCorrectionAve,4.63e-07,CHCGILDTO6Y
MA6813400180,h_OCHCTP,11-L1-4,2019-02-04 13:15:00.0,BerPreFecMax,0.00305,CHCGILDTO6Y
MA6813400180,h_OCHCTP,11-L1-4,2019-02-04 13:15:00.0,PmdMin,0.969,CHCGILDTO6Y
MA6813400180,h_OCHCTP,11-L1-4,2019-02-04 13:15:00.0,SoPmdAve,2955.16,CHCGILDTO6Y
MA6813400180,h_OCHCTP,11-L1-4,2019-02-04 13:30:00.0,Qmin,8.8,CHCGILDTO6Y
MA6813400180,h_OCHCTP,11-L1-4,2019-02-04 13:30:00.0,PhaseCorrectionAve,-0.061,CHCGILDTO6Y
MA6813400180,h_OCHCTP,11-L1-4,2019-02-04 13:30:00.0,BerPreFecMax,0.00293,CHCGILDTO6Y
MA6813400180,h_OCHCTP,11-L1-4,2019-02-04 13:30:00.0,PmdMin,0.88,CHCGILDTO6Y
MA6813400180,h_OCHCTP,11-L1-4,2019-02-04 13:30:00.0,SoPmdAve,2998.53,CHCGILDTO6Y
MA6813400180,h_OCHCTP,11-L1-4,2019-02-04 13:45:00.0,Qmin,8.72,CHCGILDTO6Y
MA6813400180,h_OCHCTP,11-L1-4,2019-02-04 13:45:00.0,PhaseCorrectionAve,5.11e-07,CHCGILDTO6Y
MA6813400180,h_OCHCTP,11-L1-4,2019-02-04 13:45:00.0,BerPreFecMax,0.00317,CHCGILDTO6Y
MA6813400180,h_OCHCTP,11-L1-4,2019-02-04 13:45:00.0,PmdMin,1.12,CHCGILDTO6Y
MA6813400180,h_OCHCTP,11-L1-4,2019-02-04 13:45:00.0,SoPmdAve,2997.96,CHCGILDTO6Y
MA6813400180,h_OCHCTP,11-L1-5,2019-02-04 13:15:00.0,Qmin,8.74,CHCGILDTO6Y
MA6813400180,h_OCHCTP,11-L1-5,2019-02-04 13:15:00.0,PhaseCorrectionAve,2.15e-07,CHCGILDTO6Y
MA6813400180,h_OCHCTP,11-L1-5,2019-02-04 13:15:00.0,BerPreFecMax,0.00312,CHCGILDTO6Y
MA6813400180,h_OCHCTP,11-L1-5,2019-02-04 13:15:00.0,PmdMin,0.609,CHCGILDTO6Y
MA6813400180,h_OCHCTP,11-L1-5,2019-02-04 13:15:00.0,SoPmdAve,2627.53,CHCGILDTO6Y
MA6813400180,h_OCHCTP,11-L1-5,2019-02-04 13:30:00.0,Qmin,8.81,CHCGILDTO6Y
MA6813400180,h_OCHCTP,11-L1-5,2019-02-04 13:30:00.0,PhaseCorrectionAve,-0.122,CHCGILDTO6Y
MA6813400180,h_OCHCTP,11-L1-5,2019-02-04 13:30:00.0,BerPreFecMax,0.00292,CHCGILDTO6Y
MA6813400180,h_OCHCTP,11-L1-5,2019-02-04 13:30:00.0,PmdMin,0.776,CHCGILDTO6Y
MA6813400180,h_OCHCTP,11-L1-5,2019-02-04 13:30:00.0,SoPmdAve,2482.96,CHCGILDTO6Y
MA6813400180,h_OCHCTP,11-L1-5,2019-02-04 13:45:00.0,Qmin,8.78,CHCGILDTO6Y
MA6813400180,h_OCHCTP,11-L1-5,2019-02-04 13:45:00.0,PhaseCorrectionAve,1.93e-07,CHCGILDTO6Y
MA6813400180,h_OCHCTP,11-L1-5,2019-02-04 13:45:00.0,BerPreFecMax,0.003,CHCGILDTO6Y
MA6813400180,h_OCHCTP,11-L1-5,2019-02-04 13:45:00.0,PmdMin,0.316,CHCGILDTO6Y
MA6813400180,h_OCHCTP,11-L1-5,2019-02-04 13:45:00.0,SoPmdAve,2603.21,CHCGILDTO6Y
MA6813400180,h_OCHCTP,11-L1-6,2019-02-04 13:15:00.0,Qmin,8.72,CHCGILDTO6Y
MA6813400180,h_OCHCTP,11-L1-6,2019-02-04 13:15:00.0,PhaseCorrectionAve,5.56e-07,CHCGILDTO6Y
MA6813400180,h_OCHCTP,11-L1-6,2019-02-04 13:15:00.0,BerPreFecMax,0.00318,CHCGILDTO6Y
MA6813400180,h_OCHCTP,11-L1-6,2019-02-04 13:15:00.0,PmdMin,1.09,CHCGILDTO6Y
MA6813400180,h_OCHCTP,11-L1-6,2019-02-04 13:15:00.0,SoPmdAve,2497.19,CHCGILDTO6Y
MA6813400180,h_OCHCTP,11-L1-6,2019-02-04 13:30:00.0,Qmin,8.72,CHCGILDTO6Y
MA6813400180,h_OCHCTP,11-L1-6,2019-02-04 13:30:00.0,PhaseCorrectionAve,-0.122,CHCGILDTO6Y
MA6813400180,h_OCHCTP,11-L1-6,2019-02-04 13:30:00.0,BerPreFecMax,0.00317,CHCGILDTO6Y
MA6813400180,h_OCHCTP,11-L1-6,2019-02-04 13:30:00.0,PmdMin,0.768,CHCGILDTO6Y
MA6813400180,h_OCHCTP,11-L1-6,2019-02-04 13:30:00.0,SoPmdAve,2461.8,CHCGILDTO6Y
MA6813400180,h_OCHCTP,11-L1-6,2019-02-04 13:45:00.0,Qmin,8.77,CHCGILDTO6Y
MA6813400180,h_OCHCTP,11-L1-6,2019-02-04 13:45:00.0,PhaseCorrectionAve,4.27e-07,CHCGILDTO6Y
MA6813400180,h_OCHCTP,11-L1-6,2019-02-04 13:45:00.0,BerPreFecMax,0.00304,CHCGILDTO6Y
MA6813400180,h_OCHCTP,11-L1-6,2019-02-04 13:45:00.0,PmdMin,0.672,CHCGILDTO6Y
MA6813400180,h_OCHCTP,11-L1-6,2019-02-04 13:45:00.0,SoPmdAve,2458.05,CHCGILDTO6Y
MA6813400180,h_OCHCTP,11-L1-7,2019-02-04 13:15:00.0,Qmin,8.73,CHCGILDTO6Y
MA6813400180,h_OCHCTP,11-L1-7,2019-02-04 13:15:00.0,PhaseCorrectionAve,-0.061,CHCGILDTO6Y
MA6813400180,h_OCHCTP,11-L1-7,2019-02-04 13:15:00.0,BerPreFecMax,0.00315,CHCGILDTO6Y
MA6813400180,h_OCHCTP,11-L1-7,2019-02-04 13:15:00.0,PmdMin,1.06,CHCGILDTO6Y
MA6813400180,h_OCHCTP,11-L1-7,2019-02-04 13:15:00.0,SoPmdAve,2962.9,CHCGILDTO6Y
MA6813400180,h_OCHCTP,11-L1-7,2019-02-04 13:30:00.0,Qmin,8.8,CHCGILDTO6Y
MA6813400180,h_OCHCTP,11-L1-7,2019-02-04 13:30:00.0,PhaseCorrectionAve,-0.183,CHCGILDTO6Y
MA6813400180,h_OCHCTP,11-L1-7,2019-02-04 13:30:00.0,BerPreFecMax,0.00293,CHCGILDTO6Y
MA6813400180,h_OCHCTP,11-L1-7,2019-02-04 13:30:00.0,PmdMin,1.1,CHCGILDTO6Y
MA6813400180,h_OCHCTP,11-L1-7,2019-02-04 13:30:00.0,SoPmdAve,3036.33,CHCGILDTO6Y
MA6813400180,h_OCHCTP,11-L1-7,2019-02-04 13:45:00.0,Qmin,8.79,CHCGILDTO6Y
MA6813400180,h_OCHCTP,11-L1-7,2019-02-04 13:45:00.0,PhaseCorrectionAve,2.61e-07,CHCGILDTO6Y
MA6813400180,h_OCHCTP,11-L1-7,2019-02-04 13:45:00.0,BerPreFecMax,0.00297,CHCGILDTO6Y
MA6813400180,h_OCHCTP,11-L1-7,2019-02-04 13:45:00.0,PmdMin,0.895,CHCGILDTO6Y
MA6813400180,h_OCHCTP,11-L1-7,2019-02-04 13:45:00.0,SoPmdAve,2986.32,CHCGILDTO6Y
MA6813400180,h_OCHCTP,11-L1-8,2019-02-04 13:15:00.0,Qmin,8.88,CHCGILDTO6Y
MA6813400180,h_OCHCTP,11-L1-8,2019-02-04 13:15:00.0,PhaseCorrectionAve,-0.061,CHCGILDTO6Y
MA6813400180,h_OCHCTP,11-L1-8,2019-02-04 13:15:00.0,BerPreFecMax,0.00271,CHCGILDTO6Y
MA6813400180,h_OCHCTP,11-L1-8,2019-02-04 13:15:00.0,PmdMin,0.61,CHCGILDTO6Y
MA6813400180,h_OCHCTP,11-L1-8,2019-02-04 13:15:00.0,SoPmdAve,3164.08,CHCGILDTO6Y
MA6813400180,h_OCHCTP,11-L1-8,2019-02-04 13:30:00.0,Qmin,8.93,CHCGILDTO6Y
MA6813400180,h_OCHCTP,11-L1-8,2019-02-04 13:30:00.0,PhaseCorrectionAve,-0.183,CHCGILDTO6Y
MA6813400180,h_OCHCTP,11-L1-8,2019-02-04 13:30:00.0,BerPreFecMax,0.0026,CHCGILDTO6Y
MA6813400180,h_OCHCTP,11-L1-8,2019-02-04 13:30:00.0,PmdMin,0.912,CHCGILDTO6Y
MA6813400180,h_OCHCTP,11-L1-8,2019-02-04 13:30:00.0,SoPmdAve,3184.68,CHCGILDTO6Y
MA6813400180,h_OCHCTP,11-L1-8,2019-02-04 13:45:00.0,Qmin,8.89,CHCGILDTO6Y
MA6813400180,h_OCHCTP,11-L1-8,2019-02-04 13:45:00.0,PhaseCorrectionAve,8.15e-07,CHCGILDTO6Y
MA6813400180,h_OCHCTP,11-L1-8,2019-02-04 13:45:00.0,BerPreFecMax,0.00269,CHCGILDTO6Y
MA6813400180,h_OCHCTP,11-L1-8,2019-02-04 13:45:00.0,PmdMin,1.1,CHCGILDTO6Y
MA6813400180,h_OCHCTP,11-L1-8,2019-02-04 13:45:00.0,SoPmdAve,3051.26,CHCGILDTO6Y
MA6813400180,h_OCHCTP,11-L1-9,2019-02-04 13:15:00.0,Qmin,8.81,CHCGILDTO6Y
MA6813400180,h_OCHCTP,11-L1-9,2019-02-04 13:15:00.0,PhaseCorrectionAve,-0.061,CHCGILDTO6Y
MA6813400180,h_OCHCTP,11-L1-9,2019-02-04 13:15:00.0,BerPreFecMax,0.00291,CHCGILDTO6Y
MA6813400180,h_OCHCTP,11-L1-9,2019-02-04 13:15:00.0,PmdMin,0.718,CHCGILDTO6Y
MA6813400180,h_OCHCTP,11-L1-9,2019-02-04 13:15:00.0,SoPmdAve,2919.15,CHCGILDTO6Y
MA6813400180,h_OCHCTP,11-L1-9,2019-02-04 13:30:00.0,Qmin,8.82,CHCGILDTO6Y
MA6813400180,h_OCHCTP,11-L1-9,2019-02-04 13:30:00.0,PhaseCorrectionAve,-0.244,CHCGILDTO6Y
MA6813400180,h_OCHCTP,11-L1-9,2019-02-04 13:30:00.0,BerPreFecMax,0.00289,CHCGILDTO6Y
MA6813400180,h_OCHCTP,11-L1-9,2019-02-04 13:30:00.0,PmdMin,0.367,CHCGILDTO6Y
MA6813400180,h_OCHCTP,11-L1-9,2019-02-04 13:30:00.0,SoPmdAve,3056.55,CHCGILDTO6Y
MA6813400180,h_OCHCTP,11-L1-9,2019-02-04 13:45:00.0,Qmin,8.86,CHCGILDTO6Y
MA6813400180,h_OCHCTP,11-L1-9,2019-02-04 13:45:00.0,PhaseCorrectionAve,1.22e-06,CHCGILDTO6Y
MA6813400180,h_OCHCTP,11-L1-9,2019-02-04 13:45:00.0,BerPreFecMax,0.00276,CHCGILDTO6Y
MA6813400180,h_OCHCTP,11-L1-9,2019-02-04 13:45:00.0,PmdMin,0.877,CHCGILDTO6Y
MA6813400180,h_OCHCTP,11-L1-9,2019-02-04 13:45:00.0,SoPmdAve,2916.19,CHCGILDTO6Y
MA6813400180,h_OCHCTP,11-L1-10,2019-02-04 13:15:00.0,Qmin,8.95,CHCGILDTO6Y
MA6813400180,h_OCHCTP,11-L1-10,2019-02-04 13:15:00.0,PhaseCorrectionAve,-0.061,CHCGILDTO6Y
MA6813400180,h_OCHCTP,11-L1-10,2019-02-04 13:15:00.0,BerPreFecMax,0.00254,CHCGILDTO6Y
MA6813400180,h_OCHCTP,11-L1-10,2019-02-04 13:15:00.0,PmdMin,0.357,CHCGILDTO6Y
MA6813400180,h_OCHCTP,11-L1-10,2019-02-04 13:15:00.0,SoPmdAve,3060.15,CHCGILDTO6Y
MA6813400180,h_OCHCTP,11-L1-10,2019-02-04 13:30:00.0,Qmin,9.0,CHCGILDTO6Y
MA6813400180,h_OCHCTP,11-L1-10,2019-02-04 13:30:00.0,PhaseCorrectionAve,-0.244,CHCGILDTO6Y
MA6813400180,h_OCHCTP,11-L1-10,2019-02-04 13:30:00.0,BerPreFecMax,0.00241,CHCGILDTO6Y
MA6813400180,h_OCHCTP,11-L1-10,2019-02-04 13:30:00.0,PmdMin,1.18,CHCGILDTO6Y
MA6813400180,h_OCHCTP,11-L1-10,2019-02-04 13:30:00.0,SoPmdAve,3083.59,CHCGILDTO6Y
MA6813400180,h_OCHCTP,11-L1-10,2019-02-04 13:45:00.0,Qmin,8.98,CHCGILDTO6Y
MA6813400180,h_OCHCTP,11-L1-10,2019-02-04 13:45:00.0,PhaseCorrectionAve,1.68e-06,CHCGILDTO6Y
MA6813400180,h_OCHCTP,11-L1-10,2019-02-04 13:45:00.0,BerPreFecMax,0.00245,CHCGILDTO6Y
MA6813400180,h_OCHCTP,11-L1-10,2019-02-04 13:45:00.0,PmdMin,1.66,CHCGILDTO6Y
MA6813400180,h_OCHCTP,11-L1-10,2019-02-04 13:45:00.0,SoPmdAve,2942.03,CHCGILDTO6Y
MA6813400180,h_OCHCTP,13-L1-1,2019-02-04 13:15:00.0,Qmin,9.06,CHCGILDTO6Y
MA6813400180,h_OCHCTP,13-L1-1,2019-02-04 13:15:00.0,PhaseCorrectionAve,-0.122,CHCGILDTO6Y
MA6813400180,h_OCHCTP,13-L1-1,2019-02-04 13:15:00.0,BerPreFecMax,0.00228,CHCGILDTO6Y
MA6813400180,h_OCHCTP,13-L1-1,2019-02-04 13:15:00.0,PmdMin,0.89,CHCGILDTO6Y
MA6813400180,h_OCHCTP,13-L1-1,2019-02-04 13:15:00.0,SoPmdAve,3573.83,CHCGILDTO6Y
MA6813400180,h_OCHCTP,13-L1-1,2019-02-04 13:30:00.0,Qmin,9.13,CHCGILDTO6Y
MA6813400180,h_OCHCTP,13-L1-1,2019-02-04 13:30:00.0,PhaseCorrectionAve,2.89e-07,CHCGILDTO6Y
MA6813400180,h_OCHCTP,13-L1-1,2019-02-04 13:30:00.0,BerPreFecMax,0.0021,CHCGILDTO6Y
MA6813400180,h_OCHCTP,13-L1-1,2019-02-04 13:30:00.0,PmdMin,1.69,CHCGILDTO6Y
MA6813400180,h_OCHCTP,13-L1-1,2019-02-04 13:30:00.0,SoPmdAve,3384.9,CHCGILDTO6Y
MA6813400180,h_OCHCTP,13-L1-1,2019-02-04 13:45:00.0,Qmin,9.1,CHCGILDTO6Y
MA6813400180,h_OCHCTP,13-L1-1,2019-02-04 13:45:00.0,PhaseCorrectionAve,2.54e-07,CHCGILDTO6Y
MA6813400180,h_OCHCTP,13-L1-1,2019-02-04 13:45:00.0,BerPreFecMax,0.00217,CHCGILDTO6Y
MA6813400180,h_OCHCTP,13-L1-1,2019-02-04 13:45:00.0,PmdMin,0.945,CHCGILDTO6Y
MA6813400180,h_OCHCTP,13-L1-1,2019-02-04 13:45:00.0,SoPmdAve,3504.49,CHCGILDTO6Y
MA6813400180,h_OCHCTP,13-L1-2,2019-02-04 13:15:00.0,Qmin,9.07,CHCGILDTO6Y
MA6813400180,h_OCHCTP,13-L1-2,2019-02-04 13:15:00.0,PhaseCorrectionAve,-0.183,CHCGILDTO6Y
MA6813400180,h_OCHCTP,13-L1-2,2019-02-04 13:15:00.0,BerPreFecMax,0.00226,CHCGILDTO6Y
MA6813400180,h_OCHCTP,13-L1-2,2019-02-04 13:15:00.0,PmdMin,0.984,CHCGILDTO6Y
MA6813400180,h_OCHCTP,13-L1-2,2019-02-04 13:15:00.0,SoPmdAve,3426.2,CHCGILDTO6Y
MA6813400180,h_OCHCTP,13-L1-2,2019-02-04 13:30:00.0,Qmin,9.14,CHCGILDTO6Y
MA6813400180,h_OCHCTP,13-L1-2,2019-02-04 13:30:00.0,PhaseCorrectionAve,3.7e-07,CHCGILDTO6Y
MA6813400180,h_OCHCTP,13-L1-2,2019-02-04 13:30:00.0,BerPreFecMax,0.0021,CHCGILDTO6Y
MA6813400180,h_OCHCTP,13-L1-2,2019-02-04 13:30:00.0,PmdMin,1.69,CHCGILDTO6Y
MA6813400180,h_OCHCTP,13-L1-2,2019-02-04 13:30:00.0,SoPmdAve,3550.09,CHCGILDTO6Y
MA6813400180,h_OCHCTP,13-L1-2,2019-02-04 13:45:00.0,Qmin,9.05,CHCGILDTO6Y
MA6813400180,h_OCHCTP,13-L1-2,2019-02-04 13:45:00.0,PhaseCorrectionAve,3.34e-07,CHCGILDTO6Y
MA6813400180,h_OCHCTP,13-L1-2,2019-02-04 13:45:00.0,BerPreFecMax,0.0023,CHCGILDTO6Y
MA6813400180,h_OCHCTP,13-L1-2,2019-02-04 13:45:00.0,PmdMin,0.78,CHCGILDTO6Y
MA6813400180,h_OCHCTP,13-L1-2,2019-02-04 13:45:00.0,SoPmdAve,3509.6,CHCGILDTO6Y
MA6813400180,h_OCHCTP,13-L1-3,2019-02-04 13:15:00.0,Qmin,8.88,CHCGILDTO6Y
MA6813400180,h_OCHCTP,13-L1-3,2019-02-04 13:15:00.0,PhaseCorrectionAve,-0.183,CHCGILDTO6Y
MA6813400180,h_OCHCTP,13-L1-3,2019-02-04 13:15:00.0,BerPreFecMax,0.00272,CHCGILDTO6Y
MA6813400180,h_OCHCTP,13-L1-3,2019-02-04 13:15:00.0,PmdMin,1.59,CHCGILDTO6Y
MA6813400180,h_OCHCTP,13-L1-3,2019-02-04 13:15:00.0,SoPmdAve,2891.56,CHCGILDTO6Y
MA6813400180,h_OCHCTP,13-L1-3,2019-02-04 13:30:00.0,Qmin,8.95,CHCGILDTO6Y
MA6813400180,h_OCHCTP,13-L1-3,2019-02-04 13:30:00.0,PhaseCorrectionAve,4.98e-07,CHCGILDTO6Y
MA6813400180,h_OCHCTP,13-L1-3,2019-02-04 13:30:00.0,BerPreFecMax,0.00254,CHCGILDTO6Y
MA6813400180,h_OCHCTP,13-L1-3,2019-02-04 13:30:00.0,PmdMin,0.227,CHCGILDTO6Y
MA6813400180,h_OCHCTP,13-L1-3,2019-02-04 13:30:00.0,SoPmdAve,2851.09,CHCGILDTO6Y
MA6813400180,h_OCHCTP,13-L1-3,2019-02-04 13:45:00.0,Qmin,8.9,CHCGILDTO6Y
MA6813400180,h_OCHCTP,13-L1-3,2019-02-04 13:45:00.0,PhaseCorrectionAve,4.48e-07,CHCGILDTO6Y
MA6813400180,h_OCHCTP,13-L1-3,2019-02-04 13:45:00.0,BerPreFecMax,0.00267,CHCGILDTO6Y
MA6813400180,h_OCHCTP,13-L1-3,2019-02-04 13:45:00.0,PmdMin,0.991,CHCGILDTO6Y
MA6813400180,h_OCHCTP,13-L1-3,2019-02-04 13:45:00.0,SoPmdAve,2848.19,CHCGILDTO6Y
MA6813400180,h_OCHCTP,13-L1-4,2019-02-04 13:15:00.0,Qmin,8.71,CHCGILDTO6Y
MA6813400180,h_OCHCTP,13-L1-4,2019-02-04 13:15:00.0,PhaseCorrectionAve,-0.183,CHCGILDTO6Y
MA6813400180,h_OCHCTP,13-L1-4,2019-02-04 13:15:00.0,BerPreFecMax,0.0032,CHCGILDTO6Y
MA6813400180,h_OCHCTP,13-L1-4,2019-02-04 13:15:00.0,PmdMin,1.17,CHCGILDTO6Y
MA6813400180,h_OCHCTP,13-L1-4,2019-02-04 13:15:00.0,SoPmdAve,3379.05,CHCGILDTO6Y
MA6813400180,h_OCHCTP,13-L1-4,2019-02-04 13:30:00.0,Qmin,8.76,CHCGILDTO6Y
MA6813400180,h_OCHCTP,13-L1-4,2019-02-04 13:30:00.0,PhaseCorrectionAve,4.75e-07,CHCGILDTO6Y
MA6813400180,h_OCHCTP,13-L1-4,2019-02-04 13:30:00.0,BerPreFecMax,0.00306,CHCGILDTO6Y
MA6813400180,h_OCHCTP,13-L1-4,2019-02-04 13:30:00.0,PmdMin,1.32,CHCGILDTO6Y
MA6813400180,h_OCHCTP,13-L1-4,2019-02-04 13:30:00.0,SoPmdAve,3407.27,CHCGILDTO6Y
MA6813400180,h_OCHCTP,13-L1-4,2019-02-04 13:45:00.0,Qmin,8.71,CHCGILDTO6Y
MA6813400180,h_OCHCTP,13-L1-4,2019-02-04 13:45:00.0,PhaseCorrectionAve,5.07e-07,CHCGILDTO6Y
MA6813400180,h_OCHCTP,13-L1-4,2019-02-04 13:45:00.0,BerPreFecMax,0.00322,CHCGILDTO6Y
MA6813400180,h_OCHCTP,13-L1-4,2019-02-04 13:45:00.0,PmdMin,0.851,CHCGILDTO6Y
MA6813400180,h_OCHCTP,13-L1-4,2019-02-04 13:45:00.0,SoPmdAve,3347.46,CHCGILDTO6Y
MA6813400180,h_OCHCTP,13-L1-5,2019-02-04 13:15:00.0,Qmin,8.6,CHCGILDTO6Y
MA6813400180,h_OCHCTP,13-L1-5,2019-02-04 13:15:00.0,PhaseCorrectionAve,-0.183,CHCGILDTO6Y
MA6813400180,h_OCHCTP,13-L1-5,2019-02-04 13:15:00.0,BerPreFecMax,0.00356,CHCGILDTO6Y
MA6813400180,h_OCHCTP,13-L1-5,2019-02-04 13:15:00.0,PmdMin,0.962,CHCGILDTO6Y
MA6813400180,h_OCHCTP,13-L1-5,2019-02-04 13:15:00.0,SoPmdAve,2770.99,CHCGILDTO6Y
MA6813400180,h_OCHCTP,13-L1-5,2019-02-04 13:30:00.0,Qmin,8.64,CHCGILDTO6Y
MA6813400180,h_OCHCTP,13-L1-5,2019-02-04 13:30:00.0,PhaseCorrectionAve,3.45e-07,CHCGILDTO6Y
MA6813400180,h_OCHCTP,13-L1-5,2019-02-04 13:30:00.0,BerPreFecMax,0.00342,CHCGILDTO6Y
MA6813400180,h_OCHCTP,13-L1-5,2019-02-04 13:30:00.0,PmdMin,0.878,CHCGILDTO6Y
MA6813400180,h_OCHCTP,13-L1-5,2019-02-04 13:30:00.0,SoPmdAve,2771.54,CHCGILDTO6Y
MA6813400180,h_OCHCTP,13-L1-5,2019-02-04 13:45:00.0,Qmin,8.7,CHCGILDTO6Y
MA6813400180,h_OCHCTP,13-L1-5,2019-02-04 13:45:00.0,PhaseCorrectionAve,3.71e-07,CHCGILDTO6Y
MA6813400180,h_OCHCTP,13-L1-5,2019-02-04 13:45:00.0,BerPreFecMax,0.00325,CHCGILDTO6Y
MA6813400180,h_OCHCTP,13-L1-5,2019-02-04 13:45:00.0,PmdMin,0.495,CHCGILDTO6Y
MA6813400180,h_OCHCTP,13-L1-5,2019-02-04 13:45:00.0,SoPmdAve,2906.01,CHCGILDTO6Y
MA6813400180,h_OCHCTP,13-L1-6,2019-02-04 13:15:00.0,Qmin,8.61,CHCGILDTO6Y
MA6813400180,h_OCHCTP,13-L1-6,2019-02-04 13:15:00.0,PhaseCorrectionAve,-0.183,CHCGILDTO6Y
MA6813400180,h_OCHCTP,13-L1-6,2019-02-04 13:15:00.0,BerPreFecMax,0.00352,CHCGILDTO6Y
MA6813400180,h_OCHCTP,13-L1-6,2019-02-04 13:15:00.0,PmdMin,0.532,CHCGILDTO6Y
MA6813400180,h_OCHCTP,13-L1-6,2019-02-04 13:15:00.0,SoPmdAve,3049.0,CHCGILDTO6Y
MA6813400180,h_OCHCTP,13-L1-6,2019-02-04 13:30:00.0,Qmin,8.72,CHCGILDTO6Y
MA6813400180,h_OCHCTP,13-L1-6,2019-02-04 13:30:00.0,PhaseCorrectionAve,5.18e-07,CHCGILDTO6Y
MA6813400180,h_OCHCTP,13-L1-6,2019-02-04 13:30:00.0,BerPreFecMax,0.00318,CHCGILDTO6Y
MA6813400180,h_OCHCTP,13-L1-6,2019-02-04 13:30:00.0,PmdMin,0.575,CHCGILDTO6Y
MA6813400180,h_OCHCTP,13-L1-6,2019-02-04 13:30:00.0,SoPmdAve,3044.53,CHCGILDTO6Y
MA6813400180,h_OCHCTP,13-L1-6,2019-02-04 13:45:00.0,Qmin,8.78,CHCGILDTO6Y
MA6813400180,h_OCHCTP,13-L1-6,2019-02-04 13:45:00.0,PhaseCorrectionAve,4.57e-07,CHCGILDTO6Y
MA6813400180,h_OCHCTP,13-L1-6,2019-02-04 13:45:00.0,BerPreFecMax,0.00301,CHCGILDTO6Y
MA6813400180,h_OCHCTP,13-L1-6,2019-02-04 13:45:00.0,PmdMin,0.591,CHCGILDTO6Y
MA6813400180,h_OCHCTP,13-L1-6,2019-02-04 13:45:00.0,SoPmdAve,3068.25,CHCGILDTO6Y
MA6813400180,h_OCHCTP,13-L1-7,2019-02-04 13:15:00.0,Qmin,8.67,CHCGILDTO6Y
MA6813400180,h_OCHCTP,13-L1-7,2019-02-04 13:15:00.0,PhaseCorrectionAve,-0.244,CHCGILDTO6Y
MA6813400180,h_OCHCTP,13-L1-7,2019-02-04 13:15:00.0,BerPreFecMax,0.00334,CHCGILDTO6Y
MA6813400180,h_OCHCTP,13-L1-7,2019-02-04 13:15:00.0,PmdMin,0.988,CHCGILDTO6Y
MA6813400180,h_OCHCTP,13-L1-7,2019-02-04 13:15:00.0,SoPmdAve,3636.78,CHCGILDTO6Y
MA6813400180,h_OCHCTP,13-L1-7,2019-02-04 13:30:00.0,Qmin,8.69,CHCGILDTO6Y
MA6813400180,h_OCHCTP,13-L1-7,2019-02-04 13:30:00.0,PhaseCorrectionAve,4.23e-07,CHCGILDTO6Y
MA6813400180,h_OCHCTP,13-L1-7,2019-02-04 13:30:00.0,BerPreFecMax,0.00328,CHCGILDTO6Y
MA6813400180,h_OCHCTP,13-L1-7,2019-02-04 13:30:00.0,PmdMin,0.724,CHCGILDTO6Y
MA6813400180,h_OCHCTP,13-L1-7,2019-02-04 13:30:00.0,SoPmdAve,3708.88,CHCGILDTO6Y
MA6813400180,h_OCHCTP,13-L1-7,2019-02-04 13:45:00.0,Qmin,8.7,CHCGILDTO6Y
MA6813400180,h_OCHCTP,13-L1-7,2019-02-04 13:45:00.0,PhaseCorrectionAve,-0.061,CHCGILDTO6Y
MA6813400180,h_OCHCTP,13-L1-7,2019-02-04 13:45:00.0,BerPreFecMax,0.00323,CHCGILDTO6Y
MA6813400180,h_OCHCTP,13-L1-7,2019-02-04 13:45:00.0,PmdMin,0.784,CHCGILDTO6Y
MA6813400180,h_OCHCTP,13-L1-7,2019-02-04 13:45:00.0,SoPmdAve,3700.16,CHCGILDTO6Y
MA6813400180,h_OCHCTP,13-L1-8,2019-02-04 13:15:00.0,Qmin,8.82,CHCGILDTO6Y
MA6813400180,h_OCHCTP,13-L1-8,2019-02-04 13:15:00.0,PhaseCorrectionAve,-0.244,CHCGILDTO6Y
MA6813400180,h_OCHCTP,13-L1-8,2019-02-04 13:15:00.0,BerPreFecMax,0.00287,CHCGILDTO6Y
MA6813400180,h_OCHCTP,13-L1-8,2019-02-04 13:15:00.0,PmdMin,1.1,CHCGILDTO6Y
MA6813400180,h_OCHCTP,13-L1-8,2019-02-04 13:15:00.0,SoPmdAve,3844.61,CHCGILDTO6Y
MA6813400180,h_OCHCTP,13-L1-8,2019-02-04 13:30:00.0,Qmin,8.77,CHCGILDTO6Y
MA6813400180,h_OCHCTP,13-L1-8,2019-02-04 13:30:00.0,PhaseCorrectionAve,9.22e-07,CHCGILDTO6Y
MA6813400180,h_OCHCTP,13-L1-8,2019-02-04 13:30:00.0,BerPreFecMax,0.00303,CHCGILDTO6Y
MA6813400180,h_OCHCTP,13-L1-8,2019-02-04 13:30:00.0,PmdMin,1.18,CHCGILDTO6Y
MA6813400180,h_OCHCTP,13-L1-8,2019-02-04 13:30:00.0,SoPmdAve,3781.0,CHCGILDTO6Y
MA6813400180,h_OCHCTP,13-L1-8,2019-02-04 13:45:00.0,Qmin,8.8,CHCGILDTO6Y
MA6813400180,h_OCHCTP,13-L1-8,2019-02-04 13:45:00.0,PhaseCorrectionAve,-0.122,CHCGILDTO6Y
MA6813400180,h_OCHCTP,13-L1-8,2019-02-04 13:45:00.0,BerPreFecMax,0.00295,CHCGILDTO6Y
MA6813400180,h_OCHCTP,13-L1-8,2019-02-04 13:45:00.0,PmdMin,0.435,CHCGILDTO6Y
MA6813400180,h_OCHCTP,13-L1-8,2019-02-04 13:45:00.0,SoPmdAve,3848.21,CHCGILDTO6Y
MA6813400180,h_OCHCTP,13-L1-9,2019-02-04 13:15:00.0,Qmin,8.75,CHCGILDTO6Y
MA6813400180,h_OCHCTP,13-L1-9,2019-02-04 13:15:00.0,PhaseCorrectionAve,-0.244,CHCGILDTO6Y
MA6813400180,h_OCHCTP,13-L1-9,2019-02-04 13:15:00.0,BerPreFecMax,0.00308,CHCGILDTO6Y
MA6813400180,h_OCHCTP,13-L1-9,2019-02-04 13:15:00.0,PmdMin,0.935,CHCGILDTO6Y
MA6813400180,h_OCHCTP,13-L1-9,2019-02-04 13:15:00.0,SoPmdAve,3515.05,CHCGILDTO6Y
MA6813400180,h_OCHCTP,13-L1-9,2019-02-04 13:30:00.0,Qmin,8.73,CHCGILDTO6Y
MA6813400180,h_OCHCTP,13-L1-9,2019-02-04 13:30:00.0,PhaseCorrectionAve,-0.122,CHCGILDTO6Y
MA6813400180,h_OCHCTP,13-L1-9,2019-02-04 13:30:00.0,BerPreFecMax,0.00316,CHCGILDTO6Y
MA6813400180,h_OCHCTP,13-L1-9,2019-02-04 13:30:00.0,PmdMin,1.1,CHCGILDTO6Y
MA6813400180,h_OCHCTP,13-L1-9,2019-02-04 13:30:00.0,SoPmdAve,3490.43,CHCGILDTO6Y
MA6813400180,h_OCHCTP,13-L1-9,2019-02-04 13:45:00.0,Qmin,8.77,CHCGILDTO6Y
MA6813400180,h_OCHCTP,13-L1-9,2019-02-04 13:45:00.0,PhaseCorrectionAve,-0.183,CHCGILDTO6Y
MA6813400180,h_OCHCTP,13-L1-9,2019-02-04 13:45:00.0,BerPreFecMax,0.00303,CHCGILDTO6Y
MA6813400180,h_OCHCTP,13-L1-9,2019-02-04 13:45:00.0,PmdMin,0.232,CHCGILDTO6Y
MA6813400180,h_OCHCTP,13-L1-9,2019-02-04 13:45:00.0,SoPmdAve,3538.61,CHCGILDTO6Y
MA6813400180,h_OCHCTP,13-L1-10,2019-02-04 13:15:00.0,Qmin,8.67,CHCGILDTO6Y
MA6813400180,h_OCHCTP,13-L1-10,2019-02-04 13:15:00.0,PhaseCorrectionAve,-0.244,CHCGILDTO6Y
MA6813400180,h_OCHCTP,13-L1-10,2019-02-04 13:15:00.0,BerPreFecMax,0.00334,CHCGILDTO6Y
MA6813400180,h_OCHCTP,13-L1-10,2019-02-04 13:15:00.0,PmdMin,0.855,CHCGILDTO6Y
MA6813400180,h_OCHCTP,13-L1-10,2019-02-04 13:15:00.0,SoPmdAve,3717.9,CHCGILDTO6Y
MA6813400180,h_OCHCTP,13-L1-10,2019-02-04 13:30:00.0,Qmin,8.65,CHCGILDTO6Y
MA6813400180,h_OCHCTP,13-L1-10,2019-02-04 13:30:00.0,PhaseCorrectionAve,-0.183,CHCGILDTO6Y
MA6813400180,h_OCHCTP,13-L1-10,2019-02-04 13:30:00.0,BerPreFecMax,0.0034,CHCGILDTO6Y
MA6813400180,h_OCHCTP,13-L1-10,2019-02-04 13:30:00.0,PmdMin,1.41,CHCGILDTO6Y
MA6813400180,h_OCHCTP,13-L1-10,2019-02-04 13:30:00.0,SoPmdAve,3837.89,CHCGILDTO6Y
MA6813400180,h_OCHCTP,13-L1-10,2019-02-04 13:45:00.0,Qmin,8.63,CHCGILDTO6Y
MA6813400180,h_OCHCTP,13-L1-10,2019-02-04 13:45:00.0,PhaseCorrectionAve,-0.244,CHCGILDTO6Y
MA6813400180,h_OCHCTP,13-L1-10,2019-02-04 13:45:00.0,BerPreFecMax,0.00345,CHCGILDTO6Y
MA6813400180,h_OCHCTP,13-L1-10,2019-02-04 13:45:00.0,PmdMin,0.289,CHCGILDTO6Y
MA6813400180,h_OCHCTP,13-L1-10,2019-02-04 13:45:00.0,SoPmdAve,3830.53,CHCGILDTO6Y
