MA6813400180,h_OCHCTP,10-L1-1,2019-01-22 15:15:00.0,Qmin,9.51,CHCGILDTO6Y
MA6813400180,h_OCHCTP,10-L1-1,2019-01-22 15:15:00.0,PhaseCorrectionAve,6.08e-07,CHCGILDTO6Y
MA6813400180,h_OCHCTP,10-L1-1,2019-01-22 15:15:00.0,BerPreFecMax,0.0014,CHCGILDTO6Y
MA6813400180,h_OCHCTP,10-L1-1,2019-01-22 15:15:00.0,PmdMin,1.96,CHCGILDTO6Y
MA6813400180,h_OCHCTP,10-L1-1,2019-01-22 15:15:00.0,SoPmdAve,3337.82,CHCGILDTO6Y
MA6813400180,h_OCHCTP,10-L1-1,2019-01-22 15:30:00.0,Qmin,9.54,CHCGILDTO6Y
MA6813400180,h_OCHCTP,10-L1-1,2019-01-22 15:30:00.0,PhaseCorrectionAve,5.74e-07,CHCGILDTO6Y
MA6813400180,h_OCHCTP,10-L1-1,2019-01-22 15:30:00.0,BerPreFecMax,0.00135,CHCGILDTO6Y
MA6813400180,h_OCHCTP,10-L1-1,2019-01-22 15:30:00.0,PmdMin,2.09,CHCGILDTO6Y
MA6813400180,h_OCHCTP,10-L1-1,2019-01-22 15:30:00.0,SoPmdAve,3387.55,CHCGILDTO6Y
MA6813400180,h_OCHCTP,10-L1-1,2019-01-22 15:45:00.0,Qmin,9.54,CHCGILDTO6Y
MA6813400180,h_OCHCTP,10-L1-1,2019-01-22 15:45:00.0,PhaseCorrectionAve,5.71e-07,CHCGILDTO6Y
MA6813400180,h_OCHCTP,10-L1-1,2019-01-22 15:45:00.0,BerPreFecMax,0.00135,CHCGILDTO6Y
MA6813400180,h_OCHCTP,10-L1-1,2019-01-22 15:45:00.0,PmdMin,3.82,CHCGILDTO6Y
MA6813400180,h_OCHCTP,10-L1-1,2019-01-22 15:45:00.0,SoPmdAve,3387.43,CHCGILDTO6Y
MA6813400180,h_OCHCTP,10-L1-2,2019-01-22 15:15:00.0,Qmin,9.24,CHCGILDTO6Y
MA6813400180,h_OCHCTP,10-L1-2,2019-01-22 15:15:00.0,PhaseCorrectionAve,-0.061,CHCGILDTO6Y
MA6813400180,h_OCHCTP,10-L1-2,2019-01-22 15:15:00.0,BerPreFecMax,0.00188,CHCGILDTO6Y
MA6813400180,h_OCHCTP,10-L1-2,2019-01-22 15:15:00.0,PmdMin,1.2,CHCGILDTO6Y
MA6813400180,h_OCHCTP,10-L1-2,2019-01-22 15:15:00.0,SoPmdAve,3362.72,CHCGILDTO6Y
MA6813400180,h_OCHCTP,10-L1-2,2019-01-22 15:30:00.0,Qmin,9.25,CHCGILDTO6Y
MA6813400180,h_OCHCTP,10-L1-2,2019-01-22 15:30:00.0,PhaseCorrectionAve,-0.061,CHCGILDTO6Y
MA6813400180,h_OCHCTP,10-L1-2,2019-01-22 15:30:00.0,BerPreFecMax,0.00185,CHCGILDTO6Y
MA6813400180,h_OCHCTP,10-L1-2,2019-01-22 15:30:00.0,PmdMin,1.39,CHCGILDTO6Y
MA6813400180,h_OCHCTP,10-L1-2,2019-01-22 15:30:00.0,SoPmdAve,3299.22,CHCGILDTO6Y
MA6813400180,h_OCHCTP,10-L1-2,2019-01-22 15:45:00.0,Qmin,9.25,CHCGILDTO6Y
MA6813400180,h_OCHCTP,10-L1-2,2019-01-22 15:45:00.0,PhaseCorrectionAve,3.56e-07,CHCGILDTO6Y
MA6813400180,h_OCHCTP,10-L1-2,2019-01-22 15:45:00.0,BerPreFecMax,0.00187,CHCGILDTO6Y
MA6813400180,h_OCHCTP,10-L1-2,2019-01-22 15:45:00.0,PmdMin,1.42,CHCGILDTO6Y
MA6813400180,h_OCHCTP,10-L1-2,2019-01-22 15:45:00.0,SoPmdAve,3360.59,CHCGILDTO6Y
MA6813400180,h_OCHCTP,10-L1-3,2019-01-22 15:15:00.0,Qmin,9.03,CHCGILDTO6Y
MA6813400180,h_OCHCTP,10-L1-3,2019-01-22 15:15:00.0,PhaseCorrectionAve,-0.061,CHCGILDTO6Y
MA6813400180,h_OCHCTP,10-L1-3,2019-01-22 15:15:00.0,BerPreFecMax,0.00234,CHCGILDTO6Y
MA6813400180,h_OCHCTP,10-L1-3,2019-01-22 15:15:00.0,PmdMin,2.51,CHCGILDTO6Y
MA6813400180,h_OCHCTP,10-L1-3,2019-01-22 15:15:00.0,SoPmdAve,2857.93,CHCGILDTO6Y
MA6813400180,h_OCHCTP,10-L1-3,2019-01-22 15:30:00.0,Qmin,9.07,CHCGILDTO6Y
MA6813400180,h_OCHCTP,10-L1-3,2019-01-22 15:30:00.0,PhaseCorrectionAve,-0.122,CHCGILDTO6Y
MA6813400180,h_OCHCTP,10-L1-3,2019-01-22 15:30:00.0,BerPreFecMax,0.00225,CHCGILDTO6Y
MA6813400180,h_OCHCTP,10-L1-3,2019-01-22 15:30:00.0,PmdMin,2.57,CHCGILDTO6Y
MA6813400180,h_OCHCTP,10-L1-3,2019-01-22 15:30:00.0,SoPmdAve,2783.41,CHCGILDTO6Y
MA6813400180,h_OCHCTP,10-L1-3,2019-01-22 15:45:00.0,Qmin,9.05,CHCGILDTO6Y
MA6813400180,h_OCHCTP,10-L1-3,2019-01-22 15:45:00.0,PhaseCorrectionAve,4.61e-07,CHCGILDTO6Y
MA6813400180,h_OCHCTP,10-L1-3,2019-01-22 15:45:00.0,BerPreFecMax,0.0023,CHCGILDTO6Y
MA6813400180,h_OCHCTP,10-L1-3,2019-01-22 15:45:00.0,PmdMin,0.88,CHCGILDTO6Y
MA6813400180,h_OCHCTP,10-L1-3,2019-01-22 15:45:00.0,SoPmdAve,2803.91,CHCGILDTO6Y
MA6813400180,h_OCHCTP,10-L1-4,2019-01-22 15:15:00.0,Qmin,8.54,CHCGILDTO6Y
MA6813400180,h_OCHCTP,10-L1-4,2019-01-22 15:15:00.0,PhaseCorrectionAve,-0.061,CHCGILDTO6Y
MA6813400180,h_OCHCTP,10-L1-4,2019-01-22 15:15:00.0,BerPreFecMax,0.00377,CHCGILDTO6Y
MA6813400180,h_OCHCTP,10-L1-4,2019-01-22 15:15:00.0,PmdMin,3.2,CHCGILDTO6Y
MA6813400180,h_OCHCTP,10-L1-4,2019-01-22 15:15:00.0,SoPmdAve,3037.16,CHCGILDTO6Y
MA6813400180,h_OCHCTP,10-L1-4,2019-01-22 15:30:00.0,Qmin,8.55,CHCGILDTO6Y
MA6813400180,h_OCHCTP,10-L1-4,2019-01-22 15:30:00.0,PhaseCorrectionAve,-0.122,CHCGILDTO6Y
MA6813400180,h_OCHCTP,10-L1-4,2019-01-22 15:30:00.0,BerPreFecMax,0.00371,CHCGILDTO6Y
MA6813400180,h_OCHCTP,10-L1-4,2019-01-22 15:30:00.0,PmdMin,1.42,CHCGILDTO6Y
MA6813400180,h_OCHCTP,10-L1-4,2019-01-22 15:30:00.0,SoPmdAve,3112.16,CHCGILDTO6Y
MA6813400180,h_OCHCTP,10-L1-4,2019-01-22 15:45:00.0,Qmin,8.56,CHCGILDTO6Y
MA6813400180,h_OCHCTP,10-L1-4,2019-01-22 15:45:00.0,PhaseCorrectionAve,-0.061,CHCGILDTO6Y
MA6813400180,h_OCHCTP,10-L1-4,2019-01-22 15:45:00.0,BerPreFecMax,0.0037,CHCGILDTO6Y
MA6813400180,h_OCHCTP,10-L1-4,2019-01-22 15:45:00.0,PmdMin,5.01,CHCGILDTO6Y
MA6813400180,h_OCHCTP,10-L1-4,2019-01-22 15:45:00.0,SoPmdAve,3020.07,CHCGILDTO6Y
MA6813400180,h_OCHCTP,10-L1-5,2019-01-22 15:15:00.0,Qmin,8.71,CHCGILDTO6Y
MA6813400180,h_OCHCTP,10-L1-5,2019-01-22 15:15:00.0,PhaseCorrectionAve,-0.061,CHCGILDTO6Y
MA6813400180,h_OCHCTP,10-L1-5,2019-01-22 15:15:00.0,BerPreFecMax,0.00321,CHCGILDTO6Y
MA6813400180,h_OCHCTP,10-L1-5,2019-01-22 15:15:00.0,PmdMin,3.02,CHCGILDTO6Y
MA6813400180,h_OCHCTP,10-L1-5,2019-01-22 15:15:00.0,SoPmdAve,2766.4,CHCGILDTO6Y
MA6813400180,h_OCHCTP,10-L1-5,2019-01-22 15:30:00.0,Qmin,8.72,CHCGILDTO6Y
MA6813400180,h_OCHCTP,10-L1-5,2019-01-22 15:30:00.0,PhaseCorrectionAve,-0.122,CHCGILDTO6Y
MA6813400180,h_OCHCTP,10-L1-5,2019-01-22 15:30:00.0,BerPreFecMax,0.00319,CHCGILDTO6Y
MA6813400180,h_OCHCTP,10-L1-5,2019-01-22 15:30:00.0,PmdMin,1.34,CHCGILDTO6Y
MA6813400180,h_OCHCTP,10-L1-5,2019-01-22 15:30:00.0,SoPmdAve,2786.84,CHCGILDTO6Y
MA6813400180,h_OCHCTP,10-L1-5,2019-01-22 15:45:00.0,Qmin,8.71,CHCGILDTO6Y
MA6813400180,h_OCHCTP,10-L1-5,2019-01-22 15:45:00.0,PhaseCorrectionAve,-0.061,CHCGILDTO6Y
MA6813400180,h_OCHCTP,10-L1-5,2019-01-22 15:45:00.0,BerPreFecMax,0.00321,CHCGILDTO6Y
MA6813400180,h_OCHCTP,10-L1-5,2019-01-22 15:45:00.0,PmdMin,5.31,CHCGILDTO6Y
MA6813400180,h_OCHCTP,10-L1-5,2019-01-22 15:45:00.0,SoPmdAve,2807.29,CHCGILDTO6Y
MA6813400180,h_OCHCTP,10-L1-6,2019-01-22 15:15:00.0,Qmin,8.87,CHCGILDTO6Y
MA6813400180,h_OCHCTP,10-L1-6,2019-01-22 15:15:00.0,PhaseCorrectionAve,-0.061,CHCGILDTO6Y
MA6813400180,h_OCHCTP,10-L1-6,2019-01-22 15:15:00.0,BerPreFecMax,0.00274,CHCGILDTO6Y
MA6813400180,h_OCHCTP,10-L1-6,2019-01-22 15:15:00.0,PmdMin,1.68,CHCGILDTO6Y
MA6813400180,h_OCHCTP,10-L1-6,2019-01-22 15:15:00.0,SoPmdAve,2864.22,CHCGILDTO6Y
MA6813400180,h_OCHCTP,10-L1-6,2019-01-22 15:30:00.0,Qmin,8.87,CHCGILDTO6Y
MA6813400180,h_OCHCTP,10-L1-6,2019-01-22 15:30:00.0,PhaseCorrectionAve,-0.122,CHCGILDTO6Y
MA6813400180,h_OCHCTP,10-L1-6,2019-01-22 15:30:00.0,BerPreFecMax,0.00274,CHCGILDTO6Y
MA6813400180,h_OCHCTP,10-L1-6,2019-01-22 15:30:00.0,PmdMin,1.28,CHCGILDTO6Y
MA6813400180,h_OCHCTP,10-L1-6,2019-01-22 15:30:00.0,SoPmdAve,2852.78,CHCGILDTO6Y
MA6813400180,h_OCHCTP,10-L1-6,2019-01-22 15:45:00.0,Qmin,8.89,CHCGILDTO6Y
MA6813400180,h_OCHCTP,10-L1-6,2019-01-22 15:45:00.0,PhaseCorrectionAve,-0.061,CHCGILDTO6Y
MA6813400180,h_OCHCTP,10-L1-6,2019-01-22 15:45:00.0,BerPreFecMax,0.0027,CHCGILDTO6Y
MA6813400180,h_OCHCTP,10-L1-6,2019-01-22 15:45:00.0,PmdMin,0.89,CHCGILDTO6Y
MA6813400180,h_OCHCTP,10-L1-6,2019-01-22 15:45:00.0,SoPmdAve,2745.47,CHCGILDTO6Y
MA6813400180,h_OCHCTP,10-L1-7,2019-01-22 15:15:00.0,Qmin,8.93,CHCGILDTO6Y
MA6813400180,h_OCHCTP,10-L1-7,2019-01-22 15:15:00.0,PhaseCorrectionAve,-0.061,CHCGILDTO6Y
MA6813400180,h_OCHCTP,10-L1-7,2019-01-22 15:15:00.0,BerPreFecMax,0.0026,CHCGILDTO6Y
MA6813400180,h_OCHCTP,10-L1-7,2019-01-22 15:15:00.0,PmdMin,0.879,CHCGILDTO6Y
MA6813400180,h_OCHCTP,10-L1-7,2019-01-22 15:15:00.0,SoPmdAve,3415.98,CHCGILDTO6Y
MA6813400180,h_OCHCTP,10-L1-7,2019-01-22 15:30:00.0,Qmin,8.92,CHCGILDTO6Y
MA6813400180,h_OCHCTP,10-L1-7,2019-01-22 15:30:00.0,PhaseCorrectionAve,-0.122,CHCGILDTO6Y
MA6813400180,h_OCHCTP,10-L1-7,2019-01-22 15:30:00.0,BerPreFecMax,0.00263,CHCGILDTO6Y
MA6813400180,h_OCHCTP,10-L1-7,2019-01-22 15:30:00.0,PmdMin,1.2,CHCGILDTO6Y
MA6813400180,h_OCHCTP,10-L1-7,2019-01-22 15:30:00.0,SoPmdAve,3499.6,CHCGILDTO6Y
MA6813400180,h_OCHCTP,10-L1-7,2019-01-22 15:45:00.0,Qmin,8.94,CHCGILDTO6Y
MA6813400180,h_OCHCTP,10-L1-7,2019-01-22 15:45:00.0,PhaseCorrectionAve,-0.061,CHCGILDTO6Y
MA6813400180,h_OCHCTP,10-L1-7,2019-01-22 15:45:00.0,BerPreFecMax,0.00257,CHCGILDTO6Y
MA6813400180,h_OCHCTP,10-L1-7,2019-01-22 15:45:00.0,PmdMin,1.87,CHCGILDTO6Y
MA6813400180,h_OCHCTP,10-L1-7,2019-01-22 15:45:00.0,SoPmdAve,3511.21,CHCGILDTO6Y
MA6813400180,h_OCHCTP,10-L1-8,2019-01-22 15:15:00.0,Qmin,9.3,CHCGILDTO6Y
MA6813400180,h_OCHCTP,10-L1-8,2019-01-22 15:15:00.0,PhaseCorrectionAve,-0.061,CHCGILDTO6Y
MA6813400180,h_OCHCTP,10-L1-8,2019-01-22 15:15:00.0,BerPreFecMax,0.00176,CHCGILDTO6Y
MA6813400180,h_OCHCTP,10-L1-8,2019-01-22 15:15:00.0,PmdMin,2.59,CHCGILDTO6Y
MA6813400180,h_OCHCTP,10-L1-8,2019-01-22 15:15:00.0,SoPmdAve,3520.51,CHCGILDTO6Y
MA6813400180,h_OCHCTP,10-L1-8,2019-01-22 15:30:00.0,Qmin,9.32,CHCGILDTO6Y
MA6813400180,h_OCHCTP,10-L1-8,2019-01-22 15:30:00.0,PhaseCorrectionAve,-0.183,CHCGILDTO6Y
MA6813400180,h_OCHCTP,10-L1-8,2019-01-22 15:30:00.0,BerPreFecMax,0.00172,CHCGILDTO6Y
MA6813400180,h_OCHCTP,10-L1-8,2019-01-22 15:30:00.0,PmdMin,0.365,CHCGILDTO6Y
MA6813400180,h_OCHCTP,10-L1-8,2019-01-22 15:30:00.0,SoPmdAve,3466.09,CHCGILDTO6Y
MA6813400180,h_OCHCTP,10-L1-8,2019-01-22 15:45:00.0,Qmin,9.33,CHCGILDTO6Y
MA6813400180,h_OCHCTP,10-L1-8,2019-01-22 15:45:00.0,PhaseCorrectionAve,-0.061,CHCGILDTO6Y
MA6813400180,h_OCHCTP,10-L1-8,2019-01-22 15:45:00.0,BerPreFecMax,0.00171,CHCGILDTO6Y
MA6813400180,h_OCHCTP,10-L1-8,2019-01-22 15:45:00.0,PmdMin,1.51,CHCGILDTO6Y
MA6813400180,h_OCHCTP,10-L1-8,2019-01-22 15:45:00.0,SoPmdAve,3347.29,CHCGILDTO6Y
MA6813400180,h_OCHCTP,10-L1-9,2019-01-22 15:15:00.0,Qmin,9.31,CHCGILDTO6Y
MA6813400180,h_OCHCTP,10-L1-9,2019-01-22 15:15:00.0,PhaseCorrectionAve,-0.061,CHCGILDTO6Y
MA6813400180,h_OCHCTP,10-L1-9,2019-01-22 15:15:00.0,BerPreFecMax,0.00175,CHCGILDTO6Y
MA6813400180,h_OCHCTP,10-L1-9,2019-01-22 15:15:00.0,PmdMin,1.41,CHCGILDTO6Y
MA6813400180,h_OCHCTP,10-L1-9,2019-01-22 15:15:00.0,SoPmdAve,3629.98,CHCGILDTO6Y
MA6813400180,h_OCHCTP,10-L1-9,2019-01-22 15:30:00.0,Qmin,9.32,CHCGILDTO6Y
MA6813400180,h_OCHCTP,10-L1-9,2019-01-22 15:30:00.0,PhaseCorrectionAve,-0.244,CHCGILDTO6Y
MA6813400180,h_OCHCTP,10-L1-9,2019-01-22 15:30:00.0,BerPreFecMax,0.00173,CHCGILDTO6Y
MA6813400180,h_OCHCTP,10-L1-9,2019-01-22 15:30:00.0,PmdMin,0.523,CHCGILDTO6Y
MA6813400180,h_OCHCTP,10-L1-9,2019-01-22 15:30:00.0,SoPmdAve,3399.51,CHCGILDTO6Y
MA6813400180,h_OCHCTP,10-L1-9,2019-01-22 15:45:00.0,Qmin,9.32,CHCGILDTO6Y
MA6813400180,h_OCHCTP,10-L1-9,2019-01-22 15:45:00.0,PhaseCorrectionAve,-0.061,CHCGILDTO6Y
MA6813400180,h_OCHCTP,10-L1-9,2019-01-22 15:45:00.0,BerPreFecMax,0.00172,CHCGILDTO6Y
MA6813400180,h_OCHCTP,10-L1-9,2019-01-22 15:45:00.0,PmdMin,0.915,CHCGILDTO6Y
MA6813400180,h_OCHCTP,10-L1-9,2019-01-22 15:45:00.0,SoPmdAve,3408.7,CHCGILDTO6Y
MA6813400180,h_OCHCTP,10-L1-10,2019-01-22 15:15:00.0,Qmin,9.34,CHCGILDTO6Y
MA6813400180,h_OCHCTP,10-L1-10,2019-01-22 15:15:00.0,PhaseCorrectionAve,-0.061,CHCGILDTO6Y
MA6813400180,h_OCHCTP,10-L1-10,2019-01-22 15:15:00.0,BerPreFecMax,0.00169,CHCGILDTO6Y
MA6813400180,h_OCHCTP,10-L1-10,2019-01-22 15:15:00.0,PmdMin,3.29,CHCGILDTO6Y
MA6813400180,h_OCHCTP,10-L1-10,2019-01-22 15:15:00.0,SoPmdAve,3328.36,CHCGILDTO6Y
MA6813400180,h_OCHCTP,10-L1-10,2019-01-22 15:30:00.0,Qmin,9.36,CHCGILDTO6Y
MA6813400180,h_OCHCTP,10-L1-10,2019-01-22 15:30:00.0,PhaseCorrectionAve,-0.244,CHCGILDTO6Y
MA6813400180,h_OCHCTP,10-L1-10,2019-01-22 15:30:00.0,BerPreFecMax,0.00164,CHCGILDTO6Y
MA6813400180,h_OCHCTP,10-L1-10,2019-01-22 15:30:00.0,PmdMin,2.13,CHCGILDTO6Y
MA6813400180,h_OCHCTP,10-L1-10,2019-01-22 15:30:00.0,SoPmdAve,3194.03,CHCGILDTO6Y
MA6813400180,h_OCHCTP,10-L1-10,2019-01-22 15:45:00.0,Qmin,9.37,CHCGILDTO6Y
MA6813400180,h_OCHCTP,10-L1-10,2019-01-22 15:45:00.0,PhaseCorrectionAve,-0.061,CHCGILDTO6Y
MA6813400180,h_OCHCTP,10-L1-10,2019-01-22 15:45:00.0,BerPreFecMax,0.00164,CHCGILDTO6Y
MA6813400180,h_OCHCTP,10-L1-10,2019-01-22 15:45:00.0,PmdMin,2.23,CHCGILDTO6Y
MA6813400180,h_OCHCTP,10-L1-10,2019-01-22 15:45:00.0,SoPmdAve,3246.38,CHCGILDTO6Y
MA6813400180,h_OCHCTP,11-L1-1,2019-01-22 15:15:00.0,Qmin,9.06,CHCGILDTO6Y
MA6813400180,h_OCHCTP,11-L1-1,2019-01-22 15:15:00.0,PhaseCorrectionAve,1.94e-07,CHCGILDTO6Y
MA6813400180,h_OCHCTP,11-L1-1,2019-01-22 15:15:00.0,BerPreFecMax,0.00227,CHCGILDTO6Y
MA6813400180,h_OCHCTP,11-L1-1,2019-01-22 15:15:00.0,PmdMin,0.856,CHCGILDTO6Y
MA6813400180,h_OCHCTP,11-L1-1,2019-01-22 15:15:00.0,SoPmdAve,3386.22,CHCGILDTO6Y
MA6813400180,h_OCHCTP,11-L1-1,2019-01-22 15:30:00.0,Qmin,9.03,CHCGILDTO6Y
MA6813400180,h_OCHCTP,11-L1-1,2019-01-22 15:30:00.0,PhaseCorrectionAve,1.59e-07,CHCGILDTO6Y
MA6813400180,h_OCHCTP,11-L1-1,2019-01-22 15:30:00.0,BerPreFecMax,0.00235,CHCGILDTO6Y
MA6813400180,h_OCHCTP,11-L1-1,2019-01-22 15:30:00.0,PmdMin,0.732,CHCGILDTO6Y
MA6813400180,h_OCHCTP,11-L1-1,2019-01-22 15:30:00.0,SoPmdAve,3357.33,CHCGILDTO6Y
MA6813400180,h_OCHCTP,11-L1-1,2019-01-22 15:45:00.0,Qmin,9.08,CHCGILDTO6Y
MA6813400180,h_OCHCTP,11-L1-1,2019-01-22 15:45:00.0,PhaseCorrectionAve,-0.183,CHCGILDTO6Y
MA6813400180,h_OCHCTP,11-L1-1,2019-01-22 15:45:00.0,BerPreFecMax,0.00223,CHCGILDTO6Y
MA6813400180,h_OCHCTP,11-L1-1,2019-01-22 15:45:00.0,PmdMin,1.07,CHCGILDTO6Y
MA6813400180,h_OCHCTP,11-L1-1,2019-01-22 15:45:00.0,SoPmdAve,3248.17,CHCGILDTO6Y
MA6813400180,h_OCHCTP,11-L1-2,2019-01-22 15:15:00.0,Qmin,8.95,CHCGILDTO6Y
MA6813400180,h_OCHCTP,11-L1-2,2019-01-22 15:15:00.0,PhaseCorrectionAve,4.94e-07,CHCGILDTO6Y
MA6813400180,h_OCHCTP,11-L1-2,2019-01-22 15:15:00.0,BerPreFecMax,0.00254,CHCGILDTO6Y
MA6813400180,h_OCHCTP,11-L1-2,2019-01-22 15:15:00.0,PmdMin,0.309,CHCGILDTO6Y
MA6813400180,h_OCHCTP,11-L1-2,2019-01-22 15:15:00.0,SoPmdAve,3225.93,CHCGILDTO6Y
MA6813400180,h_OCHCTP,11-L1-2,2019-01-22 15:30:00.0,Qmin,8.98,CHCGILDTO6Y
MA6813400180,h_OCHCTP,11-L1-2,2019-01-22 15:30:00.0,PhaseCorrectionAve,-0.122,CHCGILDTO6Y
MA6813400180,h_OCHCTP,11-L1-2,2019-01-22 15:30:00.0,BerPreFecMax,0.00246,CHCGILDTO6Y
MA6813400180,h_OCHCTP,11-L1-2,2019-01-22 15:30:00.0,PmdMin,0.621,CHCGILDTO6Y
MA6813400180,h_OCHCTP,11-L1-2,2019-01-22 15:30:00.0,SoPmdAve,3201.66,CHCGILDTO6Y
MA6813400180,h_OCHCTP,11-L1-2,2019-01-22 15:45:00.0,Qmin,8.93,CHCGILDTO6Y
MA6813400180,h_OCHCTP,11-L1-2,2019-01-22 15:45:00.0,PhaseCorrectionAve,-0.183,CHCGILDTO6Y
MA6813400180,h_OCHCTP,11-L1-2,2019-01-22 15:45:00.0,BerPreFecMax,0.00259,CHCGILDTO6Y
MA6813400180,h_OCHCTP,11-L1-2,2019-01-22 15:45:00.0,PmdMin,0.206,CHCGILDTO6Y
MA6813400180,h_OCHCTP,11-L1-2,2019-01-22 15:45:00.0,SoPmdAve,3138.95,CHCGILDTO6Y
MA6813400180,h_OCHCTP,11-L1-3,2019-01-22 15:15:00.0,Qmin,8.93,CHCGILDTO6Y
MA6813400180,h_OCHCTP,11-L1-3,2019-01-22 15:15:00.0,PhaseCorrectionAve,-0.061,CHCGILDTO6Y
MA6813400180,h_OCHCTP,11-L1-3,2019-01-22 15:15:00.0,BerPreFecMax,0.00259,CHCGILDTO6Y
MA6813400180,h_OCHCTP,11-L1-3,2019-01-22 15:15:00.0,PmdMin,1.0,CHCGILDTO6Y
MA6813400180,h_OCHCTP,11-L1-3,2019-01-22 15:15:00.0,SoPmdAve,2734.31,CHCGILDTO6Y
MA6813400180,h_OCHCTP,11-L1-3,2019-01-22 15:30:00.0,Qmin,8.88,CHCGILDTO6Y
MA6813400180,h_OCHCTP,11-L1-3,2019-01-22 15:30:00.0,PhaseCorrectionAve,-0.122,CHCGILDTO6Y
MA6813400180,h_OCHCTP,11-L1-3,2019-01-22 15:30:00.0,BerPreFecMax,0.00272,CHCGILDTO6Y
MA6813400180,h_OCHCTP,11-L1-3,2019-01-22 15:30:00.0,PmdMin,0.33,CHCGILDTO6Y
MA6813400180,h_OCHCTP,11-L1-3,2019-01-22 15:30:00.0,SoPmdAve,2681.87,CHCGILDTO6Y
MA6813400180,h_OCHCTP,11-L1-3,2019-01-22 15:45:00.0,Qmin,8.92,CHCGILDTO6Y
MA6813400180,h_OCHCTP,11-L1-3,2019-01-22 15:45:00.0,PhaseCorrectionAve,-0.183,CHCGILDTO6Y
MA6813400180,h_OCHCTP,11-L1-3,2019-01-22 15:45:00.0,BerPreFecMax,0.00261,CHCGILDTO6Y
MA6813400180,h_OCHCTP,11-L1-3,2019-01-22 15:45:00.0,PmdMin,1.07,CHCGILDTO6Y
MA6813400180,h_OCHCTP,11-L1-3,2019-01-22 15:45:00.0,SoPmdAve,2707.15,CHCGILDTO6Y
MA6813400180,h_OCHCTP,11-L1-4,2019-01-22 15:15:00.0,Qmin,8.79,CHCGILDTO6Y
MA6813400180,h_OCHCTP,11-L1-4,2019-01-22 15:15:00.0,PhaseCorrectionAve,-0.061,CHCGILDTO6Y
MA6813400180,h_OCHCTP,11-L1-4,2019-01-22 15:15:00.0,BerPreFecMax,0.00296,CHCGILDTO6Y
MA6813400180,h_OCHCTP,11-L1-4,2019-01-22 15:15:00.0,PmdMin,0.557,CHCGILDTO6Y
MA6813400180,h_OCHCTP,11-L1-4,2019-01-22 15:15:00.0,SoPmdAve,2959.41,CHCGILDTO6Y
MA6813400180,h_OCHCTP,11-L1-4,2019-01-22 15:30:00.0,Qmin,8.69,CHCGILDTO6Y
MA6813400180,h_OCHCTP,11-L1-4,2019-01-22 15:30:00.0,PhaseCorrectionAve,-0.122,CHCGILDTO6Y
MA6813400180,h_OCHCTP,11-L1-4,2019-01-22 15:30:00.0,BerPreFecMax,0.00326,CHCGILDTO6Y
MA6813400180,h_OCHCTP,11-L1-4,2019-01-22 15:30:00.0,PmdMin,1.07,CHCGILDTO6Y
MA6813400180,h_OCHCTP,11-L1-4,2019-01-22 15:30:00.0,SoPmdAve,2991.81,CHCGILDTO6Y
MA6813400180,h_OCHCTP,11-L1-4,2019-01-22 15:45:00.0,Qmin,8.75,CHCGILDTO6Y
MA6813400180,h_OCHCTP,11-L1-4,2019-01-22 15:45:00.0,PhaseCorrectionAve,-0.243,CHCGILDTO6Y
MA6813400180,h_OCHCTP,11-L1-4,2019-01-22 15:45:00.0,BerPreFecMax,0.0031,CHCGILDTO6Y
MA6813400180,h_OCHCTP,11-L1-4,2019-01-22 15:45:00.0,PmdMin,0.875,CHCGILDTO6Y
MA6813400180,h_OCHCTP,11-L1-4,2019-01-22 15:45:00.0,SoPmdAve,2977.03,CHCGILDTO6Y
MA6813400180,h_OCHCTP,11-L1-5,2019-01-22 15:15:00.0,Qmin,8.88,CHCGILDTO6Y
MA6813400180,h_OCHCTP,11-L1-5,2019-01-22 15:15:00.0,PhaseCorrectionAve,-0.061,CHCGILDTO6Y
MA6813400180,h_OCHCTP,11-L1-5,2019-01-22 15:15:00.0,BerPreFecMax,0.00273,CHCGILDTO6Y
MA6813400180,h_OCHCTP,11-L1-5,2019-01-22 15:15:00.0,PmdMin,0.872,CHCGILDTO6Y
MA6813400180,h_OCHCTP,11-L1-5,2019-01-22 15:15:00.0,SoPmdAve,2522.43,CHCGILDTO6Y
MA6813400180,h_OCHCTP,11-L1-5,2019-01-22 15:30:00.0,Qmin,8.8,CHCGILDTO6Y
MA6813400180,h_OCHCTP,11-L1-5,2019-01-22 15:30:00.0,PhaseCorrectionAve,-0.122,CHCGILDTO6Y
MA6813400180,h_OCHCTP,11-L1-5,2019-01-22 15:30:00.0,BerPreFecMax,0.00295,CHCGILDTO6Y
MA6813400180,h_OCHCTP,11-L1-5,2019-01-22 15:30:00.0,PmdMin,0.865,CHCGILDTO6Y
MA6813400180,h_OCHCTP,11-L1-5,2019-01-22 15:30:00.0,SoPmdAve,2500.44,CHCGILDTO6Y
MA6813400180,h_OCHCTP,11-L1-5,2019-01-22 15:45:00.0,Qmin,8.81,CHCGILDTO6Y
MA6813400180,h_OCHCTP,11-L1-5,2019-01-22 15:45:00.0,PhaseCorrectionAve,-0.243,CHCGILDTO6Y
MA6813400180,h_OCHCTP,11-L1-5,2019-01-22 15:45:00.0,BerPreFecMax,0.0029,CHCGILDTO6Y
MA6813400180,h_OCHCTP,11-L1-5,2019-01-22 15:45:00.0,PmdMin,1.09,CHCGILDTO6Y
MA6813400180,h_OCHCTP,11-L1-5,2019-01-22 15:45:00.0,SoPmdAve,2553.33,CHCGILDTO6Y
MA6813400180,h_OCHCTP,11-L1-6,2019-01-22 15:15:00.0,Qmin,8.81,CHCGILDTO6Y
MA6813400180,h_OCHCTP,11-L1-6,2019-01-22 15:15:00.0,PhaseCorrectionAve,-0.122,CHCGILDTO6Y
MA6813400180,h_OCHCTP,11-L1-6,2019-01-22 15:15:00.0,BerPreFecMax,0.0029,CHCGILDTO6Y
MA6813400180,h_OCHCTP,11-L1-6,2019-01-22 15:15:00.0,PmdMin,1.26,CHCGILDTO6Y
MA6813400180,h_OCHCTP,11-L1-6,2019-01-22 15:15:00.0,SoPmdAve,2446.02,CHCGILDTO6Y
MA6813400180,h_OCHCTP,11-L1-6,2019-01-22 15:30:00.0,Qmin,8.69,CHCGILDTO6Y
MA6813400180,h_OCHCTP,11-L1-6,2019-01-22 15:30:00.0,PhaseCorrectionAve,-0.183,CHCGILDTO6Y
MA6813400180,h_OCHCTP,11-L1-6,2019-01-22 15:30:00.0,BerPreFecMax,0.00328,CHCGILDTO6Y
MA6813400180,h_OCHCTP,11-L1-6,2019-01-22 15:30:00.0,PmdMin,0.82,CHCGILDTO6Y
MA6813400180,h_OCHCTP,11-L1-6,2019-01-22 15:30:00.0,SoPmdAve,2534.83,CHCGILDTO6Y
MA6813400180,h_OCHCTP,11-L1-6,2019-01-22 15:45:00.0,Qmin,8.71,CHCGILDTO6Y
MA6813400180,h_OCHCTP,11-L1-6,2019-01-22 15:45:00.0,PhaseCorrectionAve,-0.243,CHCGILDTO6Y
MA6813400180,h_OCHCTP,11-L1-6,2019-01-22 15:45:00.0,BerPreFecMax,0.0032,CHCGILDTO6Y
MA6813400180,h_OCHCTP,11-L1-6,2019-01-22 15:45:00.0,PmdMin,0.942,CHCGILDTO6Y
MA6813400180,h_OCHCTP,11-L1-6,2019-01-22 15:45:00.0,SoPmdAve,2507.81,CHCGILDTO6Y
MA6813400180,h_OCHCTP,11-L1-7,2019-01-22 15:15:00.0,Qmin,8.88,CHCGILDTO6Y
MA6813400180,h_OCHCTP,11-L1-7,2019-01-22 15:15:00.0,PhaseCorrectionAve,-0.183,CHCGILDTO6Y
MA6813400180,h_OCHCTP,11-L1-7,2019-01-22 15:15:00.0,BerPreFecMax,0.00271,CHCGILDTO6Y
MA6813400180,h_OCHCTP,11-L1-7,2019-01-22 15:15:00.0,PmdMin,0.797,CHCGILDTO6Y
MA6813400180,h_OCHCTP,11-L1-7,2019-01-22 15:15:00.0,SoPmdAve,3040.79,CHCGILDTO6Y
MA6813400180,h_OCHCTP,11-L1-7,2019-01-22 15:30:00.0,Qmin,8.85,CHCGILDTO6Y
MA6813400180,h_OCHCTP,11-L1-7,2019-01-22 15:30:00.0,PhaseCorrectionAve,-0.183,CHCGILDTO6Y
MA6813400180,h_OCHCTP,11-L1-7,2019-01-22 15:30:00.0,BerPreFecMax,0.0028,CHCGILDTO6Y
MA6813400180,h_OCHCTP,11-L1-7,2019-01-22 15:30:00.0,PmdMin,0.765,CHCGILDTO6Y
MA6813400180,h_OCHCTP,11-L1-7,2019-01-22 15:30:00.0,SoPmdAve,3072.32,CHCGILDTO6Y
MA6813400180,h_OCHCTP,11-L1-7,2019-01-22 15:45:00.0,Qmin,8.72,CHCGILDTO6Y
MA6813400180,h_OCHCTP,11-L1-7,2019-01-22 15:45:00.0,PhaseCorrectionAve,-0.243,CHCGILDTO6Y
MA6813400180,h_OCHCTP,11-L1-7,2019-01-22 15:45:00.0,BerPreFecMax,0.00318,CHCGILDTO6Y
MA6813400180,h_OCHCTP,11-L1-7,2019-01-22 15:45:00.0,PmdMin,0.716,CHCGILDTO6Y
MA6813400180,h_OCHCTP,11-L1-7,2019-01-22 15:45:00.0,SoPmdAve,3023.39,CHCGILDTO6Y
MA6813400180,h_OCHCTP,11-L1-8,2019-01-22 15:15:00.0,Qmin,8.88,CHCGILDTO6Y
MA6813400180,h_OCHCTP,11-L1-8,2019-01-22 15:15:00.0,PhaseCorrectionAve,-0.183,CHCGILDTO6Y
MA6813400180,h_OCHCTP,11-L1-8,2019-01-22 15:15:00.0,BerPreFecMax,0.00273,CHCGILDTO6Y
MA6813400180,h_OCHCTP,11-L1-8,2019-01-22 15:15:00.0,PmdMin,0.623,CHCGILDTO6Y
MA6813400180,h_OCHCTP,11-L1-8,2019-01-22 15:15:00.0,SoPmdAve,3037.63,CHCGILDTO6Y
MA6813400180,h_OCHCTP,11-L1-8,2019-01-22 15:30:00.0,Qmin,8.93,CHCGILDTO6Y
MA6813400180,h_OCHCTP,11-L1-8,2019-01-22 15:30:00.0,PhaseCorrectionAve,-0.183,CHCGILDTO6Y
MA6813400180,h_OCHCTP,11-L1-8,2019-01-22 15:30:00.0,BerPreFecMax,0.00259,CHCGILDTO6Y
MA6813400180,h_OCHCTP,11-L1-8,2019-01-22 15:30:00.0,PmdMin,0.626,CHCGILDTO6Y
MA6813400180,h_OCHCTP,11-L1-8,2019-01-22 15:30:00.0,SoPmdAve,3174.5,CHCGILDTO6Y
MA6813400180,h_OCHCTP,11-L1-8,2019-01-22 15:45:00.0,Qmin,8.84,CHCGILDTO6Y
MA6813400180,h_OCHCTP,11-L1-8,2019-01-22 15:45:00.0,PhaseCorrectionAve,-0.243,CHCGILDTO6Y
MA6813400180,h_OCHCTP,11-L1-8,2019-01-22 15:45:00.0,BerPreFecMax,0.00284,CHCGILDTO6Y
MA6813400180,h_OCHCTP,11-L1-8,2019-01-22 15:45:00.0,PmdMin,0.856,CHCGILDTO6Y
MA6813400180,h_OCHCTP,11-L1-8,2019-01-22 15:45:00.0,SoPmdAve,3151.38,CHCGILDTO6Y
MA6813400180,h_OCHCTP,11-L1-9,2019-01-22 15:15:00.0,Qmin,8.79,CHCGILDTO6Y
MA6813400180,h_OCHCTP,11-L1-9,2019-01-22 15:15:00.0,PhaseCorrectionAve,-0.183,CHCGILDTO6Y
MA6813400180,h_OCHCTP,11-L1-9,2019-01-22 15:15:00.0,BerPreFecMax,0.00296,CHCGILDTO6Y
MA6813400180,h_OCHCTP,11-L1-9,2019-01-22 15:15:00.0,PmdMin,0.925,CHCGILDTO6Y
MA6813400180,h_OCHCTP,11-L1-9,2019-01-22 15:15:00.0,SoPmdAve,3069.84,CHCGILDTO6Y
MA6813400180,h_OCHCTP,11-L1-9,2019-01-22 15:30:00.0,Qmin,8.86,CHCGILDTO6Y
MA6813400180,h_OCHCTP,11-L1-9,2019-01-22 15:30:00.0,PhaseCorrectionAve,-0.305,CHCGILDTO6Y
MA6813400180,h_OCHCTP,11-L1-9,2019-01-22 15:30:00.0,BerPreFecMax,0.00276,CHCGILDTO6Y
MA6813400180,h_OCHCTP,11-L1-9,2019-01-22 15:30:00.0,PmdMin,1.29,CHCGILDTO6Y
MA6813400180,h_OCHCTP,11-L1-9,2019-01-22 15:30:00.0,SoPmdAve,3091.76,CHCGILDTO6Y
MA6813400180,h_OCHCTP,11-L1-9,2019-01-22 15:45:00.0,Qmin,8.84,CHCGILDTO6Y
MA6813400180,h_OCHCTP,11-L1-9,2019-01-22 15:45:00.0,PhaseCorrectionAve,-0.243,CHCGILDTO6Y
MA6813400180,h_OCHCTP,11-L1-9,2019-01-22 15:45:00.0,BerPreFecMax,0.00283,CHCGILDTO6Y
MA6813400180,h_OCHCTP,11-L1-9,2019-01-22 15:45:00.0,PmdMin,1.1,CHCGILDTO6Y
MA6813400180,h_OCHCTP,11-L1-9,2019-01-22 15:45:00.0,SoPmdAve,3113.93,CHCGILDTO6Y
MA6813400180,h_OCHCTP,11-L1-10,2019-01-22 15:15:00.0,Qmin,8.9,CHCGILDTO6Y
MA6813400180,h_OCHCTP,11-L1-10,2019-01-22 15:15:00.0,PhaseCorrectionAve,-0.183,CHCGILDTO6Y
MA6813400180,h_OCHCTP,11-L1-10,2019-01-22 15:15:00.0,BerPreFecMax,0.00266,CHCGILDTO6Y
MA6813400180,h_OCHCTP,11-L1-10,2019-01-22 15:15:00.0,PmdMin,0.579,CHCGILDTO6Y
MA6813400180,h_OCHCTP,11-L1-10,2019-01-22 15:15:00.0,SoPmdAve,3049.85,CHCGILDTO6Y
MA6813400180,h_OCHCTP,11-L1-10,2019-01-22 15:30:00.0,Qmin,8.9,CHCGILDTO6Y
MA6813400180,h_OCHCTP,11-L1-10,2019-01-22 15:30:00.0,PhaseCorrectionAve,-0.305,CHCGILDTO6Y
MA6813400180,h_OCHCTP,11-L1-10,2019-01-22 15:30:00.0,BerPreFecMax,0.00267,CHCGILDTO6Y
MA6813400180,h_OCHCTP,11-L1-10,2019-01-22 15:30:00.0,PmdMin,1.01,CHCGILDTO6Y
MA6813400180,h_OCHCTP,11-L1-10,2019-01-22 15:30:00.0,SoPmdAve,3073.83,CHCGILDTO6Y
MA6813400180,h_OCHCTP,11-L1-10,2019-01-22 15:45:00.0,Qmin,8.93,CHCGILDTO6Y
MA6813400180,h_OCHCTP,11-L1-10,2019-01-22 15:45:00.0,PhaseCorrectionAve,-0.243,CHCGILDTO6Y
MA6813400180,h_OCHCTP,11-L1-10,2019-01-22 15:45:00.0,BerPreFecMax,0.00258,CHCGILDTO6Y
MA6813400180,h_OCHCTP,11-L1-10,2019-01-22 15:45:00.0,PmdMin,1.13,CHCGILDTO6Y
MA6813400180,h_OCHCTP,11-L1-10,2019-01-22 15:45:00.0,SoPmdAve,3030.67,CHCGILDTO6Y
MA6813400180,h_OCHCTP,13-L1-1,2019-01-22 15:15:00.0,Qmin,9.06,CHCGILDTO6Y
MA6813400180,h_OCHCTP,13-L1-1,2019-01-22 15:15:00.0,PhaseCorrectionAve,3.3e-07,CHCGILDTO6Y
MA6813400180,h_OCHCTP,13-L1-1,2019-01-22 15:15:00.0,BerPreFecMax,0.00226,CHCGILDTO6Y
MA6813400180,h_OCHCTP,13-L1-1,2019-01-22 15:15:00.0,PmdMin,0.929,CHCGILDTO6Y
MA6813400180,h_OCHCTP,13-L1-1,2019-01-22 15:15:00.0,SoPmdAve,3509.41,CHCGILDTO6Y
MA6813400180,h_OCHCTP,13-L1-1,2019-01-22 15:30:00.0,Qmin,9.05,CHCGILDTO6Y
MA6813400180,h_OCHCTP,13-L1-1,2019-01-22 15:30:00.0,PhaseCorrectionAve,2.92e-07,CHCGILDTO6Y
MA6813400180,h_OCHCTP,13-L1-1,2019-01-22 15:30:00.0,BerPreFecMax,0.00229,CHCGILDTO6Y
MA6813400180,h_OCHCTP,13-L1-1,2019-01-22 15:30:00.0,PmdMin,1.09,CHCGILDTO6Y
MA6813400180,h_OCHCTP,13-L1-1,2019-01-22 15:30:00.0,SoPmdAve,3575.84,CHCGILDTO6Y
MA6813400180,h_OCHCTP,13-L1-1,2019-01-22 15:45:00.0,Qmin,9.07,CHCGILDTO6Y
MA6813400180,h_OCHCTP,13-L1-1,2019-01-22 15:45:00.0,PhaseCorrectionAve,3.68e-07,CHCGILDTO6Y
MA6813400180,h_OCHCTP,13-L1-1,2019-01-22 15:45:00.0,BerPreFecMax,0.00223,CHCGILDTO6Y
MA6813400180,h_OCHCTP,13-L1-1,2019-01-22 15:45:00.0,PmdMin,0.337,CHCGILDTO6Y
MA6813400180,h_OCHCTP,13-L1-1,2019-01-22 15:45:00.0,SoPmdAve,3613.8,CHCGILDTO6Y
MA6813400180,h_OCHCTP,13-L1-2,2019-01-22 15:15:00.0,Qmin,9.03,CHCGILDTO6Y
MA6813400180,h_OCHCTP,13-L1-2,2019-01-22 15:15:00.0,PhaseCorrectionAve,4.06e-07,CHCGILDTO6Y
MA6813400180,h_OCHCTP,13-L1-2,2019-01-22 15:15:00.0,BerPreFecMax,0.00234,CHCGILDTO6Y
MA6813400180,h_OCHCTP,13-L1-2,2019-01-22 15:15:00.0,PmdMin,1.26,CHCGILDTO6Y
MA6813400180,h_OCHCTP,13-L1-2,2019-01-22 15:15:00.0,SoPmdAve,3487.92,CHCGILDTO6Y
MA6813400180,h_OCHCTP,13-L1-2,2019-01-22 15:30:00.0,Qmin,9.05,CHCGILDTO6Y
MA6813400180,h_OCHCTP,13-L1-2,2019-01-22 15:30:00.0,PhaseCorrectionAve,3.42e-07,CHCGILDTO6Y
MA6813400180,h_OCHCTP,13-L1-2,2019-01-22 15:30:00.0,BerPreFecMax,0.0023,CHCGILDTO6Y
MA6813400180,h_OCHCTP,13-L1-2,2019-01-22 15:30:00.0,PmdMin,1.52,CHCGILDTO6Y
MA6813400180,h_OCHCTP,13-L1-2,2019-01-22 15:30:00.0,SoPmdAve,3629.4,CHCGILDTO6Y
MA6813400180,h_OCHCTP,13-L1-2,2019-01-22 15:45:00.0,Qmin,9.03,CHCGILDTO6Y
MA6813400180,h_OCHCTP,13-L1-2,2019-01-22 15:45:00.0,PhaseCorrectionAve,4.45e-07,CHCGILDTO6Y
MA6813400180,h_OCHCTP,13-L1-2,2019-01-22 15:45:00.0,BerPreFecMax,0.00234,CHCGILDTO6Y
MA6813400180,h_OCHCTP,13-L1-2,2019-01-22 15:45:00.0,PmdMin,0.868,CHCGILDTO6Y
MA6813400180,h_OCHCTP,13-L1-2,2019-01-22 15:45:00.0,SoPmdAve,3479.72,CHCGILDTO6Y
MA6813400180,h_OCHCTP,13-L1-3,2019-01-22 15:15:00.0,Qmin,8.92,CHCGILDTO6Y
MA6813400180,h_OCHCTP,13-L1-3,2019-01-22 15:15:00.0,PhaseCorrectionAve,5.06e-07,CHCGILDTO6Y
MA6813400180,h_OCHCTP,13-L1-3,2019-01-22 15:15:00.0,BerPreFecMax,0.00261,CHCGILDTO6Y
MA6813400180,h_OCHCTP,13-L1-3,2019-01-22 15:15:00.0,PmdMin,1.16,CHCGILDTO6Y
MA6813400180,h_OCHCTP,13-L1-3,2019-01-22 15:15:00.0,SoPmdAve,3001.74,CHCGILDTO6Y
MA6813400180,h_OCHCTP,13-L1-3,2019-01-22 15:30:00.0,Qmin,8.83,CHCGILDTO6Y
MA6813400180,h_OCHCTP,13-L1-3,2019-01-22 15:30:00.0,PhaseCorrectionAve,5.24e-07,CHCGILDTO6Y
MA6813400180,h_OCHCTP,13-L1-3,2019-01-22 15:30:00.0,BerPreFecMax,0.00287,CHCGILDTO6Y
MA6813400180,h_OCHCTP,13-L1-3,2019-01-22 15:30:00.0,PmdMin,1.25,CHCGILDTO6Y
MA6813400180,h_OCHCTP,13-L1-3,2019-01-22 15:30:00.0,SoPmdAve,2941.24,CHCGILDTO6Y
MA6813400180,h_OCHCTP,13-L1-3,2019-01-22 15:45:00.0,Qmin,8.89,CHCGILDTO6Y
MA6813400180,h_OCHCTP,13-L1-3,2019-01-22 15:45:00.0,PhaseCorrectionAve,5.46e-07,CHCGILDTO6Y
MA6813400180,h_OCHCTP,13-L1-3,2019-01-22 15:45:00.0,BerPreFecMax,0.0027,CHCGILDTO6Y
MA6813400180,h_OCHCTP,13-L1-3,2019-01-22 15:45:00.0,PmdMin,1.17,CHCGILDTO6Y
MA6813400180,h_OCHCTP,13-L1-3,2019-01-22 15:45:00.0,SoPmdAve,2887.8,CHCGILDTO6Y
MA6813400180,h_OCHCTP,13-L1-4,2019-01-22 15:15:00.0,Qmin,8.75,CHCGILDTO6Y
MA6813400180,h_OCHCTP,13-L1-4,2019-01-22 15:15:00.0,PhaseCorrectionAve,4.44e-07,CHCGILDTO6Y
MA6813400180,h_OCHCTP,13-L1-4,2019-01-22 15:15:00.0,BerPreFecMax,0.00307,CHCGILDTO6Y
MA6813400180,h_OCHCTP,13-L1-4,2019-01-22 15:15:00.0,PmdMin,0.575,CHCGILDTO6Y
MA6813400180,h_OCHCTP,13-L1-4,2019-01-22 15:15:00.0,SoPmdAve,3288.08,CHCGILDTO6Y
MA6813400180,h_OCHCTP,13-L1-4,2019-01-22 15:30:00.0,Qmin,8.7,CHCGILDTO6Y
MA6813400180,h_OCHCTP,13-L1-4,2019-01-22 15:30:00.0,PhaseCorrectionAve,5.17e-07,CHCGILDTO6Y
MA6813400180,h_OCHCTP,13-L1-4,2019-01-22 15:30:00.0,BerPreFecMax,0.00323,CHCGILDTO6Y
MA6813400180,h_OCHCTP,13-L1-4,2019-01-22 15:30:00.0,PmdMin,1.15,CHCGILDTO6Y
MA6813400180,h_OCHCTP,13-L1-4,2019-01-22 15:30:00.0,SoPmdAve,3271.31,CHCGILDTO6Y
MA6813400180,h_OCHCTP,13-L1-4,2019-01-22 15:45:00.0,Qmin,8.72,CHCGILDTO6Y
MA6813400180,h_OCHCTP,13-L1-4,2019-01-22 15:45:00.0,PhaseCorrectionAve,5.16e-07,CHCGILDTO6Y
MA6813400180,h_OCHCTP,13-L1-4,2019-01-22 15:45:00.0,BerPreFecMax,0.00317,CHCGILDTO6Y
MA6813400180,h_OCHCTP,13-L1-4,2019-01-22 15:45:00.0,PmdMin,0.64,CHCGILDTO6Y
MA6813400180,h_OCHCTP,13-L1-4,2019-01-22 15:45:00.0,SoPmdAve,3365.71,CHCGILDTO6Y
MA6813400180,h_OCHCTP,13-L1-5,2019-01-22 15:15:00.0,Qmin,8.76,CHCGILDTO6Y
MA6813400180,h_OCHCTP,13-L1-5,2019-01-22 15:15:00.0,PhaseCorrectionAve,3.07e-07,CHCGILDTO6Y
MA6813400180,h_OCHCTP,13-L1-5,2019-01-22 15:15:00.0,BerPreFecMax,0.00306,CHCGILDTO6Y
MA6813400180,h_OCHCTP,13-L1-5,2019-01-22 15:15:00.0,PmdMin,0.782,CHCGILDTO6Y
MA6813400180,h_OCHCTP,13-L1-5,2019-01-22 15:15:00.0,SoPmdAve,2854.23,CHCGILDTO6Y
MA6813400180,h_OCHCTP,13-L1-5,2019-01-22 15:30:00.0,Qmin,8.66,CHCGILDTO6Y
MA6813400180,h_OCHCTP,13-L1-5,2019-01-22 15:30:00.0,PhaseCorrectionAve,3.03e-07,CHCGILDTO6Y
MA6813400180,h_OCHCTP,13-L1-5,2019-01-22 15:30:00.0,BerPreFecMax,0.00335,CHCGILDTO6Y
MA6813400180,h_OCHCTP,13-L1-5,2019-01-22 15:30:00.0,PmdMin,0.344,CHCGILDTO6Y
MA6813400180,h_OCHCTP,13-L1-5,2019-01-22 15:30:00.0,SoPmdAve,2808.41,CHCGILDTO6Y
MA6813400180,h_OCHCTP,13-L1-5,2019-01-22 15:45:00.0,Qmin,8.63,CHCGILDTO6Y
MA6813400180,h_OCHCTP,13-L1-5,2019-01-22 15:45:00.0,PhaseCorrectionAve,3.2e-07,CHCGILDTO6Y
MA6813400180,h_OCHCTP,13-L1-5,2019-01-22 15:45:00.0,BerPreFecMax,0.00346,CHCGILDTO6Y
MA6813400180,h_OCHCTP,13-L1-5,2019-01-22 15:45:00.0,PmdMin,0.185,CHCGILDTO6Y
MA6813400180,h_OCHCTP,13-L1-5,2019-01-22 15:45:00.0,SoPmdAve,2876.79,CHCGILDTO6Y
MA6813400180,h_OCHCTP,13-L1-6,2019-01-22 15:15:00.0,Qmin,8.82,CHCGILDTO6Y
MA6813400180,h_OCHCTP,13-L1-6,2019-01-22 15:15:00.0,PhaseCorrectionAve,4.86e-07,CHCGILDTO6Y
MA6813400180,h_OCHCTP,13-L1-6,2019-01-22 15:15:00.0,BerPreFecMax,0.00288,CHCGILDTO6Y
MA6813400180,h_OCHCTP,13-L1-6,2019-01-22 15:15:00.0,PmdMin,0.826,CHCGILDTO6Y
MA6813400180,h_OCHCTP,13-L1-6,2019-01-22 15:15:00.0,SoPmdAve,3125.62,CHCGILDTO6Y
MA6813400180,h_OCHCTP,13-L1-6,2019-01-22 15:30:00.0,Qmin,8.7,CHCGILDTO6Y
MA6813400180,h_OCHCTP,13-L1-6,2019-01-22 15:30:00.0,PhaseCorrectionAve,-0.061,CHCGILDTO6Y
MA6813400180,h_OCHCTP,13-L1-6,2019-01-22 15:30:00.0,BerPreFecMax,0.00324,CHCGILDTO6Y
MA6813400180,h_OCHCTP,13-L1-6,2019-01-22 15:30:00.0,PmdMin,1.03,CHCGILDTO6Y
MA6813400180,h_OCHCTP,13-L1-6,2019-01-22 15:30:00.0,SoPmdAve,3003.77,CHCGILDTO6Y
MA6813400180,h_OCHCTP,13-L1-6,2019-01-22 15:45:00.0,Qmin,8.75,CHCGILDTO6Y
MA6813400180,h_OCHCTP,13-L1-6,2019-01-22 15:45:00.0,PhaseCorrectionAve,4.66e-07,CHCGILDTO6Y
MA6813400180,h_OCHCTP,13-L1-6,2019-01-22 15:45:00.0,BerPreFecMax,0.00308,CHCGILDTO6Y
MA6813400180,h_OCHCTP,13-L1-6,2019-01-22 15:45:00.0,PmdMin,1.25,CHCGILDTO6Y
MA6813400180,h_OCHCTP,13-L1-6,2019-01-22 15:45:00.0,SoPmdAve,3103.95,CHCGILDTO6Y
MA6813400180,h_OCHCTP,13-L1-7,2019-01-22 15:15:00.0,Qmin,8.83,CHCGILDTO6Y
MA6813400180,h_OCHCTP,13-L1-7,2019-01-22 15:15:00.0,PhaseCorrectionAve,-0.061,CHCGILDTO6Y
MA6813400180,h_OCHCTP,13-L1-7,2019-01-22 15:15:00.0,BerPreFecMax,0.00286,CHCGILDTO6Y
MA6813400180,h_OCHCTP,13-L1-7,2019-01-22 15:15:00.0,PmdMin,1.07,CHCGILDTO6Y
MA6813400180,h_OCHCTP,13-L1-7,2019-01-22 15:15:00.0,SoPmdAve,3679.44,CHCGILDTO6Y
MA6813400180,h_OCHCTP,13-L1-7,2019-01-22 15:30:00.0,Qmin,8.77,CHCGILDTO6Y
MA6813400180,h_OCHCTP,13-L1-7,2019-01-22 15:30:00.0,PhaseCorrectionAve,-0.061,CHCGILDTO6Y
MA6813400180,h_OCHCTP,13-L1-7,2019-01-22 15:30:00.0,BerPreFecMax,0.00304,CHCGILDTO6Y
MA6813400180,h_OCHCTP,13-L1-7,2019-01-22 15:30:00.0,PmdMin,1.32,CHCGILDTO6Y
MA6813400180,h_OCHCTP,13-L1-7,2019-01-22 15:30:00.0,SoPmdAve,3831.82,CHCGILDTO6Y
MA6813400180,h_OCHCTP,13-L1-7,2019-01-22 15:45:00.0,Qmin,8.71,CHCGILDTO6Y
MA6813400180,h_OCHCTP,13-L1-7,2019-01-22 15:45:00.0,PhaseCorrectionAve,3.85e-07,CHCGILDTO6Y
MA6813400180,h_OCHCTP,13-L1-7,2019-01-22 15:45:00.0,BerPreFecMax,0.00321,CHCGILDTO6Y
MA6813400180,h_OCHCTP,13-L1-7,2019-01-22 15:45:00.0,PmdMin,0.737,CHCGILDTO6Y
MA6813400180,h_OCHCTP,13-L1-7,2019-01-22 15:45:00.0,SoPmdAve,3771.61,CHCGILDTO6Y
MA6813400180,h_OCHCTP,13-L1-8,2019-01-22 15:15:00.0,Qmin,8.84,CHCGILDTO6Y
MA6813400180,h_OCHCTP,13-L1-8,2019-01-22 15:15:00.0,PhaseCorrectionAve,-0.061,CHCGILDTO6Y
MA6813400180,h_OCHCTP,13-L1-8,2019-01-22 15:15:00.0,BerPreFecMax,0.00284,CHCGILDTO6Y
MA6813400180,h_OCHCTP,13-L1-8,2019-01-22 15:15:00.0,PmdMin,1.2,CHCGILDTO6Y
MA6813400180,h_OCHCTP,13-L1-8,2019-01-22 15:15:00.0,SoPmdAve,3865.91,CHCGILDTO6Y
MA6813400180,h_OCHCTP,13-L1-8,2019-01-22 15:30:00.0,Qmin,8.9,CHCGILDTO6Y
MA6813400180,h_OCHCTP,13-L1-8,2019-01-22 15:30:00.0,PhaseCorrectionAve,-0.061,CHCGILDTO6Y
MA6813400180,h_OCHCTP,13-L1-8,2019-01-22 15:30:00.0,BerPreFecMax,0.00268,CHCGILDTO6Y
MA6813400180,h_OCHCTP,13-L1-8,2019-01-22 15:30:00.0,PmdMin,0.88,CHCGILDTO6Y
MA6813400180,h_OCHCTP,13-L1-8,2019-01-22 15:30:00.0,SoPmdAve,3892.2,CHCGILDTO6Y
MA6813400180,h_OCHCTP,13-L1-8,2019-01-22 15:45:00.0,Qmin,8.8,CHCGILDTO6Y
MA6813400180,h_OCHCTP,13-L1-8,2019-01-22 15:45:00.0,PhaseCorrectionAve,9.43e-07,CHCGILDTO6Y
MA6813400180,h_OCHCTP,13-L1-8,2019-01-22 15:45:00.0,BerPreFecMax,0.00294,CHCGILDTO6Y
MA6813400180,h_OCHCTP,13-L1-8,2019-01-22 15:45:00.0,PmdMin,1.49,CHCGILDTO6Y
MA6813400180,h_OCHCTP,13-L1-8,2019-01-22 15:45:00.0,SoPmdAve,3880.17,CHCGILDTO6Y
MA6813400180,h_OCHCTP,13-L1-9,2019-01-22 15:15:00.0,Qmin,8.74,CHCGILDTO6Y
MA6813400180,h_OCHCTP,13-L1-9,2019-01-22 15:15:00.0,PhaseCorrectionAve,-0.061,CHCGILDTO6Y
MA6813400180,h_OCHCTP,13-L1-9,2019-01-22 15:15:00.0,BerPreFecMax,0.00311,CHCGILDTO6Y
MA6813400180,h_OCHCTP,13-L1-9,2019-01-22 15:15:00.0,PmdMin,0.951,CHCGILDTO6Y
MA6813400180,h_OCHCTP,13-L1-9,2019-01-22 15:15:00.0,SoPmdAve,3493.83,CHCGILDTO6Y
MA6813400180,h_OCHCTP,13-L1-9,2019-01-22 15:30:00.0,Qmin,8.84,CHCGILDTO6Y
MA6813400180,h_OCHCTP,13-L1-9,2019-01-22 15:30:00.0,PhaseCorrectionAve,-0.061,CHCGILDTO6Y
MA6813400180,h_OCHCTP,13-L1-9,2019-01-22 15:30:00.0,BerPreFecMax,0.00284,CHCGILDTO6Y
MA6813400180,h_OCHCTP,13-L1-9,2019-01-22 15:30:00.0,PmdMin,0.164,CHCGILDTO6Y
MA6813400180,h_OCHCTP,13-L1-9,2019-01-22 15:30:00.0,SoPmdAve,3563.21,CHCGILDTO6Y
MA6813400180,h_OCHCTP,13-L1-9,2019-01-22 15:45:00.0,Qmin,8.81,CHCGILDTO6Y
MA6813400180,h_OCHCTP,13-L1-9,2019-01-22 15:45:00.0,PhaseCorrectionAve,3.67e-06,CHCGILDTO6Y
MA6813400180,h_OCHCTP,13-L1-9,2019-01-22 15:45:00.0,BerPreFecMax,0.00291,CHCGILDTO6Y
MA6813400180,h_OCHCTP,13-L1-9,2019-01-22 15:45:00.0,PmdMin,0.618,CHCGILDTO6Y
MA6813400180,h_OCHCTP,13-L1-9,2019-01-22 15:45:00.0,SoPmdAve,3514.15,CHCGILDTO6Y
MA6813400180,h_OCHCTP,13-L1-10,2019-01-22 15:15:00.0,Qmin,8.66,CHCGILDTO6Y
MA6813400180,h_OCHCTP,13-L1-10,2019-01-22 15:15:00.0,PhaseCorrectionAve,-0.061,CHCGILDTO6Y
MA6813400180,h_OCHCTP,13-L1-10,2019-01-22 15:15:00.0,BerPreFecMax,0.00336,CHCGILDTO6Y
MA6813400180,h_OCHCTP,13-L1-10,2019-01-22 15:15:00.0,PmdMin,0.771,CHCGILDTO6Y
MA6813400180,h_OCHCTP,13-L1-10,2019-01-22 15:15:00.0,SoPmdAve,3810.44,CHCGILDTO6Y
MA6813400180,h_OCHCTP,13-L1-10,2019-01-22 15:30:00.0,Qmin,8.66,CHCGILDTO6Y
MA6813400180,h_OCHCTP,13-L1-10,2019-01-22 15:30:00.0,PhaseCorrectionAve,-0.122,CHCGILDTO6Y
MA6813400180,h_OCHCTP,13-L1-10,2019-01-22 15:30:00.0,BerPreFecMax,0.00335,CHCGILDTO6Y
MA6813400180,h_OCHCTP,13-L1-10,2019-01-22 15:30:00.0,PmdMin,0.772,CHCGILDTO6Y
MA6813400180,h_OCHCTP,13-L1-10,2019-01-22 15:30:00.0,SoPmdAve,3880.93,CHCGILDTO6Y
MA6813400180,h_OCHCTP,13-L1-10,2019-01-22 15:45:00.0,Qmin,8.64,CHCGILDTO6Y
MA6813400180,h_OCHCTP,13-L1-10,2019-01-22 15:45:00.0,PhaseCorrectionAve,3.69e-06,CHCGILDTO6Y
MA6813400180,h_OCHCTP,13-L1-10,2019-01-22 15:45:00.0,BerPreFecMax,0.00343,CHCGILDTO6Y
MA6813400180,h_OCHCTP,13-L1-10,2019-01-22 15:45:00.0,PmdMin,0.368,CHCGILDTO6Y
MA6813400180,h_OCHCTP,13-L1-10,2019-01-22 15:45:00.0,SoPmdAve,3812.18,CHCGILDTO6Y
