MA6813400180,h_OCHCTP,10-L1-1,2019-01-24 18:15:00.0,Qmin,9.53,CHCGILDTO6Y
MA6813400180,h_OCHCTP,10-L1-1,2019-01-24 18:15:00.0,PhaseCorrectionAve,6.87e-07,CHCGILDTO6Y
MA6813400180,h_OCHCTP,10-L1-1,2019-01-24 18:15:00.0,BerPreFecMax,0.00137,CHCGILDTO6Y
MA6813400180,h_OCHCTP,10-L1-1,2019-01-24 18:15:00.0,PmdMin,2.63,CHCGILDTO6Y
MA6813400180,h_OCHCTP,10-L1-1,2019-01-24 18:15:00.0,SoPmdAve,3373.38,CHCGILDTO6Y
MA6813400180,h_OCHCTP,10-L1-1,2019-01-24 18:30:00.0,Qmin,9.5,CHCGILDTO6Y
MA6813400180,h_OCHCTP,10-L1-1,2019-01-24 18:30:00.0,PhaseCorrectionAve,5.68e-07,CHCGILDTO6Y
MA6813400180,h_OCHCTP,10-L1-1,2019-01-24 18:30:00.0,BerPreFecMax,0.00141,CHCGILDTO6Y
MA6813400180,h_OCHCTP,10-L1-1,2019-01-24 18:30:00.0,PmdMin,1.94,CHCGILDTO6Y
MA6813400180,h_OCHCTP,10-L1-1,2019-01-24 18:30:00.0,SoPmdAve,3270.85,CHCGILDTO6Y
MA6813400180,h_OCHCTP,10-L1-1,2019-01-24 18:45:00.0,Qmin,9.16,CHCGILDTO6Y
MA6813400180,h_OCHCTP,10-L1-1,2019-01-24 18:45:00.0,PhaseCorrectionAve,4.78e-07,CHCGILDTO6Y
MA6813400180,h_OCHCTP,10-L1-1,2019-01-24 18:45:00.0,BerPreFecMax,0.00204,CHCGILDTO6Y
MA6813400180,h_OCHCTP,10-L1-1,2019-01-24 18:45:00.0,PmdMin,5.12,CHCGILDTO6Y
MA6813400180,h_OCHCTP,10-L1-1,2019-01-24 18:45:00.0,SoPmdAve,3277.16,CHCGILDTO6Y
MA6813400180,h_OCHCTP,10-L1-2,2019-01-24 18:15:00.0,Qmin,9.26,CHCGILDTO6Y
MA6813400180,h_OCHCTP,10-L1-2,2019-01-24 18:15:00.0,PhaseCorrectionAve,-0.061,CHCGILDTO6Y
MA6813400180,h_OCHCTP,10-L1-2,2019-01-24 18:15:00.0,BerPreFecMax,0.00185,CHCGILDTO6Y
MA6813400180,h_OCHCTP,10-L1-2,2019-01-24 18:15:00.0,PmdMin,0.849,CHCGILDTO6Y
MA6813400180,h_OCHCTP,10-L1-2,2019-01-24 18:15:00.0,SoPmdAve,3358.06,CHCGILDTO6Y
MA6813400180,h_OCHCTP,10-L1-2,2019-01-24 18:30:00.0,Qmin,9.18,CHCGILDTO6Y
MA6813400180,h_OCHCTP,10-L1-2,2019-01-24 18:30:00.0,PhaseCorrectionAve,3.93e-07,CHCGILDTO6Y
MA6813400180,h_OCHCTP,10-L1-2,2019-01-24 18:30:00.0,BerPreFecMax,0.00201,CHCGILDTO6Y
MA6813400180,h_OCHCTP,10-L1-2,2019-01-24 18:30:00.0,PmdMin,0.814,CHCGILDTO6Y
MA6813400180,h_OCHCTP,10-L1-2,2019-01-24 18:30:00.0,SoPmdAve,3537.42,CHCGILDTO6Y
MA6813400180,h_OCHCTP,10-L1-2,2019-01-24 18:45:00.0,Qmin,8.85,CHCGILDTO6Y
MA6813400180,h_OCHCTP,10-L1-2,2019-01-24 18:45:00.0,PhaseCorrectionAve,3.67e-07,CHCGILDTO6Y
MA6813400180,h_OCHCTP,10-L1-2,2019-01-24 18:45:00.0,BerPreFecMax,0.0028,CHCGILDTO6Y
MA6813400180,h_OCHCTP,10-L1-2,2019-01-24 18:45:00.0,PmdMin,1.54,CHCGILDTO6Y
MA6813400180,h_OCHCTP,10-L1-2,2019-01-24 18:45:00.0,SoPmdAve,3442.67,CHCGILDTO6Y
MA6813400180,h_OCHCTP,10-L1-3,2019-01-24 18:15:00.0,Qmin,9.09,CHCGILDTO6Y
MA6813400180,h_OCHCTP,10-L1-3,2019-01-24 18:15:00.0,PhaseCorrectionAve,-0.061,CHCGILDTO6Y
MA6813400180,h_OCHCTP,10-L1-3,2019-01-24 18:15:00.0,BerPreFecMax,0.00219,CHCGILDTO6Y
MA6813400180,h_OCHCTP,10-L1-3,2019-01-24 18:15:00.0,PmdMin,2.12,CHCGILDTO6Y
MA6813400180,h_OCHCTP,10-L1-3,2019-01-24 18:15:00.0,SoPmdAve,2754.98,CHCGILDTO6Y
MA6813400180,h_OCHCTP,10-L1-3,2019-01-24 18:30:00.0,Qmin,8.92,CHCGILDTO6Y
MA6813400180,h_OCHCTP,10-L1-3,2019-01-24 18:30:00.0,PhaseCorrectionAve,4.76e-07,CHCGILDTO6Y
MA6813400180,h_OCHCTP,10-L1-3,2019-01-24 18:30:00.0,BerPreFecMax,0.00261,CHCGILDTO6Y
MA6813400180,h_OCHCTP,10-L1-3,2019-01-24 18:30:00.0,PmdMin,3.81,CHCGILDTO6Y
MA6813400180,h_OCHCTP,10-L1-3,2019-01-24 18:30:00.0,SoPmdAve,2824.83,CHCGILDTO6Y
MA6813400180,h_OCHCTP,10-L1-3,2019-01-24 18:45:00.0,Qmin,8.44,CHCGILDTO6Y
MA6813400180,h_OCHCTP,10-L1-3,2019-01-24 18:45:00.0,PhaseCorrectionAve,5.66e-07,CHCGILDTO6Y
MA6813400180,h_OCHCTP,10-L1-3,2019-01-24 18:45:00.0,BerPreFecMax,0.0041,CHCGILDTO6Y
MA6813400180,h_OCHCTP,10-L1-3,2019-01-24 18:45:00.0,PmdMin,1.51,CHCGILDTO6Y
MA6813400180,h_OCHCTP,10-L1-3,2019-01-24 18:45:00.0,SoPmdAve,2936.47,CHCGILDTO6Y
MA6813400180,h_OCHCTP,10-L1-4,2019-01-24 18:15:00.0,Qmin,8.59,CHCGILDTO6Y
MA6813400180,h_OCHCTP,10-L1-4,2019-01-24 18:15:00.0,PhaseCorrectionAve,-0.061,CHCGILDTO6Y
MA6813400180,h_OCHCTP,10-L1-4,2019-01-24 18:15:00.0,BerPreFecMax,0.00359,CHCGILDTO6Y
MA6813400180,h_OCHCTP,10-L1-4,2019-01-24 18:15:00.0,PmdMin,3.4,CHCGILDTO6Y
MA6813400180,h_OCHCTP,10-L1-4,2019-01-24 18:15:00.0,SoPmdAve,2974.04,CHCGILDTO6Y
MA6813400180,h_OCHCTP,10-L1-4,2019-01-24 18:30:00.0,Qmin,8.32,CHCGILDTO6Y
MA6813400180,h_OCHCTP,10-L1-4,2019-01-24 18:30:00.0,PhaseCorrectionAve,-0.061,CHCGILDTO6Y
MA6813400180,h_OCHCTP,10-L1-4,2019-01-24 18:30:00.0,BerPreFecMax,0.00456,CHCGILDTO6Y
MA6813400180,h_OCHCTP,10-L1-4,2019-01-24 18:30:00.0,PmdMin,2.8,CHCGILDTO6Y
MA6813400180,h_OCHCTP,10-L1-4,2019-01-24 18:30:00.0,SoPmdAve,3089.31,CHCGILDTO6Y
MA6813400180,h_OCHCTP,10-L1-4,2019-01-24 18:45:00.0,Qmin,7.71,CHCGILDTO6Y
MA6813400180,h_OCHCTP,10-L1-4,2019-01-24 18:45:00.0,PhaseCorrectionAve,2.87e-06,CHCGILDTO6Y
MA6813400180,h_OCHCTP,10-L1-4,2019-01-24 18:45:00.0,BerPreFecMax,0.00758,CHCGILDTO6Y
MA6813400180,h_OCHCTP,10-L1-4,2019-01-24 18:45:00.0,PmdMin,1.79,CHCGILDTO6Y
MA6813400180,h_OCHCTP,10-L1-4,2019-01-24 18:45:00.0,SoPmdAve,3106.07,CHCGILDTO6Y
MA6813400180,h_OCHCTP,10-L1-5,2019-01-24 18:15:00.0,Qmin,8.74,CHCGILDTO6Y
MA6813400180,h_OCHCTP,10-L1-5,2019-01-24 18:15:00.0,PhaseCorrectionAve,-0.122,CHCGILDTO6Y
MA6813400180,h_OCHCTP,10-L1-5,2019-01-24 18:15:00.0,BerPreFecMax,0.0031,CHCGILDTO6Y
MA6813400180,h_OCHCTP,10-L1-5,2019-01-24 18:15:00.0,PmdMin,1.45,CHCGILDTO6Y
MA6813400180,h_OCHCTP,10-L1-5,2019-01-24 18:15:00.0,SoPmdAve,2784.4,CHCGILDTO6Y
MA6813400180,h_OCHCTP,10-L1-5,2019-01-24 18:30:00.0,Qmin,8.49,CHCGILDTO6Y
MA6813400180,h_OCHCTP,10-L1-5,2019-01-24 18:30:00.0,PhaseCorrectionAve,-0.061,CHCGILDTO6Y
MA6813400180,h_OCHCTP,10-L1-5,2019-01-24 18:30:00.0,BerPreFecMax,0.00393,CHCGILDTO6Y
MA6813400180,h_OCHCTP,10-L1-5,2019-01-24 18:30:00.0,PmdMin,1.53,CHCGILDTO6Y
MA6813400180,h_OCHCTP,10-L1-5,2019-01-24 18:30:00.0,SoPmdAve,2874.73,CHCGILDTO6Y
MA6813400180,h_OCHCTP,10-L1-5,2019-01-24 18:45:00.0,Qmin,7.94,CHCGILDTO6Y
MA6813400180,h_OCHCTP,10-L1-5,2019-01-24 18:45:00.0,PhaseCorrectionAve,-0.061,CHCGILDTO6Y
MA6813400180,h_OCHCTP,10-L1-5,2019-01-24 18:45:00.0,BerPreFecMax,0.00628,CHCGILDTO6Y
MA6813400180,h_OCHCTP,10-L1-5,2019-01-24 18:45:00.0,PmdMin,2.2,CHCGILDTO6Y
MA6813400180,h_OCHCTP,10-L1-5,2019-01-24 18:45:00.0,SoPmdAve,2847.44,CHCGILDTO6Y
MA6813400180,h_OCHCTP,10-L1-6,2019-01-24 18:15:00.0,Qmin,8.92,CHCGILDTO6Y
MA6813400180,h_OCHCTP,10-L1-6,2019-01-24 18:15:00.0,PhaseCorrectionAve,-0.122,CHCGILDTO6Y
MA6813400180,h_OCHCTP,10-L1-6,2019-01-24 18:15:00.0,BerPreFecMax,0.00261,CHCGILDTO6Y
MA6813400180,h_OCHCTP,10-L1-6,2019-01-24 18:15:00.0,PmdMin,3.06,CHCGILDTO6Y
MA6813400180,h_OCHCTP,10-L1-6,2019-01-24 18:15:00.0,SoPmdAve,2812.16,CHCGILDTO6Y
MA6813400180,h_OCHCTP,10-L1-6,2019-01-24 18:30:00.0,Qmin,8.73,CHCGILDTO6Y
MA6813400180,h_OCHCTP,10-L1-6,2019-01-24 18:30:00.0,PhaseCorrectionAve,-0.061,CHCGILDTO6Y
MA6813400180,h_OCHCTP,10-L1-6,2019-01-24 18:30:00.0,BerPreFecMax,0.00314,CHCGILDTO6Y
MA6813400180,h_OCHCTP,10-L1-6,2019-01-24 18:30:00.0,PmdMin,0.89,CHCGILDTO6Y
MA6813400180,h_OCHCTP,10-L1-6,2019-01-24 18:30:00.0,SoPmdAve,2788.39,CHCGILDTO6Y
MA6813400180,h_OCHCTP,10-L1-6,2019-01-24 18:45:00.0,Qmin,8.24,CHCGILDTO6Y
MA6813400180,h_OCHCTP,10-L1-6,2019-01-24 18:45:00.0,PhaseCorrectionAve,-0.122,CHCGILDTO6Y
MA6813400180,h_OCHCTP,10-L1-6,2019-01-24 18:45:00.0,BerPreFecMax,0.0049,CHCGILDTO6Y
MA6813400180,h_OCHCTP,10-L1-6,2019-01-24 18:45:00.0,PmdMin,2.38,CHCGILDTO6Y
MA6813400180,h_OCHCTP,10-L1-6,2019-01-24 18:45:00.0,SoPmdAve,2814.07,CHCGILDTO6Y
MA6813400180,h_OCHCTP,10-L1-7,2019-01-24 18:15:00.0,Qmin,8.95,CHCGILDTO6Y
MA6813400180,h_OCHCTP,10-L1-7,2019-01-24 18:15:00.0,PhaseCorrectionAve,-0.122,CHCGILDTO6Y
MA6813400180,h_OCHCTP,10-L1-7,2019-01-24 18:15:00.0,BerPreFecMax,0.00253,CHCGILDTO6Y
MA6813400180,h_OCHCTP,10-L1-7,2019-01-24 18:15:00.0,PmdMin,2.98,CHCGILDTO6Y
MA6813400180,h_OCHCTP,10-L1-7,2019-01-24 18:15:00.0,SoPmdAve,3401.59,CHCGILDTO6Y
MA6813400180,h_OCHCTP,10-L1-7,2019-01-24 18:30:00.0,Qmin,8.81,CHCGILDTO6Y
MA6813400180,h_OCHCTP,10-L1-7,2019-01-24 18:30:00.0,PhaseCorrectionAve,-0.061,CHCGILDTO6Y
MA6813400180,h_OCHCTP,10-L1-7,2019-01-24 18:30:00.0,BerPreFecMax,0.00291,CHCGILDTO6Y
MA6813400180,h_OCHCTP,10-L1-7,2019-01-24 18:30:00.0,PmdMin,0.879,CHCGILDTO6Y
MA6813400180,h_OCHCTP,10-L1-7,2019-01-24 18:30:00.0,SoPmdAve,3349.33,CHCGILDTO6Y
MA6813400180,h_OCHCTP,10-L1-7,2019-01-24 18:45:00.0,Qmin,8.47,CHCGILDTO6Y
MA6813400180,h_OCHCTP,10-L1-7,2019-01-24 18:45:00.0,PhaseCorrectionAve,-0.122,CHCGILDTO6Y
MA6813400180,h_OCHCTP,10-L1-7,2019-01-24 18:45:00.0,BerPreFecMax,0.00399,CHCGILDTO6Y
MA6813400180,h_OCHCTP,10-L1-7,2019-01-24 18:45:00.0,PmdMin,2.21,CHCGILDTO6Y
MA6813400180,h_OCHCTP,10-L1-7,2019-01-24 18:45:00.0,SoPmdAve,3305.02,CHCGILDTO6Y
MA6813400180,h_OCHCTP,10-L1-8,2019-01-24 18:15:00.0,Qmin,9.31,CHCGILDTO6Y
MA6813400180,h_OCHCTP,10-L1-8,2019-01-24 18:15:00.0,PhaseCorrectionAve,-0.183,CHCGILDTO6Y
MA6813400180,h_OCHCTP,10-L1-8,2019-01-24 18:15:00.0,BerPreFecMax,0.00175,CHCGILDTO6Y
MA6813400180,h_OCHCTP,10-L1-8,2019-01-24 18:15:00.0,PmdMin,0.501,CHCGILDTO6Y
MA6813400180,h_OCHCTP,10-L1-8,2019-01-24 18:15:00.0,SoPmdAve,3410.97,CHCGILDTO6Y
MA6813400180,h_OCHCTP,10-L1-8,2019-01-24 18:30:00.0,Qmin,9.27,CHCGILDTO6Y
MA6813400180,h_OCHCTP,10-L1-8,2019-01-24 18:30:00.0,PhaseCorrectionAve,-0.061,CHCGILDTO6Y
MA6813400180,h_OCHCTP,10-L1-8,2019-01-24 18:30:00.0,BerPreFecMax,0.00183,CHCGILDTO6Y
MA6813400180,h_OCHCTP,10-L1-8,2019-01-24 18:30:00.0,PmdMin,2.21,CHCGILDTO6Y
MA6813400180,h_OCHCTP,10-L1-8,2019-01-24 18:30:00.0,SoPmdAve,3444.46,CHCGILDTO6Y
MA6813400180,h_OCHCTP,10-L1-8,2019-01-24 18:45:00.0,Qmin,9.15,CHCGILDTO6Y
MA6813400180,h_OCHCTP,10-L1-8,2019-01-24 18:45:00.0,PhaseCorrectionAve,-0.122,CHCGILDTO6Y
MA6813400180,h_OCHCTP,10-L1-8,2019-01-24 18:45:00.0,BerPreFecMax,0.00207,CHCGILDTO6Y
MA6813400180,h_OCHCTP,10-L1-8,2019-01-24 18:45:00.0,PmdMin,1.44,CHCGILDTO6Y
MA6813400180,h_OCHCTP,10-L1-8,2019-01-24 18:45:00.0,SoPmdAve,3432.79,CHCGILDTO6Y
MA6813400180,h_OCHCTP,10-L1-9,2019-01-24 18:15:00.0,Qmin,9.29,CHCGILDTO6Y
MA6813400180,h_OCHCTP,10-L1-9,2019-01-24 18:15:00.0,PhaseCorrectionAve,-0.183,CHCGILDTO6Y
MA6813400180,h_OCHCTP,10-L1-9,2019-01-24 18:15:00.0,BerPreFecMax,0.00179,CHCGILDTO6Y
MA6813400180,h_OCHCTP,10-L1-9,2019-01-24 18:15:00.0,PmdMin,2.02,CHCGILDTO6Y
MA6813400180,h_OCHCTP,10-L1-9,2019-01-24 18:15:00.0,SoPmdAve,3296.31,CHCGILDTO6Y
MA6813400180,h_OCHCTP,10-L1-9,2019-01-24 18:30:00.0,Qmin,9.27,CHCGILDTO6Y
MA6813400180,h_OCHCTP,10-L1-9,2019-01-24 18:30:00.0,PhaseCorrectionAve,-0.061,CHCGILDTO6Y
MA6813400180,h_OCHCTP,10-L1-9,2019-01-24 18:30:00.0,BerPreFecMax,0.00182,CHCGILDTO6Y
MA6813400180,h_OCHCTP,10-L1-9,2019-01-24 18:30:00.0,PmdMin,1.16,CHCGILDTO6Y
MA6813400180,h_OCHCTP,10-L1-9,2019-01-24 18:30:00.0,SoPmdAve,3432.8,CHCGILDTO6Y
MA6813400180,h_OCHCTP,10-L1-9,2019-01-24 18:45:00.0,Qmin,9.11,CHCGILDTO6Y
MA6813400180,h_OCHCTP,10-L1-9,2019-01-24 18:45:00.0,PhaseCorrectionAve,-0.122,CHCGILDTO6Y
MA6813400180,h_OCHCTP,10-L1-9,2019-01-24 18:45:00.0,BerPreFecMax,0.00214,CHCGILDTO6Y
MA6813400180,h_OCHCTP,10-L1-9,2019-01-24 18:45:00.0,PmdMin,2.09,CHCGILDTO6Y
MA6813400180,h_OCHCTP,10-L1-9,2019-01-24 18:45:00.0,SoPmdAve,3410.51,CHCGILDTO6Y
MA6813400180,h_OCHCTP,10-L1-10,2019-01-24 18:15:00.0,Qmin,9.33,CHCGILDTO6Y
MA6813400180,h_OCHCTP,10-L1-10,2019-01-24 18:15:00.0,PhaseCorrectionAve,-0.244,CHCGILDTO6Y
MA6813400180,h_OCHCTP,10-L1-10,2019-01-24 18:15:00.0,BerPreFecMax,0.0017,CHCGILDTO6Y
MA6813400180,h_OCHCTP,10-L1-10,2019-01-24 18:15:00.0,PmdMin,3.85,CHCGILDTO6Y
MA6813400180,h_OCHCTP,10-L1-10,2019-01-24 18:15:00.0,SoPmdAve,3180.46,CHCGILDTO6Y
MA6813400180,h_OCHCTP,10-L1-10,2019-01-24 18:30:00.0,Qmin,9.29,CHCGILDTO6Y
MA6813400180,h_OCHCTP,10-L1-10,2019-01-24 18:30:00.0,PhaseCorrectionAve,-0.061,CHCGILDTO6Y
MA6813400180,h_OCHCTP,10-L1-10,2019-01-24 18:30:00.0,BerPreFecMax,0.00179,CHCGILDTO6Y
MA6813400180,h_OCHCTP,10-L1-10,2019-01-24 18:30:00.0,PmdMin,5.21,CHCGILDTO6Y
MA6813400180,h_OCHCTP,10-L1-10,2019-01-24 18:30:00.0,SoPmdAve,3280.97,CHCGILDTO6Y
MA6813400180,h_OCHCTP,10-L1-10,2019-01-24 18:45:00.0,Qmin,9.19,CHCGILDTO6Y
MA6813400180,h_OCHCTP,10-L1-10,2019-01-24 18:45:00.0,PhaseCorrectionAve,-0.183,CHCGILDTO6Y
MA6813400180,h_OCHCTP,10-L1-10,2019-01-24 18:45:00.0,BerPreFecMax,0.00199,CHCGILDTO6Y
MA6813400180,h_OCHCTP,10-L1-10,2019-01-24 18:45:00.0,PmdMin,6.21,CHCGILDTO6Y
MA6813400180,h_OCHCTP,10-L1-10,2019-01-24 18:45:00.0,SoPmdAve,3282.5,CHCGILDTO6Y
MA6813400180,h_OCHCTP,11-L1-1,2019-01-24 18:15:00.0,Qmin,9.11,CHCGILDTO6Y
MA6813400180,h_OCHCTP,11-L1-1,2019-01-24 18:15:00.0,PhaseCorrectionAve,1.48e-07,CHCGILDTO6Y
MA6813400180,h_OCHCTP,11-L1-1,2019-01-24 18:15:00.0,BerPreFecMax,0.00215,CHCGILDTO6Y
MA6813400180,h_OCHCTP,11-L1-1,2019-01-24 18:15:00.0,PmdMin,0.65,CHCGILDTO6Y
MA6813400180,h_OCHCTP,11-L1-1,2019-01-24 18:15:00.0,SoPmdAve,3336.39,CHCGILDTO6Y
MA6813400180,h_OCHCTP,11-L1-1,2019-01-24 18:30:00.0,Qmin,9.09,CHCGILDTO6Y
MA6813400180,h_OCHCTP,11-L1-1,2019-01-24 18:30:00.0,PhaseCorrectionAve,1.45e-07,CHCGILDTO6Y
MA6813400180,h_OCHCTP,11-L1-1,2019-01-24 18:30:00.0,BerPreFecMax,0.0022,CHCGILDTO6Y
MA6813400180,h_OCHCTP,11-L1-1,2019-01-24 18:30:00.0,PmdMin,0.651,CHCGILDTO6Y
MA6813400180,h_OCHCTP,11-L1-1,2019-01-24 18:30:00.0,SoPmdAve,3394.82,CHCGILDTO6Y
MA6813400180,h_OCHCTP,11-L1-1,2019-01-24 18:45:00.0,Qmin,9.11,CHCGILDTO6Y
MA6813400180,h_OCHCTP,11-L1-1,2019-01-24 18:45:00.0,PhaseCorrectionAve,1.13e-07,CHCGILDTO6Y
MA6813400180,h_OCHCTP,11-L1-1,2019-01-24 18:45:00.0,BerPreFecMax,0.00215,CHCGILDTO6Y
MA6813400180,h_OCHCTP,11-L1-1,2019-01-24 18:45:00.0,PmdMin,0.329,CHCGILDTO6Y
MA6813400180,h_OCHCTP,11-L1-1,2019-01-24 18:45:00.0,SoPmdAve,3397.58,CHCGILDTO6Y
MA6813400180,h_OCHCTP,11-L1-2,2019-01-24 18:15:00.0,Qmin,9.03,CHCGILDTO6Y
MA6813400180,h_OCHCTP,11-L1-2,2019-01-24 18:15:00.0,PhaseCorrectionAve,4.21e-07,CHCGILDTO6Y
MA6813400180,h_OCHCTP,11-L1-2,2019-01-24 18:15:00.0,BerPreFecMax,0.00234,CHCGILDTO6Y
MA6813400180,h_OCHCTP,11-L1-2,2019-01-24 18:15:00.0,PmdMin,0.901,CHCGILDTO6Y
MA6813400180,h_OCHCTP,11-L1-2,2019-01-24 18:15:00.0,SoPmdAve,3152.66,CHCGILDTO6Y
MA6813400180,h_OCHCTP,11-L1-2,2019-01-24 18:30:00.0,Qmin,9.02,CHCGILDTO6Y
MA6813400180,h_OCHCTP,11-L1-2,2019-01-24 18:30:00.0,PhaseCorrectionAve,-0.122,CHCGILDTO6Y
MA6813400180,h_OCHCTP,11-L1-2,2019-01-24 18:30:00.0,BerPreFecMax,0.00236,CHCGILDTO6Y
MA6813400180,h_OCHCTP,11-L1-2,2019-01-24 18:30:00.0,PmdMin,0.928,CHCGILDTO6Y
MA6813400180,h_OCHCTP,11-L1-2,2019-01-24 18:30:00.0,SoPmdAve,3143.51,CHCGILDTO6Y
MA6813400180,h_OCHCTP,11-L1-2,2019-01-24 18:45:00.0,Qmin,9.05,CHCGILDTO6Y
MA6813400180,h_OCHCTP,11-L1-2,2019-01-24 18:45:00.0,PhaseCorrectionAve,-0.061,CHCGILDTO6Y
MA6813400180,h_OCHCTP,11-L1-2,2019-01-24 18:45:00.0,BerPreFecMax,0.00229,CHCGILDTO6Y
MA6813400180,h_OCHCTP,11-L1-2,2019-01-24 18:45:00.0,PmdMin,0.632,CHCGILDTO6Y
MA6813400180,h_OCHCTP,11-L1-2,2019-01-24 18:45:00.0,SoPmdAve,3200.7,CHCGILDTO6Y
MA6813400180,h_OCHCTP,11-L1-3,2019-01-24 18:15:00.0,Qmin,8.92,CHCGILDTO6Y
MA6813400180,h_OCHCTP,11-L1-3,2019-01-24 18:15:00.0,PhaseCorrectionAve,-0.061,CHCGILDTO6Y
MA6813400180,h_OCHCTP,11-L1-3,2019-01-24 18:15:00.0,BerPreFecMax,0.00262,CHCGILDTO6Y
MA6813400180,h_OCHCTP,11-L1-3,2019-01-24 18:15:00.0,PmdMin,0.997,CHCGILDTO6Y
MA6813400180,h_OCHCTP,11-L1-3,2019-01-24 18:15:00.0,SoPmdAve,2749.45,CHCGILDTO6Y
MA6813400180,h_OCHCTP,11-L1-3,2019-01-24 18:30:00.0,Qmin,8.89,CHCGILDTO6Y
MA6813400180,h_OCHCTP,11-L1-3,2019-01-24 18:30:00.0,PhaseCorrectionAve,-0.122,CHCGILDTO6Y
MA6813400180,h_OCHCTP,11-L1-3,2019-01-24 18:30:00.0,BerPreFecMax,0.00269,CHCGILDTO6Y
MA6813400180,h_OCHCTP,11-L1-3,2019-01-24 18:30:00.0,PmdMin,0.997,CHCGILDTO6Y
MA6813400180,h_OCHCTP,11-L1-3,2019-01-24 18:30:00.0,SoPmdAve,2679.9,CHCGILDTO6Y
MA6813400180,h_OCHCTP,11-L1-3,2019-01-24 18:45:00.0,Qmin,8.89,CHCGILDTO6Y
MA6813400180,h_OCHCTP,11-L1-3,2019-01-24 18:45:00.0,PhaseCorrectionAve,-0.061,CHCGILDTO6Y
MA6813400180,h_OCHCTP,11-L1-3,2019-01-24 18:45:00.0,BerPreFecMax,0.0027,CHCGILDTO6Y
MA6813400180,h_OCHCTP,11-L1-3,2019-01-24 18:45:00.0,PmdMin,1.25,CHCGILDTO6Y
MA6813400180,h_OCHCTP,11-L1-3,2019-01-24 18:45:00.0,SoPmdAve,2718.37,CHCGILDTO6Y
MA6813400180,h_OCHCTP,11-L1-4,2019-01-24 18:15:00.0,Qmin,8.76,CHCGILDTO6Y
MA6813400180,h_OCHCTP,11-L1-4,2019-01-24 18:15:00.0,PhaseCorrectionAve,-0.061,CHCGILDTO6Y
MA6813400180,h_OCHCTP,11-L1-4,2019-01-24 18:15:00.0,BerPreFecMax,0.00306,CHCGILDTO6Y
MA6813400180,h_OCHCTP,11-L1-4,2019-01-24 18:15:00.0,PmdMin,0.62,CHCGILDTO6Y
MA6813400180,h_OCHCTP,11-L1-4,2019-01-24 18:15:00.0,SoPmdAve,2893.52,CHCGILDTO6Y
MA6813400180,h_OCHCTP,11-L1-4,2019-01-24 18:30:00.0,Qmin,8.75,CHCGILDTO6Y
MA6813400180,h_OCHCTP,11-L1-4,2019-01-24 18:30:00.0,PhaseCorrectionAve,-0.183,CHCGILDTO6Y
MA6813400180,h_OCHCTP,11-L1-4,2019-01-24 18:30:00.0,BerPreFecMax,0.00309,CHCGILDTO6Y
MA6813400180,h_OCHCTP,11-L1-4,2019-01-24 18:30:00.0,PmdMin,1.17,CHCGILDTO6Y
MA6813400180,h_OCHCTP,11-L1-4,2019-01-24 18:30:00.0,SoPmdAve,2909.26,CHCGILDTO6Y
MA6813400180,h_OCHCTP,11-L1-4,2019-01-24 18:45:00.0,Qmin,8.77,CHCGILDTO6Y
MA6813400180,h_OCHCTP,11-L1-4,2019-01-24 18:45:00.0,PhaseCorrectionAve,-0.061,CHCGILDTO6Y
MA6813400180,h_OCHCTP,11-L1-4,2019-01-24 18:45:00.0,BerPreFecMax,0.00303,CHCGILDTO6Y
MA6813400180,h_OCHCTP,11-L1-4,2019-01-24 18:45:00.0,PmdMin,0.955,CHCGILDTO6Y
MA6813400180,h_OCHCTP,11-L1-4,2019-01-24 18:45:00.0,SoPmdAve,2910.02,CHCGILDTO6Y
MA6813400180,h_OCHCTP,11-L1-5,2019-01-24 18:15:00.0,Qmin,8.89,CHCGILDTO6Y
MA6813400180,h_OCHCTP,11-L1-5,2019-01-24 18:15:00.0,PhaseCorrectionAve,-0.122,CHCGILDTO6Y
MA6813400180,h_OCHCTP,11-L1-5,2019-01-24 18:15:00.0,BerPreFecMax,0.00269,CHCGILDTO6Y
MA6813400180,h_OCHCTP,11-L1-5,2019-01-24 18:15:00.0,PmdMin,1.09,CHCGILDTO6Y
MA6813400180,h_OCHCTP,11-L1-5,2019-01-24 18:15:00.0,SoPmdAve,2506.34,CHCGILDTO6Y
MA6813400180,h_OCHCTP,11-L1-5,2019-01-24 18:30:00.0,Qmin,8.85,CHCGILDTO6Y
MA6813400180,h_OCHCTP,11-L1-5,2019-01-24 18:30:00.0,PhaseCorrectionAve,-0.244,CHCGILDTO6Y
MA6813400180,h_OCHCTP,11-L1-5,2019-01-24 18:30:00.0,BerPreFecMax,0.00279,CHCGILDTO6Y
MA6813400180,h_OCHCTP,11-L1-5,2019-01-24 18:30:00.0,PmdMin,0.928,CHCGILDTO6Y
MA6813400180,h_OCHCTP,11-L1-5,2019-01-24 18:30:00.0,SoPmdAve,2554.02,CHCGILDTO6Y
MA6813400180,h_OCHCTP,11-L1-5,2019-01-24 18:45:00.0,Qmin,8.87,CHCGILDTO6Y
MA6813400180,h_OCHCTP,11-L1-5,2019-01-24 18:45:00.0,PhaseCorrectionAve,-0.061,CHCGILDTO6Y
MA6813400180,h_OCHCTP,11-L1-5,2019-01-24 18:45:00.0,BerPreFecMax,0.00276,CHCGILDTO6Y
MA6813400180,h_OCHCTP,11-L1-5,2019-01-24 18:45:00.0,PmdMin,0.63,CHCGILDTO6Y
MA6813400180,h_OCHCTP,11-L1-5,2019-01-24 18:45:00.0,SoPmdAve,2626.38,CHCGILDTO6Y
MA6813400180,h_OCHCTP,11-L1-6,2019-01-24 18:15:00.0,Qmin,8.83,CHCGILDTO6Y
MA6813400180,h_OCHCTP,11-L1-6,2019-01-24 18:15:00.0,PhaseCorrectionAve,-0.122,CHCGILDTO6Y
MA6813400180,h_OCHCTP,11-L1-6,2019-01-24 18:15:00.0,BerPreFecMax,0.00287,CHCGILDTO6Y
MA6813400180,h_OCHCTP,11-L1-6,2019-01-24 18:15:00.0,PmdMin,1.15,CHCGILDTO6Y
MA6813400180,h_OCHCTP,11-L1-6,2019-01-24 18:15:00.0,SoPmdAve,2513.23,CHCGILDTO6Y
MA6813400180,h_OCHCTP,11-L1-6,2019-01-24 18:30:00.0,Qmin,8.81,CHCGILDTO6Y
MA6813400180,h_OCHCTP,11-L1-6,2019-01-24 18:30:00.0,PhaseCorrectionAve,-0.244,CHCGILDTO6Y
MA6813400180,h_OCHCTP,11-L1-6,2019-01-24 18:30:00.0,BerPreFecMax,0.00292,CHCGILDTO6Y
MA6813400180,h_OCHCTP,11-L1-6,2019-01-24 18:30:00.0,PmdMin,0.739,CHCGILDTO6Y
MA6813400180,h_OCHCTP,11-L1-6,2019-01-24 18:30:00.0,SoPmdAve,2530.39,CHCGILDTO6Y
MA6813400180,h_OCHCTP,11-L1-6,2019-01-24 18:45:00.0,Qmin,8.8,CHCGILDTO6Y
MA6813400180,h_OCHCTP,11-L1-6,2019-01-24 18:45:00.0,PhaseCorrectionAve,-0.061,CHCGILDTO6Y
MA6813400180,h_OCHCTP,11-L1-6,2019-01-24 18:45:00.0,BerPreFecMax,0.00294,CHCGILDTO6Y
MA6813400180,h_OCHCTP,11-L1-6,2019-01-24 18:45:00.0,PmdMin,0.749,CHCGILDTO6Y
MA6813400180,h_OCHCTP,11-L1-6,2019-01-24 18:45:00.0,SoPmdAve,2529.85,CHCGILDTO6Y
MA6813400180,h_OCHCTP,11-L1-7,2019-01-24 18:15:00.0,Qmin,8.86,CHCGILDTO6Y
MA6813400180,h_OCHCTP,11-L1-7,2019-01-24 18:15:00.0,PhaseCorrectionAve,-0.122,CHCGILDTO6Y
MA6813400180,h_OCHCTP,11-L1-7,2019-01-24 18:15:00.0,BerPreFecMax,0.00278,CHCGILDTO6Y
MA6813400180,h_OCHCTP,11-L1-7,2019-01-24 18:15:00.0,PmdMin,1.07,CHCGILDTO6Y
MA6813400180,h_OCHCTP,11-L1-7,2019-01-24 18:15:00.0,SoPmdAve,2976.05,CHCGILDTO6Y
MA6813400180,h_OCHCTP,11-L1-7,2019-01-24 18:30:00.0,Qmin,8.84,CHCGILDTO6Y
MA6813400180,h_OCHCTP,11-L1-7,2019-01-24 18:30:00.0,PhaseCorrectionAve,-0.244,CHCGILDTO6Y
MA6813400180,h_OCHCTP,11-L1-7,2019-01-24 18:30:00.0,BerPreFecMax,0.00283,CHCGILDTO6Y
MA6813400180,h_OCHCTP,11-L1-7,2019-01-24 18:30:00.0,PmdMin,1.16,CHCGILDTO6Y
MA6813400180,h_OCHCTP,11-L1-7,2019-01-24 18:30:00.0,SoPmdAve,3024.76,CHCGILDTO6Y
MA6813400180,h_OCHCTP,11-L1-7,2019-01-24 18:45:00.0,Qmin,8.84,CHCGILDTO6Y
MA6813400180,h_OCHCTP,11-L1-7,2019-01-24 18:45:00.0,PhaseCorrectionAve,-0.061,CHCGILDTO6Y
MA6813400180,h_OCHCTP,11-L1-7,2019-01-24 18:45:00.0,BerPreFecMax,0.00283,CHCGILDTO6Y
MA6813400180,h_OCHCTP,11-L1-7,2019-01-24 18:45:00.0,PmdMin,1.28,CHCGILDTO6Y
MA6813400180,h_OCHCTP,11-L1-7,2019-01-24 18:45:00.0,SoPmdAve,3106.81,CHCGILDTO6Y
MA6813400180,h_OCHCTP,11-L1-8,2019-01-24 18:15:00.0,Qmin,8.95,CHCGILDTO6Y
MA6813400180,h_OCHCTP,11-L1-8,2019-01-24 18:15:00.0,PhaseCorrectionAve,-0.122,CHCGILDTO6Y
MA6813400180,h_OCHCTP,11-L1-8,2019-01-24 18:15:00.0,BerPreFecMax,0.00255,CHCGILDTO6Y
MA6813400180,h_OCHCTP,11-L1-8,2019-01-24 18:15:00.0,PmdMin,0.771,CHCGILDTO6Y
MA6813400180,h_OCHCTP,11-L1-8,2019-01-24 18:15:00.0,SoPmdAve,3132.12,CHCGILDTO6Y
MA6813400180,h_OCHCTP,11-L1-8,2019-01-24 18:30:00.0,Qmin,8.93,CHCGILDTO6Y
MA6813400180,h_OCHCTP,11-L1-8,2019-01-24 18:30:00.0,PhaseCorrectionAve,-0.244,CHCGILDTO6Y
MA6813400180,h_OCHCTP,11-L1-8,2019-01-24 18:30:00.0,BerPreFecMax,0.00259,CHCGILDTO6Y
MA6813400180,h_OCHCTP,11-L1-8,2019-01-24 18:30:00.0,PmdMin,1.18,CHCGILDTO6Y
MA6813400180,h_OCHCTP,11-L1-8,2019-01-24 18:30:00.0,SoPmdAve,3174.81,CHCGILDTO6Y
MA6813400180,h_OCHCTP,11-L1-8,2019-01-24 18:45:00.0,Qmin,8.93,CHCGILDTO6Y
MA6813400180,h_OCHCTP,11-L1-8,2019-01-24 18:45:00.0,PhaseCorrectionAve,-0.061,CHCGILDTO6Y
MA6813400180,h_OCHCTP,11-L1-8,2019-01-24 18:45:00.0,BerPreFecMax,0.00259,CHCGILDTO6Y
MA6813400180,h_OCHCTP,11-L1-8,2019-01-24 18:45:00.0,PmdMin,1.24,CHCGILDTO6Y
MA6813400180,h_OCHCTP,11-L1-8,2019-01-24 18:45:00.0,SoPmdAve,3044.37,CHCGILDTO6Y
MA6813400180,h_OCHCTP,11-L1-9,2019-01-24 18:15:00.0,Qmin,8.84,CHCGILDTO6Y
MA6813400180,h_OCHCTP,11-L1-9,2019-01-24 18:15:00.0,PhaseCorrectionAve,-0.122,CHCGILDTO6Y
MA6813400180,h_OCHCTP,11-L1-9,2019-01-24 18:15:00.0,BerPreFecMax,0.00283,CHCGILDTO6Y
MA6813400180,h_OCHCTP,11-L1-9,2019-01-24 18:15:00.0,PmdMin,0.717,CHCGILDTO6Y
MA6813400180,h_OCHCTP,11-L1-9,2019-01-24 18:15:00.0,SoPmdAve,3082.35,CHCGILDTO6Y
MA6813400180,h_OCHCTP,11-L1-9,2019-01-24 18:30:00.0,Qmin,8.88,CHCGILDTO6Y
MA6813400180,h_OCHCTP,11-L1-9,2019-01-24 18:30:00.0,PhaseCorrectionAve,-0.244,CHCGILDTO6Y
MA6813400180,h_OCHCTP,11-L1-9,2019-01-24 18:30:00.0,BerPreFecMax,0.00272,CHCGILDTO6Y
MA6813400180,h_OCHCTP,11-L1-9,2019-01-24 18:30:00.0,PmdMin,0.87,CHCGILDTO6Y
MA6813400180,h_OCHCTP,11-L1-9,2019-01-24 18:30:00.0,SoPmdAve,3180.52,CHCGILDTO6Y
MA6813400180,h_OCHCTP,11-L1-9,2019-01-24 18:45:00.0,Qmin,8.88,CHCGILDTO6Y
MA6813400180,h_OCHCTP,11-L1-9,2019-01-24 18:45:00.0,PhaseCorrectionAve,-0.061,CHCGILDTO6Y
MA6813400180,h_OCHCTP,11-L1-9,2019-01-24 18:45:00.0,BerPreFecMax,0.00271,CHCGILDTO6Y
MA6813400180,h_OCHCTP,11-L1-9,2019-01-24 18:45:00.0,PmdMin,0.774,CHCGILDTO6Y
MA6813400180,h_OCHCTP,11-L1-9,2019-01-24 18:45:00.0,SoPmdAve,3137.08,CHCGILDTO6Y
MA6813400180,h_OCHCTP,11-L1-10,2019-01-24 18:15:00.0,Qmin,8.97,CHCGILDTO6Y
MA6813400180,h_OCHCTP,11-L1-10,2019-01-24 18:15:00.0,PhaseCorrectionAve,-0.122,CHCGILDTO6Y
MA6813400180,h_OCHCTP,11-L1-10,2019-01-24 18:15:00.0,BerPreFecMax,0.0025,CHCGILDTO6Y
MA6813400180,h_OCHCTP,11-L1-10,2019-01-24 18:15:00.0,PmdMin,1.05,CHCGILDTO6Y
MA6813400180,h_OCHCTP,11-L1-10,2019-01-24 18:15:00.0,SoPmdAve,3060.55,CHCGILDTO6Y
MA6813400180,h_OCHCTP,11-L1-10,2019-01-24 18:30:00.0,Qmin,9.0,CHCGILDTO6Y
MA6813400180,h_OCHCTP,11-L1-10,2019-01-24 18:30:00.0,PhaseCorrectionAve,-0.244,CHCGILDTO6Y
MA6813400180,h_OCHCTP,11-L1-10,2019-01-24 18:30:00.0,BerPreFecMax,0.00242,CHCGILDTO6Y
MA6813400180,h_OCHCTP,11-L1-10,2019-01-24 18:30:00.0,PmdMin,1.06,CHCGILDTO6Y
MA6813400180,h_OCHCTP,11-L1-10,2019-01-24 18:30:00.0,SoPmdAve,3005.75,CHCGILDTO6Y
MA6813400180,h_OCHCTP,11-L1-10,2019-01-24 18:45:00.0,Qmin,9.02,CHCGILDTO6Y
MA6813400180,h_OCHCTP,11-L1-10,2019-01-24 18:45:00.0,PhaseCorrectionAve,-0.122,CHCGILDTO6Y
MA6813400180,h_OCHCTP,11-L1-10,2019-01-24 18:45:00.0,BerPreFecMax,0.00237,CHCGILDTO6Y
MA6813400180,h_OCHCTP,11-L1-10,2019-01-24 18:45:00.0,PmdMin,0.534,CHCGILDTO6Y
MA6813400180,h_OCHCTP,11-L1-10,2019-01-24 18:45:00.0,SoPmdAve,3034.46,CHCGILDTO6Y
MA6813400180,h_OCHCTP,13-L1-1,2019-01-24 18:15:00.0,Qmin,9.11,CHCGILDTO6Y
MA6813400180,h_OCHCTP,13-L1-1,2019-01-24 18:15:00.0,PhaseCorrectionAve,2.71e-07,CHCGILDTO6Y
MA6813400180,h_OCHCTP,13-L1-1,2019-01-24 18:15:00.0,BerPreFecMax,0.00216,CHCGILDTO6Y
MA6813400180,h_OCHCTP,13-L1-1,2019-01-24 18:15:00.0,PmdMin,1.51,CHCGILDTO6Y
MA6813400180,h_OCHCTP,13-L1-1,2019-01-24 18:15:00.0,SoPmdAve,3583.77,CHCGILDTO6Y
MA6813400180,h_OCHCTP,13-L1-1,2019-01-24 18:30:00.0,Qmin,9.11,CHCGILDTO6Y
MA6813400180,h_OCHCTP,13-L1-1,2019-01-24 18:30:00.0,PhaseCorrectionAve,2.7e-07,CHCGILDTO6Y
MA6813400180,h_OCHCTP,13-L1-1,2019-01-24 18:30:00.0,BerPreFecMax,0.00216,CHCGILDTO6Y
MA6813400180,h_OCHCTP,13-L1-1,2019-01-24 18:30:00.0,PmdMin,0.738,CHCGILDTO6Y
MA6813400180,h_OCHCTP,13-L1-1,2019-01-24 18:30:00.0,SoPmdAve,3588.6,CHCGILDTO6Y
MA6813400180,h_OCHCTP,13-L1-1,2019-01-24 18:45:00.0,Qmin,9.15,CHCGILDTO6Y
MA6813400180,h_OCHCTP,13-L1-1,2019-01-24 18:45:00.0,PhaseCorrectionAve,2.12e-07,CHCGILDTO6Y
MA6813400180,h_OCHCTP,13-L1-1,2019-01-24 18:45:00.0,BerPreFecMax,0.00207,CHCGILDTO6Y
MA6813400180,h_OCHCTP,13-L1-1,2019-01-24 18:45:00.0,PmdMin,0.739,CHCGILDTO6Y
MA6813400180,h_OCHCTP,13-L1-1,2019-01-24 18:45:00.0,SoPmdAve,3519.65,CHCGILDTO6Y
MA6813400180,h_OCHCTP,13-L1-2,2019-01-24 18:15:00.0,Qmin,9.11,CHCGILDTO6Y
MA6813400180,h_OCHCTP,13-L1-2,2019-01-24 18:15:00.0,PhaseCorrectionAve,3.3e-07,CHCGILDTO6Y
MA6813400180,h_OCHCTP,13-L1-2,2019-01-24 18:15:00.0,BerPreFecMax,0.00214,CHCGILDTO6Y
MA6813400180,h_OCHCTP,13-L1-2,2019-01-24 18:15:00.0,PmdMin,0.973,CHCGILDTO6Y
MA6813400180,h_OCHCTP,13-L1-2,2019-01-24 18:15:00.0,SoPmdAve,3512.19,CHCGILDTO6Y
MA6813400180,h_OCHCTP,13-L1-2,2019-01-24 18:30:00.0,Qmin,9.11,CHCGILDTO6Y
MA6813400180,h_OCHCTP,13-L1-2,2019-01-24 18:30:00.0,PhaseCorrectionAve,3.09e-07,CHCGILDTO6Y
MA6813400180,h_OCHCTP,13-L1-2,2019-01-24 18:30:00.0,BerPreFecMax,0.00216,CHCGILDTO6Y
MA6813400180,h_OCHCTP,13-L1-2,2019-01-24 18:30:00.0,PmdMin,0.814,CHCGILDTO6Y
MA6813400180,h_OCHCTP,13-L1-2,2019-01-24 18:30:00.0,SoPmdAve,3516.2,CHCGILDTO6Y
MA6813400180,h_OCHCTP,13-L1-2,2019-01-24 18:45:00.0,Qmin,9.16,CHCGILDTO6Y
MA6813400180,h_OCHCTP,13-L1-2,2019-01-24 18:45:00.0,PhaseCorrectionAve,-0.122,CHCGILDTO6Y
MA6813400180,h_OCHCTP,13-L1-2,2019-01-24 18:45:00.0,BerPreFecMax,0.00204,CHCGILDTO6Y
MA6813400180,h_OCHCTP,13-L1-2,2019-01-24 18:45:00.0,PmdMin,0.932,CHCGILDTO6Y
MA6813400180,h_OCHCTP,13-L1-2,2019-01-24 18:45:00.0,SoPmdAve,3434.3,CHCGILDTO6Y
MA6813400180,h_OCHCTP,13-L1-3,2019-01-24 18:15:00.0,Qmin,8.93,CHCGILDTO6Y
MA6813400180,h_OCHCTP,13-L1-3,2019-01-24 18:15:00.0,PhaseCorrectionAve,5.02e-07,CHCGILDTO6Y
MA6813400180,h_OCHCTP,13-L1-3,2019-01-24 18:15:00.0,BerPreFecMax,0.00258,CHCGILDTO6Y
MA6813400180,h_OCHCTP,13-L1-3,2019-01-24 18:15:00.0,PmdMin,1.11,CHCGILDTO6Y
MA6813400180,h_OCHCTP,13-L1-3,2019-01-24 18:15:00.0,SoPmdAve,2947.09,CHCGILDTO6Y
MA6813400180,h_OCHCTP,13-L1-3,2019-01-24 18:30:00.0,Qmin,8.88,CHCGILDTO6Y
MA6813400180,h_OCHCTP,13-L1-3,2019-01-24 18:30:00.0,PhaseCorrectionAve,5.08e-07,CHCGILDTO6Y
MA6813400180,h_OCHCTP,13-L1-3,2019-01-24 18:30:00.0,BerPreFecMax,0.00271,CHCGILDTO6Y
MA6813400180,h_OCHCTP,13-L1-3,2019-01-24 18:30:00.0,PmdMin,0.692,CHCGILDTO6Y
MA6813400180,h_OCHCTP,13-L1-3,2019-01-24 18:30:00.0,SoPmdAve,2892.39,CHCGILDTO6Y
MA6813400180,h_OCHCTP,13-L1-3,2019-01-24 18:45:00.0,Qmin,8.89,CHCGILDTO6Y
MA6813400180,h_OCHCTP,13-L1-3,2019-01-24 18:45:00.0,PhaseCorrectionAve,-0.244,CHCGILDTO6Y
MA6813400180,h_OCHCTP,13-L1-3,2019-01-24 18:45:00.0,BerPreFecMax,0.0027,CHCGILDTO6Y
MA6813400180,h_OCHCTP,13-L1-3,2019-01-24 18:45:00.0,PmdMin,1.24,CHCGILDTO6Y
MA6813400180,h_OCHCTP,13-L1-3,2019-01-24 18:45:00.0,SoPmdAve,2949.14,CHCGILDTO6Y
MA6813400180,h_OCHCTP,13-L1-4,2019-01-24 18:15:00.0,Qmin,8.72,CHCGILDTO6Y
MA6813400180,h_OCHCTP,13-L1-4,2019-01-24 18:15:00.0,PhaseCorrectionAve,-0.0611,CHCGILDTO6Y
MA6813400180,h_OCHCTP,13-L1-4,2019-01-24 18:15:00.0,BerPreFecMax,0.00319,CHCGILDTO6Y
MA6813400180,h_OCHCTP,13-L1-4,2019-01-24 18:15:00.0,PmdMin,0.465,CHCGILDTO6Y
MA6813400180,h_OCHCTP,13-L1-4,2019-01-24 18:15:00.0,SoPmdAve,3333.72,CHCGILDTO6Y
MA6813400180,h_OCHCTP,13-L1-4,2019-01-24 18:30:00.0,Qmin,8.7,CHCGILDTO6Y
MA6813400180,h_OCHCTP,13-L1-4,2019-01-24 18:30:00.0,PhaseCorrectionAve,5.35e-07,CHCGILDTO6Y
MA6813400180,h_OCHCTP,13-L1-4,2019-01-24 18:30:00.0,BerPreFecMax,0.00323,CHCGILDTO6Y
MA6813400180,h_OCHCTP,13-L1-4,2019-01-24 18:30:00.0,PmdMin,1.07,CHCGILDTO6Y
MA6813400180,h_OCHCTP,13-L1-4,2019-01-24 18:30:00.0,SoPmdAve,3382.25,CHCGILDTO6Y
MA6813400180,h_OCHCTP,13-L1-4,2019-01-24 18:45:00.0,Qmin,8.7,CHCGILDTO6Y
MA6813400180,h_OCHCTP,13-L1-4,2019-01-24 18:45:00.0,PhaseCorrectionAve,-0.244,CHCGILDTO6Y
MA6813400180,h_OCHCTP,13-L1-4,2019-01-24 18:45:00.0,BerPreFecMax,0.00323,CHCGILDTO6Y
MA6813400180,h_OCHCTP,13-L1-4,2019-01-24 18:45:00.0,PmdMin,1.06,CHCGILDTO6Y
MA6813400180,h_OCHCTP,13-L1-4,2019-01-24 18:45:00.0,SoPmdAve,3337.57,CHCGILDTO6Y
MA6813400180,h_OCHCTP,13-L1-5,2019-01-24 18:15:00.0,Qmin,8.77,CHCGILDTO6Y
MA6813400180,h_OCHCTP,13-L1-5,2019-01-24 18:15:00.0,PhaseCorrectionAve,-0.0611,CHCGILDTO6Y
MA6813400180,h_OCHCTP,13-L1-5,2019-01-24 18:15:00.0,BerPreFecMax,0.00303,CHCGILDTO6Y
MA6813400180,h_OCHCTP,13-L1-5,2019-01-24 18:15:00.0,PmdMin,0.289,CHCGILDTO6Y
MA6813400180,h_OCHCTP,13-L1-5,2019-01-24 18:15:00.0,SoPmdAve,2843.05,CHCGILDTO6Y
MA6813400180,h_OCHCTP,13-L1-5,2019-01-24 18:30:00.0,Qmin,8.72,CHCGILDTO6Y
MA6813400180,h_OCHCTP,13-L1-5,2019-01-24 18:30:00.0,PhaseCorrectionAve,3.11e-07,CHCGILDTO6Y
MA6813400180,h_OCHCTP,13-L1-5,2019-01-24 18:30:00.0,BerPreFecMax,0.00318,CHCGILDTO6Y
MA6813400180,h_OCHCTP,13-L1-5,2019-01-24 18:30:00.0,PmdMin,0.634,CHCGILDTO6Y
MA6813400180,h_OCHCTP,13-L1-5,2019-01-24 18:30:00.0,SoPmdAve,2816.87,CHCGILDTO6Y
MA6813400180,h_OCHCTP,13-L1-5,2019-01-24 18:45:00.0,Qmin,8.75,CHCGILDTO6Y
MA6813400180,h_OCHCTP,13-L1-5,2019-01-24 18:45:00.0,PhaseCorrectionAve,-0.305,CHCGILDTO6Y
MA6813400180,h_OCHCTP,13-L1-5,2019-01-24 18:45:00.0,BerPreFecMax,0.00309,CHCGILDTO6Y
MA6813400180,h_OCHCTP,13-L1-5,2019-01-24 18:45:00.0,PmdMin,0.461,CHCGILDTO6Y
MA6813400180,h_OCHCTP,13-L1-5,2019-01-24 18:45:00.0,SoPmdAve,2831.05,CHCGILDTO6Y
MA6813400180,h_OCHCTP,13-L1-6,2019-01-24 18:15:00.0,Qmin,8.85,CHCGILDTO6Y
MA6813400180,h_OCHCTP,13-L1-6,2019-01-24 18:15:00.0,PhaseCorrectionAve,-0.0611,CHCGILDTO6Y
MA6813400180,h_OCHCTP,13-L1-6,2019-01-24 18:15:00.0,BerPreFecMax,0.00281,CHCGILDTO6Y
MA6813400180,h_OCHCTP,13-L1-6,2019-01-24 18:15:00.0,PmdMin,0.541,CHCGILDTO6Y
MA6813400180,h_OCHCTP,13-L1-6,2019-01-24 18:15:00.0,SoPmdAve,2955.84,CHCGILDTO6Y
MA6813400180,h_OCHCTP,13-L1-6,2019-01-24 18:30:00.0,Qmin,8.8,CHCGILDTO6Y
MA6813400180,h_OCHCTP,13-L1-6,2019-01-24 18:30:00.0,PhaseCorrectionAve,-0.061,CHCGILDTO6Y
MA6813400180,h_OCHCTP,13-L1-6,2019-01-24 18:30:00.0,BerPreFecMax,0.00295,CHCGILDTO6Y
MA6813400180,h_OCHCTP,13-L1-6,2019-01-24 18:30:00.0,PmdMin,0.818,CHCGILDTO6Y
MA6813400180,h_OCHCTP,13-L1-6,2019-01-24 18:30:00.0,SoPmdAve,3059.76,CHCGILDTO6Y
MA6813400180,h_OCHCTP,13-L1-6,2019-01-24 18:45:00.0,Qmin,8.8,CHCGILDTO6Y
MA6813400180,h_OCHCTP,13-L1-6,2019-01-24 18:45:00.0,PhaseCorrectionAve,-0.305,CHCGILDTO6Y
MA6813400180,h_OCHCTP,13-L1-6,2019-01-24 18:45:00.0,BerPreFecMax,0.00293,CHCGILDTO6Y
MA6813400180,h_OCHCTP,13-L1-6,2019-01-24 18:45:00.0,PmdMin,0.366,CHCGILDTO6Y
MA6813400180,h_OCHCTP,13-L1-6,2019-01-24 18:45:00.0,SoPmdAve,3067.04,CHCGILDTO6Y
MA6813400180,h_OCHCTP,13-L1-7,2019-01-24 18:15:00.0,Qmin,8.8,CHCGILDTO6Y
MA6813400180,h_OCHCTP,13-L1-7,2019-01-24 18:15:00.0,PhaseCorrectionAve,-0.0611,CHCGILDTO6Y
MA6813400180,h_OCHCTP,13-L1-7,2019-01-24 18:15:00.0,BerPreFecMax,0.00294,CHCGILDTO6Y
MA6813400180,h_OCHCTP,13-L1-7,2019-01-24 18:15:00.0,PmdMin,0.553,CHCGILDTO6Y
MA6813400180,h_OCHCTP,13-L1-7,2019-01-24 18:15:00.0,SoPmdAve,3812.48,CHCGILDTO6Y
MA6813400180,h_OCHCTP,13-L1-7,2019-01-24 18:30:00.0,Qmin,8.78,CHCGILDTO6Y
MA6813400180,h_OCHCTP,13-L1-7,2019-01-24 18:30:00.0,PhaseCorrectionAve,-0.122,CHCGILDTO6Y
MA6813400180,h_OCHCTP,13-L1-7,2019-01-24 18:30:00.0,BerPreFecMax,0.00299,CHCGILDTO6Y
MA6813400180,h_OCHCTP,13-L1-7,2019-01-24 18:30:00.0,PmdMin,0.732,CHCGILDTO6Y
MA6813400180,h_OCHCTP,13-L1-7,2019-01-24 18:30:00.0,SoPmdAve,3712.13,CHCGILDTO6Y
MA6813400180,h_OCHCTP,13-L1-7,2019-01-24 18:45:00.0,Qmin,8.78,CHCGILDTO6Y
MA6813400180,h_OCHCTP,13-L1-7,2019-01-24 18:45:00.0,PhaseCorrectionAve,-0.305,CHCGILDTO6Y
MA6813400180,h_OCHCTP,13-L1-7,2019-01-24 18:45:00.0,BerPreFecMax,0.00301,CHCGILDTO6Y
MA6813400180,h_OCHCTP,13-L1-7,2019-01-24 18:45:00.0,PmdMin,1.23,CHCGILDTO6Y
MA6813400180,h_OCHCTP,13-L1-7,2019-01-24 18:45:00.0,SoPmdAve,3731.33,CHCGILDTO6Y
MA6813400180,h_OCHCTP,13-L1-8,2019-01-24 18:15:00.0,Qmin,8.91,CHCGILDTO6Y
MA6813400180,h_OCHCTP,13-L1-8,2019-01-24 18:15:00.0,PhaseCorrectionAve,-0.0611,CHCGILDTO6Y
MA6813400180,h_OCHCTP,13-L1-8,2019-01-24 18:15:00.0,BerPreFecMax,0.00264,CHCGILDTO6Y
MA6813400180,h_OCHCTP,13-L1-8,2019-01-24 18:15:00.0,PmdMin,0.842,CHCGILDTO6Y
MA6813400180,h_OCHCTP,13-L1-8,2019-01-24 18:15:00.0,SoPmdAve,3845.05,CHCGILDTO6Y
MA6813400180,h_OCHCTP,13-L1-8,2019-01-24 18:30:00.0,Qmin,8.87,CHCGILDTO6Y
MA6813400180,h_OCHCTP,13-L1-8,2019-01-24 18:30:00.0,PhaseCorrectionAve,-0.122,CHCGILDTO6Y
MA6813400180,h_OCHCTP,13-L1-8,2019-01-24 18:30:00.0,BerPreFecMax,0.00274,CHCGILDTO6Y
MA6813400180,h_OCHCTP,13-L1-8,2019-01-24 18:30:00.0,PmdMin,0.471,CHCGILDTO6Y
MA6813400180,h_OCHCTP,13-L1-8,2019-01-24 18:30:00.0,SoPmdAve,3928.59,CHCGILDTO6Y
MA6813400180,h_OCHCTP,13-L1-8,2019-01-24 18:45:00.0,Qmin,8.87,CHCGILDTO6Y
MA6813400180,h_OCHCTP,13-L1-8,2019-01-24 18:45:00.0,PhaseCorrectionAve,-0.305,CHCGILDTO6Y
MA6813400180,h_OCHCTP,13-L1-8,2019-01-24 18:45:00.0,BerPreFecMax,0.00274,CHCGILDTO6Y
MA6813400180,h_OCHCTP,13-L1-8,2019-01-24 18:45:00.0,PmdMin,1.14,CHCGILDTO6Y
MA6813400180,h_OCHCTP,13-L1-8,2019-01-24 18:45:00.0,SoPmdAve,3906.42,CHCGILDTO6Y
MA6813400180,h_OCHCTP,13-L1-9,2019-01-24 18:15:00.0,Qmin,8.84,CHCGILDTO6Y
MA6813400180,h_OCHCTP,13-L1-9,2019-01-24 18:15:00.0,PhaseCorrectionAve,-0.122,CHCGILDTO6Y
MA6813400180,h_OCHCTP,13-L1-9,2019-01-24 18:15:00.0,BerPreFecMax,0.00282,CHCGILDTO6Y
MA6813400180,h_OCHCTP,13-L1-9,2019-01-24 18:15:00.0,PmdMin,1.11,CHCGILDTO6Y
MA6813400180,h_OCHCTP,13-L1-9,2019-01-24 18:15:00.0,SoPmdAve,3567.95,CHCGILDTO6Y
MA6813400180,h_OCHCTP,13-L1-9,2019-01-24 18:30:00.0,Qmin,8.84,CHCGILDTO6Y
MA6813400180,h_OCHCTP,13-L1-9,2019-01-24 18:30:00.0,PhaseCorrectionAve,-0.244,CHCGILDTO6Y
MA6813400180,h_OCHCTP,13-L1-9,2019-01-24 18:30:00.0,BerPreFecMax,0.00282,CHCGILDTO6Y
MA6813400180,h_OCHCTP,13-L1-9,2019-01-24 18:30:00.0,PmdMin,0.662,CHCGILDTO6Y
MA6813400180,h_OCHCTP,13-L1-9,2019-01-24 18:30:00.0,SoPmdAve,3516.26,CHCGILDTO6Y
MA6813400180,h_OCHCTP,13-L1-9,2019-01-24 18:45:00.0,Qmin,8.84,CHCGILDTO6Y
MA6813400180,h_OCHCTP,13-L1-9,2019-01-24 18:45:00.0,PhaseCorrectionAve,-0.305,CHCGILDTO6Y
MA6813400180,h_OCHCTP,13-L1-9,2019-01-24 18:45:00.0,BerPreFecMax,0.00284,CHCGILDTO6Y
MA6813400180,h_OCHCTP,13-L1-9,2019-01-24 18:45:00.0,PmdMin,1.03,CHCGILDTO6Y
MA6813400180,h_OCHCTP,13-L1-9,2019-01-24 18:45:00.0,SoPmdAve,3567.55,CHCGILDTO6Y
MA6813400180,h_OCHCTP,13-L1-10,2019-01-24 18:15:00.0,Qmin,8.73,CHCGILDTO6Y
MA6813400180,h_OCHCTP,13-L1-10,2019-01-24 18:15:00.0,PhaseCorrectionAve,-0.122,CHCGILDTO6Y
MA6813400180,h_OCHCTP,13-L1-10,2019-01-24 18:15:00.0,BerPreFecMax,0.00314,CHCGILDTO6Y
MA6813400180,h_OCHCTP,13-L1-10,2019-01-24 18:15:00.0,PmdMin,0.57,CHCGILDTO6Y
MA6813400180,h_OCHCTP,13-L1-10,2019-01-24 18:15:00.0,SoPmdAve,3841.5,CHCGILDTO6Y
MA6813400180,h_OCHCTP,13-L1-10,2019-01-24 18:30:00.0,Qmin,8.72,CHCGILDTO6Y
MA6813400180,h_OCHCTP,13-L1-10,2019-01-24 18:30:00.0,PhaseCorrectionAve,-0.244,CHCGILDTO6Y
MA6813400180,h_OCHCTP,13-L1-10,2019-01-24 18:30:00.0,BerPreFecMax,0.00317,CHCGILDTO6Y
MA6813400180,h_OCHCTP,13-L1-10,2019-01-24 18:30:00.0,PmdMin,0.604,CHCGILDTO6Y
MA6813400180,h_OCHCTP,13-L1-10,2019-01-24 18:30:00.0,SoPmdAve,3816.67,CHCGILDTO6Y
MA6813400180,h_OCHCTP,13-L1-10,2019-01-24 18:45:00.0,Qmin,8.76,CHCGILDTO6Y
MA6813400180,h_OCHCTP,13-L1-10,2019-01-24 18:45:00.0,PhaseCorrectionAve,-0.305,CHCGILDTO6Y
MA6813400180,h_OCHCTP,13-L1-10,2019-01-24 18:45:00.0,BerPreFecMax,0.00305,CHCGILDTO6Y
MA6813400180,h_OCHCTP,13-L1-10,2019-01-24 18:45:00.0,PmdMin,0.971,CHCGILDTO6Y
MA6813400180,h_OCHCTP,13-L1-10,2019-01-24 18:45:00.0,SoPmdAve,3740.85,CHCGILDTO6Y
