MA6813400180,h_OCHCTP,11-L1-1,2019-02-04 15:15:00.0,Qmin,9.0,CHCGILDTO6Y
MA6813400180,h_OCHCTP,11-L1-1,2019-02-04 15:15:00.0,PhaseCorrectionAve,1.35e-07,CHCGILDTO6Y
MA6813400180,h_OCHCTP,11-L1-1,2019-02-04 15:15:00.0,BerPreFecMax,0.00241,CHCGILDTO6Y
MA6813400180,h_OCHCTP,11-L1-1,2019-02-04 15:15:00.0,PmdMin,1.01,CHCGILDTO6Y
MA6813400180,h_OCHCTP,11-L1-1,2019-02-04 15:15:00.0,SoPmdAve,3355.9,CHCGILDTO6Y
MA6813400180,h_OCHCTP,11-L1-1,2019-02-04 15:30:00.0,Qmin,9.04,CHCGILDTO6Y
MA6813400180,h_OCHCTP,11-L1-1,2019-02-04 15:30:00.0,PhaseCorrectionAve,1.36e-07,CHCGILDTO6Y
MA6813400180,h_OCHCTP,11-L1-1,2019-02-04 15:30:00.0,BerPreFecMax,0.00233,CHCGILDTO6Y
MA6813400180,h_OCHCTP,11-L1-1,2019-02-04 15:30:00.0,PmdMin,0.583,CHCGILDTO6Y
MA6813400180,h_OCHCTP,11-L1-1,2019-02-04 15:30:00.0,SoPmdAve,3311.36,CHCGILDTO6Y
MA6813400180,h_OCHCTP,11-L1-1,2019-02-04 15:45:00.0,Qmin,8.98,CHCGILDTO6Y
MA6813400180,h_OCHCTP,11-L1-1,2019-02-04 15:45:00.0,PhaseCorrectionAve,1.54e-07,CHCGILDTO6Y
MA6813400180,h_OCHCTP,11-L1-1,2019-02-04 15:45:00.0,BerPreFecMax,0.00245,CHCGILDTO6Y
MA6813400180,h_OCHCTP,11-L1-1,2019-02-04 15:45:00.0,PmdMin,1.49,CHCGILDTO6Y
MA6813400180,h_OCHCTP,11-L1-1,2019-02-04 15:45:00.0,SoPmdAve,3417.26,CHCGILDTO6Y
MA6813400180,h_OCHCTP,11-L1-2,2019-02-04 15:15:00.0,Qmin,9.01,CHCGILDTO6Y
MA6813400180,h_OCHCTP,11-L1-2,2019-02-04 15:15:00.0,PhaseCorrectionAve,-0.122,CHCGILDTO6Y
MA6813400180,h_OCHCTP,11-L1-2,2019-02-04 15:15:00.0,BerPreFecMax,0.00239,CHCGILDTO6Y
MA6813400180,h_OCHCTP,11-L1-2,2019-02-04 15:15:00.0,PmdMin,1.13,CHCGILDTO6Y
MA6813400180,h_OCHCTP,11-L1-2,2019-02-04 15:15:00.0,SoPmdAve,3066.67,CHCGILDTO6Y
MA6813400180,h_OCHCTP,11-L1-2,2019-02-04 15:30:00.0,Qmin,8.98,CHCGILDTO6Y
MA6813400180,h_OCHCTP,11-L1-2,2019-02-04 15:30:00.0,PhaseCorrectionAve,3.55e-07,CHCGILDTO6Y
MA6813400180,h_OCHCTP,11-L1-2,2019-02-04 15:30:00.0,BerPreFecMax,0.00245,CHCGILDTO6Y
MA6813400180,h_OCHCTP,11-L1-2,2019-02-04 15:30:00.0,PmdMin,0.905,CHCGILDTO6Y
MA6813400180,h_OCHCTP,11-L1-2,2019-02-04 15:30:00.0,SoPmdAve,3108.79,CHCGILDTO6Y
MA6813400180,h_OCHCTP,11-L1-2,2019-02-04 15:45:00.0,Qmin,8.97,CHCGILDTO6Y
MA6813400180,h_OCHCTP,11-L1-2,2019-02-04 15:45:00.0,PhaseCorrectionAve,3.76e-07,CHCGILDTO6Y
MA6813400180,h_OCHCTP,11-L1-2,2019-02-04 15:45:00.0,BerPreFecMax,0.00249,CHCGILDTO6Y
MA6813400180,h_OCHCTP,11-L1-2,2019-02-04 15:45:00.0,PmdMin,1.24,CHCGILDTO6Y
MA6813400180,h_OCHCTP,11-L1-2,2019-02-04 15:45:00.0,SoPmdAve,3142.86,CHCGILDTO6Y
MA6813400180,h_OCHCTP,11-L1-3,2019-02-04 15:15:00.0,Qmin,8.91,CHCGILDTO6Y
MA6813400180,h_OCHCTP,11-L1-3,2019-02-04 15:15:00.0,PhaseCorrectionAve,-0.122,CHCGILDTO6Y
MA6813400180,h_OCHCTP,11-L1-3,2019-02-04 15:15:00.0,BerPreFecMax,0.00263,CHCGILDTO6Y
MA6813400180,h_OCHCTP,11-L1-3,2019-02-04 15:15:00.0,PmdMin,0.806,CHCGILDTO6Y
MA6813400180,h_OCHCTP,11-L1-3,2019-02-04 15:15:00.0,SoPmdAve,2724.64,CHCGILDTO6Y
MA6813400180,h_OCHCTP,11-L1-3,2019-02-04 15:30:00.0,Qmin,8.78,CHCGILDTO6Y
MA6813400180,h_OCHCTP,11-L1-3,2019-02-04 15:30:00.0,PhaseCorrectionAve,4.41e-07,CHCGILDTO6Y
MA6813400180,h_OCHCTP,11-L1-3,2019-02-04 15:30:00.0,BerPreFecMax,0.00299,CHCGILDTO6Y
MA6813400180,h_OCHCTP,11-L1-3,2019-02-04 15:30:00.0,PmdMin,1.27,CHCGILDTO6Y
MA6813400180,h_OCHCTP,11-L1-3,2019-02-04 15:30:00.0,SoPmdAve,2744.16,CHCGILDTO6Y
MA6813400180,h_OCHCTP,11-L1-3,2019-02-04 15:45:00.0,Qmin,8.86,CHCGILDTO6Y
MA6813400180,h_OCHCTP,11-L1-3,2019-02-04 15:45:00.0,PhaseCorrectionAve,4.71e-07,CHCGILDTO6Y
MA6813400180,h_OCHCTP,11-L1-3,2019-02-04 15:45:00.0,BerPreFecMax,0.00277,CHCGILDTO6Y
MA6813400180,h_OCHCTP,11-L1-3,2019-02-04 15:45:00.0,PmdMin,1.17,CHCGILDTO6Y
MA6813400180,h_OCHCTP,11-L1-3,2019-02-04 15:45:00.0,SoPmdAve,2678.74,CHCGILDTO6Y
MA6813400180,h_OCHCTP,11-L1-4,2019-02-04 15:15:00.0,Qmin,8.71,CHCGILDTO6Y
MA6813400180,h_OCHCTP,11-L1-4,2019-02-04 15:15:00.0,PhaseCorrectionAve,-0.122,CHCGILDTO6Y
MA6813400180,h_OCHCTP,11-L1-4,2019-02-04 15:15:00.0,BerPreFecMax,0.00322,CHCGILDTO6Y
MA6813400180,h_OCHCTP,11-L1-4,2019-02-04 15:15:00.0,PmdMin,0.313,CHCGILDTO6Y
MA6813400180,h_OCHCTP,11-L1-4,2019-02-04 15:15:00.0,SoPmdAve,3012.48,CHCGILDTO6Y
MA6813400180,h_OCHCTP,11-L1-4,2019-02-04 15:30:00.0,Qmin,8.64,CHCGILDTO6Y
MA6813400180,h_OCHCTP,11-L1-4,2019-02-04 15:30:00.0,PhaseCorrectionAve,6.93e-07,CHCGILDTO6Y
MA6813400180,h_OCHCTP,11-L1-4,2019-02-04 15:30:00.0,BerPreFecMax,0.00342,CHCGILDTO6Y
MA6813400180,h_OCHCTP,11-L1-4,2019-02-04 15:30:00.0,PmdMin,0.546,CHCGILDTO6Y
MA6813400180,h_OCHCTP,11-L1-4,2019-02-04 15:30:00.0,SoPmdAve,2985.85,CHCGILDTO6Y
MA6813400180,h_OCHCTP,11-L1-4,2019-02-04 15:45:00.0,Qmin,8.66,CHCGILDTO6Y
MA6813400180,h_OCHCTP,11-L1-4,2019-02-04 15:45:00.0,PhaseCorrectionAve,6.47e-07,CHCGILDTO6Y
MA6813400180,h_OCHCTP,11-L1-4,2019-02-04 15:45:00.0,BerPreFecMax,0.00336,CHCGILDTO6Y
MA6813400180,h_OCHCTP,11-L1-4,2019-02-04 15:45:00.0,PmdMin,0.364,CHCGILDTO6Y
MA6813400180,h_OCHCTP,11-L1-4,2019-02-04 15:45:00.0,SoPmdAve,3056.61,CHCGILDTO6Y
MA6813400180,h_OCHCTP,11-L1-5,2019-02-04 15:15:00.0,Qmin,8.8,CHCGILDTO6Y
MA6813400180,h_OCHCTP,11-L1-5,2019-02-04 15:15:00.0,PhaseCorrectionAve,-0.122,CHCGILDTO6Y
MA6813400180,h_OCHCTP,11-L1-5,2019-02-04 15:15:00.0,BerPreFecMax,0.00294,CHCGILDTO6Y
MA6813400180,h_OCHCTP,11-L1-5,2019-02-04 15:15:00.0,PmdMin,0.884,CHCGILDTO6Y
MA6813400180,h_OCHCTP,11-L1-5,2019-02-04 15:15:00.0,SoPmdAve,2588.45,CHCGILDTO6Y
MA6813400180,h_OCHCTP,11-L1-5,2019-02-04 15:30:00.0,Qmin,8.81,CHCGILDTO6Y
MA6813400180,h_OCHCTP,11-L1-5,2019-02-04 15:30:00.0,PhaseCorrectionAve,-0.122,CHCGILDTO6Y
MA6813400180,h_OCHCTP,11-L1-5,2019-02-04 15:30:00.0,BerPreFecMax,0.00292,CHCGILDTO6Y
MA6813400180,h_OCHCTP,11-L1-5,2019-02-04 15:30:00.0,PmdMin,0.784,CHCGILDTO6Y
MA6813400180,h_OCHCTP,11-L1-5,2019-02-04 15:30:00.0,SoPmdAve,2590.23,CHCGILDTO6Y
MA6813400180,h_OCHCTP,11-L1-5,2019-02-04 15:45:00.0,Qmin,8.72,CHCGILDTO6Y
MA6813400180,h_OCHCTP,11-L1-5,2019-02-04 15:45:00.0,PhaseCorrectionAve,2.03e-07,CHCGILDTO6Y
MA6813400180,h_OCHCTP,11-L1-5,2019-02-04 15:45:00.0,BerPreFecMax,0.00319,CHCGILDTO6Y
MA6813400180,h_OCHCTP,11-L1-5,2019-02-04 15:45:00.0,PmdMin,0.448,CHCGILDTO6Y
MA6813400180,h_OCHCTP,11-L1-5,2019-02-04 15:45:00.0,SoPmdAve,2525.91,CHCGILDTO6Y
MA6813400180,h_OCHCTP,11-L1-6,2019-02-04 15:15:00.0,Qmin,8.76,CHCGILDTO6Y
MA6813400180,h_OCHCTP,11-L1-6,2019-02-04 15:15:00.0,PhaseCorrectionAve,-0.122,CHCGILDTO6Y
MA6813400180,h_OCHCTP,11-L1-6,2019-02-04 15:15:00.0,BerPreFecMax,0.00307,CHCGILDTO6Y
MA6813400180,h_OCHCTP,11-L1-6,2019-02-04 15:15:00.0,PmdMin,1.17,CHCGILDTO6Y
MA6813400180,h_OCHCTP,11-L1-6,2019-02-04 15:15:00.0,SoPmdAve,2478.36,CHCGILDTO6Y
MA6813400180,h_OCHCTP,11-L1-6,2019-02-04 15:30:00.0,Qmin,8.66,CHCGILDTO6Y
MA6813400180,h_OCHCTP,11-L1-6,2019-02-04 15:30:00.0,PhaseCorrectionAve,-0.122,CHCGILDTO6Y
MA6813400180,h_OCHCTP,11-L1-6,2019-02-04 15:30:00.0,BerPreFecMax,0.00336,CHCGILDTO6Y
MA6813400180,h_OCHCTP,11-L1-6,2019-02-04 15:30:00.0,PmdMin,1.04,CHCGILDTO6Y
MA6813400180,h_OCHCTP,11-L1-6,2019-02-04 15:30:00.0,SoPmdAve,2503.77,CHCGILDTO6Y
MA6813400180,h_OCHCTP,11-L1-6,2019-02-04 15:45:00.0,Qmin,8.68,CHCGILDTO6Y
MA6813400180,h_OCHCTP,11-L1-6,2019-02-04 15:45:00.0,PhaseCorrectionAve,5.66e-07,CHCGILDTO6Y
MA6813400180,h_OCHCTP,11-L1-6,2019-02-04 15:45:00.0,BerPreFecMax,0.00329,CHCGILDTO6Y
MA6813400180,h_OCHCTP,11-L1-6,2019-02-04 15:45:00.0,PmdMin,0.907,CHCGILDTO6Y
MA6813400180,h_OCHCTP,11-L1-6,2019-02-04 15:45:00.0,SoPmdAve,2548.77,CHCGILDTO6Y
MA6813400180,h_OCHCTP,11-L1-7,2019-02-04 15:15:00.0,Qmin,8.73,CHCGILDTO6Y
MA6813400180,h_OCHCTP,11-L1-7,2019-02-04 15:15:00.0,PhaseCorrectionAve,-0.122,CHCGILDTO6Y
MA6813400180,h_OCHCTP,11-L1-7,2019-02-04 15:15:00.0,BerPreFecMax,0.00316,CHCGILDTO6Y
MA6813400180,h_OCHCTP,11-L1-7,2019-02-04 15:15:00.0,PmdMin,0.564,CHCGILDTO6Y
MA6813400180,h_OCHCTP,11-L1-7,2019-02-04 15:15:00.0,SoPmdAve,3100.11,CHCGILDTO6Y
MA6813400180,h_OCHCTP,11-L1-7,2019-02-04 15:30:00.0,Qmin,8.72,CHCGILDTO6Y
MA6813400180,h_OCHCTP,11-L1-7,2019-02-04 15:30:00.0,PhaseCorrectionAve,-0.183,CHCGILDTO6Y
MA6813400180,h_OCHCTP,11-L1-7,2019-02-04 15:30:00.0,BerPreFecMax,0.00317,CHCGILDTO6Y
MA6813400180,h_OCHCTP,11-L1-7,2019-02-04 15:30:00.0,PmdMin,1.41,CHCGILDTO6Y
MA6813400180,h_OCHCTP,11-L1-7,2019-02-04 15:30:00.0,SoPmdAve,2998.27,CHCGILDTO6Y
MA6813400180,h_OCHCTP,11-L1-7,2019-02-04 15:45:00.0,Qmin,8.69,CHCGILDTO6Y
MA6813400180,h_OCHCTP,11-L1-7,2019-02-04 15:45:00.0,PhaseCorrectionAve,3.85e-07,CHCGILDTO6Y
MA6813400180,h_OCHCTP,11-L1-7,2019-02-04 15:45:00.0,BerPreFecMax,0.00326,CHCGILDTO6Y
MA6813400180,h_OCHCTP,11-L1-7,2019-02-04 15:45:00.0,PmdMin,1.22,CHCGILDTO6Y
MA6813400180,h_OCHCTP,11-L1-7,2019-02-04 15:45:00.0,SoPmdAve,3052.17,CHCGILDTO6Y
MA6813400180,h_OCHCTP,11-L1-8,2019-02-04 15:15:00.0,Qmin,8.81,CHCGILDTO6Y
MA6813400180,h_OCHCTP,11-L1-8,2019-02-04 15:15:00.0,PhaseCorrectionAve,-0.122,CHCGILDTO6Y
MA6813400180,h_OCHCTP,11-L1-8,2019-02-04 15:15:00.0,BerPreFecMax,0.00291,CHCGILDTO6Y
MA6813400180,h_OCHCTP,11-L1-8,2019-02-04 15:15:00.0,PmdMin,0.835,CHCGILDTO6Y
MA6813400180,h_OCHCTP,11-L1-8,2019-02-04 15:15:00.0,SoPmdAve,3030.06,CHCGILDTO6Y
MA6813400180,h_OCHCTP,11-L1-8,2019-02-04 15:30:00.0,Qmin,8.84,CHCGILDTO6Y
MA6813400180,h_OCHCTP,11-L1-8,2019-02-04 15:30:00.0,PhaseCorrectionAve,-0.244,CHCGILDTO6Y
MA6813400180,h_OCHCTP,11-L1-8,2019-02-04 15:30:00.0,BerPreFecMax,0.00282,CHCGILDTO6Y
MA6813400180,h_OCHCTP,11-L1-8,2019-02-04 15:30:00.0,PmdMin,0.872,CHCGILDTO6Y
MA6813400180,h_OCHCTP,11-L1-8,2019-02-04 15:30:00.0,SoPmdAve,3071.62,CHCGILDTO6Y
MA6813400180,h_OCHCTP,11-L1-8,2019-02-04 15:45:00.0,Qmin,8.81,CHCGILDTO6Y
MA6813400180,h_OCHCTP,11-L1-8,2019-02-04 15:45:00.0,PhaseCorrectionAve,8.93e-07,CHCGILDTO6Y
MA6813400180,h_OCHCTP,11-L1-8,2019-02-04 15:45:00.0,BerPreFecMax,0.00291,CHCGILDTO6Y
MA6813400180,h_OCHCTP,11-L1-8,2019-02-04 15:45:00.0,PmdMin,0.348,CHCGILDTO6Y
MA6813400180,h_OCHCTP,11-L1-8,2019-02-04 15:45:00.0,SoPmdAve,3114.65,CHCGILDTO6Y
MA6813400180,h_OCHCTP,11-L1-9,2019-02-04 15:15:00.0,Qmin,8.77,CHCGILDTO6Y
MA6813400180,h_OCHCTP,11-L1-9,2019-02-04 15:15:00.0,PhaseCorrectionAve,-0.122,CHCGILDTO6Y
MA6813400180,h_OCHCTP,11-L1-9,2019-02-04 15:15:00.0,BerPreFecMax,0.00302,CHCGILDTO6Y
MA6813400180,h_OCHCTP,11-L1-9,2019-02-04 15:15:00.0,PmdMin,0.944,CHCGILDTO6Y
MA6813400180,h_OCHCTP,11-L1-9,2019-02-04 15:15:00.0,SoPmdAve,2921.97,CHCGILDTO6Y
MA6813400180,h_OCHCTP,11-L1-9,2019-02-04 15:30:00.0,Qmin,8.81,CHCGILDTO6Y
MA6813400180,h_OCHCTP,11-L1-9,2019-02-04 15:30:00.0,PhaseCorrectionAve,-0.244,CHCGILDTO6Y
MA6813400180,h_OCHCTP,11-L1-9,2019-02-04 15:30:00.0,BerPreFecMax,0.00291,CHCGILDTO6Y
MA6813400180,h_OCHCTP,11-L1-9,2019-02-04 15:30:00.0,PmdMin,1.02,CHCGILDTO6Y
MA6813400180,h_OCHCTP,11-L1-9,2019-02-04 15:30:00.0,SoPmdAve,2903.13,CHCGILDTO6Y
MA6813400180,h_OCHCTP,11-L1-9,2019-02-04 15:45:00.0,Qmin,8.76,CHCGILDTO6Y
MA6813400180,h_OCHCTP,11-L1-9,2019-02-04 15:45:00.0,PhaseCorrectionAve,1.39e-06,CHCGILDTO6Y
MA6813400180,h_OCHCTP,11-L1-9,2019-02-04 15:45:00.0,BerPreFecMax,0.00304,CHCGILDTO6Y
MA6813400180,h_OCHCTP,11-L1-9,2019-02-04 15:45:00.0,PmdMin,0.705,CHCGILDTO6Y
MA6813400180,h_OCHCTP,11-L1-9,2019-02-04 15:45:00.0,SoPmdAve,2969.08,CHCGILDTO6Y
MA6813400180,h_OCHCTP,11-L1-10,2019-02-04 15:15:00.0,Qmin,8.93,CHCGILDTO6Y
MA6813400180,h_OCHCTP,11-L1-10,2019-02-04 15:15:00.0,PhaseCorrectionAve,-0.122,CHCGILDTO6Y
MA6813400180,h_OCHCTP,11-L1-10,2019-02-04 15:15:00.0,BerPreFecMax,0.00258,CHCGILDTO6Y
MA6813400180,h_OCHCTP,11-L1-10,2019-02-04 15:15:00.0,PmdMin,0.602,CHCGILDTO6Y
MA6813400180,h_OCHCTP,11-L1-10,2019-02-04 15:15:00.0,SoPmdAve,3157.84,CHCGILDTO6Y
MA6813400180,h_OCHCTP,11-L1-10,2019-02-04 15:30:00.0,Qmin,8.87,CHCGILDTO6Y
MA6813400180,h_OCHCTP,11-L1-10,2019-02-04 15:30:00.0,PhaseCorrectionAve,-0.244,CHCGILDTO6Y
MA6813400180,h_OCHCTP,11-L1-10,2019-02-04 15:30:00.0,BerPreFecMax,0.00273,CHCGILDTO6Y
MA6813400180,h_OCHCTP,11-L1-10,2019-02-04 15:30:00.0,PmdMin,0.908,CHCGILDTO6Y
MA6813400180,h_OCHCTP,11-L1-10,2019-02-04 15:30:00.0,SoPmdAve,3064.34,CHCGILDTO6Y
MA6813400180,h_OCHCTP,11-L1-10,2019-02-04 15:45:00.0,Qmin,8.84,CHCGILDTO6Y
MA6813400180,h_OCHCTP,11-L1-10,2019-02-04 15:45:00.0,PhaseCorrectionAve,-0.061,CHCGILDTO6Y
MA6813400180,h_OCHCTP,11-L1-10,2019-02-04 15:45:00.0,BerPreFecMax,0.00282,CHCGILDTO6Y
MA6813400180,h_OCHCTP,11-L1-10,2019-02-04 15:45:00.0,PmdMin,0.708,CHCGILDTO6Y
MA6813400180,h_OCHCTP,11-L1-10,2019-02-04 15:45:00.0,SoPmdAve,3085.47,CHCGILDTO6Y
MA6813400180,h_OCHCTP,10-L1-1,2019-02-04 15:15:00.0,Qmin,9.47,CHCGILDTO6Y
MA6813400180,h_OCHCTP,10-L1-1,2019-02-04 15:15:00.0,PhaseCorrectionAve,4.47e-07,CHCGILDTO6Y
MA6813400180,h_OCHCTP,10-L1-1,2019-02-04 15:15:00.0,BerPreFecMax,0.00146,CHCGILDTO6Y
MA6813400180,h_OCHCTP,10-L1-1,2019-02-04 15:15:00.0,PmdMin,0.588,CHCGILDTO6Y
MA6813400180,h_OCHCTP,10-L1-1,2019-02-04 15:15:00.0,SoPmdAve,3600.62,CHCGILDTO6Y
MA6813400180,h_OCHCTP,10-L1-1,2019-02-04 15:30:00.0,Qmin,9.48,CHCGILDTO6Y
MA6813400180,h_OCHCTP,10-L1-1,2019-02-04 15:30:00.0,PhaseCorrectionAve,4.36e-07,CHCGILDTO6Y
MA6813400180,h_OCHCTP,10-L1-1,2019-02-04 15:30:00.0,BerPreFecMax,0.00145,CHCGILDTO6Y
MA6813400180,h_OCHCTP,10-L1-1,2019-02-04 15:30:00.0,PmdMin,1.0,CHCGILDTO6Y
MA6813400180,h_OCHCTP,10-L1-1,2019-02-04 15:30:00.0,SoPmdAve,3651.36,CHCGILDTO6Y
MA6813400180,h_OCHCTP,10-L1-1,2019-02-04 15:45:00.0,Qmin,9.48,CHCGILDTO6Y
MA6813400180,h_OCHCTP,10-L1-1,2019-02-04 15:45:00.0,PhaseCorrectionAve,4.46e-07,CHCGILDTO6Y
MA6813400180,h_OCHCTP,10-L1-1,2019-02-04 15:45:00.0,BerPreFecMax,0.00145,CHCGILDTO6Y
MA6813400180,h_OCHCTP,10-L1-1,2019-02-04 15:45:00.0,PmdMin,0.634,CHCGILDTO6Y
MA6813400180,h_OCHCTP,10-L1-1,2019-02-04 15:45:00.0,SoPmdAve,3705.09,CHCGILDTO6Y
MA6813400180,h_OCHCTP,10-L1-2,2019-02-04 15:15:00.0,Qmin,9.17,CHCGILDTO6Y
MA6813400180,h_OCHCTP,10-L1-2,2019-02-04 15:15:00.0,PhaseCorrectionAve,3.44e-07,CHCGILDTO6Y
MA6813400180,h_OCHCTP,10-L1-2,2019-02-04 15:15:00.0,BerPreFecMax,0.00202,CHCGILDTO6Y
MA6813400180,h_OCHCTP,10-L1-2,2019-02-04 15:15:00.0,PmdMin,4.59,CHCGILDTO6Y
MA6813400180,h_OCHCTP,10-L1-2,2019-02-04 15:15:00.0,SoPmdAve,3348.38,CHCGILDTO6Y
MA6813400180,h_OCHCTP,10-L1-2,2019-02-04 15:30:00.0,Qmin,9.18,CHCGILDTO6Y
MA6813400180,h_OCHCTP,10-L1-2,2019-02-04 15:30:00.0,PhaseCorrectionAve,3.35e-07,CHCGILDTO6Y
MA6813400180,h_OCHCTP,10-L1-2,2019-02-04 15:30:00.0,BerPreFecMax,0.00201,CHCGILDTO6Y
MA6813400180,h_OCHCTP,10-L1-2,2019-02-04 15:30:00.0,PmdMin,2.41,CHCGILDTO6Y
MA6813400180,h_OCHCTP,10-L1-2,2019-02-04 15:30:00.0,SoPmdAve,3293.0,CHCGILDTO6Y
MA6813400180,h_OCHCTP,10-L1-2,2019-02-04 15:45:00.0,Qmin,9.17,CHCGILDTO6Y
MA6813400180,h_OCHCTP,10-L1-2,2019-02-04 15:45:00.0,PhaseCorrectionAve,3.36e-07,CHCGILDTO6Y
MA6813400180,h_OCHCTP,10-L1-2,2019-02-04 15:45:00.0,BerPreFecMax,0.00202,CHCGILDTO6Y
MA6813400180,h_OCHCTP,10-L1-2,2019-02-04 15:45:00.0,PmdMin,5.25,CHCGILDTO6Y
MA6813400180,h_OCHCTP,10-L1-2,2019-02-04 15:45:00.0,SoPmdAve,3311.16,CHCGILDTO6Y
MA6813400180,h_OCHCTP,10-L1-3,2019-02-04 15:15:00.0,Qmin,8.94,CHCGILDTO6Y
MA6813400180,h_OCHCTP,10-L1-3,2019-02-04 15:15:00.0,PhaseCorrectionAve,-0.061,CHCGILDTO6Y
MA6813400180,h_OCHCTP,10-L1-3,2019-02-04 15:15:00.0,BerPreFecMax,0.00255,CHCGILDTO6Y
MA6813400180,h_OCHCTP,10-L1-3,2019-02-04 15:15:00.0,PmdMin,2.27,CHCGILDTO6Y
MA6813400180,h_OCHCTP,10-L1-3,2019-02-04 15:15:00.0,SoPmdAve,2867.16,CHCGILDTO6Y
MA6813400180,h_OCHCTP,10-L1-3,2019-02-04 15:30:00.0,Qmin,8.91,CHCGILDTO6Y
MA6813400180,h_OCHCTP,10-L1-3,2019-02-04 15:30:00.0,PhaseCorrectionAve,5.37e-07,CHCGILDTO6Y
MA6813400180,h_OCHCTP,10-L1-3,2019-02-04 15:30:00.0,BerPreFecMax,0.00264,CHCGILDTO6Y
MA6813400180,h_OCHCTP,10-L1-3,2019-02-04 15:30:00.0,PmdMin,3.73,CHCGILDTO6Y
MA6813400180,h_OCHCTP,10-L1-3,2019-02-04 15:30:00.0,SoPmdAve,2801.82,CHCGILDTO6Y
MA6813400180,h_OCHCTP,10-L1-3,2019-02-04 15:45:00.0,Qmin,8.92,CHCGILDTO6Y
MA6813400180,h_OCHCTP,10-L1-3,2019-02-04 15:45:00.0,PhaseCorrectionAve,5.48e-07,CHCGILDTO6Y
MA6813400180,h_OCHCTP,10-L1-3,2019-02-04 15:45:00.0,BerPreFecMax,0.0026,CHCGILDTO6Y
MA6813400180,h_OCHCTP,10-L1-3,2019-02-04 15:45:00.0,PmdMin,2.22,CHCGILDTO6Y
MA6813400180,h_OCHCTP,10-L1-3,2019-02-04 15:45:00.0,SoPmdAve,2876.66,CHCGILDTO6Y
MA6813400180,h_OCHCTP,10-L1-4,2019-02-04 15:15:00.0,Qmin,8.39,CHCGILDTO6Y
MA6813400180,h_OCHCTP,10-L1-4,2019-02-04 15:15:00.0,PhaseCorrectionAve,-0.061,CHCGILDTO6Y
MA6813400180,h_OCHCTP,10-L1-4,2019-02-04 15:15:00.0,BerPreFecMax,0.00432,CHCGILDTO6Y
MA6813400180,h_OCHCTP,10-L1-4,2019-02-04 15:15:00.0,PmdMin,1.31,CHCGILDTO6Y
MA6813400180,h_OCHCTP,10-L1-4,2019-02-04 15:15:00.0,SoPmdAve,3107.87,CHCGILDTO6Y
MA6813400180,h_OCHCTP,10-L1-4,2019-02-04 15:30:00.0,Qmin,8.37,CHCGILDTO6Y
MA6813400180,h_OCHCTP,10-L1-4,2019-02-04 15:30:00.0,PhaseCorrectionAve,-0.061,CHCGILDTO6Y
MA6813400180,h_OCHCTP,10-L1-4,2019-02-04 15:30:00.0,BerPreFecMax,0.00438,CHCGILDTO6Y
MA6813400180,h_OCHCTP,10-L1-4,2019-02-04 15:30:00.0,PmdMin,1.71,CHCGILDTO6Y
MA6813400180,h_OCHCTP,10-L1-4,2019-02-04 15:30:00.0,SoPmdAve,3115.71,CHCGILDTO6Y
MA6813400180,h_OCHCTP,10-L1-4,2019-02-04 15:45:00.0,Qmin,8.36,CHCGILDTO6Y
MA6813400180,h_OCHCTP,10-L1-4,2019-02-04 15:45:00.0,PhaseCorrectionAve,2.16e-06,CHCGILDTO6Y
MA6813400180,h_OCHCTP,10-L1-4,2019-02-04 15:45:00.0,BerPreFecMax,0.00442,CHCGILDTO6Y
MA6813400180,h_OCHCTP,10-L1-4,2019-02-04 15:45:00.0,PmdMin,0.801,CHCGILDTO6Y
MA6813400180,h_OCHCTP,10-L1-4,2019-02-04 15:45:00.0,SoPmdAve,3070.84,CHCGILDTO6Y
MA6813400180,h_OCHCTP,10-L1-5,2019-02-04 15:15:00.0,Qmin,8.6,CHCGILDTO6Y
MA6813400180,h_OCHCTP,10-L1-5,2019-02-04 15:15:00.0,PhaseCorrectionAve,-0.122,CHCGILDTO6Y
MA6813400180,h_OCHCTP,10-L1-5,2019-02-04 15:15:00.0,BerPreFecMax,0.00356,CHCGILDTO6Y
MA6813400180,h_OCHCTP,10-L1-5,2019-02-04 15:15:00.0,PmdMin,1.08,CHCGILDTO6Y
MA6813400180,h_OCHCTP,10-L1-5,2019-02-04 15:15:00.0,SoPmdAve,2871.15,CHCGILDTO6Y
MA6813400180,h_OCHCTP,10-L1-5,2019-02-04 15:30:00.0,Qmin,8.58,CHCGILDTO6Y
MA6813400180,h_OCHCTP,10-L1-5,2019-02-04 15:30:00.0,PhaseCorrectionAve,-0.061,CHCGILDTO6Y
MA6813400180,h_OCHCTP,10-L1-5,2019-02-04 15:30:00.0,BerPreFecMax,0.00361,CHCGILDTO6Y
MA6813400180,h_OCHCTP,10-L1-5,2019-02-04 15:30:00.0,PmdMin,1.09,CHCGILDTO6Y
MA6813400180,h_OCHCTP,10-L1-5,2019-02-04 15:30:00.0,SoPmdAve,2819.75,CHCGILDTO6Y
MA6813400180,h_OCHCTP,10-L1-5,2019-02-04 15:45:00.0,Qmin,8.57,CHCGILDTO6Y
MA6813400180,h_OCHCTP,10-L1-5,2019-02-04 15:45:00.0,PhaseCorrectionAve,1.4e-06,CHCGILDTO6Y
MA6813400180,h_OCHCTP,10-L1-5,2019-02-04 15:45:00.0,BerPreFecMax,0.00366,CHCGILDTO6Y
MA6813400180,h_OCHCTP,10-L1-5,2019-02-04 15:45:00.0,PmdMin,0.918,CHCGILDTO6Y
MA6813400180,h_OCHCTP,10-L1-5,2019-02-04 15:45:00.0,SoPmdAve,2903.48,CHCGILDTO6Y
MA6813400180,h_OCHCTP,10-L1-6,2019-02-04 15:15:00.0,Qmin,8.78,CHCGILDTO6Y
MA6813400180,h_OCHCTP,10-L1-6,2019-02-04 15:15:00.0,PhaseCorrectionAve,-0.122,CHCGILDTO6Y
MA6813400180,h_OCHCTP,10-L1-6,2019-02-04 15:15:00.0,BerPreFecMax,0.00299,CHCGILDTO6Y
MA6813400180,h_OCHCTP,10-L1-6,2019-02-04 15:15:00.0,PmdMin,1.86,CHCGILDTO6Y
MA6813400180,h_OCHCTP,10-L1-6,2019-02-04 15:15:00.0,SoPmdAve,2785.01,CHCGILDTO6Y
MA6813400180,h_OCHCTP,10-L1-6,2019-02-04 15:30:00.0,Qmin,8.78,CHCGILDTO6Y
MA6813400180,h_OCHCTP,10-L1-6,2019-02-04 15:30:00.0,PhaseCorrectionAve,-0.061,CHCGILDTO6Y
MA6813400180,h_OCHCTP,10-L1-6,2019-02-04 15:30:00.0,BerPreFecMax,0.00301,CHCGILDTO6Y
MA6813400180,h_OCHCTP,10-L1-6,2019-02-04 15:30:00.0,PmdMin,0.897,CHCGILDTO6Y
MA6813400180,h_OCHCTP,10-L1-6,2019-02-04 15:30:00.0,SoPmdAve,2778.79,CHCGILDTO6Y
MA6813400180,h_OCHCTP,10-L1-6,2019-02-04 15:45:00.0,Qmin,8.77,CHCGILDTO6Y
MA6813400180,h_OCHCTP,10-L1-6,2019-02-04 15:45:00.0,PhaseCorrectionAve,8.6e-07,CHCGILDTO6Y
MA6813400180,h_OCHCTP,10-L1-6,2019-02-04 15:45:00.0,BerPreFecMax,0.00302,CHCGILDTO6Y
MA6813400180,h_OCHCTP,10-L1-6,2019-02-04 15:45:00.0,PmdMin,1.6,CHCGILDTO6Y
MA6813400180,h_OCHCTP,10-L1-6,2019-02-04 15:45:00.0,SoPmdAve,2749.94,CHCGILDTO6Y
MA6813400180,h_OCHCTP,10-L1-7,2019-02-04 15:15:00.0,Qmin,8.88,CHCGILDTO6Y
MA6813400180,h_OCHCTP,10-L1-7,2019-02-04 15:15:00.0,PhaseCorrectionAve,-0.122,CHCGILDTO6Y
MA6813400180,h_OCHCTP,10-L1-7,2019-02-04 15:15:00.0,BerPreFecMax,0.00272,CHCGILDTO6Y
MA6813400180,h_OCHCTP,10-L1-7,2019-02-04 15:15:00.0,PmdMin,0.39,CHCGILDTO6Y
MA6813400180,h_OCHCTP,10-L1-7,2019-02-04 15:15:00.0,SoPmdAve,3457.73,CHCGILDTO6Y
MA6813400180,h_OCHCTP,10-L1-7,2019-02-04 15:30:00.0,Qmin,8.87,CHCGILDTO6Y
MA6813400180,h_OCHCTP,10-L1-7,2019-02-04 15:30:00.0,PhaseCorrectionAve,-0.122,CHCGILDTO6Y
MA6813400180,h_OCHCTP,10-L1-7,2019-02-04 15:30:00.0,BerPreFecMax,0.00274,CHCGILDTO6Y
MA6813400180,h_OCHCTP,10-L1-7,2019-02-04 15:30:00.0,PmdMin,1.3,CHCGILDTO6Y
MA6813400180,h_OCHCTP,10-L1-7,2019-02-04 15:30:00.0,SoPmdAve,3425.56,CHCGILDTO6Y
MA6813400180,h_OCHCTP,10-L1-7,2019-02-04 15:45:00.0,Qmin,8.88,CHCGILDTO6Y
MA6813400180,h_OCHCTP,10-L1-7,2019-02-04 15:45:00.0,PhaseCorrectionAve,5.06e-07,CHCGILDTO6Y
MA6813400180,h_OCHCTP,10-L1-7,2019-02-04 15:45:00.0,BerPreFecMax,0.00273,CHCGILDTO6Y
MA6813400180,h_OCHCTP,10-L1-7,2019-02-04 15:45:00.0,PmdMin,1.27,CHCGILDTO6Y
MA6813400180,h_OCHCTP,10-L1-7,2019-02-04 15:45:00.0,SoPmdAve,3480.34,CHCGILDTO6Y
MA6813400180,h_OCHCTP,10-L1-8,2019-02-04 15:15:00.0,Qmin,9.29,CHCGILDTO6Y
MA6813400180,h_OCHCTP,10-L1-8,2019-02-04 15:15:00.0,PhaseCorrectionAve,-0.122,CHCGILDTO6Y
MA6813400180,h_OCHCTP,10-L1-8,2019-02-04 15:15:00.0,BerPreFecMax,0.00179,CHCGILDTO6Y
MA6813400180,h_OCHCTP,10-L1-8,2019-02-04 15:15:00.0,PmdMin,4.59,CHCGILDTO6Y
MA6813400180,h_OCHCTP,10-L1-8,2019-02-04 15:15:00.0,SoPmdAve,3356.51,CHCGILDTO6Y
MA6813400180,h_OCHCTP,10-L1-8,2019-02-04 15:30:00.0,Qmin,9.3,CHCGILDTO6Y
MA6813400180,h_OCHCTP,10-L1-8,2019-02-04 15:30:00.0,PhaseCorrectionAve,-0.122,CHCGILDTO6Y
MA6813400180,h_OCHCTP,10-L1-8,2019-02-04 15:30:00.0,BerPreFecMax,0.00176,CHCGILDTO6Y
MA6813400180,h_OCHCTP,10-L1-8,2019-02-04 15:30:00.0,PmdMin,2.34,CHCGILDTO6Y
MA6813400180,h_OCHCTP,10-L1-8,2019-02-04 15:30:00.0,SoPmdAve,3339.77,CHCGILDTO6Y
MA6813400180,h_OCHCTP,10-L1-8,2019-02-04 15:45:00.0,Qmin,9.31,CHCGILDTO6Y
MA6813400180,h_OCHCTP,10-L1-8,2019-02-04 15:45:00.0,PhaseCorrectionAve,-0.061,CHCGILDTO6Y
MA6813400180,h_OCHCTP,10-L1-8,2019-02-04 15:45:00.0,BerPreFecMax,0.00175,CHCGILDTO6Y
MA6813400180,h_OCHCTP,10-L1-8,2019-02-04 15:45:00.0,PmdMin,1.09,CHCGILDTO6Y
MA6813400180,h_OCHCTP,10-L1-8,2019-02-04 15:45:00.0,SoPmdAve,3430.29,CHCGILDTO6Y
MA6813400180,h_OCHCTP,10-L1-9,2019-02-04 15:15:00.0,Qmin,9.31,CHCGILDTO6Y
MA6813400180,h_OCHCTP,10-L1-9,2019-02-04 15:15:00.0,PhaseCorrectionAve,-0.122,CHCGILDTO6Y
MA6813400180,h_OCHCTP,10-L1-9,2019-02-04 15:15:00.0,BerPreFecMax,0.00174,CHCGILDTO6Y
MA6813400180,h_OCHCTP,10-L1-9,2019-02-04 15:15:00.0,PmdMin,7.53,CHCGILDTO6Y
MA6813400180,h_OCHCTP,10-L1-9,2019-02-04 15:15:00.0,SoPmdAve,3458.63,CHCGILDTO6Y
MA6813400180,h_OCHCTP,10-L1-9,2019-02-04 15:30:00.0,Qmin,9.33,CHCGILDTO6Y
MA6813400180,h_OCHCTP,10-L1-9,2019-02-04 15:30:00.0,PhaseCorrectionAve,-0.122,CHCGILDTO6Y
MA6813400180,h_OCHCTP,10-L1-9,2019-02-04 15:30:00.0,BerPreFecMax,0.00171,CHCGILDTO6Y
MA6813400180,h_OCHCTP,10-L1-9,2019-02-04 15:30:00.0,PmdMin,6.92,CHCGILDTO6Y
MA6813400180,h_OCHCTP,10-L1-9,2019-02-04 15:30:00.0,SoPmdAve,3380.34,CHCGILDTO6Y
MA6813400180,h_OCHCTP,10-L1-9,2019-02-04 15:45:00.0,Qmin,9.31,CHCGILDTO6Y
MA6813400180,h_OCHCTP,10-L1-9,2019-02-04 15:45:00.0,PhaseCorrectionAve,-0.061,CHCGILDTO6Y
MA6813400180,h_OCHCTP,10-L1-9,2019-02-04 15:45:00.0,BerPreFecMax,0.00174,CHCGILDTO6Y
MA6813400180,h_OCHCTP,10-L1-9,2019-02-04 15:45:00.0,PmdMin,3.14,CHCGILDTO6Y
MA6813400180,h_OCHCTP,10-L1-9,2019-02-04 15:45:00.0,SoPmdAve,3358.57,CHCGILDTO6Y
MA6813400180,h_OCHCTP,10-L1-10,2019-02-04 15:15:00.0,Qmin,9.37,CHCGILDTO6Y
MA6813400180,h_OCHCTP,10-L1-10,2019-02-04 15:15:00.0,PhaseCorrectionAve,-0.122,CHCGILDTO6Y
MA6813400180,h_OCHCTP,10-L1-10,2019-02-04 15:15:00.0,BerPreFecMax,0.00163,CHCGILDTO6Y
MA6813400180,h_OCHCTP,10-L1-10,2019-02-04 15:15:00.0,PmdMin,7.45,CHCGILDTO6Y
MA6813400180,h_OCHCTP,10-L1-10,2019-02-04 15:15:00.0,SoPmdAve,3131.64,CHCGILDTO6Y
MA6813400180,h_OCHCTP,10-L1-10,2019-02-04 15:30:00.0,Qmin,9.38,CHCGILDTO6Y
MA6813400180,h_OCHCTP,10-L1-10,2019-02-04 15:30:00.0,PhaseCorrectionAve,-0.122,CHCGILDTO6Y
MA6813400180,h_OCHCTP,10-L1-10,2019-02-04 15:30:00.0,BerPreFecMax,0.00161,CHCGILDTO6Y
MA6813400180,h_OCHCTP,10-L1-10,2019-02-04 15:30:00.0,PmdMin,6.38,CHCGILDTO6Y
MA6813400180,h_OCHCTP,10-L1-10,2019-02-04 15:30:00.0,SoPmdAve,3218.35,CHCGILDTO6Y
MA6813400180,h_OCHCTP,10-L1-10,2019-02-04 15:45:00.0,Qmin,9.38,CHCGILDTO6Y
MA6813400180,h_OCHCTP,10-L1-10,2019-02-04 15:45:00.0,PhaseCorrectionAve,-0.122,CHCGILDTO6Y
MA6813400180,h_OCHCTP,10-L1-10,2019-02-04 15:45:00.0,BerPreFecMax,0.00161,CHCGILDTO6Y
MA6813400180,h_OCHCTP,10-L1-10,2019-02-04 15:45:00.0,PmdMin,7.33,CHCGILDTO6Y
MA6813400180,h_OCHCTP,10-L1-10,2019-02-04 15:45:00.0,SoPmdAve,3230.59,CHCGILDTO6Y
MA6813400180,h_OCHCTP,13-L1-1,2019-02-04 15:15:00.0,Qmin,8.99,CHCGILDTO6Y
MA6813400180,h_OCHCTP,13-L1-1,2019-02-04 15:15:00.0,PhaseCorrectionAve,2.52e-07,CHCGILDTO6Y
MA6813400180,h_OCHCTP,13-L1-1,2019-02-04 15:15:00.0,BerPreFecMax,0.00244,CHCGILDTO6Y
MA6813400180,h_OCHCTP,13-L1-1,2019-02-04 15:15:00.0,PmdMin,1.13,CHCGILDTO6Y
MA6813400180,h_OCHCTP,13-L1-1,2019-02-04 15:15:00.0,SoPmdAve,3484.86,CHCGILDTO6Y
MA6813400180,h_OCHCTP,13-L1-1,2019-02-04 15:30:00.0,Qmin,8.97,CHCGILDTO6Y
MA6813400180,h_OCHCTP,13-L1-1,2019-02-04 15:30:00.0,PhaseCorrectionAve,2.48e-07,CHCGILDTO6Y
MA6813400180,h_OCHCTP,13-L1-1,2019-02-04 15:30:00.0,BerPreFecMax,0.00249,CHCGILDTO6Y
MA6813400180,h_OCHCTP,13-L1-1,2019-02-04 15:30:00.0,PmdMin,0.711,CHCGILDTO6Y
MA6813400180,h_OCHCTP,13-L1-1,2019-02-04 15:30:00.0,SoPmdAve,3506.0,CHCGILDTO6Y
MA6813400180,h_OCHCTP,13-L1-1,2019-02-04 15:45:00.0,Qmin,9.01,CHCGILDTO6Y
MA6813400180,h_OCHCTP,13-L1-1,2019-02-04 15:45:00.0,PhaseCorrectionAve,-0.061,CHCGILDTO6Y
MA6813400180,h_OCHCTP,13-L1-1,2019-02-04 15:45:00.0,BerPreFecMax,0.00239,CHCGILDTO6Y
MA6813400180,h_OCHCTP,13-L1-1,2019-02-04 15:45:00.0,PmdMin,0.503,CHCGILDTO6Y
MA6813400180,h_OCHCTP,13-L1-1,2019-02-04 15:45:00.0,SoPmdAve,3544.35,CHCGILDTO6Y
MA6813400180,h_OCHCTP,13-L1-2,2019-02-04 15:15:00.0,Qmin,9.11,CHCGILDTO6Y
MA6813400180,h_OCHCTP,13-L1-2,2019-02-04 15:15:00.0,PhaseCorrectionAve,3.02e-07,CHCGILDTO6Y
MA6813400180,h_OCHCTP,13-L1-2,2019-02-04 15:15:00.0,BerPreFecMax,0.00216,CHCGILDTO6Y
MA6813400180,h_OCHCTP,13-L1-2,2019-02-04 15:15:00.0,PmdMin,0.489,CHCGILDTO6Y
MA6813400180,h_OCHCTP,13-L1-2,2019-02-04 15:15:00.0,SoPmdAve,3396.24,CHCGILDTO6Y
MA6813400180,h_OCHCTP,13-L1-2,2019-02-04 15:30:00.0,Qmin,9.04,CHCGILDTO6Y
MA6813400180,h_OCHCTP,13-L1-2,2019-02-04 15:30:00.0,PhaseCorrectionAve,3.25e-07,CHCGILDTO6Y
MA6813400180,h_OCHCTP,13-L1-2,2019-02-04 15:30:00.0,BerPreFecMax,0.00232,CHCGILDTO6Y
MA6813400180,h_OCHCTP,13-L1-2,2019-02-04 15:30:00.0,PmdMin,0.537,CHCGILDTO6Y
MA6813400180,h_OCHCTP,13-L1-2,2019-02-04 15:30:00.0,SoPmdAve,3479.67,CHCGILDTO6Y
MA6813400180,h_OCHCTP,13-L1-2,2019-02-04 15:45:00.0,Qmin,9.03,CHCGILDTO6Y
MA6813400180,h_OCHCTP,13-L1-2,2019-02-04 15:45:00.0,PhaseCorrectionAve,-0.061,CHCGILDTO6Y
MA6813400180,h_OCHCTP,13-L1-2,2019-02-04 15:45:00.0,BerPreFecMax,0.00235,CHCGILDTO6Y
MA6813400180,h_OCHCTP,13-L1-2,2019-02-04 15:45:00.0,PmdMin,0.407,CHCGILDTO6Y
MA6813400180,h_OCHCTP,13-L1-2,2019-02-04 15:45:00.0,SoPmdAve,3466.5,CHCGILDTO6Y
MA6813400180,h_OCHCTP,13-L1-3,2019-02-04 15:15:00.0,Qmin,8.91,CHCGILDTO6Y
MA6813400180,h_OCHCTP,13-L1-3,2019-02-04 15:15:00.0,PhaseCorrectionAve,5.21e-07,CHCGILDTO6Y
MA6813400180,h_OCHCTP,13-L1-3,2019-02-04 15:15:00.0,BerPreFecMax,0.00264,CHCGILDTO6Y
MA6813400180,h_OCHCTP,13-L1-3,2019-02-04 15:15:00.0,PmdMin,0.964,CHCGILDTO6Y
MA6813400180,h_OCHCTP,13-L1-3,2019-02-04 15:15:00.0,SoPmdAve,2956.89,CHCGILDTO6Y
MA6813400180,h_OCHCTP,13-L1-3,2019-02-04 15:30:00.0,Qmin,8.82,CHCGILDTO6Y
MA6813400180,h_OCHCTP,13-L1-3,2019-02-04 15:30:00.0,PhaseCorrectionAve,-0.061,CHCGILDTO6Y
MA6813400180,h_OCHCTP,13-L1-3,2019-02-04 15:30:00.0,BerPreFecMax,0.00288,CHCGILDTO6Y
MA6813400180,h_OCHCTP,13-L1-3,2019-02-04 15:30:00.0,PmdMin,0.653,CHCGILDTO6Y
MA6813400180,h_OCHCTP,13-L1-3,2019-02-04 15:30:00.0,SoPmdAve,2901.75,CHCGILDTO6Y
MA6813400180,h_OCHCTP,13-L1-3,2019-02-04 15:45:00.0,Qmin,8.84,CHCGILDTO6Y
MA6813400180,h_OCHCTP,13-L1-3,2019-02-04 15:45:00.0,PhaseCorrectionAve,-0.061,CHCGILDTO6Y
MA6813400180,h_OCHCTP,13-L1-3,2019-02-04 15:45:00.0,BerPreFecMax,0.00282,CHCGILDTO6Y
MA6813400180,h_OCHCTP,13-L1-3,2019-02-04 15:45:00.0,PmdMin,0.893,CHCGILDTO6Y
MA6813400180,h_OCHCTP,13-L1-3,2019-02-04 15:45:00.0,SoPmdAve,2831.27,CHCGILDTO6Y
MA6813400180,h_OCHCTP,13-L1-4,2019-02-04 15:15:00.0,Qmin,8.66,CHCGILDTO6Y
MA6813400180,h_OCHCTP,13-L1-4,2019-02-04 15:15:00.0,PhaseCorrectionAve,5.18e-07,CHCGILDTO6Y
MA6813400180,h_OCHCTP,13-L1-4,2019-02-04 15:15:00.0,BerPreFecMax,0.00335,CHCGILDTO6Y
MA6813400180,h_OCHCTP,13-L1-4,2019-02-04 15:15:00.0,PmdMin,0.928,CHCGILDTO6Y
MA6813400180,h_OCHCTP,13-L1-4,2019-02-04 15:15:00.0,SoPmdAve,3365.22,CHCGILDTO6Y
MA6813400180,h_OCHCTP,13-L1-4,2019-02-04 15:30:00.0,Qmin,8.63,CHCGILDTO6Y
MA6813400180,h_OCHCTP,13-L1-4,2019-02-04 15:30:00.0,PhaseCorrectionAve,-0.122,CHCGILDTO6Y
MA6813400180,h_OCHCTP,13-L1-4,2019-02-04 15:30:00.0,BerPreFecMax,0.00347,CHCGILDTO6Y
MA6813400180,h_OCHCTP,13-L1-4,2019-02-04 15:30:00.0,PmdMin,0.833,CHCGILDTO6Y
MA6813400180,h_OCHCTP,13-L1-4,2019-02-04 15:30:00.0,SoPmdAve,3377.74,CHCGILDTO6Y
MA6813400180,h_OCHCTP,13-L1-4,2019-02-04 15:45:00.0,Qmin,8.6,CHCGILDTO6Y
MA6813400180,h_OCHCTP,13-L1-4,2019-02-04 15:45:00.0,PhaseCorrectionAve,-0.061,CHCGILDTO6Y
MA6813400180,h_OCHCTP,13-L1-4,2019-02-04 15:45:00.0,BerPreFecMax,0.00354,CHCGILDTO6Y
MA6813400180,h_OCHCTP,13-L1-4,2019-02-04 15:45:00.0,PmdMin,0.512,CHCGILDTO6Y
MA6813400180,h_OCHCTP,13-L1-4,2019-02-04 15:45:00.0,SoPmdAve,3346.34,CHCGILDTO6Y
MA6813400180,h_OCHCTP,13-L1-5,2019-02-04 15:15:00.0,Qmin,8.67,CHCGILDTO6Y
MA6813400180,h_OCHCTP,13-L1-5,2019-02-04 15:15:00.0,PhaseCorrectionAve,-0.061,CHCGILDTO6Y
MA6813400180,h_OCHCTP,13-L1-5,2019-02-04 15:15:00.0,BerPreFecMax,0.00332,CHCGILDTO6Y
MA6813400180,h_OCHCTP,13-L1-5,2019-02-04 15:15:00.0,PmdMin,0.79,CHCGILDTO6Y
MA6813400180,h_OCHCTP,13-L1-5,2019-02-04 15:15:00.0,SoPmdAve,2819.6,CHCGILDTO6Y
MA6813400180,h_OCHCTP,13-L1-5,2019-02-04 15:30:00.0,Qmin,8.64,CHCGILDTO6Y
MA6813400180,h_OCHCTP,13-L1-5,2019-02-04 15:30:00.0,PhaseCorrectionAve,-0.122,CHCGILDTO6Y
MA6813400180,h_OCHCTP,13-L1-5,2019-02-04 15:30:00.0,BerPreFecMax,0.00342,CHCGILDTO6Y
MA6813400180,h_OCHCTP,13-L1-5,2019-02-04 15:30:00.0,PmdMin,0.325,CHCGILDTO6Y
MA6813400180,h_OCHCTP,13-L1-5,2019-02-04 15:30:00.0,SoPmdAve,2849.44,CHCGILDTO6Y
MA6813400180,h_OCHCTP,13-L1-5,2019-02-04 15:45:00.0,Qmin,8.62,CHCGILDTO6Y
MA6813400180,h_OCHCTP,13-L1-5,2019-02-04 15:45:00.0,PhaseCorrectionAve,-0.061,CHCGILDTO6Y
MA6813400180,h_OCHCTP,13-L1-5,2019-02-04 15:45:00.0,BerPreFecMax,0.00349,CHCGILDTO6Y
MA6813400180,h_OCHCTP,13-L1-5,2019-02-04 15:45:00.0,PmdMin,1.13,CHCGILDTO6Y
MA6813400180,h_OCHCTP,13-L1-5,2019-02-04 15:45:00.0,SoPmdAve,2785.65,CHCGILDTO6Y
MA6813400180,h_OCHCTP,13-L1-6,2019-02-04 15:15:00.0,Qmin,8.77,CHCGILDTO6Y
MA6813400180,h_OCHCTP,13-L1-6,2019-02-04 15:15:00.0,PhaseCorrectionAve,-0.061,CHCGILDTO6Y
MA6813400180,h_OCHCTP,13-L1-6,2019-02-04 15:15:00.0,BerPreFecMax,0.00303,CHCGILDTO6Y
MA6813400180,h_OCHCTP,13-L1-6,2019-02-04 15:15:00.0,PmdMin,0.385,CHCGILDTO6Y
MA6813400180,h_OCHCTP,13-L1-6,2019-02-04 15:15:00.0,SoPmdAve,2984.91,CHCGILDTO6Y
MA6813400180,h_OCHCTP,13-L1-6,2019-02-04 15:30:00.0,Qmin,8.72,CHCGILDTO6Y
MA6813400180,h_OCHCTP,13-L1-6,2019-02-04 15:30:00.0,PhaseCorrectionAve,-0.122,CHCGILDTO6Y
MA6813400180,h_OCHCTP,13-L1-6,2019-02-04 15:30:00.0,BerPreFecMax,0.00318,CHCGILDTO6Y
MA6813400180,h_OCHCTP,13-L1-6,2019-02-04 15:30:00.0,PmdMin,1.07,CHCGILDTO6Y
MA6813400180,h_OCHCTP,13-L1-6,2019-02-04 15:30:00.0,SoPmdAve,3018.77,CHCGILDTO6Y
MA6813400180,h_OCHCTP,13-L1-6,2019-02-04 15:45:00.0,Qmin,8.66,CHCGILDTO6Y
MA6813400180,h_OCHCTP,13-L1-6,2019-02-04 15:45:00.0,PhaseCorrectionAve,-0.122,CHCGILDTO6Y
MA6813400180,h_OCHCTP,13-L1-6,2019-02-04 15:45:00.0,BerPreFecMax,0.00335,CHCGILDTO6Y
MA6813400180,h_OCHCTP,13-L1-6,2019-02-04 15:45:00.0,PmdMin,0.912,CHCGILDTO6Y
MA6813400180,h_OCHCTP,13-L1-6,2019-02-04 15:45:00.0,SoPmdAve,2992.06,CHCGILDTO6Y
MA6813400180,h_OCHCTP,13-L1-7,2019-02-04 15:15:00.0,Qmin,8.69,CHCGILDTO6Y
MA6813400180,h_OCHCTP,13-L1-7,2019-02-04 15:15:00.0,PhaseCorrectionAve,-0.061,CHCGILDTO6Y
MA6813400180,h_OCHCTP,13-L1-7,2019-02-04 15:15:00.0,BerPreFecMax,0.00328,CHCGILDTO6Y
MA6813400180,h_OCHCTP,13-L1-7,2019-02-04 15:15:00.0,PmdMin,0.979,CHCGILDTO6Y
MA6813400180,h_OCHCTP,13-L1-7,2019-02-04 15:15:00.0,SoPmdAve,3675.62,CHCGILDTO6Y
MA6813400180,h_OCHCTP,13-L1-7,2019-02-04 15:30:00.0,Qmin,8.65,CHCGILDTO6Y
MA6813400180,h_OCHCTP,13-L1-7,2019-02-04 15:30:00.0,PhaseCorrectionAve,-0.122,CHCGILDTO6Y
MA6813400180,h_OCHCTP,13-L1-7,2019-02-04 15:30:00.0,BerPreFecMax,0.00339,CHCGILDTO6Y
MA6813400180,h_OCHCTP,13-L1-7,2019-02-04 15:30:00.0,PmdMin,1.09,CHCGILDTO6Y
MA6813400180,h_OCHCTP,13-L1-7,2019-02-04 15:30:00.0,SoPmdAve,3819.78,CHCGILDTO6Y
MA6813400180,h_OCHCTP,13-L1-7,2019-02-04 15:45:00.0,Qmin,8.59,CHCGILDTO6Y
MA6813400180,h_OCHCTP,13-L1-7,2019-02-04 15:45:00.0,PhaseCorrectionAve,-0.122,CHCGILDTO6Y
MA6813400180,h_OCHCTP,13-L1-7,2019-02-04 15:45:00.0,BerPreFecMax,0.00359,CHCGILDTO6Y
MA6813400180,h_OCHCTP,13-L1-7,2019-02-04 15:45:00.0,PmdMin,0.594,CHCGILDTO6Y
MA6813400180,h_OCHCTP,13-L1-7,2019-02-04 15:45:00.0,SoPmdAve,3797.93,CHCGILDTO6Y
MA6813400180,h_OCHCTP,13-L1-8,2019-02-04 15:15:00.0,Qmin,8.83,CHCGILDTO6Y
MA6813400180,h_OCHCTP,13-L1-8,2019-02-04 15:15:00.0,PhaseCorrectionAve,-0.061,CHCGILDTO6Y
MA6813400180,h_OCHCTP,13-L1-8,2019-02-04 15:15:00.0,BerPreFecMax,0.00286,CHCGILDTO6Y
MA6813400180,h_OCHCTP,13-L1-8,2019-02-04 15:15:00.0,PmdMin,1.18,CHCGILDTO6Y
MA6813400180,h_OCHCTP,13-L1-8,2019-02-04 15:15:00.0,SoPmdAve,3833.81,CHCGILDTO6Y
MA6813400180,h_OCHCTP,13-L1-8,2019-02-04 15:30:00.0,Qmin,8.77,CHCGILDTO6Y
MA6813400180,h_OCHCTP,13-L1-8,2019-02-04 15:30:00.0,PhaseCorrectionAve,-0.122,CHCGILDTO6Y
MA6813400180,h_OCHCTP,13-L1-8,2019-02-04 15:30:00.0,BerPreFecMax,0.00303,CHCGILDTO6Y
MA6813400180,h_OCHCTP,13-L1-8,2019-02-04 15:30:00.0,PmdMin,0.529,CHCGILDTO6Y
MA6813400180,h_OCHCTP,13-L1-8,2019-02-04 15:30:00.0,SoPmdAve,3834.43,CHCGILDTO6Y
MA6813400180,h_OCHCTP,13-L1-8,2019-02-04 15:45:00.0,Qmin,8.73,CHCGILDTO6Y
MA6813400180,h_OCHCTP,13-L1-8,2019-02-04 15:45:00.0,PhaseCorrectionAve,-0.122,CHCGILDTO6Y
MA6813400180,h_OCHCTP,13-L1-8,2019-02-04 15:45:00.0,BerPreFecMax,0.00315,CHCGILDTO6Y
MA6813400180,h_OCHCTP,13-L1-8,2019-02-04 15:45:00.0,PmdMin,1.32,CHCGILDTO6Y
MA6813400180,h_OCHCTP,13-L1-8,2019-02-04 15:45:00.0,SoPmdAve,3818.5,CHCGILDTO6Y
MA6813400180,h_OCHCTP,13-L1-9,2019-02-04 15:15:00.0,Qmin,8.72,CHCGILDTO6Y
MA6813400180,h_OCHCTP,13-L1-9,2019-02-04 15:15:00.0,PhaseCorrectionAve,-0.061,CHCGILDTO6Y
MA6813400180,h_OCHCTP,13-L1-9,2019-02-04 15:15:00.0,BerPreFecMax,0.00318,CHCGILDTO6Y
MA6813400180,h_OCHCTP,13-L1-9,2019-02-04 15:15:00.0,PmdMin,1.04,CHCGILDTO6Y
MA6813400180,h_OCHCTP,13-L1-9,2019-02-04 15:15:00.0,SoPmdAve,3535.46,CHCGILDTO6Y
MA6813400180,h_OCHCTP,13-L1-9,2019-02-04 15:30:00.0,Qmin,8.72,CHCGILDTO6Y
MA6813400180,h_OCHCTP,13-L1-9,2019-02-04 15:30:00.0,PhaseCorrectionAve,-0.122,CHCGILDTO6Y
MA6813400180,h_OCHCTP,13-L1-9,2019-02-04 15:30:00.0,BerPreFecMax,0.00318,CHCGILDTO6Y
MA6813400180,h_OCHCTP,13-L1-9,2019-02-04 15:30:00.0,PmdMin,0.412,CHCGILDTO6Y
MA6813400180,h_OCHCTP,13-L1-9,2019-02-04 15:30:00.0,SoPmdAve,3586.95,CHCGILDTO6Y
MA6813400180,h_OCHCTP,13-L1-9,2019-02-04 15:45:00.0,Qmin,8.7,CHCGILDTO6Y
MA6813400180,h_OCHCTP,13-L1-9,2019-02-04 15:45:00.0,PhaseCorrectionAve,-0.122,CHCGILDTO6Y
MA6813400180,h_OCHCTP,13-L1-9,2019-02-04 15:45:00.0,BerPreFecMax,0.00325,CHCGILDTO6Y
MA6813400180,h_OCHCTP,13-L1-9,2019-02-04 15:45:00.0,PmdMin,0.217,CHCGILDTO6Y
MA6813400180,h_OCHCTP,13-L1-9,2019-02-04 15:45:00.0,SoPmdAve,3507.1,CHCGILDTO6Y
MA6813400180,h_OCHCTP,13-L1-10,2019-02-04 15:15:00.0,Qmin,8.63,CHCGILDTO6Y
MA6813400180,h_OCHCTP,13-L1-10,2019-02-04 15:15:00.0,PhaseCorrectionAve,-0.122,CHCGILDTO6Y
MA6813400180,h_OCHCTP,13-L1-10,2019-02-04 15:15:00.0,BerPreFecMax,0.00346,CHCGILDTO6Y
MA6813400180,h_OCHCTP,13-L1-10,2019-02-04 15:15:00.0,PmdMin,0.48,CHCGILDTO6Y
MA6813400180,h_OCHCTP,13-L1-10,2019-02-04 15:15:00.0,SoPmdAve,3874.39,CHCGILDTO6Y
MA6813400180,h_OCHCTP,13-L1-10,2019-02-04 15:30:00.0,Qmin,8.56,CHCGILDTO6Y
MA6813400180,h_OCHCTP,13-L1-10,2019-02-04 15:30:00.0,PhaseCorrectionAve,-0.122,CHCGILDTO6Y
MA6813400180,h_OCHCTP,13-L1-10,2019-02-04 15:30:00.0,BerPreFecMax,0.0037,CHCGILDTO6Y
MA6813400180,h_OCHCTP,13-L1-10,2019-02-04 15:30:00.0,PmdMin,1.47,CHCGILDTO6Y
MA6813400180,h_OCHCTP,13-L1-10,2019-02-04 15:30:00.0,SoPmdAve,3937.82,CHCGILDTO6Y
MA6813400180,h_OCHCTP,13-L1-10,2019-02-04 15:45:00.0,Qmin,8.51,CHCGILDTO6Y
MA6813400180,h_OCHCTP,13-L1-10,2019-02-04 15:45:00.0,PhaseCorrectionAve,-0.183,CHCGILDTO6Y
MA6813400180,h_OCHCTP,13-L1-10,2019-02-04 15:45:00.0,BerPreFecMax,0.00388,CHCGILDTO6Y
MA6813400180,h_OCHCTP,13-L1-10,2019-02-04 15:45:00.0,PmdMin,0.584,CHCGILDTO6Y
MA6813400180,h_OCHCTP,13-L1-10,2019-02-04 15:45:00.0,SoPmdAve,3843.79,CHCGILDTO6Y
